moyS, moyE, moyI, moyR
0.999,0.0,0.001,0.0
0.99855,4.5E-4,5.5E-4,4.5E-4
0.99825,3.0E-4,6.5E-4,5.5E-4
0.99765,6.0E-4,7.0E-4,7.5E-4
0.9967,9.5E-4,9.5E-4,8.5E-4
0.9958,9.0E-4,0.0016,8.5E-4
0.99375,0.00205,0.00235,0.00105
0.9912,0.00255,0.0031,0.0015
0.98765,0.00355,0.00435,0.00205
0.9832,0.00445,0.00515,0.00305
0.97715,0.00605,0.0079,0.00385
0.9686,0.00855,0.0107,0.0049
0.9563,0.01235,0.01495,0.0067
0.9386,0.0177,0.02265,0.00875
0.9152,0.0235,0.03075,0.01285
0.8837,0.03155,0.04295,0.01795
0.8455,0.0382,0.0576,0.02575
0.7956,0.0501,0.0748,0.03595
0.7339,0.0619,0.09715,0.05055
0.66565,0.06845,0.12605,0.0678
0.5913,0.07455,0.1559,0.0916
0.5076,0.0839,0.1895,0.1181
0.42355,0.0844,0.2287,0.15035
0.3466,0.07745,0.2647,0.18865
0.2758,0.0715,0.29435,0.2318
0.21595,0.06095,0.3171,0.27785
0.16845,0.0488,0.33315,0.32665
0.1309,0.0385,0.3417,0.3769
0.1006,0.0312,0.3393,0.4301
0.07755,0.02475,0.3272,0.48335
0.0622,0.01695,0.31485,0.53035
0.0504,0.0142,0.2976,0.57595
0.04225,0.0104,0.2813,0.6157
0.0362,0.0076,0.26045,0.6548
0.0314,0.0075,0.23845,0.6891
0.0288,0.0054,0.21605,0.72295
0.02725,0.00425,0.19455,0.7526
0.0256,0.0043,0.17465,0.77845
0.0252,0.0035,0.15685,0.80005
0.0271,0.0021,0.14125,0.81845
0.028,0.00165,0.12255,0.83855
0.02845,0.00255,0.11005,0.8514
0.0291,0.0026,0.09975,0.86255
0.0296,0.00235,0.08965,0.87335
0.0314,0.0022,0.079,0.88235
0.03235,0.00205,0.07045,0.8906
0.0339,0.00185,0.0639,0.89695
0.03515,0.00225,0.05715,0.9027
0.0371,0.0015,0.05055,0.9079
0.03965,0.00175,0.0454,0.9104
0.04245,0.00115,0.04055,0.91335
0.0443,0.00135,0.0361,0.916
0.0465,0.0012,0.0323,0.9179
0.0502,0.00105,0.02875,0.91795
0.05255,0.001,0.02565,0.91895
0.0548,0.0015,0.0224,0.91965
0.0574,0.0012,0.02025,0.9192
0.0602,6.5E-4,0.01855,0.91885
0.0627,6.5E-4,0.0158,0.91915
0.06505,7.5E-4,0.01385,0.9189
0.06855,7.5E-4,0.01285,0.9168
0.0714,7.0E-4,0.01145,0.91545
0.07425,6.0E-4,0.01075,0.91355
0.07745,5.5E-4,0.01005,0.91115
0.08055,4.0E-4,0.00895,0.9093
0.08335,7.0E-4,0.008,0.9072
0.0869,3.0E-4,0.0072,0.90465
0.09015,3.0E-4,0.0066,0.9021
0.0931,4.0E-4,0.0057,0.90015
0.09575,3.5E-4,0.0052,0.89805
0.09815,2.5E-4,0.00485,0.89615
0.1,7.0E-4,0.0046,0.8943
0.102,3.0E-4,0.00445,0.8927
0.10405,4.5E-4,0.00365,0.89135
0.1066,1.5E-4,0.0034,0.88925
0.10935,2.5E-4,0.0031,0.88675
0.1121,1.5E-4,0.00295,0.8842
0.1142,2.0E-4,0.00305,0.88215
0.11645,4.5E-4,0.00295,0.87995
0.1194,3.0E-4,0.00275,0.87725
0.12225,4.0E-4,0.00255,0.8744
0.1247,3.5E-4,0.0027,0.872
0.12635,5.0E-4,0.0025,0.8703
0.129,2.5E-4,0.0026,0.86765
0.13155,1.5E-4,0.0024,0.8654
0.1337,2.5E-4,0.0021,0.8635
0.13625,2.0E-4,0.00195,0.8611
0.1383,5.5E-4,0.002,0.85875
0.14095,1.0E-4,0.00175,0.85655
0.14275,5.0E-5,0.0015,0.85515
0.1456,1.5E-4,0.00145,0.85235
0.1483,1.5E-4,0.0014,0.84975
0.15015,2.0E-4,0.00135,0.8479
0.1524,2.0E-4,0.00105,0.84595
0.1549,5.0E-5,0.00105,0.84365
0.1572,2.0E-4,0.00105,0.84125
0.15985,1.0E-4,9.5E-4,0.8389
0.1622,1.0E-4,0.0011,0.8365
0.1642,1.5E-4,0.00115,0.83435
0.1662,1.5E-4,0.00105,0.8324
0.16855,2.0E-4,0.001,0.83
0.17125,2.0E-4,0.001,0.82725
0.17305,1.0E-4,0.001,0.8254
0.17505,1.0E-4,9.0E-4,0.8235
0.1771,2.0E-4,9.0E-4,0.82145
0.1791,2.0E-4,8.0E-4,0.81945
0.1808,3.0E-4,9.5E-4,0.81755
0.1819,1.5E-4,8.5E-4,0.8166
0.18455,2.0E-4,9.5E-4,0.8139
0.1866,5.0E-5,0.0011,0.8119
0.18915,0.0,0.00125,0.80945
0.1905,2.5E-4,0.0011,0.80805
0.1922,2.5E-4,0.0012,0.80615
0.1947,2.0E-4,0.0013,0.80355
0.19625,3.0E-4,0.0012,0.802
0.19855,2.5E-4,0.00135,0.79965
0.20085,3.5E-4,0.00115,0.7973
0.20335,4.0E-4,0.00135,0.79445
0.20525,2.0E-4,0.0016,0.79255
0.2073,1.0E-4,0.0015,0.79075
0.20905,2.5E-4,0.00135,0.78905
0.2107,3.5E-4,0.00125,0.78755
0.21225,2.0E-4,0.00125,0.786
0.21455,2.5E-4,0.0011,0.78375
0.21685,2.0E-4,0.00115,0.78135
0.21885,3.5E-4,0.00135,0.77915
0.2206,3.5E-4,0.00125,0.7774
0.22225,3.0E-4,0.00115,0.7758
0.2237,2.5E-4,0.0013,0.7742
0.2255,2.5E-4,0.00135,0.77235
0.2271,2.0E-4,0.0013,0.77075
0.22905,3.5E-4,0.0016,0.7685
0.231,5.5E-4,0.00175,0.76635
0.2325,2.0E-4,0.0016,0.7651
0.23405,5.5E-4,0.0016,0.76325
0.23615,2.5E-4,0.0016,0.7612
0.2385,5.0E-5,0.00195,0.75895
0.2401,6.0E-4,0.00185,0.7571
0.2418,4.0E-4,0.002,0.75535
0.2438,3.5E-4,0.00195,0.75345
0.2456,3.5E-4,0.002,0.7516
0.24745,5.5E-4,0.00195,0.74955
0.2492,4.5E-4,0.00235,0.7474
0.2512,3.5E-4,0.00225,0.7455
0.25355,6.5E-4,0.0022,0.7429
0.25535,5.0E-4,0.0026,0.74075
0.25685,8.0E-4,0.0032,0.7385
0.25905,6.5E-4,0.0032,0.73615
0.26055,5.0E-4,0.00305,0.73455
0.26125,0.0011,0.00355,0.733
0.2624,9.5E-4,0.0042,0.7312
0.2641,7.5E-4,0.0046,0.7293
0.2652,9.0E-4,0.00485,0.72785
0.2662,0.00105,0.00405,0.72705
0.26695,0.00125,0.0044,0.7259
0.268,0.00105,0.0048,0.7246
0.269,0.00145,0.0052,0.723
0.26995,7.5E-4,0.00505,0.72215
0.27035,0.0011,0.00555,0.72115
0.2716,7.5E-4,0.0055,0.72015
0.2728,0.00115,0.0057,0.71855
0.27315,0.0016,0.0061,0.71725
0.2741,0.00125,0.00625,0.7162
0.27535,0.0012,0.00645,0.71485
0.27635,0.00155,0.00675,0.7132
0.2773,0.00155,0.0071,0.7117
0.2785,0.0015,0.0071,0.7103
0.27915,0.00105,0.0076,0.7094
0.27915,0.0019,0.0077,0.70895
0.2794,0.0023,0.00785,0.7078
0.27965,0.00175,0.00875,0.707
0.2797,0.00205,0.00935,0.7062
0.2796,0.002,0.0096,0.7058
0.27985,0.0019,0.0095,0.7055
0.27925,0.0031,0.01045,0.70405
0.27835,0.00265,0.0118,0.7039
0.27755,0.00265,0.01215,0.70405
0.2769,0.00255,0.0128,0.704
0.27635,0.0027,0.0136,0.7035
0.2754,0.0031,0.0139,0.70345
0.27515,0.00255,0.01445,0.7034
0.2747,0.00275,0.0149,0.7032
0.27385,0.00295,0.015,0.7037
0.27295,0.0034,0.0152,0.70325
0.2714,0.0035,0.0154,0.7043
0.2712,0.0034,0.0157,0.70355
0.2705,0.0031,0.01625,0.704
0.269,0.00345,0.0168,0.70485
0.2679,0.0033,0.01765,0.70515
0.2666,0.00365,0.0174,0.70605
0.26545,0.0036,0.01815,0.7065
0.2638,0.00345,0.01905,0.70755
0.2616,0.0046,0.01935,0.7083
0.26025,0.0036,0.0195,0.7098
0.25865,0.00415,0.02015,0.71045
0.25645,0.005,0.0208,0.7112
0.25515,0.00405,0.02265,0.71115
0.25305,0.0046,0.02335,0.7118
0.25175,0.00395,0.0239,0.71265
0.24975,0.00475,0.0246,0.7134
0.2478,0.00455,0.02525,0.715
0.2456,0.005,0.02685,0.71535
0.243,0.0055,0.0269,0.71725
0.24105,0.00485,0.02705,0.7187
0.2392,0.0046,0.02625,0.72115
0.2365,0.0054,0.02745,0.7227
0.23375,0.0054,0.0282,0.72395
0.22965,0.0063,0.028,0.7267
0.2281,0.00485,0.0296,0.7277
0.22605,0.00545,0.0306,0.72825
0.2235,0.00515,0.0315,0.73035
0.22105,0.00545,0.031,0.73295
0.21765,0.00615,0.0312,0.73545
0.21455,0.0057,0.0321,0.73795
0.2116,0.0061,0.03315,0.7394
0.20915,0.00555,0.03445,0.7416
0.20715,0.00455,0.03345,0.7449
0.2059,0.00415,0.033,0.74775
0.20445,0.00525,0.03365,0.74795
0.2032,0.005,0.0322,0.7504
0.20065,0.00585,0.0327,0.75185
0.1993,0.00455,0.0329,0.7533
0.1982,0.00495,0.03265,0.7547
0.19665,0.00535,0.03205,0.75655
0.1942,0.0053,0.03155,0.75955
0.19255,0.0051,0.03155,0.76175
0.1912,0.0043,0.03015,0.76445
0.19035,0.0042,0.03035,0.7659
0.1901,0.00395,0.0298,0.7675
0.1897,0.00405,0.02965,0.76845
0.18915,0.0042,0.02915,0.77035
0.18815,0.0047,0.02875,0.77135
0.1871,0.00425,0.0289,0.7722
0.1851,0.00545,0.0282,0.77365
0.18485,0.0041,0.0282,0.7748
0.18395,0.0038,0.02795,0.776
0.18355,0.00395,0.0276,0.77695
0.18445,0.00365,0.02825,0.7765
0.18255,0.0049,0.0275,0.7781
0.1828,0.0041,0.02645,0.7787
0.18215,0.00425,0.0274,0.77895
0.1825,0.00365,0.02765,0.77915
0.1823,0.00445,0.02695,0.77965
0.18205,0.0042,0.02595,0.78055
0.1821,0.00375,0.0257,0.78115
0.18195,0.0039,0.02555,0.7815
0.1819,0.00425,0.02545,0.7815
0.182,0.00375,0.02595,0.78155
0.18285,0.0039,0.02565,0.7807
0.1825,0.00455,0.02655,0.78005
0.1816,0.0047,0.026,0.7806
0.1813,0.0039,0.0262,0.7813
0.1812,0.00395,0.02585,0.78175
0.1812,0.0039,0.02545,0.78235
0.18,0.0047,0.02525,0.78375
0.181,0.0034,0.025,0.78405
0.18,0.00395,0.025,0.78495
0.18015,0.00365,0.02485,0.785
0.1805,0.0033,0.024,0.7852
0.1809,0.0038,0.02405,0.78515
0.1821,0.0031,0.0232,0.78515
0.18375,0.0027,0.0233,0.78415
0.18395,0.0039,0.02295,0.7834
0.18425,0.00415,0.02305,0.78295
0.18505,0.0036,0.02265,0.78275
0.18595,0.0034,0.02335,0.78195
0.18765,0.0031,0.0225,0.78135
0.18865,0.0032,0.0224,0.78085
0.189,0.00345,0.02125,0.78075
0.1906,0.0028,0.02055,0.7807
0.1918,0.00295,0.0202,0.7802
0.19345,0.0029,0.02025,0.7791
0.1947,0.00305,0.0197,0.77805
0.1959,0.0023,0.01965,0.7777
0.1966,0.0033,0.0194,0.77655
0.1973,0.003,0.01905,0.77635
0.19925,0.0024,0.0181,0.7753
0.19985,0.00325,0.01825,0.7742
0.20155,0.00285,0.01765,0.7729
0.2035,0.00235,0.0179,0.77115
0.20535,0.00325,0.0177,0.7688
0.2063,0.0031,0.0181,0.7672
0.2068,0.00275,0.0183,0.76705
0.2082,0.00255,0.0178,0.76645
0.2099,0.0024,0.0181,0.7651
0.21115,0.0027,0.0183,0.7636
0.2116,0.00415,0.0192,0.7615
0.21275,0.0031,0.0185,0.7608
0.21355,0.003,0.01835,0.76015
0.2153,0.00305,0.01825,0.7582
0.21585,0.0035,0.0182,0.7572
0.21695,0.0032,0.01865,0.7555
0.2175,0.0035,0.0192,0.7539
0.21845,0.00295,0.01985,0.75315
0.21835,0.0044,0.0201,0.75145
0.21875,0.00425,0.0215,0.7496
0.21905,0.0037,0.0225,0.7486
0.21935,0.00355,0.0225,0.7486
0.2197,0.0041,0.022,0.74785
0.21995,0.00435,0.0224,0.7467
0.2202,0.00415,0.0227,0.746
0.2202,0.00425,0.0229,0.74545
0.22065,0.00415,0.0232,0.7446
0.22105,0.0036,0.0231,0.74455
0.22125,0.0039,0.0231,0.74465
0.2212,0.00405,0.02285,0.7447
0.22115,0.0047,0.02355,0.7433
0.22085,0.00465,0.0241,0.7432
0.22035,0.00405,0.0233,0.744
0.2195,0.0047,0.024,0.74405
0.2198,0.00375,0.02525,0.74375
0.219,0.0047,0.0249,0.7441
0.21915,0.00455,0.02515,0.7437
0.21945,0.004,0.02515,0.74355
0.22045,0.00375,0.0251,0.74255
0.2208,0.0043,0.02535,0.74205
0.2204,0.00435,0.0256,0.74205
0.22015,0.00455,0.02545,0.7422
0.22075,0.00415,0.0251,0.7421
0.2201,0.0043,0.02535,0.7428
0.2198,0.0046,0.02595,0.7423
0.21905,0.00445,0.0255,0.74275
0.2198,0.0037,0.0246,0.74335
0.2193,0.0044,0.02525,0.74365
0.2193,0.0045,0.02585,0.74285
0.2188,0.00475,0.0263,0.74295
0.2174,0.00555,0.026,0.74365
0.21755,0.0042,0.0272,0.74315
0.2182,0.0041,0.0267,0.74305
0.2191,0.00455,0.02665,0.74205
0.2184,0.0055,0.0271,0.74135
0.21715,0.00495,0.0277,0.742
0.2165,0.005,0.0287,0.74175
0.2162,0.0055,0.02885,0.74115
0.2177,0.00335,0.0292,0.7409
0.2171,0.0052,0.0278,0.74205
0.2168,0.00505,0.0283,0.7416
0.217,0.00375,0.02845,0.7425
0.21725,0.0043,0.0283,0.7423
0.21875,0.0039,0.02825,0.74105
0.21895,0.0041,0.02855,0.7409
0.21825,0.0047,0.0279,0.7418
0.2183,0.0043,0.02785,0.74155
0.21795,0.00525,0.02825,0.74095
0.2177,0.005,0.0285,0.74095
0.21735,0.0048,0.029,0.7409
0.2157,0.00545,0.02895,0.74185
0.2145,0.0057,0.02905,0.74215
0.21385,0.00485,0.0307,0.7421
0.21295,0.0054,0.0322,0.7415
0.2132,0.00525,0.032,0.74065
0.213,0.0049,0.0326,0.74125
0.21195,0.0057,0.03155,0.74185
0.21085,0.00595,0.0321,0.7421
0.20975,0.0057,0.03165,0.7435
0.208,0.0046,0.0321,0.74485
0.2064,0.00585,0.03305,0.745
0.20405,0.00625,0.03305,0.7463
0.2017,0.0071,0.0356,0.7461
0.20005,0.0057,0.03685,0.74785
0.19805,0.00635,0.03575,0.74985
0.1967,0.00595,0.0364,0.751
0.19495,0.0061,0.03565,0.75345
0.19365,0.00575,0.0357,0.7546
0.19245,0.0053,0.03585,0.7562
0.1912,0.00585,0.0354,0.7582
0.19055,0.0057,0.0354,0.75885
0.19015,0.00485,0.03515,0.76
0.1896,0.00575,0.0351,0.76085
0.18895,0.0054,0.035,0.76155
0.1887,0.005,0.03415,0.7629
0.18685,0.0054,0.0338,0.76535
0.18875,0.00395,0.03465,0.76425
0.18875,0.0043,0.03435,0.76525
0.18905,0.004,0.0323,0.76685
0.1884,0.00485,0.03105,0.76765
0.18875,0.0049,0.0317,0.7666
0.18875,0.00535,0.03095,0.76635
0.1888,0.0051,0.03,0.7672
0.18795,0.00515,0.03115,0.7676
0.1888,0.0049,0.0308,0.76745
0.18855,0.0043,0.0307,0.76845
0.18845,0.00465,0.0301,0.769
0.1886,0.00505,0.03005,0.7681
0.18995,0.0039,0.03025,0.76825
0.19055,0.00395,0.0294,0.76895
0.19035,0.00535,0.02835,0.76835
0.1915,0.00365,0.0276,0.76855
0.1915,0.0045,0.02775,0.76825
0.19265,0.0038,0.02815,0.7677
0.1926,0.0043,0.02755,0.76815
0.1928,0.00445,0.02845,0.7674
0.19335,0.0044,0.0283,0.76695
0.19375,0.00425,0.02795,0.7669
0.1946,0.00445,0.0275,0.7659
0.19565,0.00405,0.0291,0.76445
0.1965,0.00405,0.02835,0.7643
0.19805,0.0034,0.027,0.76465
0.1997,0.0029,0.02625,0.76475
0.20025,0.00435,0.02585,0.76355
0.2008,0.0042,0.0262,0.7621
0.2005,0.0046,0.02635,0.76175
0.2023,0.0036,0.02585,0.76075
0.20305,0.00315,0.02545,0.7613
0.20465,0.00355,0.02555,0.76015
0.2043,0.0051,0.02475,0.75975
0.20495,0.00405,0.02555,0.7585
0.20575,0.0045,0.02525,0.7575
0.2054,0.0051,0.02505,0.75715
0.20445,0.00485,0.0253,0.75725
0.20405,0.0049,0.0256,0.75705
0.20405,0.00495,0.0266,0.7558
0.2034,0.00425,0.0272,0.75665
0.203,0.00505,0.0264,0.75705
0.20405,0.0041,0.02695,0.7562
0.2034,0.0048,0.0273,0.7564
0.20325,0.0044,0.0266,0.75715
0.2012,0.0052,0.02665,0.75845
0.20095,0.00465,0.028,0.75855
0.20135,0.00435,0.02805,0.7584
0.2019,0.00435,0.0276,0.75835
0.202,0.00455,0.0271,0.75825
0.20095,0.00545,0.028,0.7579
0.2019,0.00395,0.0283,0.75725
0.20195,0.00495,0.0287,0.75675
0.2017,0.005,0.02885,0.75615
0.20105,0.0056,0.02895,0.7567
0.2017,0.00475,0.0286,0.75725
0.2009,0.00455,0.02805,0.75875
0.2011,0.00425,0.028,0.75865
0.2007,0.0041,0.02825,0.7591
0.2005,0.00465,0.0282,0.7591
0.1998,0.0053,0.02845,0.7586
0.1991,0.00525,0.02855,0.75865
0.1999,0.00425,0.02945,0.75835
0.1992,0.0051,0.0284,0.7592
0.2008,0.00325,0.0282,0.7587
0.20015,0.0048,0.0275,0.75965
0.2008,0.0042,0.0271,0.7596
0.2005,0.0043,0.02745,0.7601
0.2005,0.0039,0.0265,0.76105
0.20145,0.0044,0.02685,0.76025
0.20165,0.0048,0.02595,0.76
0.20115,0.0048,0.0264,0.7596
0.20265,0.00425,0.02675,0.758
0.20255,0.00445,0.02635,0.75885
0.20255,0.0042,0.02645,0.7594
0.20385,0.00385,0.0264,0.75875
0.2047,0.0041,0.0261,0.75815
0.20415,0.0048,0.02635,0.758
0.20615,0.0033,0.0265,0.7568
0.2065,0.00465,0.0259,0.75605
0.20615,0.0047,0.02625,0.7556
0.20655,0.00415,0.0263,0.75545
0.20715,0.0042,0.02545,0.7554
0.2088,0.00385,0.02515,0.7544
0.2089,0.00425,0.0244,0.75475
0.20875,0.0042,0.025,0.75435
0.20845,0.00435,0.0254,0.7541
0.20835,0.0044,0.0261,0.75355
0.2084,0.00445,0.02615,0.7533
0.2086,0.00415,0.0266,0.75295
0.20935,0.00405,0.0262,0.75305
0.2092,0.0052,0.0271,0.75165
0.2102,0.0037,0.02675,0.7515
0.2117,0.00385,0.0257,0.7511
0.2119,0.0046,0.0265,0.75005
0.2105,0.0052,0.02665,0.7503
0.2102,0.0042,0.02735,0.75085
0.20895,0.0051,0.0277,0.751
0.2086,0.0049,0.02795,0.7507
0.2091,0.00465,0.0284,0.7498
0.20885,0.00505,0.0297,0.7489
0.2085,0.00515,0.029,0.7487
0.2083,0.0057,0.03,0.74755
0.2078,0.0052,0.02965,0.748
0.2078,0.0048,0.02995,0.7484
0.2065,0.00555,0.03005,0.74905
0.20455,0.00615,0.03085,0.75005
0.20345,0.005,0.0306,0.7515
0.20355,0.00485,0.03055,0.7516
0.203,0.00525,0.0309,0.7521
0.20335,0.00485,0.031,0.75185
0.20365,0.0051,0.0305,0.7516
0.2037,0.0045,0.0302,0.752
0.2035,0.00545,0.03,0.75215
0.2018,0.006,0.0306,0.75255
0.2018,0.00495,0.03085,0.7525
0.20055,0.00595,0.03205,0.75205
0.20105,0.00465,0.0319,0.75225
0.2008,0.0053,0.0322,0.75265
0.20065,0.0049,0.03265,0.7532
0.19975,0.00515,0.03285,0.75405
0.19945,0.00545,0.0332,0.7535
0.1985,0.00505,0.0322,0.75525
0.19795,0.00515,0.0328,0.75515
0.1986,0.0049,0.0327,0.755
0.1984,0.00515,0.03195,0.75565
0.19795,0.00495,0.0322,0.7559
0.19895,0.004,0.0319,0.7563
0.199,0.0043,0.03165,0.75705
0.19845,0.0053,0.03165,0.7567
0.19865,0.00485,0.03195,0.75655
0.19805,0.0052,0.03185,0.75695
0.1977,0.005,0.0326,0.75715
0.19855,0.00475,0.03155,0.7569
0.19835,0.00415,0.0315,0.7579
0.19685,0.0059,0.03115,0.75845
0.1966,0.0056,0.03125,0.75815
0.1964,0.0053,0.03195,0.75765
0.19595,0.00555,0.0324,0.7574
0.1939,0.0061,0.03245,0.759
0.19305,0.0056,0.0328,0.7595
0.1931,0.00495,0.0327,0.7599
0.19345,0.00425,0.0324,0.76065
0.19455,0.0044,0.0323,0.7595
0.1937,0.00575,0.03255,0.75975
0.19325,0.00485,0.0335,0.7605
0.19335,0.0049,0.0317,0.76135
0.19395,0.0041,0.031,0.76245
0.1938,0.0046,0.0308,0.76295
0.19385,0.00475,0.03155,0.7625
0.19395,0.00465,0.03095,0.7625
0.19325,0.00565,0.03105,0.7621
0.1934,0.0052,0.03115,0.7618
0.1916,0.0062,0.0321,0.7615
0.1903,0.00475,0.03185,0.76395
0.1906,0.0048,0.0305,0.7651
0.19115,0.0044,0.0298,0.76555
0.19145,0.00405,0.0301,0.76625
0.1914,0.0048,0.03,0.76605
0.1924,0.0043,0.02975,0.7658
0.19255,0.0044,0.0299,0.7658
0.1938,0.004,0.02905,0.7661
0.19345,0.00485,0.0294,0.76565
0.1943,0.00435,0.0287,0.765
0.1943,0.00435,0.0292,0.7641
0.19575,0.0036,0.02825,0.76435
0.1958,0.005,0.0283,0.76385
0.1962,0.00515,0.02865,0.76235
0.19615,0.005,0.0283,0.7627
0.1968,0.00465,0.0296,0.7611
0.1976,0.00405,0.02945,0.7607
0.19835,0.00435,0.0289,0.76095
0.19875,0.00475,0.02865,0.7604
0.1997,0.0049,0.02875,0.7586
0.1991,0.005,0.02845,0.7587
0.1999,0.0046,0.0282,0.75815
0.2,0.005,0.02865,0.75695
0.2007,0.00435,0.02995,0.75595
0.19925,0.00525,0.03045,0.7571
0.19925,0.0046,0.0306,0.75745
0.2,0.00465,0.03005,0.75675
0.19995,0.005,0.02975,0.75645
0.2022,0.00365,0.03015,0.7555
0.2022,0.0049,0.0297,0.755
0.201,0.0051,0.0295,0.75615
0.2008,0.00445,0.03015,0.75675
0.2006,0.0044,0.02955,0.7577
0.2004,0.005,0.02965,0.75725
0.2,0.00505,0.0298,0.7572
0.19965,0.00485,0.03025,0.75685
0.19915,0.0048,0.0299,0.7575
0.19815,0.00505,0.0305,0.75785
0.19835,0.00505,0.0303,0.7575
0.1991,0.00445,0.02995,0.7574
0.1993,0.0046,0.02985,0.7571
0.2008,0.00465,0.02885,0.75615
0.20035,0.00535,0.02965,0.75595
0.2004,0.00495,0.0302,0.75565
0.19975,0.0054,0.0309,0.7553
0.1983,0.00615,0.0321,0.75495
0.1958,0.00625,0.0325,0.756
0.195,0.00515,0.0323,0.7568
0.19375,0.00585,0.0326,0.7575
0.1928,0.00575,0.03325,0.7582
0.192,0.00505,0.03315,0.75965
0.1919,0.005,0.0338,0.7596
0.19205,0.00505,0.03455,0.7592
0.1918,0.00515,0.0348,0.7601
0.1909,0.0049,0.03525,0.76055
0.1903,0.00525,0.0352,0.7608
0.19005,0.00535,0.03495,0.7615
0.18965,0.00545,0.03445,0.7621
0.1891,0.00505,0.034,0.76365
0.18845,0.00555,0.0342,0.76395
0.1891,0.00465,0.03315,0.76445
0.1881,0.0054,0.03415,0.76405
0.1885,0.00505,0.03495,0.7633
0.18905,0.0053,0.0336,0.76295
0.18925,0.00475,0.03415,0.7626
0.1903,0.00455,0.0349,0.7622
0.19025,0.0052,0.03435,0.76245
0.19,0.00495,0.03315,0.7634
0.19085,0.00485,0.03295,0.7625
0.1914,0.00465,0.0325,0.76325
0.1921,0.0046,0.0317,0.7631
0.19105,0.00555,0.03175,0.76375
0.1903,0.00505,0.0315,0.76485
0.191,0.00455,0.032,0.7646
0.1921,0.0041,0.03115,0.7644
0.1913,0.00515,0.0307,0.76515
0.1911,0.00455,0.02945,0.7663
0.19055,0.0048,0.02845,0.76715
0.1909,0.00435,0.02915,0.76665
0.1931,0.00345,0.02765,0.76615
0.19305,0.00475,0.02715,0.76615
0.19295,0.0043,0.02795,0.7658
0.19285,0.00455,0.02715,0.7668
0.1946,0.0035,0.02745,0.7659
0.1959,0.00355,0.02735,0.76595
0.1973,0.0039,0.0257,0.76565
0.1984,0.0038,0.02565,0.76495
0.19965,0.0039,0.02515,0.76425
0.20015,0.00405,0.02495,0.76375
0.2004,0.00435,0.0244,0.76375
0.20125,0.00405,0.0245,0.76325
0.2015,0.0049,0.02555,0.7612
0.2025,0.0041,0.02565,0.76005
0.2042,0.00375,0.0264,0.75825
0.20415,0.00395,0.02525,0.7591
0.205,0.0044,0.0256,0.75805
0.20495,0.00455,0.02545,0.7581
0.205,0.0046,0.02665,0.75705
0.20625,0.00375,0.02655,0.7562
0.20745,0.00385,0.02645,0.75535
0.2071,0.0045,0.02635,0.75545
0.2085,0.00385,0.02675,0.7537
0.20905,0.0043,0.0259,0.7531
0.2107,0.00385,0.02595,0.7518
0.21085,0.00465,0.02705,0.7504
0.2096,0.00565,0.02775,0.74985
0.20905,0.0049,0.0271,0.7506
0.2093,0.0048,0.02825,0.74935
0.2098,0.004,0.0289,0.7488
0.2089,0.00525,0.0291,0.74925
0.20965,0.0046,0.02975,0.74865
0.2105,0.0051,0.029,0.7478
0.20835,0.00625,0.0298,0.74825
0.20925,0.0045,0.0305,0.7475
0.2097,0.005,0.03125,0.7465
0.2108,0.0043,0.02965,0.74685
0.2095,0.00535,0.0296,0.7477
0.21055,0.0049,0.02975,0.7465
0.21105,0.00495,0.0288,0.74645
0.21115,0.00455,0.0288,0.7466
0.2104,0.00505,0.0288,0.7471
0.21045,0.00465,0.02965,0.74715
0.2104,0.0046,0.02945,0.74665
0.20945,0.0055,0.02985,0.7469
0.20845,0.0054,0.03115,0.74675
0.2083,0.0043,0.0307,0.7481
0.2091,0.00435,0.0303,0.74735
0.20995,0.0048,0.0304,0.7463
0.21045,0.00485,0.0303,0.7459
0.20945,0.0051,0.03105,0.74645
0.20865,0.0054,0.031,0.747
0.20905,0.00445,0.03115,0.74715
0.2087,0.00515,0.03155,0.74685
0.2079,0.00595,0.03185,0.7461
0.2089,0.0051,0.0315,0.74555
0.20775,0.00495,0.0309,0.74755
0.20815,0.0046,0.03175,0.7475
0.20885,0.0047,0.03145,0.7468
0.2092,0.00455,0.0309,0.7468
0.209,0.0049,0.02985,0.74775
0.20965,0.0047,0.03095,0.7467
0.2097,0.0045,0.03105,0.74655
0.20995,0.00485,0.0318,0.74595
0.2095,0.00515,0.0321,0.7461
0.2101,0.0049,0.03275,0.745
0.2096,0.0047,0.03235,0.7456
0.2082,0.00555,0.03195,0.747
0.2073,0.00525,0.03085,0.7484
0.2065,0.00565,0.0313,0.74835
0.2061,0.0055,0.03135,0.7481
0.20535,0.0058,0.03275,0.7477
0.20455,0.0054,0.0322,0.7491
0.2043,0.0055,0.03355,0.74835
0.2041,0.005,0.03345,0.74815
0.20355,0.0054,0.0328,0.7486
0.20205,0.00645,0.034,0.7484
0.20065,0.0058,0.0337,0.75005
0.19935,0.005,0.0341,0.7518
0.19905,0.00565,0.0346,0.75145
0.19825,0.0061,0.034,0.75195
0.19705,0.00625,0.0329,0.7539
0.197,0.0054,0.0327,0.75425
0.1968,0.00535,0.0333,0.75435
0.1965,0.0059,0.03405,0.75405
0.19495,0.006,0.0348,0.7549
0.19465,0.0051,0.03535,0.7553
0.19345,0.0052,0.035,0.75735
0.19275,0.00585,0.03405,0.7583
0.19215,0.00515,0.03315,0.75995
0.19155,0.0057,0.03315,0.76025
0.1915,0.0049,0.03325,0.76065
0.19155,0.0052,0.0325,0.76125
0.19215,0.0042,0.0317,0.76155
0.1916,0.00485,0.03145,0.76255
0.1919,0.0048,0.03225,0.7621
0.19115,0.0057,0.0318,0.76215
0.19215,0.0046,0.03175,0.7626
0.19235,0.0047,0.032,0.7619
0.19235,0.005,0.0319,0.76165
0.19165,0.0054,0.0325,0.76185
0.19205,0.00485,0.03215,0.76215
0.191,0.00525,0.0321,0.76285
0.19165,0.00445,0.03225,0.7627
0.1915,0.00475,0.03255,0.763
0.1913,0.0052,0.03255,0.7631
0.19145,0.0046,0.03175,0.76385
0.1913,0.0054,0.0322,0.7633
0.1908,0.0048,0.03225,0.7636
0.19035,0.005,0.03215,0.76385
0.19055,0.0044,0.03175,0.7648
0.19045,0.00495,0.0315,0.76535
0.19115,0.0042,0.0306,0.7659
0.1907,0.00505,0.0297,0.7663
0.1918,0.0037,0.0292,0.7665
0.19215,0.00405,0.02875,0.76695
0.193,0.0039,0.0282,0.76715
0.1926,0.00495,0.0274,0.76775
0.1929,0.00475,0.02785,0.76685
0.1942,0.0044,0.02785,0.76555
0.19345,0.00485,0.02865,0.766
0.19415,0.00425,0.02865,0.7661
0.19495,0.0041,0.0276,0.7659
0.19435,0.0043,0.0284,0.7661
0.19605,0.0028,0.02765,0.767
0.19665,0.00405,0.02645,0.76695
