moyS, moyE, moyI, moyR
0.999,0.0,0.001,0.0
0.99815,8.5E-4,7.5E-4,2.5E-4
0.99655,0.0016,0.00135,2.5E-4
0.9953,0.00125,0.00185,4.5E-4
0.9935,0.0018,0.0026,8.0E-4
0.991,0.0025,0.00325,0.00125
0.98765,0.00335,0.0042,0.0016
0.98295,0.0047,0.00635,0.00225
0.97595,0.007,0.00865,0.00355
0.9671,0.0089,0.01165,0.00495
0.9558,0.0113,0.0152,0.0077
0.9419,0.0139,0.02035,0.01025
0.9219,0.02,0.02605,0.01415
0.89545,0.0265,0.03755,0.0181
0.85965,0.03585,0.0494,0.0255
0.8162,0.0435,0.067,0.0344
0.7607,0.05565,0.0871,0.04705
0.6941,0.0667,0.11415,0.06125
0.6212,0.0733,0.14425,0.07975
0.5365,0.0848,0.1785,0.1028
0.45375,0.083,0.2168,0.1318
0.36985,0.0844,0.25205,0.16785
0.29465,0.0757,0.286,0.2094
0.23275,0.06245,0.3147,0.2537
0.18175,0.0518,0.33435,0.3024
0.14185,0.04145,0.3434,0.35415
0.10865,0.03445,0.3455,0.4078
0.0845,0.025,0.3376,0.46145
0.06785,0.01825,0.32375,0.51255
0.0546,0.0148,0.30665,0.5597
0.04535,0.01155,0.2873,0.6012
0.038,0.00945,0.2673,0.6399
0.0325,0.00795,0.24895,0.6736
0.0296,0.0053,0.2307,0.7054
0.0272,0.00475,0.2068,0.73765
0.0257,0.00455,0.18735,0.7634
0.0253,0.0036,0.16825,0.78725
0.0251,0.00325,0.1512,0.8082
0.02555,0.00305,0.13585,0.8254
0.02645,0.0027,0.12205,0.8405
0.02835,0.00225,0.1072,0.85455
0.0296,0.0023,0.09525,0.8663
0.0315,0.00175,0.08475,0.87625
0.0331,0.0016,0.07525,0.88515
0.03455,0.0016,0.06695,0.89315
0.03675,0.00135,0.0589,0.8997
0.04005,0.00135,0.05275,0.9033
0.04155,0.00145,0.0479,0.90665
0.04415,0.00205,0.04275,0.90835
0.0461,0.00145,0.03925,0.9106
0.0492,0.0011,0.03485,0.9124
0.05125,0.0015,0.03085,0.9139
0.0534,0.0013,0.0281,0.91455
0.05545,0.0011,0.02555,0.91535
0.0579,0.001,0.02305,0.91565
0.0607,9.0E-4,0.02005,0.91595
0.06445,7.0E-4,0.01855,0.91455
0.06695,0.0013,0.01655,0.9135
0.0702,8.5E-4,0.0149,0.9124
0.07225,7.5E-4,0.01315,0.9121
0.075,8.0E-4,0.01165,0.911
0.07745,7.5E-4,0.01055,0.9097
0.08035,6.5E-4,0.0097,0.9079
0.0833,4.0E-4,0.0093,0.90595
0.08575,5.5E-4,0.0085,0.9044
0.0883,8.5E-4,0.0079,0.90205
0.09105,6.0E-4,0.00705,0.9002
0.0949,3.0E-4,0.0068,0.89695
0.09785,4.0E-4,0.0059,0.89495
0.10085,3.0E-4,0.0053,0.89265
0.10355,3.5E-4,0.0048,0.89055
0.1068,4.5E-4,0.0047,0.8874
0.10945,3.0E-4,0.0044,0.8852
0.11255,2.0E-4,0.00355,0.88285
0.11545,3.5E-4,0.00355,0.88015
0.11795,2.5E-4,0.0034,0.87775
0.12005,5.0E-4,0.00335,0.87555
0.1227,2.5E-4,0.00285,0.87335
0.12475,3.0E-4,0.00285,0.8713
0.1278,2.0E-4,0.003,0.8683
0.13055,1.0E-4,0.0027,0.8659
0.13285,3.5E-4,0.00255,0.8637
0.1356,1.0E-4,0.0023,0.86125
0.1383,1.5E-4,0.0021,0.85875
0.14135,1.5E-4,0.00195,0.8559
0.14345,2.0E-4,0.00195,0.85395
0.14525,1.5E-4,0.00185,0.8524
0.14775,2.0E-4,0.0018,0.85
0.1506,2.0E-4,0.0018,0.84725
0.153,1.0E-4,0.0017,0.84505
0.15565,1.0E-4,0.0015,0.8427
0.1587,5.0E-5,0.0013,0.83985
0.16095,1.0E-4,0.00115,0.8377
0.163,1.0E-4,0.00115,0.83565
0.16565,0.0,0.00115,0.8331
0.16805,5.0E-5,0.00105,0.8308
0.1699,2.0E-4,0.001,0.82885
0.172,3.0E-4,0.0011,0.8265
0.17405,2.0E-4,0.00105,0.8245
0.17585,2.0E-4,0.00115,0.82255
0.17785,3.5E-4,0.001,0.82055
0.1805,0.0,0.001,0.8181
0.18305,1.0E-4,6.0E-4,0.8159
0.18575,5.0E-5,5.5E-4,0.8133
0.1883,5.0E-5,8.0E-4,0.8107
0.19015,1.5E-4,7.0E-4,0.80895
0.19295,1.0E-4,5.5E-4,0.8062
0.195,2.0E-4,6.5E-4,0.804
0.1968,2.5E-4,6.0E-4,0.8021
0.1998,0.0,6.5E-4,0.7992
0.20195,1.0E-4,6.0E-4,0.797
0.20445,1.0E-4,6.0E-4,0.7945
0.2066,5.0E-5,6.0E-4,0.7925
0.20865,5.0E-5,5.5E-4,0.7905
0.2111,5.0E-5,5.5E-4,0.78805
0.2132,2.0E-4,5.5E-4,0.78585
0.21565,1.0E-4,5.5E-4,0.78335
0.2179,5.0E-5,5.5E-4,0.7812
0.21955,1.0E-4,6.0E-4,0.7796
0.2217,1.0E-4,5.0E-4,0.77755
0.2245,1.0E-4,5.5E-4,0.77475
0.2268,1.5E-4,6.0E-4,0.77235
0.22865,1.0E-4,7.0E-4,0.7704
0.23085,1.0E-4,6.5E-4,0.7682
0.23325,0.0,4.5E-4,0.76605
0.23535,5.0E-5,5.5E-4,0.76395
0.2378,1.5E-4,5.5E-4,0.76145
0.23965,1.0E-4,5.0E-4,0.75965
0.24155,5.0E-5,5.0E-4,0.7578
0.2438,2.0E-4,6.0E-4,0.7554
0.2458,5.0E-5,6.5E-4,0.7534
0.2484,1.0E-4,6.0E-4,0.7508
0.25055,5.0E-5,6.0E-4,0.74875
0.2527,5.0E-5,6.0E-4,0.74655
0.25505,5.0E-5,5.5E-4,0.74425
0.25705,0.0,5.0E-4,0.7424
0.25945,0.0,4.0E-4,0.7401
0.26155,1.0E-4,3.0E-4,0.738
0.2637,0.0,2.5E-4,0.7359
0.266,0.0,3.0E-4,0.73365
0.2676,5.0E-5,3.5E-4,0.732
0.26955,1.0E-4,3.0E-4,0.73005
0.2716,0.0,3.5E-4,0.72805
0.274,0.0,2.0E-4,0.7258
0.27605,5.0E-5,2.0E-4,0.7237
0.27795,1.0E-4,1.0E-4,0.7218
0.2802,0.0,5.0E-5,0.7196
0.2821,5.0E-5,1.0E-4,0.71765
0.2838,5.0E-5,1.0E-4,0.7159
0.28605,0.0,1.0E-4,0.71365
0.28785,0.0,1.5E-4,0.7119
0.28995,0.0,1.0E-4,0.70985
0.29235,0.0,5.0E-5,0.70755
0.29485,0.0,5.0E-5,0.70505
0.2968,0.0,0.0,0.70315
0.29885,0.0,0.0,0.7011
0.3011,0.0,0.0,0.69885
0.3037,0.0,0.0,0.69625
0.30615,0.0,0.0,0.6938
0.3084,0.0,0.0,0.69155
0.31085,5.0E-5,5.0E-5,0.68905
0.31295,0.0,5.0E-5,0.68695
0.3146,0.0,5.0E-5,0.6853
0.3163,0.0,1.0E-4,0.6836
0.3183,0.0,1.0E-4,0.6816
0.32005,0.0,1.0E-4,0.67985
0.32145,0.0,5.0E-5,0.6785
0.32365,0.0,5.0E-5,0.6763
0.326,0.0,5.0E-5,0.67395
0.3281,0.0,5.0E-5,0.67185
0.3297,0.0,5.0E-5,0.67025
0.33165,0.0,5.0E-5,0.6683
0.33305,0.0,5.0E-5,0.6669
0.3351,0.0,5.0E-5,0.66485
0.33705,5.0E-5,5.0E-5,0.66285
0.3388,0.0,0.0,0.66115
0.3404,0.0,0.0,0.65955
0.3426,0.0,0.0,0.65735
0.34465,0.0,5.0E-5,0.6553
0.34655,0.0,5.0E-5,0.6534
0.3482,0.0,5.0E-5,0.65175
0.35,0.0,0.0,0.65
0.35235,0.0,0.0,0.64765
0.35435,0.0,0.0,0.64565
0.35645,0.0,0.0,0.64355
0.35825,0.0,0.0,0.64175
0.35965,0.0,0.0,0.64035
0.3612,0.0,0.0,0.6388
0.36315,0.0,0.0,0.63685
0.3653,0.0,0.0,0.6347
0.3669,0.0,0.0,0.6331
0.36825,0.0,0.0,0.63175
0.37,0.0,0.0,0.63
0.37165,0.0,0.0,0.62835
0.37305,0.0,0.0,0.62695
0.3753,0.0,0.0,0.6247
0.3771,0.0,0.0,0.6229
0.37905,0.0,0.0,0.62095
0.381,0.0,0.0,0.619
0.3824,0.0,0.0,0.6176
0.38425,0.0,0.0,0.61575
0.3864,0.0,0.0,0.6136
0.38815,0.0,0.0,0.61185
0.39005,0.0,0.0,0.60995
0.3918,0.0,0.0,0.6082
0.39345,0.0,0.0,0.60655
0.3949,0.0,0.0,0.6051
0.39615,0.0,0.0,0.60385
0.39795,0.0,0.0,0.60205
0.3989,0.0,0.0,0.6011
0.40045,0.0,0.0,0.59955
0.4021,0.0,0.0,0.5979
0.404,0.0,0.0,0.596
0.4061,0.0,0.0,0.5939
0.40845,0.0,0.0,0.59155
0.4107,0.0,0.0,0.5893
0.41265,0.0,0.0,0.58735
0.4142,0.0,0.0,0.5858
0.4156,0.0,0.0,0.5844
0.41745,0.0,0.0,0.58255
0.41925,0.0,0.0,0.58075
0.4213,0.0,0.0,0.5787
0.4227,0.0,0.0,0.5773
0.4246,0.0,0.0,0.5754
0.42645,0.0,0.0,0.57355
0.42855,0.0,0.0,0.57145
0.43025,0.0,0.0,0.56975
0.43145,0.0,0.0,0.56855
0.4332,0.0,0.0,0.5668
0.43495,0.0,0.0,0.56505
0.43685,0.0,0.0,0.56315
0.4386,0.0,0.0,0.5614
0.4405,0.0,0.0,0.5595
0.44185,0.0,0.0,0.55815
0.4437,0.0,0.0,0.5563
0.44485,0.0,0.0,0.55515
0.44605,0.0,0.0,0.55395
0.4474,0.0,0.0,0.5526
0.4484,0.0,0.0,0.5516
0.4499,0.0,0.0,0.5501
0.45115,0.0,0.0,0.54885
0.4527,0.0,0.0,0.5473
0.45405,0.0,0.0,0.54595
0.45515,0.0,0.0,0.54485
0.45635,0.0,0.0,0.54365
0.4579,0.0,0.0,0.5421
0.4596,0.0,0.0,0.5404
0.4611,0.0,0.0,0.5389
0.46255,0.0,0.0,0.53745
0.46425,0.0,0.0,0.53575
0.46565,0.0,0.0,0.53435
0.4673,0.0,0.0,0.5327
0.4691,0.0,0.0,0.5309
0.4704,0.0,0.0,0.5296
0.47215,0.0,0.0,0.52785
0.474,0.0,0.0,0.526
0.475,0.0,0.0,0.525
0.47635,0.0,0.0,0.52365
0.47785,0.0,0.0,0.52215
0.479,0.0,0.0,0.521
0.48075,0.0,0.0,0.51925
0.482,0.0,0.0,0.518
0.4837,0.0,0.0,0.5163
0.4848,0.0,0.0,0.5152
0.486,0.0,0.0,0.514
0.48725,0.0,0.0,0.51275
0.48855,0.0,0.0,0.51145
0.49,0.0,0.0,0.51
0.49195,0.0,0.0,0.50805
0.493,0.0,0.0,0.507
0.49475,0.0,0.0,0.50525
0.49615,0.0,0.0,0.50385
0.49735,0.0,0.0,0.50265
0.49835,0.0,0.0,0.50165
0.5,0.0,0.0,0.5
0.5015,0.0,0.0,0.4985
0.5034,0.0,0.0,0.4966
0.50535,0.0,0.0,0.49465
0.50665,0.0,0.0,0.49335
0.50795,0.0,0.0,0.49205
0.5089,0.0,0.0,0.4911
0.5103,0.0,0.0,0.4897
0.5119,0.0,0.0,0.4881
0.51305,0.0,0.0,0.48695
0.5142,0.0,0.0,0.4858
0.5157,0.0,0.0,0.4843
0.51715,0.0,0.0,0.48285
0.5183,0.0,0.0,0.4817
0.51935,0.0,0.0,0.48065
0.5206,0.0,0.0,0.4794
0.5219,0.0,0.0,0.4781
0.5229,0.0,0.0,0.4771
0.52445,0.0,0.0,0.47555
0.5258,0.0,0.0,0.4742
0.52695,0.0,0.0,0.47305
0.52875,0.0,0.0,0.47125
0.5299,0.0,0.0,0.4701
0.53075,0.0,0.0,0.46925
0.5318,0.0,0.0,0.4682
0.5326,0.0,0.0,0.4674
0.53395,0.0,0.0,0.46605
0.53515,0.0,0.0,0.46485
0.537,0.0,0.0,0.463
0.53815,0.0,0.0,0.46185
0.53925,0.0,0.0,0.46075
0.54055,0.0,0.0,0.45945
0.54155,0.0,0.0,0.45845
0.5427,0.0,0.0,0.4573
0.54405,0.0,0.0,0.45595
0.5453,0.0,0.0,0.4547
0.5463,0.0,0.0,0.4537
0.54765,0.0,0.0,0.45235
0.5493,0.0,0.0,0.4507
0.5507,0.0,0.0,0.4493
0.5516,0.0,0.0,0.4484
0.5527,0.0,0.0,0.4473
0.5541,0.0,0.0,0.4459
0.5552,0.0,0.0,0.4448
0.5561,0.0,0.0,0.4439
0.5572,0.0,0.0,0.4428
0.55805,0.0,0.0,0.44195
0.55885,0.0,0.0,0.44115
0.55995,0.0,0.0,0.44005
0.561,0.0,0.0,0.439
0.5618,0.0,0.0,0.4382
0.5631,0.0,0.0,0.4369
0.5644,0.0,0.0,0.4356
0.5659,0.0,0.0,0.4341
0.5672,0.0,0.0,0.4328
0.56805,0.0,0.0,0.43195
0.5689,0.0,0.0,0.4311
0.5701,0.0,0.0,0.4299
0.57085,0.0,0.0,0.42915
0.57185,0.0,0.0,0.42815
0.57305,0.0,0.0,0.42695
0.57465,0.0,0.0,0.42535
0.57585,0.0,0.0,0.42415
0.5769,0.0,0.0,0.4231
0.57845,0.0,0.0,0.42155
0.57965,0.0,0.0,0.42035
0.581,0.0,0.0,0.419
0.5822,0.0,0.0,0.4178
0.5835,0.0,0.0,0.4165
0.58505,0.0,0.0,0.41495
0.5863,0.0,0.0,0.4137
0.5875,0.0,0.0,0.4125
0.5884,0.0,0.0,0.4116
0.58935,0.0,0.0,0.41065
0.5904,0.0,0.0,0.4096
0.5916,0.0,0.0,0.4084
0.59285,0.0,0.0,0.40715
0.59385,0.0,0.0,0.40615
0.59515,0.0,0.0,0.40485
0.5965,0.0,0.0,0.4035
0.59745,0.0,0.0,0.40255
0.5983,0.0,0.0,0.4017
0.5991,0.0,0.0,0.4009
0.6006,0.0,0.0,0.3994
0.6014,0.0,0.0,0.3986
0.60245,0.0,0.0,0.39755
0.60345,0.0,0.0,0.39655
0.60465,0.0,0.0,0.39535
0.60585,0.0,0.0,0.39415
0.60705,0.0,0.0,0.39295
0.60785,0.0,0.0,0.39215
0.6092,0.0,0.0,0.3908
0.6103,0.0,0.0,0.3897
0.611,0.0,0.0,0.389
0.6121,0.0,0.0,0.3879
0.6134,0.0,0.0,0.3866
0.61445,0.0,0.0,0.38555
0.6155,0.0,0.0,0.3845
0.61665,0.0,0.0,0.38335
0.61715,0.0,0.0,0.38285
0.61805,0.0,0.0,0.38195
0.61925,0.0,0.0,0.38075
0.62005,0.0,0.0,0.37995
0.6212,0.0,0.0,0.3788
0.6223,0.0,0.0,0.3777
0.62355,0.0,0.0,0.37645
0.62465,0.0,0.0,0.37535
0.62605,0.0,0.0,0.37395
0.6271,0.0,0.0,0.3729
0.628,0.0,0.0,0.372
0.62905,0.0,0.0,0.37095
0.6302,0.0,0.0,0.3698
0.6311,0.0,0.0,0.3689
0.63235,0.0,0.0,0.36765
0.63295,0.0,0.0,0.36705
0.6336,0.0,0.0,0.3664
0.63475,0.0,0.0,0.36525
0.63565,0.0,0.0,0.36435
0.63695,0.0,0.0,0.36305
0.6382,0.0,0.0,0.3618
0.63895,0.0,0.0,0.36105
0.63975,0.0,0.0,0.36025
0.64115,0.0,0.0,0.35885
0.6424,0.0,0.0,0.3576
0.6434,0.0,0.0,0.3566
0.64415,0.0,0.0,0.35585
0.64515,0.0,0.0,0.35485
0.6457,0.0,0.0,0.3543
0.6471,0.0,0.0,0.3529
0.6486,0.0,0.0,0.3514
0.64955,0.0,0.0,0.35045
0.6505,0.0,0.0,0.3495
0.65135,0.0,0.0,0.34865
0.65215,0.0,0.0,0.34785
0.6532,0.0,0.0,0.3468
0.6546,0.0,0.0,0.3454
0.6557,0.0,0.0,0.3443
0.6564,0.0,0.0,0.3436
0.65755,0.0,0.0,0.34245
0.6587,0.0,0.0,0.3413
0.6597,0.0,0.0,0.3403
0.6605,0.0,0.0,0.3395
0.66135,0.0,0.0,0.33865
0.66285,0.0,0.0,0.33715
0.66425,0.0,0.0,0.33575
0.66535,0.0,0.0,0.33465
0.66625,0.0,0.0,0.33375
0.667,0.0,0.0,0.333
0.6679,0.0,0.0,0.3321
0.66885,0.0,0.0,0.33115
0.6701,0.0,0.0,0.3299
0.67095,0.0,0.0,0.32905
0.6716,0.0,0.0,0.3284
0.67225,0.0,0.0,0.32775
0.67295,0.0,0.0,0.32705
0.67355,0.0,0.0,0.32645
0.6745,0.0,0.0,0.3255
0.67535,0.0,0.0,0.32465
0.67595,0.0,0.0,0.32405
0.6768,0.0,0.0,0.3232
0.6777,0.0,0.0,0.3223
0.67845,0.0,0.0,0.32155
0.67905,0.0,0.0,0.32095
0.68005,0.0,0.0,0.31995
0.6815,0.0,0.0,0.3185
0.682,0.0,0.0,0.318
0.68265,0.0,0.0,0.31735
0.6832,0.0,0.0,0.3168
0.6841,0.0,0.0,0.3159
0.68465,0.0,0.0,0.31535
0.68555,0.0,0.0,0.31445
0.68675,0.0,0.0,0.31325
0.68725,0.0,0.0,0.31275
0.688,0.0,0.0,0.312
0.6889,0.0,0.0,0.3111
0.6901,0.0,0.0,0.3099
0.691,0.0,0.0,0.309
0.69165,0.0,0.0,0.30835
0.69265,0.0,0.0,0.30735
0.69325,0.0,0.0,0.30675
0.69395,0.0,0.0,0.30605
0.69455,0.0,0.0,0.30545
0.69505,0.0,0.0,0.30495
0.69605,0.0,0.0,0.30395
0.69705,0.0,0.0,0.30295
0.69805,0.0,0.0,0.30195
0.69885,0.0,0.0,0.30115
0.7001,0.0,0.0,0.2999
0.7011,0.0,0.0,0.2989
0.70185,0.0,0.0,0.29815
0.70265,0.0,0.0,0.29735
0.70345,0.0,0.0,0.29655
0.7041,0.0,0.0,0.2959
0.70485,0.0,0.0,0.29515
0.70535,0.0,0.0,0.29465
0.7062,0.0,0.0,0.2938
0.7074,0.0,0.0,0.2926
0.7084,0.0,0.0,0.2916
0.70935,0.0,0.0,0.29065
0.7097,0.0,0.0,0.2903
0.7105,0.0,0.0,0.2895
0.7112,0.0,0.0,0.2888
0.7123,0.0,0.0,0.2877
0.71325,0.0,0.0,0.28675
0.71415,0.0,0.0,0.28585
0.7153,0.0,0.0,0.2847
0.7164,0.0,0.0,0.2836
0.7172,0.0,0.0,0.2828
0.718,0.0,0.0,0.282
0.71865,0.0,0.0,0.28135
0.71925,0.0,0.0,0.28075
0.7202,0.0,0.0,0.2798
0.7208,0.0,0.0,0.2792
0.7217,0.0,0.0,0.2783
0.7225,0.0,0.0,0.2775
0.72315,0.0,0.0,0.27685
0.7237,0.0,0.0,0.2763
0.72425,0.0,0.0,0.27575
0.72525,0.0,0.0,0.27475
0.72565,0.0,0.0,0.27435
0.7263,0.0,0.0,0.2737
0.72715,0.0,0.0,0.27285
0.7278,0.0,0.0,0.2722
0.72875,0.0,0.0,0.27125
0.72945,0.0,0.0,0.27055
0.7303,0.0,0.0,0.2697
0.73135,0.0,0.0,0.26865
0.73205,0.0,0.0,0.26795
0.7326,0.0,0.0,0.2674
0.733,0.0,0.0,0.267
0.7338,0.0,0.0,0.2662
0.7348,0.0,0.0,0.2652
0.73545,0.0,0.0,0.26455
0.7358,0.0,0.0,0.2642
0.7368,0.0,0.0,0.2632
0.73765,0.0,0.0,0.26235
0.7383,0.0,0.0,0.2617
0.73885,0.0,0.0,0.26115
0.7395,0.0,0.0,0.2605
0.74025,0.0,0.0,0.25975
0.74105,0.0,0.0,0.25895
0.74185,0.0,0.0,0.25815
0.7423,0.0,0.0,0.2577
0.7429,0.0,0.0,0.2571
0.7438,0.0,0.0,0.2562
0.7442,0.0,0.0,0.2558
0.74495,0.0,0.0,0.25505
0.74565,0.0,0.0,0.25435
0.74635,0.0,0.0,0.25365
0.74735,0.0,0.0,0.25265
0.7481,0.0,0.0,0.2519
0.7487,0.0,0.0,0.2513
0.74965,0.0,0.0,0.25035
0.75055,0.0,0.0,0.24945
0.7512,0.0,0.0,0.2488
0.7521,0.0,0.0,0.2479
0.753,0.0,0.0,0.247
0.75335,0.0,0.0,0.24665
0.75405,0.0,0.0,0.24595
0.75445,0.0,0.0,0.24555
0.75525,0.0,0.0,0.24475
0.7559,0.0,0.0,0.2441
0.75675,0.0,0.0,0.24325
0.75735,0.0,0.0,0.24265
0.75835,0.0,0.0,0.24165
0.7588,0.0,0.0,0.2412
0.7593,0.0,0.0,0.2407
0.75975,0.0,0.0,0.24025
0.76065,0.0,0.0,0.23935
0.7613,0.0,0.0,0.2387
0.76175,0.0,0.0,0.23825
0.76235,0.0,0.0,0.23765
0.7632,0.0,0.0,0.2368
0.76385,0.0,0.0,0.23615
0.76455,0.0,0.0,0.23545
0.7652,0.0,0.0,0.2348
0.7657,0.0,0.0,0.2343
0.76645,0.0,0.0,0.23355
0.7674,0.0,0.0,0.2326
0.76815,0.0,0.0,0.23185
0.7686,0.0,0.0,0.2314
0.76915,0.0,0.0,0.23085
0.7697,0.0,0.0,0.2303
0.77055,0.0,0.0,0.22945
0.7712,0.0,0.0,0.2288
0.77205,0.0,0.0,0.22795
0.7728,0.0,0.0,0.2272
0.7731,0.0,0.0,0.2269
0.7737,0.0,0.0,0.2263
0.7745,0.0,0.0,0.2255
0.77545,0.0,0.0,0.22455
0.7762,0.0,0.0,0.2238
0.7769,0.0,0.0,0.2231
0.77735,0.0,0.0,0.22265
0.778,0.0,0.0,0.222
0.7786,0.0,0.0,0.2214
0.77925,0.0,0.0,0.22075
0.77975,0.0,0.0,0.22025
0.78025,0.0,0.0,0.21975
0.78085,0.0,0.0,0.21915
0.7815,0.0,0.0,0.2185
0.7823,0.0,0.0,0.2177
0.7829,0.0,0.0,0.2171
0.7838,0.0,0.0,0.2162
0.78425,0.0,0.0,0.21575
0.78485,0.0,0.0,0.21515
0.7854,0.0,0.0,0.2146
0.7858,0.0,0.0,0.2142
0.78635,0.0,0.0,0.21365
0.787,0.0,0.0,0.213
0.78765,0.0,0.0,0.21235
0.7884,0.0,0.0,0.2116
0.7888,0.0,0.0,0.2112
0.78935,0.0,0.0,0.21065
0.78985,0.0,0.0,0.21015
0.7903,0.0,0.0,0.2097
0.79075,0.0,0.0,0.20925
0.79135,0.0,0.0,0.20865
0.7918,0.0,0.0,0.2082
0.7929,0.0,0.0,0.2071
0.7936,0.0,0.0,0.2064
0.7943,0.0,0.0,0.2057
0.7949,0.0,0.0,0.2051
0.79545,0.0,0.0,0.20455
0.79605,0.0,0.0,0.20395
0.7965,0.0,0.0,0.2035
0.7971,0.0,0.0,0.2029
0.79775,0.0,0.0,0.20225
0.79815,0.0,0.0,0.20185
0.7986,0.0,0.0,0.2014
0.79915,0.0,0.0,0.20085
0.7999,0.0,0.0,0.2001
0.8005,0.0,0.0,0.1995
0.8011,0.0,0.0,0.1989
0.80185,0.0,0.0,0.19815
0.80255,0.0,0.0,0.19745
0.80345,0.0,0.0,0.19655
0.8041,0.0,0.0,0.1959
0.8046,0.0,0.0,0.1954
0.8052,0.0,0.0,0.1948
0.80585,0.0,0.0,0.19415
0.80625,0.0,0.0,0.19375
0.80665,0.0,0.0,0.19335
0.80725,0.0,0.0,0.19275
0.80765,0.0,0.0,0.19235
0.80835,0.0,0.0,0.19165
0.80875,0.0,0.0,0.19125
0.8092,0.0,0.0,0.1908
0.80975,0.0,0.0,0.19025
0.8102,0.0,0.0,0.1898
0.8106,0.0,0.0,0.1894
0.81115,0.0,0.0,0.18885
0.8115,0.0,0.0,0.1885
0.81175,0.0,0.0,0.18825
0.8123,0.0,0.0,0.1877
0.81315,0.0,0.0,0.18685
0.81345,0.0,0.0,0.18655
0.81395,0.0,0.0,0.18605
0.8143,0.0,0.0,0.1857
0.81475,0.0,0.0,0.18525
0.8152,0.0,0.0,0.1848
0.8156,0.0,0.0,0.1844
0.81615,0.0,0.0,0.18385
0.8168,0.0,0.0,0.1832
0.81705,0.0,0.0,0.18295
0.8176,0.0,0.0,0.1824
0.818,0.0,0.0,0.182
0.8184,0.0,0.0,0.1816
0.81875,0.0,0.0,0.18125
0.8192,0.0,0.0,0.1808
0.8198,0.0,0.0,0.1802
0.82035,0.0,0.0,0.17965
0.82085,0.0,0.0,0.17915
0.8211,0.0,0.0,0.1789
0.82115,0.0,0.0,0.17885
0.8216,0.0,0.0,0.1784
0.8222,0.0,0.0,0.1778
0.82255,0.0,0.0,0.17745
0.82325,0.0,0.0,0.17675
0.82375,0.0,0.0,0.17625
0.82435,0.0,0.0,0.17565
0.82495,0.0,0.0,0.17505
0.82525,0.0,0.0,0.17475
0.8259,0.0,0.0,0.1741
0.8264,0.0,0.0,0.1736
0.82695,0.0,0.0,0.17305
0.82765,0.0,0.0,0.17235
0.8281,0.0,0.0,0.1719
0.8288,0.0,0.0,0.1712
0.829,0.0,0.0,0.171
0.82945,0.0,0.0,0.17055
0.8301,0.0,0.0,0.1699
0.83075,0.0,0.0,0.16925
0.83135,0.0,0.0,0.16865
0.83165,0.0,0.0,0.16835
0.83185,0.0,0.0,0.16815
0.8325,0.0,0.0,0.1675
0.8327,0.0,0.0,0.1673
0.83285,0.0,0.0,0.16715
0.8336,0.0,0.0,0.1664
0.8341,0.0,0.0,0.1659
0.83445,0.0,0.0,0.16555
0.83475,0.0,0.0,0.16525
0.83515,0.0,0.0,0.16485
0.8356,0.0,0.0,0.1644
0.8362,0.0,0.0,0.1638
0.837,0.0,0.0,0.163
0.8374,0.0,0.0,0.1626
0.83795,0.0,0.0,0.16205
0.83835,0.0,0.0,0.16165
0.8389,0.0,0.0,0.1611
0.8393,0.0,0.0,0.1607
0.83985,0.0,0.0,0.16015
0.84005,0.0,0.0,0.15995
0.84065,0.0,0.0,0.15935
0.84125,0.0,0.0,0.15875
0.8417,0.0,0.0,0.1583
0.84205,0.0,0.0,0.15795
0.84245,0.0,0.0,0.15755
0.8428,0.0,0.0,0.1572
0.8432,0.0,0.0,0.1568
0.8436,0.0,0.0,0.1564
0.84405,0.0,0.0,0.15595
0.84445,0.0,0.0,0.15555
0.84465,0.0,0.0,0.15535
0.84535,0.0,0.0,0.15465
0.8459,0.0,0.0,0.1541
0.84615,0.0,0.0,0.15385
0.8464,0.0,0.0,0.1536
0.8469,0.0,0.0,0.1531
0.84725,0.0,0.0,0.15275
0.8477,0.0,0.0,0.1523
0.8481,0.0,0.0,0.1519
0.84885,0.0,0.0,0.15115
0.84935,0.0,0.0,0.15065
0.84985,0.0,0.0,0.15015
0.85015,0.0,0.0,0.14985
0.8505,0.0,0.0,0.1495
0.85055,0.0,0.0,0.14945
0.8508,0.0,0.0,0.1492
0.8512,0.0,0.0,0.1488
0.85155,0.0,0.0,0.14845
0.852,0.0,0.0,0.148
0.8523,0.0,0.0,0.1477
0.8528,0.0,0.0,0.1472
0.85305,0.0,0.0,0.14695
0.85345,0.0,0.0,0.14655
0.85385,0.0,0.0,0.14615
0.85445,0.0,0.0,0.14555
0.8549,0.0,0.0,0.1451
0.8554,0.0,0.0,0.1446
0.8559,0.0,0.0,0.1441
0.85655,0.0,0.0,0.14345
0.85725,0.0,0.0,0.14275
0.85775,0.0,0.0,0.14225
0.8581,0.0,0.0,0.1419
0.8584,0.0,0.0,0.1416
