moyS, moyE, moyI, moyR
0.999,0.0,0.001,0.0
0.99845,5.5E-4,9.0E-4,1.0E-4
0.9977,7.5E-4,9.0E-4,2.5E-4
0.99675,9.5E-4,0.00125,3.5E-4
0.99525,0.0015,0.00185,6.0E-4
0.9934,0.00185,0.00245,9.0E-4
0.99095,0.00245,0.00325,0.00145
0.9877,0.00325,0.00435,0.00195
0.9835,0.0042,0.00615,0.0026
0.97625,0.00725,0.0085,0.0037
0.9665,0.00975,0.01105,0.0052
0.9523,0.01425,0.01695,0.0069
0.9333,0.019,0.02415,0.0101
0.90895,0.0244,0.0329,0.01475
0.8769,0.03225,0.04515,0.0197
0.83705,0.03985,0.06145,0.0271
0.7859,0.05125,0.0807,0.03675
0.7244,0.0616,0.1049,0.05025
0.65035,0.07425,0.13285,0.06815
0.56915,0.0815,0.1689,0.08925
0.4851,0.0842,0.2039,0.1178
0.39975,0.08595,0.24045,0.15165
0.32155,0.0786,0.27785,0.1913
0.25125,0.0709,0.30865,0.23575
0.1919,0.0601,0.33165,0.28565
0.14545,0.0472,0.342,0.3389
0.1115,0.0353,0.3448,0.393
0.08565,0.0276,0.3421,0.44435
0.06665,0.02035,0.3341,0.4955
0.05365,0.01425,0.3166,0.5453
0.04515,0.0104,0.29665,0.5908
0.03835,0.00895,0.27335,0.6339
0.03265,0.0082,0.25135,0.67105
0.0296,0.00585,0.22825,0.70525
0.026,0.0055,0.21015,0.7343
0.02415,0.0047,0.19135,0.7609
0.02365,0.0032,0.17135,0.78675
0.0234,0.00345,0.15305,0.80815
0.02365,0.003,0.13495,0.8283
0.0247,0.002,0.1217,0.84355
0.02635,0.002,0.1079,0.857
0.02715,0.0021,0.0948,0.8704
0.0287,0.00215,0.08615,0.87855
0.02975,0.002,0.07615,0.888
0.032,0.00145,0.06755,0.8953
0.0336,0.002,0.06,0.90135
0.0359,0.00135,0.05335,0.90605
0.0381,0.00165,0.04805,0.9092
0.03985,0.00135,0.043,0.91285
0.04165,0.0012,0.03845,0.9161
0.0442,8.0E-4,0.0346,0.9179
0.0462,0.0012,0.0306,0.9196
0.0494,7.5E-4,0.0286,0.91925
0.0524,5.0E-4,0.02545,0.92
0.0541,0.001,0.02245,0.9209
0.05615,0.00115,0.01995,0.9213
0.05865,7.0E-4,0.0179,0.92135
0.0613,5.0E-4,0.01605,0.9206
0.06405,9.0E-4,0.01425,0.91975
0.06685,8.5E-4,0.0133,0.91775
0.06975,4.0E-4,0.0117,0.91675
0.07235,6.0E-4,0.01005,0.9156
0.07575,3.5E-4,0.0097,0.91305
0.07815,6.0E-4,0.0084,0.9116
0.08035,6.0E-4,0.0079,0.91
0.0831,3.5E-4,0.0075,0.9077
0.0851,7.5E-4,0.0066,0.9065
0.0874,4.5E-4,0.00605,0.90495
0.09085,2.5E-4,0.0057,0.9022
0.094,3.0E-4,0.00535,0.8997
0.0972,3.5E-4,0.00455,0.89725
0.09955,2.0E-4,0.0043,0.89525
0.1021,3.5E-4,0.004,0.8931
0.1043,4.0E-4,0.0038,0.89115
0.10665,1.5E-4,0.00325,0.8895
0.1093,3.5E-4,0.003,0.8869
0.1123,1.0E-4,0.00265,0.88445
0.1154,5.0E-5,0.0023,0.88175
0.11785,2.5E-4,0.0021,0.87935
0.1203,1.0E-4,0.00215,0.877
0.1233,3.0E-4,0.00215,0.8739
0.12605,2.5E-4,0.00215,0.87135
0.12865,2.5E-4,0.00215,0.86875
0.1311,4.0E-4,0.0021,0.86625
0.1336,2.5E-4,0.0021,0.86385
0.13575,2.5E-4,0.0019,0.86185
0.13855,2.0E-4,0.00185,0.859
0.1415,3.5E-4,0.0019,0.856
0.1436,2.5E-4,0.00185,0.85395
0.14555,2.5E-4,0.00175,0.85205
0.14855,2.0E-4,0.0017,0.8489
0.1508,3.5E-4,0.0016,0.8465
0.1531,3.5E-4,0.00165,0.84405
0.15475,2.5E-4,0.0018,0.84245
0.15725,3.5E-4,0.00195,0.83985
0.1596,1.0E-4,0.00165,0.8379
0.1617,3.0E-4,0.0017,0.8358
0.1636,1.5E-4,0.0017,0.83405
0.16675,1.0E-4,0.0014,0.83115
0.16955,1.5E-4,0.0014,0.82845
0.1721,1.5E-4,0.00145,0.8258
0.17435,2.0E-4,0.0012,0.82385
0.1767,5.0E-5,0.00115,0.8217
0.1788,2.0E-4,0.00105,0.8196
0.1811,3.0E-4,0.00125,0.81705
0.18345,1.5E-4,0.00125,0.81475
0.18535,1.0E-4,0.0013,0.8129
0.18785,2.5E-4,0.00125,0.8104
0.19035,2.0E-4,0.0013,0.80795
0.1926,2.5E-4,0.0012,0.8058
0.195,2.5E-4,0.0014,0.8032
0.1969,5.0E-5,0.00115,0.80165
0.19845,3.0E-4,0.00105,0.8
0.20055,5.0E-5,0.001,0.798
0.2024,2.5E-4,9.5E-4,0.79605
0.2045,2.5E-4,0.001,0.7938
0.2068,5.0E-5,0.0011,0.7915
0.20905,2.0E-4,9.5E-4,0.7893
0.2104,3.5E-4,0.00125,0.7877
0.21295,1.5E-4,0.0012,0.7854
0.2158,5.0E-5,0.0011,0.7827
0.21685,2.5E-4,0.001,0.7817
0.21865,1.5E-4,0.0012,0.77985
0.2205,2.5E-4,0.00105,0.778
0.2223,2.0E-4,0.001,0.77625
0.2247,5.0E-5,0.00105,0.7739
0.22695,5.0E-5,9.0E-4,0.77185
0.2289,1.5E-4,9.0E-4,0.7699
0.2307,1.5E-4,9.0E-4,0.76805
0.23255,2.0E-4,8.0E-4,0.76615
0.23485,5.0E-5,8.5E-4,0.7639
0.23685,2.0E-4,9.0E-4,0.7618
0.23935,2.0E-4,8.0E-4,0.7593
0.2414,2.0E-4,9.5E-4,0.75715
0.24325,1.0E-4,0.001,0.7553
0.2457,1.0E-4,8.5E-4,0.75295
0.2471,2.0E-4,9.0E-4,0.7515
0.24895,5.0E-5,0.0012,0.7496
0.2512,1.5E-4,0.0011,0.74735
0.25305,2.5E-4,0.001,0.7455
0.2552,1.0E-4,0.0012,0.74325
0.257,1.5E-4,0.00115,0.74145
0.2589,2.5E-4,0.001,0.73955
0.26145,5.0E-5,0.0011,0.73715
0.26335,2.0E-4,0.001,0.7352
0.265,1.0E-4,0.0011,0.7335
0.26725,1.0E-4,0.0011,0.7314
0.26845,3.0E-4,0.0011,0.73
0.26975,2.5E-4,0.0011,0.72855
0.27115,3.0E-4,0.0013,0.72695
0.2728,5.5E-4,0.0013,0.72505
0.27445,4.0E-4,0.0015,0.7231
0.27595,5.0E-4,0.00155,0.7213
0.27785,3.5E-4,0.00155,0.7193
0.28025,1.5E-4,0.0018,0.717
0.28165,4.0E-4,0.00175,0.7156
0.2833,4.0E-4,0.00195,0.7139
0.2858,3.5E-4,0.0021,0.71125
0.2874,4.0E-4,0.002,0.7097
0.28885,7.0E-4,0.0021,0.70795
0.2911,6.0E-4,0.00215,0.7055
0.29265,6.5E-4,0.0024,0.7037
0.2941,4.5E-4,0.00215,0.7025
0.2968,1.0E-4,0.0021,0.7
0.29795,3.0E-4,0.00215,0.6988
0.2997,6.0E-4,0.0021,0.69685
0.3014,4.0E-4,0.00215,0.6951
0.30325,2.0E-4,0.0022,0.69335
0.3045,6.0E-4,0.002,0.692
0.30575,3.5E-4,0.0024,0.6906
0.3072,8.5E-4,0.00265,0.68865
0.3085,6.5E-4,0.0026,0.68735
0.3097,3.5E-4,0.0028,0.6862
0.3121,4.0E-4,0.0026,0.68395
0.3128,7.5E-4,0.0026,0.68285
0.3143,4.0E-4,0.00315,0.68125
0.31565,5.5E-4,0.00305,0.6799
0.31665,0.0011,0.0031,0.67825
0.3178,6.0E-4,0.00335,0.6769
0.31895,0.00105,0.0036,0.67505
0.32035,0.00105,0.00385,0.67315
0.32175,0.00115,0.00435,0.67115
0.32255,0.00115,0.0042,0.67015
0.3232,0.0013,0.0046,0.6689
0.3235,0.00145,0.0051,0.6678
0.32405,0.00145,0.0059,0.66635
0.325,0.0014,0.0062,0.6649
0.32565,0.00135,0.00655,0.66405
0.32595,0.0017,0.00595,0.6641
0.3265,0.00145,0.00615,0.66325
0.3266,0.0019,0.00685,0.66215
0.32675,0.00145,0.0072,0.66175
0.32675,0.00255,0.0081,0.6603
0.3268,0.0022,0.0083,0.65945
0.3268,0.00225,0.0093,0.6583
0.326,0.00315,0.00995,0.65735
0.325,0.00365,0.01145,0.6557
0.32375,0.0034,0.0115,0.65585
0.3228,0.0031,0.01265,0.65555
0.32105,0.0032,0.01345,0.65655
0.319,0.00395,0.01425,0.6567
0.3164,0.0045,0.0157,0.65715
0.31355,0.00475,0.0171,0.6575
0.31085,0.00475,0.01885,0.65825
0.3081,0.00525,0.02025,0.6589
0.30445,0.00605,0.02095,0.6602
0.30035,0.00605,0.02305,0.6617
0.29595,0.0065,0.02445,0.66315
0.2922,0.00585,0.02635,0.6655
0.2879,0.00635,0.02795,0.66795
0.28305,0.0069,0.0287,0.67035
0.2796,0.0059,0.0305,0.6727
0.27475,0.0071,0.03245,0.67505
0.2704,0.0065,0.03285,0.6792
0.2655,0.00685,0.0331,0.6829
0.2605,0.0069,0.0351,0.68575
0.2556,0.00755,0.0373,0.6884
0.2514,0.00765,0.037,0.6916
0.2461,0.00735,0.03795,0.69485
0.2416,0.0074,0.03985,0.6972
0.23665,0.00765,0.0417,0.7003
0.2299,0.0088,0.043,0.705
0.22395,0.00885,0.04495,0.70875
0.21775,0.00895,0.0451,0.71355
0.21295,0.0065,0.04535,0.7197
0.20855,0.0074,0.0465,0.7235
0.2043,0.00735,0.04685,0.72775
0.1989,0.0081,0.04645,0.73285
0.1946,0.00765,0.0471,0.73725
0.19125,0.0068,0.0476,0.74085
0.1872,0.0073,0.04905,0.744
0.1832,0.00725,0.04935,0.74765
0.17925,0.00675,0.04765,0.75285
0.17635,0.00585,0.04805,0.75705
0.1726,0.00675,0.0475,0.76165
0.1705,0.00495,0.0475,0.76515
0.1683,0.0059,0.04565,0.76905
0.1664,0.0061,0.0444,0.77205
0.16415,0.00565,0.04285,0.77585
0.16195,0.00545,0.0429,0.77885
0.161,0.00465,0.0422,0.7817
0.1598,0.0057,0.0422,0.7824
0.15885,0.00485,0.042,0.7844
0.1575,0.005,0.0412,0.7869
0.1563,0.0044,0.04015,0.78975
0.15475,0.0045,0.03855,0.79335
0.1537,0.0045,0.036,0.79675
0.15205,0.0049,0.03535,0.79965
0.1516,0.00415,0.03505,0.80125
0.1512,0.0042,0.0327,0.8035
0.15145,0.0036,0.0324,0.8046
0.1516,0.00345,0.0317,0.8064
0.1519,0.00385,0.03025,0.80715
0.1524,0.00355,0.029,0.8083
0.15365,0.0033,0.0284,0.80825
0.15425,0.0042,0.0282,0.8076
0.15395,0.00365,0.0274,0.80915
0.1547,0.0033,0.02655,0.80895
0.15535,0.0035,0.02655,0.8084
0.1569,0.00325,0.0259,0.8082
0.1583,0.003,0.0248,0.8082
0.15915,0.0032,0.0235,0.8084
0.16075,0.00215,0.0223,0.809
0.16275,0.00205,0.02155,0.80835
0.1638,0.00295,0.02005,0.80795
0.1661,0.00255,0.01965,0.8064
0.1681,0.00215,0.0193,0.80525
0.1698,0.0026,0.0191,0.80375
0.17155,0.00225,0.0193,0.8027
0.1743,0.00245,0.01915,0.80015
0.17535,0.0027,0.01805,0.79975
0.1781,0.00215,0.0179,0.79735
0.1797,0.003,0.017,0.7961
0.1807,0.0026,0.01625,0.79595
0.18305,0.0023,0.0158,0.7937
0.18465,0.0023,0.0161,0.7922
0.1866,0.00175,0.01555,0.79145
0.1887,0.00205,0.0148,0.7899
0.19075,0.00195,0.01475,0.7882
0.19145,0.0028,0.014,0.7876
0.19275,0.0028,0.0144,0.78585
0.19445,0.00275,0.015,0.78325
0.1955,0.00255,0.0149,0.7823
0.1973,0.00205,0.0146,0.7813
0.19855,0.00225,0.01415,0.78025
0.19965,0.00275,0.0146,0.77875
0.20145,0.00245,0.01585,0.7766
0.2032,0.00245,0.01505,0.7753
0.20505,0.00285,0.01495,0.7729
0.20695,0.0025,0.0156,0.7708
0.20915,0.0021,0.01525,0.7689
0.2103,0.00295,0.015,0.76725
0.21225,0.0024,0.01495,0.76575
0.21415,0.00215,0.0155,0.76395
0.2148,0.0036,0.01505,0.76215
0.21675,0.00245,0.01585,0.7598
0.21815,0.0029,0.01595,0.75845
0.2195,0.00265,0.01605,0.7565
0.22065,0.00335,0.01645,0.7551
0.22135,0.0031,0.017,0.75355
0.2228,0.003,0.0168,0.75235
0.2241,0.00235,0.01685,0.75135
0.225,0.00385,0.01745,0.7487
0.2256,0.00335,0.0176,0.7477
0.2269,0.003,0.019,0.7456
0.228,0.00315,0.01915,0.74395
0.22835,0.0039,0.02015,0.7425
0.2285,0.0041,0.02065,0.7412
0.2292,0.00365,0.0216,0.73965
0.2291,0.0037,0.02115,0.73915
0.22805,0.00405,0.0216,0.73915
0.2281,0.00405,0.0226,0.7385
0.22785,0.0043,0.0225,0.73825
0.2282,0.00435,0.0224,0.73825
0.22835,0.00405,0.02275,0.73755
0.22785,0.0041,0.0243,0.73675
0.22855,0.00425,0.02425,0.736
0.2279,0.0043,0.0245,0.73635
0.22865,0.00425,0.0246,0.7352
0.229,0.00385,0.02495,0.7345
0.22775,0.0046,0.02585,0.73465
0.2269,0.00445,0.0266,0.73495
0.22705,0.00445,0.026,0.7349
0.2265,0.0043,0.02655,0.7351
0.22605,0.0045,0.02585,0.736
0.22495,0.00495,0.02615,0.73655
0.224,0.00535,0.027,0.73625
0.22335,0.00495,0.0282,0.73595
0.22385,0.00475,0.0282,0.7348
0.2237,0.0051,0.0284,0.73435
0.22355,0.0043,0.02915,0.73435
0.2222,0.00525,0.0291,0.7355
0.22165,0.0048,0.02935,0.73655
0.2205,0.0056,0.0289,0.73725
0.22015,0.0044,0.02885,0.73775
0.21925,0.0047,0.02935,0.7384
0.21835,0.00505,0.02785,0.73955
0.2173,0.00475,0.02805,0.74055
0.2175,0.0046,0.0287,0.74005
0.2173,0.005,0.0288,0.74045
0.2161,0.0056,0.0294,0.74065
0.2158,0.0049,0.0297,0.74075
0.21495,0.0051,0.0303,0.741
0.2128,0.00655,0.03085,0.74125
0.2126,0.00485,0.03095,0.74205
0.21155,0.0052,0.0319,0.74245
0.21105,0.00545,0.0316,0.7433
0.2101,0.00545,0.0325,0.74365
0.20985,0.005,0.0335,0.7433
0.21,0.0044,0.03235,0.7447
0.20925,0.00565,0.03145,0.74555
0.2095,0.00585,0.03205,0.74385
0.20755,0.0061,0.0315,0.74485
0.20595,0.0059,0.03285,0.745
0.2052,0.0053,0.0335,0.74595
0.20375,0.00615,0.0335,0.746
0.2031,0.0055,0.03435,0.74625
0.20175,0.0065,0.0348,0.74575
0.20055,0.0059,0.03535,0.7468
0.1981,0.007,0.0371,0.74735
0.19855,0.00505,0.0375,0.74805
0.1986,0.0056,0.03695,0.74875
0.19745,0.00565,0.0364,0.75005
0.19685,0.00535,0.0364,0.75115
0.19635,0.00555,0.03645,0.75215
0.19585,0.00585,0.03645,0.75215
0.1956,0.00515,0.03725,0.75245
0.1962,0.00505,0.037,0.7526
0.1951,0.00585,0.0351,0.7543
0.19425,0.0055,0.0354,0.75565
0.1935,0.00535,0.0355,0.7565
0.19385,0.0044,0.0345,0.7577
0.193,0.00545,0.03435,0.75855
0.19305,0.00485,0.0346,0.7592
0.193,0.0043,0.03475,0.75915
0.1922,0.00495,0.03305,0.761
0.19215,0.0049,0.033,0.7612
0.19285,0.005,0.0331,0.7608
0.1933,0.0046,0.03175,0.76155
0.19345,0.0046,0.0315,0.7618
0.19465,0.0043,0.03185,0.7608
0.19525,0.0044,0.0311,0.761
0.1959,0.00405,0.0302,0.7621
0.19735,0.00405,0.02915,0.7614
0.198,0.00455,0.02855,0.76135
0.1993,0.0033,0.0283,0.76055
0.19985,0.0043,0.0284,0.7595
0.201,0.0038,0.02815,0.7591
0.2009,0.0049,0.02795,0.75875
0.20155,0.00375,0.027,0.75945
0.20215,0.00435,0.0272,0.75865
0.20345,0.00365,0.0273,0.75805
0.20435,0.00465,0.027,0.75685
0.2047,0.0043,0.0271,0.7562
0.2036,0.0052,0.02775,0.7561
0.2038,0.0049,0.02945,0.7542
0.2046,0.0048,0.0298,0.75265
0.20435,0.00545,0.03045,0.7518
0.2047,0.0042,0.03065,0.75205
0.2049,0.0042,0.0304,0.7529
0.2047,0.00475,0.02985,0.7536
0.2041,0.0051,0.0287,0.7538
0.204,0.00405,0.02925,0.7542
0.2037,0.0049,0.0279,0.75495
0.2041,0.0046,0.0287,0.7546
0.203,0.00515,0.0291,0.7554
0.20335,0.00445,0.02915,0.75475
0.20395,0.00505,0.0296,0.75305
0.2045,0.00485,0.0291,0.75225
0.20455,0.0039,0.0295,0.75355
0.20475,0.00485,0.02855,0.753
0.20415,0.0045,0.02935,0.75325
0.20415,0.00485,0.02955,0.7531
0.205,0.00435,0.02845,0.75305
0.2049,0.0045,0.0282,0.7539
0.2057,0.0044,0.0288,0.7527
0.20625,0.00525,0.0287,0.75205
0.2059,0.0053,0.0283,0.75255
0.2048,0.0052,0.0281,0.75285
0.20385,0.0054,0.0297,0.75235
0.20495,0.0044,0.02985,0.752
0.2048,0.0051,0.02955,0.75235
0.2046,0.0053,0.02985,0.7519
0.2041,0.0054,0.03095,0.7515
0.20395,0.00575,0.03,0.7514
0.20345,0.00515,0.0309,0.7512
0.2017,0.00515,0.0316,0.7527
0.20075,0.00545,0.03095,0.7534
0.20175,0.00465,0.0307,0.753
0.20245,0.00395,0.0305,0.75345
0.2031,0.00465,0.0314,0.75215
0.2023,0.0052,0.03115,0.7524
0.2018,0.00525,0.0319,0.75175
0.20015,0.0057,0.03275,0.75265
0.19985,0.0052,0.0341,0.7522
0.199,0.0053,0.0327,0.7541
0.2006,0.0041,0.03245,0.75435
0.199,0.006,0.03145,0.75495
0.1991,0.00465,0.03205,0.7554
0.1981,0.0056,0.03065,0.75695
0.1982,0.0047,0.03135,0.7569
0.1979,0.0053,0.03115,0.7568
0.19805,0.00515,0.03165,0.75595
0.19815,0.0045,0.0303,0.75745
0.19835,0.0049,0.0308,0.75715
0.1985,0.0049,0.0307,0.75675
0.19725,0.0053,0.0309,0.7572
0.1977,0.00445,0.03145,0.757
0.19695,0.00475,0.03095,0.75805
0.19605,0.0053,0.0319,0.7577
0.1958,0.0047,0.03185,0.7591
0.196,0.00485,0.03205,0.7588
0.1951,0.0055,0.0316,0.76025
0.1956,0.0037,0.0317,0.76095
0.19555,0.00465,0.0317,0.7608
0.196,0.0047,0.03135,0.76025
0.19605,0.0051,0.03065,0.7601
0.19605,0.00495,0.03145,0.75945
0.19525,0.0055,0.03145,0.75965
0.1946,0.00525,0.0317,0.75965
0.1939,0.00505,0.03155,0.761
0.1936,0.00465,0.0314,0.76155
0.1936,0.0043,0.03105,0.76225
0.1938,0.00495,0.03145,0.76165
0.19365,0.00495,0.0314,0.7618
0.1919,0.00535,0.03095,0.76375
0.1908,0.00525,0.03035,0.7645
0.1904,0.0046,0.0306,0.7654
0.1894,0.00515,0.03025,0.766
0.19035,0.00455,0.0313,0.7648
0.1907,0.00395,0.0308,0.7653
0.19055,0.00435,0.03,0.76665
0.1904,0.00485,0.0295,0.76655
0.19025,0.0041,0.02945,0.76715
0.1904,0.00465,0.02985,0.7669
0.19015,0.0047,0.02955,0.76745
0.19065,0.0049,0.0293,0.7673
0.19065,0.00495,0.0295,0.7669
0.191,0.0042,0.0293,0.76675
0.192,0.0036,0.02785,0.76775
0.19225,0.0043,0.0276,0.7675
0.19255,0.0038,0.028,0.76745
0.19325,0.0044,0.02735,0.7668
0.1938,0.004,0.0277,0.76685
0.1944,0.0039,0.02715,0.7664
0.19455,0.0046,0.0273,0.76575
0.19545,0.00375,0.02745,0.7655
0.19585,0.0041,0.02705,0.76545
0.19585,0.00455,0.02655,0.76515
0.1967,0.0041,0.02775,0.7637
0.19635,0.00505,0.0288,0.7631
0.1967,0.00405,0.0283,0.76395
0.19705,0.00455,0.0272,0.76375
0.19755,0.0044,0.02735,0.7632
0.19845,0.0044,0.02705,0.76225
0.19975,0.0038,0.0277,0.76075
0.2,0.0041,0.02775,0.761
0.1993,0.0049,0.02785,0.76105
0.199,0.0043,0.0271,0.76145
0.19885,0.00515,0.027,0.761
0.19745,0.00505,0.02725,0.7621
0.1974,0.0043,0.02595,0.76355
0.1979,0.0042,0.0266,0.7632
0.19715,0.00435,0.0265,0.7639
0.19765,0.0032,0.0268,0.76415
0.19835,0.0039,0.02605,0.7643
0.19855,0.0044,0.02535,0.7642
0.19965,0.0036,0.0249,0.7639
0.2012,0.00375,0.0255,0.7622
0.19995,0.00585,0.02535,0.7619
0.19985,0.0046,0.02515,0.76225
0.1993,0.00485,0.02585,0.7624
0.19965,0.004,0.02655,0.76215
0.2001,0.0039,0.02645,0.76255
0.2006,0.00445,0.02525,0.7627
0.20055,0.0045,0.02505,0.7627
0.20015,0.00465,0.02485,0.76325
0.2009,0.00405,0.02505,0.7621
0.2009,0.00415,0.0259,0.7615
0.2015,0.0039,0.02545,0.76165
0.20355,0.00325,0.0254,0.7602
0.20335,0.0041,0.026,0.7599
0.20335,0.00395,0.02635,0.75985
0.2046,0.0035,0.0269,0.75875
0.206,0.0034,0.02605,0.75865
0.20675,0.0035,0.02535,0.75835
0.2078,0.00345,0.0248,0.75775
0.20845,0.00405,0.02465,0.75645
0.20865,0.00445,0.025,0.75565
0.20995,0.0038,0.0255,0.7541
0.21005,0.0039,0.02575,0.7541
0.20995,0.00425,0.02505,0.7538
0.2089,0.0056,0.02595,0.7529
0.2091,0.00405,0.0261,0.7527
0.2091,0.00485,0.02555,0.75235
0.21035,0.00385,0.02575,0.75135
0.2115,0.0042,0.0266,0.7497
0.2106,0.00445,0.02675,0.75015
0.21125,0.0042,0.027,0.74945
0.21015,0.0047,0.02815,0.7499
0.20935,0.005,0.02735,0.7505
0.20865,0.00515,0.02815,0.7501
0.20905,0.0057,0.02905,0.74805
0.2091,0.0052,0.0296,0.74745
0.2081,0.00545,0.0295,0.74815
0.20865,0.00475,0.02975,0.74765
0.2081,0.00505,0.0303,0.74735
0.2078,0.00435,0.02945,0.74885
0.20805,0.00445,0.02935,0.74925
0.2084,0.0049,0.02945,0.74885
0.2077,0.00515,0.02945,0.74915
0.2074,0.00515,0.0302,0.74865
0.20615,0.0052,0.0306,0.7498
0.20595,0.00465,0.03195,0.74935
0.205,0.005,0.03215,0.75005
0.20475,0.0048,0.03145,0.75065
0.20435,0.0056,0.03135,0.75035
0.2034,0.00555,0.03085,0.7513
0.2038,0.00465,0.0311,0.75135
0.2031,0.0059,0.0323,0.7502
0.20275,0.00485,0.0334,0.7499
0.20195,0.0054,0.03245,0.75095
0.20125,0.00565,0.0328,0.7512
0.20155,0.0041,0.0327,0.7523
0.2018,0.0042,0.0321,0.75375
0.2014,0.0048,0.03245,0.7538
0.20085,0.00575,0.0331,0.75255
0.2002,0.00485,0.03315,0.7538
0.1993,0.00515,0.03325,0.7546
0.19935,0.0047,0.0316,0.7554
0.19895,0.0047,0.03145,0.75595
0.19785,0.00525,0.03125,0.75645
0.198,0.00515,0.03105,0.7558
0.1972,0.00525,0.03135,0.757
0.19625,0.00555,0.0311,0.75765
0.19705,0.00455,0.03175,0.75715
0.1964,0.00505,0.03075,0.7587
0.1956,0.0054,0.03095,0.7592
0.19565,0.0049,0.0315,0.75905
0.19565,0.00495,0.0303,0.7599
0.1967,0.004,0.0311,0.75945
0.1966,0.0046,0.0303,0.7604
0.19665,0.00475,0.03025,0.75955
0.19715,0.0052,0.0302,0.7587
0.1975,0.0044,0.0299,0.7595
0.1967,0.00475,0.0293,0.7607
0.19815,0.0045,0.02935,0.75935
0.1975,0.00515,0.0288,0.75955
0.19825,0.00425,0.0303,0.75835
0.19815,0.0056,0.0302,0.7576
0.198,0.00535,0.03125,0.75715
0.1993,0.0035,0.03155,0.75695
0.19975,0.0049,0.02975,0.7573
0.2,0.005,0.0299,0.75665
0.1999,0.005,0.02915,0.7566
0.20015,0.0046,0.0301,0.75665
0.19935,0.00595,0.03,0.7562
0.2007,0.004,0.03075,0.75585
0.2008,0.00455,0.03005,0.7556
0.2013,0.00495,0.03155,0.7542
0.201,0.00575,0.03095,0.7544
0.20055,0.0052,0.03175,0.75415
0.2013,0.0042,0.03195,0.75335
0.20045,0.0054,0.03195,0.75325
0.2009,0.0045,0.03245,0.75315
0.19895,0.0059,0.03265,0.75345
0.1991,0.0051,0.032,0.75385
0.19905,0.0061,0.0326,0.7527
0.1997,0.005,0.0334,0.75215
0.20015,0.0049,0.03215,0.75295
0.19965,0.0045,0.0322,0.754
0.1982,0.0052,0.03145,0.7557
0.1975,0.00515,0.0319,0.75605
0.19705,0.005,0.0317,0.75705
0.19845,0.00435,0.03065,0.75735
0.1988,0.0052,0.03005,0.75725
0.19995,0.00435,0.03025,0.7563
0.20055,0.0053,0.03075,0.75495
0.1996,0.0054,0.0305,0.75595
0.1992,0.00585,0.0308,0.7553
0.20055,0.00395,0.0312,0.75485
0.2008,0.005,0.03195,0.7545
0.19965,0.0062,0.0325,0.7543
0.1991,0.0054,0.03305,0.7539
0.20015,0.00515,0.03195,0.7533
0.19915,0.0057,0.03235,0.7537
0.1989,0.0051,0.03385,0.75325
0.19875,0.00495,0.03345,0.75375
0.19885,0.00545,0.03125,0.75515
0.19965,0.00475,0.03105,0.75475
0.1993,0.0048,0.03185,0.7549
0.20045,0.0045,0.03155,0.75415
0.2006,0.0053,0.03225,0.7531
0.20095,0.0052,0.03205,0.7527
0.20025,0.00525,0.03235,0.7535
0.2005,0.0059,0.0324,0.75285
0.19935,0.0054,0.032,0.75445
0.19995,0.00425,0.03145,0.7553
0.20005,0.005,0.0323,0.7548
0.19955,0.005,0.0323,0.7551
0.19915,0.00495,0.03155,0.75545
0.1994,0.00495,0.0315,0.7554
0.19925,0.00485,0.031,0.75595
0.19885,0.00495,0.03095,0.756
0.1985,0.00425,0.0313,0.75625
0.19945,0.00455,0.0319,0.7554
0.1988,0.00575,0.0328,0.7543
0.1972,0.00565,0.0331,0.7562
0.19755,0.0053,0.03105,0.75695
0.19765,0.00515,0.0313,0.75685
0.19675,0.0056,0.0321,0.7566
0.196,0.00575,0.03215,0.75695
0.195,0.0057,0.0326,0.75715
0.19485,0.0047,0.0337,0.7566
0.1962,0.0046,0.0338,0.75595
0.19655,0.00475,0.03385,0.7562
0.1968,0.00455,0.03375,0.7565
0.19565,0.00615,0.03245,0.75775
0.19575,0.0053,0.03295,0.7572
0.19515,0.0059,0.0335,0.75665
0.195,0.0049,0.03405,0.75725
0.19435,0.00505,0.0331,0.75805
0.1932,0.00565,0.0334,0.75905
0.1933,0.0051,0.03325,0.7591
0.19295,0.00435,0.0336,0.76
0.1921,0.0062,0.03395,0.75915
0.19245,0.0048,0.0345,0.75925
0.19255,0.00485,0.0343,0.75975
0.19245,0.0052,0.03365,0.7603
0.1925,0.00445,0.0319,0.76245
0.19345,0.00425,0.0309,0.7625
0.1939,0.0051,0.03125,0.76155
0.19365,0.00505,0.0324,0.76075
0.1941,0.00465,0.03255,0.7603
0.19525,0.0045,0.0321,0.76
0.1951,0.0055,0.0304,0.76015
0.19515,0.00545,0.0307,0.75915
0.19555,0.0044,0.03115,0.7592
0.19575,0.00465,0.03115,0.7591
0.19615,0.00455,0.0305,0.7593
0.19675,0.00485,0.02985,0.7589
0.19715,0.0046,0.02975,0.7588
0.19755,0.0044,0.02915,0.7594
0.1982,0.0045,0.02925,0.75935
0.198,0.00525,0.0295,0.7592
0.19765,0.00465,0.02955,0.7591
0.19745,0.0049,0.0298,0.75915
0.1979,0.0043,0.03045,0.7589
0.19815,0.0046,0.03055,0.75845
0.19785,0.00515,0.0303,0.758
0.19855,0.004,0.0301,0.7581
0.19815,0.0053,0.02975,0.75825
0.1989,0.004,0.0306,0.75845
0.1999,0.0045,0.0302,0.7579
0.2002,0.0052,0.03015,0.75705
0.2006,0.00485,0.0302,0.75665
0.20065,0.0049,0.0295,0.75725
0.20065,0.00405,0.0289,0.7586
0.19995,0.0048,0.02955,0.7586
0.2011,0.0039,0.02905,0.75885
0.20175,0.0038,0.02835,0.7594
0.203,0.00415,0.02775,0.75855
0.20335,0.0042,0.02755,0.7587
0.20435,0.00405,0.0274,0.7578
0.2054,0.00395,0.02685,0.7569
0.2058,0.00455,0.02685,0.75595
0.20715,0.0042,0.02685,0.7543
0.2073,0.0046,0.02725,0.7539
0.20835,0.0043,0.0271,0.7528
0.2088,0.0041,0.02715,0.7515
0.21005,0.00375,0.02735,0.751
0.21005,0.005,0.0275,0.7501
0.21045,0.00485,0.02645,0.74975
0.2111,0.0041,0.0273,0.7489
0.2122,0.00395,0.0267,0.74885
0.21265,0.0046,0.0272,0.74725
0.2116,0.00495,0.0271,0.74805
0.211,0.00485,0.0288,0.7475
0.2107,0.00475,0.0281,0.74805
0.2109,0.0048,0.02855,0.747
0.2112,0.005,0.02855,0.74665
0.2099,0.00535,0.0287,0.747
0.20975,0.00505,0.02985,0.74595
0.20885,0.0051,0.02985,0.74635
0.20725,0.00535,0.02995,0.7474
0.20715,0.00445,0.03065,0.74765
0.2063,0.00495,0.03035,0.74915
0.2067,0.00415,0.0292,0.7499
0.20555,0.0059,0.0301,0.7494
0.2056,0.00435,0.03045,0.75
0.20575,0.0051,0.03045,0.7497
