moyS, moyE, moyI, moyR
0.999,0.0,0.001,0.0
0.99855,4.5E-4,7.5E-4,2.5E-4
0.99775,8.0E-4,8.0E-4,4.0E-4
0.99715,6.0E-4,0.001,6.0E-4
0.9963,8.5E-4,0.0013,8.0E-4
0.99485,0.00145,0.00155,0.00105
0.99305,0.0018,0.0023,0.00125
0.9905,0.00255,0.00325,0.00185
0.98695,0.00355,0.00455,0.0023
0.9821,0.00485,0.00585,0.00325
0.97545,0.00665,0.0087,0.0041
0.96525,0.0102,0.0124,0.00565
0.95255,0.0127,0.01725,0.0081
0.9351,0.0175,0.02305,0.0108
0.9139,0.0212,0.0304,0.0158
0.8866,0.0273,0.03845,0.0219
0.8501,0.0366,0.0528,0.02775
0.8046,0.0455,0.0708,0.0375
0.74685,0.0579,0.0919,0.0505
0.68185,0.06525,0.1162,0.0672
0.60585,0.0763,0.14865,0.0867
0.52215,0.084,0.18555,0.11155
0.4359,0.0868,0.2251,0.14035
0.3563,0.07995,0.2608,0.17625
0.28355,0.0735,0.2937,0.2183
0.2167,0.06745,0.3197,0.26715
0.1666,0.051,0.3364,0.32105
0.1293,0.03905,0.344,0.3698
0.09915,0.0314,0.3397,0.42375
0.0776,0.02335,0.33685,0.4721
0.06245,0.01715,0.32295,0.5217
0.0517,0.01255,0.30755,0.5661
0.0437,0.01015,0.28525,0.60955
0.03835,0.0079,0.26475,0.6471
0.0331,0.00735,0.2428,0.6821
0.0296,0.0059,0.2206,0.71545
0.02765,0.00505,0.2021,0.7428
0.02625,0.00415,0.183,0.7683
0.02535,0.0036,0.16485,0.7913
0.0253,0.0031,0.149,0.81045
0.02565,0.00265,0.1327,0.82825
0.0269,0.0025,0.12005,0.8419
0.0286,0.00275,0.10635,0.85475
0.03025,0.00245,0.09475,0.8659
0.03025,0.0031,0.0838,0.8768
0.03235,0.00145,0.07565,0.88495
0.0338,0.00175,0.06855,0.89205
0.03615,0.0014,0.06005,0.89845
0.0377,0.0019,0.0531,0.9035
0.04015,0.0015,0.04825,0.90675
0.04175,0.00165,0.0424,0.91125
0.0444,0.0011,0.0374,0.91405
0.0471,0.00105,0.03315,0.91575
0.0495,0.0013,0.03045,0.91605
0.0524,9.0E-4,0.0276,0.9169
0.05495,0.00105,0.02485,0.91695
0.0571,0.00125,0.0228,0.91705
0.05875,0.0012,0.0201,0.91815
0.06135,9.0E-4,0.0186,0.91705
0.0638,0.001,0.01675,0.9166
0.06555,9.0E-4,0.0152,0.9167
0.0675,6.5E-4,0.01285,0.91735
0.06975,7.0E-4,0.0112,0.91675
0.0724,5.5E-4,0.01025,0.9153
0.0748,2.5E-4,0.0099,0.914
0.0769,8.5E-4,0.00865,0.91265
0.07975,4.0E-4,0.008,0.91085
0.08285,6.0E-4,0.00745,0.90825
0.0858,4.5E-4,0.0068,0.90585
0.0885,5.0E-4,0.00655,0.90345
0.0911,5.5E-4,0.0062,0.9013
0.09395,3.5E-4,0.0056,0.89935
0.0964,6.0E-4,0.00505,0.89715
0.09975,4.0E-4,0.00515,0.89405
0.10285,4.0E-4,0.0046,0.89145
0.1064,3.5E-4,0.0041,0.88845
0.1096,5.0E-4,0.00355,0.88555
0.1125,2.5E-4,0.0034,0.883
0.1158,3.0E-4,0.00305,0.88005
0.11875,2.0E-4,0.0028,0.8774
0.1208,5.0E-4,0.00275,0.87515
0.12335,2.0E-4,0.00295,0.87275
0.1254,1.0E-4,0.00255,0.87115
0.1276,4.5E-4,0.00235,0.86895
0.1302,2.0E-4,0.00245,0.86635
0.1323,2.0E-4,0.0025,0.8645
0.1347,2.5E-4,0.00215,0.86255
0.1371,4.5E-4,0.00215,0.85995
0.13985,2.0E-4,0.00205,0.85745
0.1425,2.5E-4,0.00185,0.855
0.1449,1.5E-4,0.00175,0.8527
0.147,3.0E-4,0.00165,0.8507
0.14985,1.0E-4,0.0016,0.84815
0.1517,3.0E-4,0.0013,0.84635
0.154,2.5E-4,0.0012,0.844
0.1564,2.5E-4,0.00135,0.8415
0.1586,2.0E-4,0.00155,0.8392
0.16105,3.5E-4,0.00165,0.83655
0.16315,3.0E-4,0.00175,0.83435
0.16605,3.0E-4,0.0018,0.83135
0.1687,3.0E-4,0.00195,0.8286
0.17115,2.5E-4,0.0018,0.82625
0.1733,2.5E-4,0.00175,0.82405
0.17565,2.5E-4,0.0019,0.82175
0.1786,3.0E-4,0.00155,0.8191
0.18075,3.5E-4,0.00155,0.81675
0.1827,1.5E-4,0.0015,0.81485
0.1841,2.0E-4,0.0016,0.8136
0.1862,1.5E-4,0.0016,0.81165
0.18815,2.5E-4,0.00175,0.8096
0.1901,4.0E-4,0.0015,0.8077
0.193,2.0E-4,0.00155,0.8048
0.19555,2.0E-4,0.00145,0.8024
0.19735,2.5E-4,0.00155,0.8005
0.1994,2.5E-4,0.00155,0.7983
0.20145,1.5E-4,0.00155,0.79635
0.2039,2.0E-4,0.00165,0.7939
0.2064,1.0E-4,0.00145,0.79165
0.20805,1.0E-4,0.00125,0.79025
0.21,2.5E-4,0.0012,0.78825
0.21205,2.0E-4,0.0012,0.78625
0.2144,2.0E-4,0.0011,0.7839
0.21685,1.0E-4,0.0011,0.78155
0.22,1.0E-4,0.0011,0.77835
0.22265,1.0E-4,0.001,0.7758
0.22445,2.0E-4,0.00115,0.7739
0.2269,1.0E-4,0.00125,0.7715
0.2296,1.5E-4,0.0012,0.76875
0.23205,1.5E-4,0.0012,0.7663
0.23375,3.5E-4,0.00125,0.7644
0.2354,1.5E-4,0.00125,0.76285
0.23705,4.5E-4,0.00105,0.761
0.2386,3.0E-4,0.00125,0.75925
0.24075,1.0E-4,0.00145,0.75715
0.24315,2.0E-4,0.00145,0.7547
0.2449,1.0E-4,0.0015,0.753
0.24695,1.5E-4,0.00155,0.7509
0.2492,2.5E-4,0.0014,0.7487
0.25035,5.5E-4,0.0014,0.7473
0.2525,1.0E-4,0.0015,0.74535
0.2546,3.5E-4,0.0014,0.74315
0.25635,3.5E-4,0.00165,0.7413
0.25845,4.0E-4,0.00165,0.73905
0.25975,2.0E-4,0.0018,0.7377
0.26135,1.5E-4,0.0019,0.73615
0.2637,2.5E-4,0.0017,0.734
0.2652,5.0E-4,0.00175,0.7322
0.26685,5.0E-4,0.002,0.73025
0.26895,5.0E-4,0.00225,0.72775
0.27065,6.0E-4,0.00235,0.7258
0.27175,5.5E-4,0.0022,0.7248
0.2736,4.0E-4,0.0023,0.72295
0.27545,3.5E-4,0.0021,0.7211
0.2766,4.0E-4,0.00195,0.71995
0.27855,4.0E-4,0.00215,0.71785
0.28025,5.0E-4,0.00255,0.7159
0.2821,5.5E-4,0.00235,0.71405
0.28355,6.0E-4,0.00255,0.71225
0.2853,6.5E-4,0.00285,0.7102
0.28685,4.0E-4,0.00295,0.7087
0.2884,7.0E-4,0.00275,0.70715
0.28935,0.00115,0.00305,0.70545
0.2916,6.0E-4,0.0035,0.70315
0.29325,8.0E-4,0.00395,0.7011
0.29445,0.00125,0.0039,0.69935
0.29485,0.00125,0.0044,0.69835
0.29685,7.0E-4,0.00405,0.6969
0.298,0.00115,0.0036,0.69585
0.29975,9.5E-4,0.00355,0.6941
0.30075,0.00115,0.0039,0.69245
0.30165,0.001,0.0046,0.69095
0.30225,0.0013,0.00505,0.6896
0.30245,0.0017,0.00625,0.68805
0.3032,0.0016,0.0068,0.6865
0.30385,0.00145,0.0072,0.68525
0.30445,0.0014,0.00785,0.68415
0.30415,0.00225,0.0082,0.68345
0.30365,0.00265,0.0092,0.6822
0.3031,0.002,0.0096,0.68235
0.3026,0.0027,0.0106,0.68165
0.30135,0.00315,0.0109,0.68145
0.30105,0.00235,0.0117,0.6811
0.29995,0.0032,0.0113,0.6813
0.29925,0.00285,0.012,0.6811
0.29785,0.00335,0.0128,0.6813
0.2961,0.0038,0.01385,0.6813
0.295,0.00335,0.0153,0.68085
0.2935,0.00335,0.0166,0.6811
0.29205,0.00385,0.01755,0.68115
0.2897,0.0045,0.0173,0.6822
0.28805,0.00365,0.01805,0.6834
0.28585,0.00415,0.01865,0.68435
0.28415,0.0038,0.0203,0.68455
0.2828,0.004,0.0216,0.6848
0.2807,0.00505,0.0222,0.6852
0.2778,0.0053,0.0229,0.68655
0.2757,0.00455,0.02345,0.6882
0.2716,0.00555,0.02445,0.69025
0.2691,0.00465,0.02555,0.69205
0.2657,0.0062,0.0257,0.69355
0.26285,0.00555,0.02745,0.6946
0.2596,0.0054,0.0291,0.69645
0.2558,0.00615,0.0303,0.69835
0.25125,0.007,0.0312,0.7007
0.24735,0.0065,0.0324,0.7025
0.24335,0.00645,0.03425,0.70525
0.23965,0.0068,0.03465,0.7073
0.2359,0.00665,0.03625,0.7098
0.23105,0.0074,0.03725,0.71275
0.22895,0.0049,0.03685,0.7172
0.22635,0.00605,0.0365,0.7196
0.22225,0.0069,0.0371,0.7229
0.2182,0.00705,0.03815,0.7257
0.21455,0.00575,0.0397,0.729
0.2107,0.0068,0.0396,0.7325
0.2069,0.0066,0.0395,0.73585
0.20365,0.00665,0.04035,0.7381
0.19965,0.00645,0.0403,0.74195
0.19645,0.00615,0.0401,0.74515
0.192,0.0068,0.0417,0.74855
0.189,0.00615,0.0414,0.75225
0.18615,0.00615,0.0408,0.7561
0.18385,0.00555,0.04,0.75965
0.1817,0.00555,0.03975,0.7626
0.17885,0.0063,0.03905,0.7654
0.1758,0.00595,0.04045,0.7677
0.17315,0.00635,0.0404,0.77025
0.17065,0.00595,0.03985,0.77285
0.1688,0.0056,0.0408,0.7745
0.1671,0.00545,0.03985,0.7767
0.16515,0.00535,0.04015,0.77955
0.16365,0.0053,0.03865,0.78235
0.16295,0.0045,0.03835,0.7846
0.1622,0.005,0.0368,0.78705
0.16125,0.0045,0.036,0.7896
0.1603,0.00455,0.03485,0.7917
0.15945,0.00475,0.03375,0.79335
0.15865,0.00445,0.03325,0.79555
0.15835,0.0045,0.03245,0.79675
0.15775,0.0041,0.03125,0.7982
0.15735,0.0042,0.0304,0.7994
0.15645,0.0046,0.03065,0.8004
0.15615,0.00415,0.03065,0.80125
0.15635,0.00345,0.03005,0.8027
0.15625,0.0035,0.0287,0.8042
0.1571,0.003,0.0275,0.80555
0.15765,0.0035,0.02625,0.80575
0.15905,0.0034,0.0258,0.805
0.1592,0.0036,0.0261,0.80515
0.1591,0.004,0.02575,0.8048
0.16085,0.0029,0.02575,0.8039
0.1614,0.00365,0.02445,0.80455
0.16275,0.00295,0.0247,0.8039
0.1645,0.00275,0.02405,0.80345
0.16555,0.0032,0.02325,0.8026
0.1662,0.00295,0.0223,0.80275
0.16745,0.0032,0.02205,0.80175
0.1696,0.00255,0.02165,0.80005
0.17125,0.003,0.0208,0.7991
0.1728,0.0028,0.02145,0.7973
0.17425,0.0026,0.0206,0.7967
0.17595,0.0031,0.0206,0.7953
0.17725,0.00275,0.0204,0.79445
0.17725,0.0035,0.0206,0.7936
0.1791,0.003,0.0198,0.79285
0.18045,0.003,0.0192,0.79235
0.182,0.00255,0.0198,0.791
0.1835,0.0031,0.01955,0.78935
0.18365,0.00315,0.01915,0.7897
0.18495,0.003,0.01935,0.7884
0.18555,0.0028,0.0191,0.78805
0.1878,0.00255,0.01825,0.78675
0.189,0.00295,0.0174,0.78585
0.19115,0.0029,0.01775,0.783
0.1916,0.00305,0.01805,0.7822
0.1923,0.0033,0.01855,0.78105
0.19365,0.00255,0.0189,0.7802
0.19505,0.00305,0.0189,0.77885
0.1967,0.0026,0.0184,0.77805
0.1981,0.00275,0.0187,0.7765
0.19855,0.0035,0.0184,0.7755
0.1996,0.0029,0.01855,0.7747
0.2006,0.00275,0.0181,0.77385
0.2014,0.0033,0.0181,0.7723
0.20265,0.00295,0.01895,0.7707
0.204,0.0026,0.01815,0.7703
0.20595,0.00285,0.01815,0.7682
0.20815,0.0024,0.0182,0.76605
0.2104,0.0024,0.0181,0.7644
0.21195,0.00265,0.0179,0.76335
0.21415,0.003,0.0174,0.761
0.21475,0.00305,0.01775,0.7601
0.2164,0.00335,0.01825,0.75765
0.21785,0.0034,0.0181,0.7557
0.2194,0.00305,0.01875,0.7539
0.22125,0.00245,0.01865,0.75245
0.22245,0.00345,0.0186,0.75065
0.22275,0.0037,0.01895,0.74885
0.2234,0.00345,0.0189,0.748
0.2251,0.00245,0.0192,0.74725
0.2262,0.0028,0.01795,0.74675
0.2258,0.00415,0.019,0.7453
0.2257,0.0042,0.0205,0.7439
0.225,0.00435,0.021,0.74355
0.2258,0.00405,0.0208,0.7425
0.2259,0.00335,0.021,0.74255
0.22605,0.00395,0.0218,0.7421
0.2258,0.0043,0.02175,0.74225
0.2255,0.00495,0.0231,0.74095
0.2259,0.00415,0.0227,0.74025
0.22575,0.004,0.0229,0.74015
0.2263,0.00385,0.0229,0.73965
0.22725,0.00385,0.02415,0.73825
0.2275,0.00445,0.02395,0.7377
0.22815,0.00435,0.02525,0.73545
0.2265,0.00525,0.02625,0.73545
0.2261,0.00415,0.02675,0.73545
0.2257,0.00435,0.0269,0.73605
0.2265,0.00425,0.026,0.73545
0.22675,0.00455,0.0259,0.7347
0.2271,0.0047,0.02685,0.73285
0.2251,0.00535,0.02665,0.73365
0.22555,0.00455,0.02725,0.73275
0.22365,0.0055,0.0282,0.7332
0.2215,0.00615,0.0299,0.7331
0.21945,0.00575,0.0313,0.7336
0.21805,0.00545,0.03255,0.7344
0.2164,0.0056,0.0327,0.73565
0.2149,0.00615,0.03325,0.73625
0.21505,0.0057,0.03415,0.73585
0.2142,0.0055,0.0341,0.73695
0.21285,0.00635,0.03405,0.737
0.2106,0.0061,0.03605,0.73845
0.2094,0.0062,0.0354,0.7393
0.20755,0.00695,0.036,0.73975
0.20615,0.0063,0.0369,0.7401
0.2054,0.00555,0.03785,0.7408
0.20425,0.0059,0.03835,0.7413
0.2024,0.00665,0.0392,0.74155
0.20135,0.00595,0.03985,0.7427
0.2007,0.0055,0.03985,0.7435
0.1981,0.0072,0.03905,0.7454
0.1966,0.0062,0.03945,0.74665
0.1958,0.0056,0.0387,0.74825
0.19515,0.0056,0.0376,0.7497
0.19475,0.00605,0.03775,0.74995
0.1922,0.0071,0.03835,0.75035
0.1905,0.00615,0.0394,0.75205
0.18955,0.0057,0.0395,0.75395
0.1875,0.00635,0.0405,0.75505
0.1867,0.00535,0.04025,0.75695
0.18465,0.00605,0.0395,0.7589
0.18455,0.00555,0.0393,0.75915
0.18315,0.0057,0.0389,0.7613
0.1816,0.00585,0.0385,0.76275
0.18005,0.00575,0.0385,0.76495
0.17945,0.0048,0.03745,0.7674
0.1803,0.0052,0.03685,0.76735
0.17995,0.00585,0.0364,0.7681
0.18055,0.0049,0.0362,0.7685
0.18005,0.0054,0.0361,0.7694
0.1801,0.00555,0.03545,0.7694
0.17915,0.00615,0.03555,0.76945
0.1794,0.00505,0.0353,0.7697
0.1798,0.00485,0.0353,0.7705
0.17905,0.00565,0.0339,0.7718
0.17865,0.00465,0.03425,0.77265
0.17855,0.0046,0.034,0.7737
0.17835,0.00525,0.03215,0.7741
0.1785,0.00505,0.0332,0.7734
0.17825,0.0054,0.0335,0.7738
0.17855,0.00485,0.0337,0.77395
0.17845,0.0049,0.03315,0.7744
0.1795,0.005,0.03275,0.77355
0.17895,0.00545,0.0328,0.77365
0.17855,0.0047,0.032,0.7751
0.17705,0.0055,0.03155,0.77605
0.17785,0.0045,0.03185,0.776
0.17785,0.0047,0.03225,0.7761
0.1791,0.00435,0.03315,0.7749
0.179,0.00445,0.0326,0.77545
0.1793,0.00455,0.0315,0.7761
0.17885,0.00495,0.0307,0.7767
0.17905,0.00485,0.03055,0.77675
0.1806,0.004,0.0308,0.77635
0.18115,0.0045,0.0298,0.7763
0.18235,0.00415,0.0294,0.77575
0.18315,0.0047,0.02975,0.7743
0.1841,0.0038,0.0296,0.7747
0.18515,0.0042,0.0291,0.7741
0.1867,0.00355,0.02885,0.77305
0.18775,0.0039,0.0289,0.77275
0.1895,0.00425,0.0273,0.7721
0.191,0.0041,0.02735,0.77055
0.19215,0.00375,0.0268,0.77005
0.19325,0.00355,0.0271,0.76985
0.19365,0.0046,0.0262,0.7691
0.1956,0.00445,0.0269,0.76645
0.19605,0.0049,0.027,0.7653
0.1975,0.0041,0.02665,0.7644
0.19815,0.0047,0.0262,0.7634
0.1992,0.004,0.02735,0.76215
0.2003,0.0038,0.026,0.76195
0.2009,0.00405,0.02605,0.7616
0.2025,0.00355,0.02655,0.76025
0.20275,0.00365,0.02515,0.76105
0.20455,0.0037,0.02625,0.7589
0.20655,0.004,0.0253,0.7576
0.20765,0.00465,0.02495,0.75605
0.20775,0.0045,0.0249,0.75535
0.2087,0.0041,0.025,0.7545
0.20825,0.0044,0.02465,0.75485
0.2092,0.00395,0.02475,0.75385
0.2089,0.0049,0.02545,0.7526
0.21015,0.00395,0.02595,0.75135
0.2098,0.00495,0.02675,0.7507
0.21075,0.00375,0.028,0.74995
0.2127,0.0036,0.0277,0.74885
0.21275,0.00455,0.0268,0.749
0.2134,0.0046,0.02685,0.74845
0.21305,0.0055,0.0268,0.74755
0.21305,0.00495,0.0271,0.74715
0.2134,0.0044,0.02765,0.74675
0.21265,0.00545,0.02765,0.7467
0.2134,0.0042,0.0285,0.74595
0.21335,0.0053,0.0284,0.74495
0.2131,0.0048,0.0292,0.7448
0.21215,0.0046,0.0293,0.7456
0.2116,0.00565,0.02985,0.7447
0.21125,0.00505,0.03005,0.74485
0.2101,0.0054,0.03045,0.7452
0.20955,0.0059,0.03115,0.74455
0.20825,0.0055,0.0324,0.7451
0.2074,0.00535,0.0327,0.7457
0.2071,0.00465,0.0327,0.74675
0.20565,0.0063,0.0324,0.74745
0.20465,0.00495,0.03295,0.7491
0.2043,0.00515,0.03255,0.74975
0.2046,0.00475,0.03205,0.74985
0.20475,0.0047,0.0316,0.75055
0.2041,0.0049,0.032,0.7507
0.2038,0.0058,0.0316,0.7504
0.20405,0.00435,0.03095,0.7515
0.2037,0.00445,0.0303,0.7529
0.20325,0.0048,0.0294,0.7539
0.203,0.00485,0.0285,0.75425
0.2026,0.00475,0.0294,0.75425
0.20235,0.00505,0.0306,0.7541
0.2025,0.00445,0.02995,0.75515
0.2029,0.00425,0.02905,0.75515
0.20335,0.0045,0.0284,0.7547
0.20265,0.00505,0.0286,0.7551
0.20325,0.0049,0.0299,0.7535
0.20325,0.00475,0.0294,0.7541
0.20285,0.00495,0.0302,0.7541
0.2023,0.00525,0.0303,0.7539
0.20205,0.0046,0.03075,0.75405
0.20155,0.0056,0.0318,0.75305
0.1998,0.00525,0.03175,0.75445
0.19915,0.0049,0.03195,0.7549
0.1994,0.0044,0.0314,0.75565
0.19975,0.0046,0.0303,0.7561
0.1998,0.00495,0.031,0.75565
0.19875,0.00625,0.03125,0.75525
0.19935,0.0045,0.03225,0.7547
0.1991,0.00475,0.03175,0.75515
0.19915,0.0048,0.0308,0.7559
0.19865,0.0053,0.03025,0.75605
0.198,0.00535,0.03175,0.7557
0.19735,0.0045,0.0329,0.7569
0.19655,0.00555,0.0322,0.75725
0.1968,0.00495,0.03385,0.75685
0.19585,0.00535,0.0339,0.7575
0.1943,0.00575,0.0337,0.75815
0.1949,0.00415,0.0326,0.75935
0.194,0.0061,0.03265,0.7594
0.1943,0.0054,0.0326,0.75875
0.1933,0.00565,0.03395,0.7583
0.19235,0.0054,0.03515,0.75875
0.1916,0.00515,0.0353,0.75915
0.1907,0.0058,0.03645,0.759
0.19105,0.0047,0.0345,0.7608
0.1906,0.0049,0.0342,0.76155
0.1901,0.0059,0.0329,0.7622
0.1906,0.00475,0.0336,0.76165
0.1912,0.0049,0.0333,0.76135
0.1917,0.0049,0.03325,0.761
0.19175,0.00485,0.03285,0.7616
0.1922,0.00455,0.0325,0.7616
0.19265,0.0044,0.0321,0.7619
0.19265,0.0055,0.03125,0.7616
0.19225,0.0056,0.0319,0.76135
0.19245,0.00475,0.03245,0.7615
0.1927,0.00425,0.03145,0.76275
0.19215,0.0057,0.03115,0.76255
0.19205,0.00525,0.03225,0.7622
0.19065,0.0052,0.0329,0.76305
0.19035,0.0047,0.03285,0.76365
0.19155,0.004,0.03235,0.76345
0.19085,0.0055,0.0323,0.7628
0.19125,0.00435,0.03295,0.763
0.19035,0.00515,0.0327,0.7639
0.1894,0.0056,0.03265,0.76425
0.1885,0.00505,0.03155,0.76605
0.1881,0.00485,0.0316,0.76675
0.18795,0.0042,0.03175,0.7677
0.1875,0.00475,0.0319,0.76775
0.18755,0.0048,0.03225,0.7673
0.1879,0.00495,0.03175,0.76735
0.1877,0.0049,0.0312,0.76785
0.18745,0.00435,0.0303,0.76925
0.18745,0.0042,0.0297,0.7702
0.18765,0.00455,0.0286,0.77105
0.1881,0.00455,0.02925,0.77015
0.18895,0.0041,0.02905,0.76985
0.18975,0.0042,0.02975,0.76895
0.19045,0.0041,0.02895,0.7689
0.19025,0.00465,0.02925,0.76895
0.19045,0.0044,0.0282,0.7694
0.19105,0.0043,0.02895,0.7681
0.192,0.00455,0.02985,0.76605
0.19225,0.00435,0.0301,0.7657
0.1929,0.00525,0.0294,0.7645
0.19365,0.0047,0.02985,0.7636
0.19465,0.00445,0.0299,0.7629
0.1949,0.005,0.0296,0.7624
0.1964,0.00375,0.02965,0.76205
0.19525,0.005,0.02885,0.7632
0.195,0.00465,0.02895,0.7637
0.19735,0.0041,0.0282,0.76205
0.19835,0.00425,0.0283,0.76145
0.19835,0.0048,0.0277,0.76165
0.19905,0.00365,0.0277,0.76165
0.1994,0.0043,0.02795,0.761
0.201,0.00455,0.0276,0.7592
0.20155,0.00405,0.02825,0.75895
0.2027,0.0042,0.02815,0.7584
0.2037,0.00415,0.0281,0.75675
0.204,0.0042,0.02735,0.7572
0.20415,0.0043,0.0268,0.75765
0.20445,0.00425,0.0263,0.75785
0.20375,0.00505,0.02575,0.7578
0.20365,0.0043,0.0274,0.75695
0.20325,0.0045,0.0271,0.7573
0.20425,0.00405,0.02555,0.75775
0.2055,0.00385,0.02485,0.75735
0.2059,0.0037,0.026,0.7569
0.2067,0.00415,0.02495,0.75625
0.20645,0.0049,0.0248,0.756
0.2064,0.00445,0.0252,0.75575
0.2071,0.0045,0.0262,0.7546
0.2069,0.00515,0.0265,0.7538
0.2081,0.00415,0.02725,0.7521
0.20905,0.0043,0.0277,0.7508
0.20855,0.0045,0.0274,0.75085
0.20945,0.00365,0.0276,0.75075
0.2089,0.00475,0.0272,0.7512
0.2091,0.0045,0.0273,0.7507
0.2088,0.0048,0.02785,0.7502
0.2094,0.0043,0.0281,0.75005
0.2094,0.00465,0.029,0.7494
0.2102,0.00445,0.02855,0.7492
0.2099,0.0052,0.02885,0.7485
0.2098,0.0046,0.02855,0.7488
0.21075,0.00465,0.02765,0.7483
0.2098,0.00555,0.0285,0.7479
0.20975,0.0042,0.02885,0.7486
0.2095,0.00445,0.02925,0.74885
0.2093,0.005,0.0282,0.7495
0.20955,0.0047,0.0284,0.74945
0.20965,0.0047,0.02875,0.7487
0.2108,0.00445,0.02905,0.74725
0.211,0.0048,0.02905,0.7466
0.2104,0.00505,0.0292,0.74695
0.21155,0.0047,0.02925,0.7457
0.21265,0.0043,0.03015,0.7439
0.21345,0.00445,0.02915,0.7441
0.2132,0.00465,0.02975,0.744
0.2115,0.00585,0.0298,0.745
0.2108,0.00525,0.0305,0.745
0.21095,0.00475,0.03055,0.7447
0.2094,0.0057,0.0317,0.7446
0.20865,0.00535,0.032,0.7444
0.2084,0.005,0.0315,0.7449
0.2081,0.00565,0.03225,0.74405
0.20715,0.0056,0.03245,0.74445
0.20755,0.005,0.03375,0.74415
0.2071,0.00515,0.0339,0.7447
0.20585,0.00575,0.03395,0.74605
0.2045,0.0053,0.0341,0.7471
0.2034,0.00565,0.03365,0.7481
0.20285,0.0059,0.0332,0.74775
0.20145,0.00605,0.0342,0.74835
0.2024,0.0044,0.03445,0.7492
0.203,0.005,0.0339,0.7489
0.20275,0.00575,0.03355,0.74895
0.20175,0.0058,0.0336,0.7497
0.2007,0.0059,0.0336,0.75075
0.201,0.0052,0.0339,0.7503
0.1998,0.006,0.03355,0.75085
0.199,0.0056,0.03375,0.75105
0.19815,0.00575,0.0333,0.7521
0.1972,0.005,0.03475,0.75305
0.19735,0.0048,0.0348,0.7536
0.19645,0.006,0.03345,0.75505
0.19685,0.0047,0.03405,0.75465
0.1975,0.00505,0.03325,0.75445
0.1966,0.00565,0.03335,0.7546
0.1972,0.0041,0.03365,0.75525
0.1972,0.0048,0.0323,0.75625
0.19725,0.0056,0.0312,0.7559
0.19825,0.00465,0.03195,0.7548
0.1977,0.0055,0.03235,0.75505
0.1969,0.00535,0.0326,0.75565
0.1964,0.0052,0.0335,0.75545
0.19695,0.00515,0.03435,0.75505
0.19795,0.0049,0.0344,0.7545
0.1982,0.0045,0.03335,0.75575
0.199,0.0047,0.0332,0.7552
0.1975,0.0058,0.0331,0.7558
0.1973,0.00505,0.03285,0.75605
0.1964,0.0058,0.03305,0.7561
0.19695,0.00455,0.03315,0.7564
0.19715,0.0054,0.0331,0.75605
0.19715,0.0047,0.033,0.75645
0.1981,0.0051,0.03355,0.755
0.1987,0.00435,0.0336,0.75445
0.19795,0.00575,0.0331,0.75455
0.1982,0.00495,0.034,0.754
0.1969,0.00635,0.03435,0.75385
0.19535,0.0058,0.0347,0.7552
0.19565,0.00525,0.0348,0.7551
0.1954,0.0051,0.0346,0.75615
0.1943,0.00615,0.0342,0.7564
0.19415,0.0051,0.0348,0.7568
0.19395,0.00525,0.03575,0.75615
0.19415,0.0046,0.03485,0.7569
0.19445,0.0047,0.0339,0.7575
0.1941,0.0057,0.03465,0.75725
0.1927,0.00625,0.03515,0.7573
0.1917,0.0063,0.0351,0.757
0.193,0.0043,0.0366,0.75645
0.1922,0.00535,0.03525,0.7578
0.19275,0.00495,0.0346,0.75855
0.193,0.0054,0.0346,0.75825
0.1933,0.00455,0.0342,0.75855
0.19245,0.0054,0.03395,0.7589
0.1923,0.0045,0.0345,0.7599
0.19295,0.00455,0.0331,0.7605
0.19295,0.00465,0.0332,0.7608
0.1934,0.0053,0.03215,0.76045
0.19335,0.00585,0.034,0.7587
0.19355,0.0053,0.035,0.75785
0.193,0.0061,0.0349,0.75745
0.1924,0.00515,0.0352,0.75775
0.1934,0.00525,0.0351,0.75695
0.19325,0.0055,0.0334,0.75745
0.1935,0.0051,0.0342,0.75695
0.19365,0.0053,0.0346,0.7563
0.19325,0.0057,0.0347,0.7566
0.192,0.00595,0.0347,0.7578
0.1908,0.0051,0.0346,0.7592
0.1892,0.00605,0.0345,0.76035
0.1891,0.0056,0.035,0.76
0.1892,0.00455,0.03535,0.76025
0.18945,0.0052,0.0347,0.76035
0.18845,0.0058,0.0361,0.7603
0.1886,0.006,0.0364,0.7602
0.1885,0.0052,0.03535,0.7612
0.1879,0.00555,0.03655,0.761
0.1869,0.0056,0.0352,0.7624
0.1863,0.0057,0.0349,0.76265
0.1853,0.006,0.03455,0.763
0.1866,0.00445,0.0359,0.7621
0.1861,0.0053,0.0356,0.76345
0.18625,0.0052,0.035,0.7636
0.18695,0.0046,0.03445,0.7637
0.1867,0.00525,0.0342,0.7643
0.1859,0.0057,0.03425,0.7648
0.1864,0.00505,0.03385,0.76515
0.1854,0.0056,0.03415,0.7658
0.1855,0.0049,0.03435,0.7661
0.1851,0.0058,0.0343,0.76605
0.1844,0.0052,0.03465,0.767
0.18355,0.00525,0.03345,0.76905
0.18375,0.0041,0.0332,0.7705
0.1846,0.00415,0.0319,0.7709
0.18625,0.004,0.0315,0.77035
0.1849,0.00525,0.03125,0.7713
0.1848,0.00515,0.03035,0.7716
0.18565,0.0044,0.03125,0.77035
0.1868,0.0041,0.031,0.76995
0.18815,0.00405,0.0309,0.7693
0.19015,0.0042,0.0299,0.7687
0.19215,0.00335,0.0297,0.76745
0.19165,0.00465,0.0294,0.7676
0.19225,0.00385,0.0287,0.7681
0.19375,0.0042,0.0283,0.76725
0.1942,0.0035,0.0274,0.76765
0.19455,0.0042,0.0269,0.7677
0.19645,0.00355,0.027,0.7661
0.197,0.00435,0.0269,0.7652
0.1974,0.00395,0.02665,0.7646
0.19775,0.00435,0.0271,0.7635
0.19815,0.0046,0.0262,0.7635
0.1988,0.00505,0.02635,0.76155
0.19815,0.00525,0.0278,0.76065
0.1992,0.0038,0.02835,0.76035
0.1995,0.00475,0.02775,0.76015
0.20065,0.0041,0.02765,0.75945
0.19995,0.00505,0.0281,0.75955
0.2006,0.00425,0.02855,0.7589
0.1996,0.00555,0.0282,0.7587
0.19885,0.00505,0.02835,0.75895
0.19905,0.0041,0.02905,0.7588
0.1991,0.0046,0.0291,0.75865
0.19875,0.00505,0.0295,0.75845
0.19955,0.0044,0.0291,0.7584
0.2012,0.0045,0.02935,0.75675
0.20205,0.00465,0.0291,0.7561
0.20175,0.0051,0.02935,0.75555
0.20305,0.0045,0.02925,0.7547
0.2029,0.005,0.0294,0.75425
0.2025,0.0053,0.03,0.75395
0.20315,0.00465,0.03105,0.7528
0.20265,0.00535,0.0312,0.75255
0.20185,0.0056,0.0321,0.75215
0.2025,0.0046,0.03245,0.75165
0.20175,0.00515,0.0315,0.75295
0.20145,0.0049,0.0328,0.7525
0.20095,0.0052,0.03245,0.75285
