moyS, moyE, moyI, moyR
0.999,0.0,0.001,0.0
0.99845,5.5E-4,6.0E-4,4.0E-4
0.99795,5.0E-4,9.0E-4,5.5E-4
0.9975,4.5E-4,8.5E-4,8.0E-4
0.99705,4.5E-4,8.5E-4,0.0011
0.99655,5.0E-4,0.001,0.0013
0.99565,9.0E-4,0.00115,0.0015
0.9947,9.5E-4,0.00155,0.00155
0.9935,0.0012,0.0021,0.00185
0.99145,0.00205,0.00275,0.00215
0.9881,0.00335,0.00345,0.0027
0.9849,0.0032,0.0048,0.0036
0.9807,0.0042,0.0066,0.00425
0.975,0.0057,0.00885,0.0058
0.96615,0.0089,0.01105,0.0073
0.95575,0.0105,0.0149,0.0094
0.94255,0.01325,0.0194,0.0119
0.9223,0.0203,0.02675,0.0146
0.89405,0.02825,0.03625,0.0197
0.85965,0.0344,0.0487,0.02585
0.8157,0.04415,0.06535,0.03435
0.7597,0.056,0.08875,0.04655
0.69375,0.06605,0.1126,0.06225
0.6181,0.0758,0.1454,0.0818
0.53495,0.0836,0.17995,0.10575
0.4535,0.0819,0.21475,0.13745
0.3698,0.08415,0.2486,0.17345
0.2946,0.0756,0.28475,0.2139
0.2316,0.06375,0.31,0.2611
0.1803,0.0521,0.3311,0.30885
0.1373,0.0438,0.3401,0.3624
0.1063,0.03235,0.3431,0.41475
0.083,0.0252,0.3376,0.4636
0.0661,0.01845,0.3248,0.51255
0.05255,0.0154,0.3083,0.55915
0.04345,0.0113,0.29005,0.6026
0.03635,0.00885,0.2696,0.6428
0.03305,0.0071,0.2471,0.67905
0.02815,0.0068,0.22505,0.71355
0.02605,0.005,0.2051,0.7415
0.02525,0.00405,0.1832,0.76805
0.0247,0.0033,0.1649,0.7917
0.02495,0.00275,0.1472,0.8123
0.0259,0.00235,0.1317,0.8304
0.0254,0.00295,0.1168,0.847
0.0259,0.0017,0.10445,0.86135
0.02695,0.002,0.0918,0.8736
0.02885,0.00205,0.0814,0.88255
0.03115,0.0013,0.0744,0.889
0.032,0.002,0.06485,0.8977
0.03435,0.00135,0.05765,0.90355
0.0363,0.0014,0.05095,0.90855
0.0383,0.0016,0.0456,0.912
0.04115,0.0015,0.04015,0.9145
0.0434,0.00105,0.03595,0.91665
0.04535,0.0013,0.0318,0.919
0.0481,0.0011,0.02805,0.92015
0.0521,7.0E-4,0.0249,0.92
0.0549,0.00135,0.02215,0.91975
0.05715,6.5E-4,0.01915,0.92105
0.05985,0.0013,0.01685,0.92025
0.0627,6.5E-4,0.01555,0.919
0.0659,8.0E-4,0.0139,0.9175
0.0686,6.5E-4,0.0126,0.91615
0.07135,6.0E-4,0.01185,0.9145
0.07335,7.5E-4,0.01035,0.9138
0.07595,3.5E-4,0.00945,0.91265
0.07865,6.0E-4,0.0084,0.9111
0.08105,5.5E-4,0.00785,0.90945
0.0829,9.0E-4,0.0074,0.9078
0.08565,6.0E-4,0.0072,0.90575
0.08895,4.5E-4,0.00695,0.903
0.0921,3.0E-4,0.0061,0.90065
0.09395,5.0E-4,0.006,0.89885
0.0959,3.5E-4,0.00545,0.89765
0.09915,5.0E-4,0.00515,0.8947
0.1019,3.0E-4,0.00495,0.8923
0.10495,3.5E-4,0.00445,0.8897
0.1076,1.0E-4,0.0041,0.88765
0.11075,2.0E-4,0.0033,0.8853
0.11265,3.5E-4,0.00295,0.8837
0.11545,2.0E-4,0.0028,0.88105
0.1187,1.5E-4,0.0025,0.8782
0.1219,3.0E-4,0.0021,0.87535
0.12455,2.5E-4,0.00185,0.873
0.1269,1.0E-4,0.0017,0.87085
0.1293,1.0E-4,0.0017,0.8687
0.132,5.0E-5,0.0015,0.8663
0.1345,1.0E-4,0.00125,0.8641
0.13665,1.5E-4,0.00115,0.8619
0.13925,1.0E-4,0.00115,0.85935
0.142,2.0E-4,0.0012,0.85645
0.1453,1.0E-4,0.001,0.8535
0.14795,1.0E-4,0.001,0.8509
0.15065,5.0E-5,8.5E-4,0.84835
0.15275,5.0E-5,8.5E-4,0.8463
0.155,1.0E-4,7.5E-4,0.84405
0.1573,5.0E-5,6.0E-4,0.8419
0.1603,1.0E-4,6.0E-4,0.83885
0.1626,5.0E-5,5.5E-4,0.8366
0.16545,0.0,4.0E-4,0.83395
0.16795,0.0,5.0E-4,0.83145
0.17015,1.0E-4,4.5E-4,0.8292
0.1731,5.0E-5,5.0E-4,0.8262
0.17525,1.0E-4,4.5E-4,0.8241
0.17765,0.0,3.5E-4,0.82185
0.1792,5.0E-5,2.5E-4,0.82035
0.1812,1.5E-4,3.5E-4,0.8182
0.18275,1.5E-4,5.0E-4,0.8165
0.18575,5.0E-5,5.5E-4,0.8135
0.1884,5.0E-5,5.0E-4,0.81095
0.1908,0.0,5.0E-4,0.80855
0.193,1.5E-4,5.0E-4,0.80625
0.1953,5.0E-5,4.5E-4,0.804
0.19765,1.0E-4,3.0E-4,0.8017
0.1996,1.0E-4,4.5E-4,0.79965
0.2022,5.0E-5,4.5E-4,0.7971
0.2046,0.0,3.0E-4,0.79485
0.20715,1.0E-4,3.5E-4,0.79225
0.20925,0.0,5.0E-4,0.79015
0.21155,1.5E-4,5.0E-4,0.78775
0.2142,0.0,5.5E-4,0.7852
0.21675,1.5E-4,5.0E-4,0.78255
0.21855,5.0E-5,6.0E-4,0.78075
0.21995,1.0E-4,4.0E-4,0.77945
0.22185,1.5E-4,4.5E-4,0.77745
0.2236,1.5E-4,5.5E-4,0.77565
0.22645,5.0E-5,5.5E-4,0.77285
0.22895,1.0E-4,4.5E-4,0.7704
0.23045,2.0E-4,4.5E-4,0.76875
0.2327,5.0E-5,5.0E-4,0.7665
0.235,1.5E-4,6.5E-4,0.76405
0.23675,2.5E-4,6.5E-4,0.76215
0.239,1.5E-4,7.5E-4,0.7598
0.2421,5.0E-5,7.0E-4,0.75685
0.24435,1.5E-4,6.0E-4,0.7546
0.2463,1.0E-4,5.5E-4,0.7527
0.248,1.0E-4,6.0E-4,0.7511
0.25005,1.5E-4,7.5E-4,0.74895
0.2525,1.0E-4,7.0E-4,0.74645
0.2541,2.0E-4,7.0E-4,0.7447
0.25545,2.0E-4,8.5E-4,0.7432
0.25795,1.5E-4,8.5E-4,0.7407
0.2597,2.5E-4,7.5E-4,0.739
0.26095,4.0E-4,7.5E-4,0.7376
0.2635,1.5E-4,0.0012,0.7349
0.26505,1.0E-4,9.0E-4,0.7336
0.2665,2.0E-4,9.0E-4,0.73205
0.26835,2.0E-4,8.0E-4,0.7303
0.27015,3.0E-4,9.0E-4,0.72835
0.2727,2.5E-4,0.001,0.7257
0.27415,3.0E-4,0.0011,0.724
0.27575,5.0E-5,0.001,0.7225
0.27765,4.0E-4,0.00105,0.7203
0.27935,4.5E-4,0.0014,0.71835
0.28095,4.0E-4,0.00165,0.7166
0.28245,4.5E-4,0.0017,0.7148
0.28425,5.5E-4,0.0018,0.71285
0.2858,5.0E-4,0.00195,0.71115
0.28775,4.5E-4,0.00225,0.70895
0.28895,3.5E-4,0.0023,0.7078
0.29015,6.0E-4,0.0023,0.70635
0.29185,5.0E-4,0.0023,0.7046
0.2931,4.0E-4,0.002,0.70365
0.2948,6.5E-4,0.0024,0.7015
0.2962,7.5E-4,0.0025,0.69975
0.29755,7.5E-4,0.0024,0.69845
0.29875,3.5E-4,0.00295,0.69725
0.2999,9.5E-4,0.00325,0.6954
0.30125,8.5E-4,0.00325,0.6939
0.30275,9.0E-4,0.00315,0.6922
0.30365,9.0E-4,0.00335,0.69085
0.3054,0.001,0.00335,0.68865
0.3057,0.00105,0.00365,0.68795
0.3068,0.00135,0.0044,0.68605
0.307,0.00145,0.0046,0.68535
0.30815,0.00115,0.00465,0.6839
0.30905,0.0011,0.005,0.6825
0.30965,0.00135,0.00475,0.68155
0.3104,0.0013,0.0055,0.6803
0.31015,0.00205,0.0062,0.67935
0.31055,0.00165,0.0065,0.6785
0.31085,0.00165,0.00745,0.67745
0.31065,0.00215,0.0079,0.67655
0.3105,0.0019,0.0082,0.6762
0.3101,0.00245,0.00885,0.6754
0.31055,0.00185,0.0089,0.67495
0.3102,0.0027,0.0095,0.67415
0.30975,0.00275,0.01055,0.6737
0.30945,0.00265,0.01135,0.67305
0.3087,0.0029,0.0118,0.67265
0.30775,0.00265,0.01295,0.67265
0.30655,0.0034,0.01315,0.6725
0.30485,0.00335,0.01375,0.673
0.3036,0.0031,0.01475,0.6734
0.3027,0.00385,0.0159,0.6727
0.2999,0.00435,0.01695,0.6736
0.2978,0.004,0.0173,0.6747
0.2965,0.0032,0.01835,0.6755
0.29435,0.0042,0.01835,0.67685
0.2916,0.0048,0.01915,0.6779
0.28835,0.00515,0.02035,0.6793
0.285,0.00525,0.0211,0.68105
0.28325,0.00485,0.0222,0.6816
0.28055,0.00485,0.02255,0.6836
0.27755,0.0052,0.02385,0.68505
0.27425,0.00595,0.0259,0.68615
0.27065,0.0061,0.0271,0.68795
0.26785,0.00545,0.0276,0.6897
0.26465,0.0055,0.0275,0.69235
0.26105,0.006,0.02795,0.69435
0.25845,0.00575,0.03005,0.6954
0.2558,0.0058,0.03035,0.69815
0.25225,0.0058,0.03075,0.7011
0.2482,0.0065,0.0312,0.70375
0.2441,0.00685,0.03165,0.70605
0.23985,0.0067,0.0338,0.70875
0.23595,0.0067,0.03465,0.71175
0.23205,0.00625,0.03525,0.71595
0.22785,0.00695,0.0356,0.71945
0.2238,0.0068,0.03625,0.7225
0.22095,0.00625,0.0379,0.7247
0.2181,0.00655,0.03785,0.72655
0.2158,0.0059,0.03715,0.72955
0.21165,0.0067,0.03935,0.73235
0.2083,0.0068,0.0381,0.7363
0.2052,0.00615,0.0386,0.73915
0.2025,0.0057,0.0381,0.7429
0.19975,0.00585,0.03795,0.74575
0.1976,0.00545,0.0393,0.74695
0.19465,0.0065,0.03885,0.74875
0.19125,0.00655,0.03935,0.7517
0.1891,0.006,0.04015,0.7535
0.18645,0.0054,0.0406,0.7568
0.1848,0.00535,0.03975,0.75995
0.1817,0.0062,0.0389,0.7633
0.17875,0.00575,0.0387,0.7665
0.17635,0.00555,0.03795,0.7701
0.17485,0.0055,0.03755,0.77255
0.1723,0.00615,0.03805,0.7755
0.17025,0.00575,0.0386,0.77755
0.16835,0.0058,0.0365,0.7805
0.1673,0.00495,0.0365,0.78215
0.1671,0.0042,0.0354,0.78475
0.1672,0.0042,0.0344,0.78655
0.16695,0.00395,0.033,0.7886
0.16675,0.00475,0.03325,0.78835
0.16645,0.00465,0.03275,0.78895
0.16665,0.004,0.0327,0.78975
0.1672,0.0038,0.03075,0.7914
0.16725,0.00395,0.0307,0.7914
0.16735,0.0042,0.03045,0.79155
0.168,0.00345,0.02955,0.793
0.1674,0.00405,0.0286,0.79395
0.1669,0.0041,0.02835,0.7943
0.1673,0.0037,0.0274,0.79485
0.16795,0.0037,0.0272,0.79445
0.16865,0.00375,0.02705,0.79405
0.1689,0.00395,0.0264,0.794
0.1695,0.00345,0.0272,0.7935
0.1718,0.0029,0.02585,0.79325
0.1717,0.0034,0.02445,0.7941
0.17255,0.00325,0.02355,0.79405
0.1738,0.003,0.0237,0.7933
0.17515,0.00235,0.0238,0.79305
0.17645,0.00315,0.0225,0.7928
0.1777,0.00265,0.0217,0.7922
0.17885,0.0032,0.0201,0.7917
0.17925,0.0036,0.0208,0.7907
0.18015,0.00315,0.0213,0.7898
0.18115,0.00325,0.02135,0.78905
0.1821,0.00295,0.0206,0.78855
0.184,0.00255,0.0203,0.7872
0.18585,0.00275,0.02085,0.78515
0.18685,0.00335,0.02025,0.78455
0.1894,0.00235,0.02005,0.78295
0.19025,0.0038,0.0196,0.78145
0.19145,0.0025,0.01895,0.78155
0.1927,0.00325,0.0193,0.77955
0.1949,0.00255,0.01995,0.7774
0.1963,0.0034,0.01935,0.77585
0.1979,0.00285,0.01945,0.77435
0.1987,0.00345,0.0197,0.77305
0.201,0.0028,0.01975,0.7708
0.20235,0.0028,0.0191,0.77015
0.2039,0.00275,0.0182,0.769
0.20445,0.00355,0.0186,0.7674
0.20585,0.0033,0.01915,0.7658
0.20515,0.0035,0.0192,0.76595
0.20585,0.00295,0.0207,0.76465
0.2068,0.0035,0.01995,0.76375
0.2075,0.0032,0.0207,0.76275
0.20825,0.00325,0.0214,0.7616
0.20945,0.0038,0.02225,0.76
0.20945,0.00385,0.0216,0.75955
0.2109,0.0035,0.02215,0.75795
0.2117,0.0042,0.02255,0.75625
0.21265,0.0037,0.02255,0.75565
0.21275,0.0035,0.02255,0.75575
0.2138,0.00365,0.0221,0.7546
0.21465,0.00375,0.0221,0.7533
0.2147,0.0042,0.0216,0.753
0.2148,0.0041,0.0229,0.7515
0.21425,0.00405,0.0226,0.752
0.2151,0.00345,0.0229,0.75165
0.2168,0.0041,0.0236,0.7494
0.21725,0.00375,0.02355,0.74925
0.2163,0.00465,0.0233,0.74975
0.21585,0.00455,0.02405,0.74885
0.21545,0.00415,0.0244,0.749
0.21575,0.004,0.02485,0.7487
0.21565,0.0047,0.0242,0.74825
0.21675,0.00425,0.0248,0.74645
0.2161,0.0045,0.02545,0.7465
0.2164,0.00405,0.02615,0.74595
0.2157,0.00525,0.0258,0.7454
0.21615,0.00415,0.0265,0.7448
0.21565,0.0043,0.02695,0.7453
0.2147,0.005,0.0272,0.7454
0.2139,0.0043,0.02745,0.7464
0.21395,0.00425,0.02875,0.7462
0.2135,0.0046,0.0275,0.74705
0.2146,0.00385,0.02795,0.7462
0.2146,0.0043,0.02735,0.74645
0.21415,0.00485,0.0284,0.74585
0.2128,0.00505,0.0279,0.74705
0.2138,0.00435,0.0284,0.74605
0.213,0.005,0.02875,0.74655
0.2132,0.00415,0.02915,0.7461
0.2136,0.0047,0.0291,0.74565
0.21295,0.0056,0.0288,0.74515
0.21245,0.0046,0.028,0.7465
0.2119,0.00485,0.028,0.74675
0.21375,0.004,0.0289,0.7454
0.21275,0.0053,0.02875,0.7464
0.2118,0.00505,0.0288,0.74725
0.2116,0.00525,0.0287,0.7473
0.2104,0.00515,0.0286,0.74795
0.21025,0.00425,0.0292,0.74775
0.20985,0.00425,0.02955,0.74865
0.20895,0.0051,0.0295,0.7496
0.2081,0.0053,0.03015,0.74935
0.20825,0.00475,0.03045,0.74895
0.2072,0.005,0.03,0.7506
0.20825,0.0036,0.02935,0.75085
0.20775,0.0051,0.0283,0.7509
0.2086,0.0043,0.0282,0.7507
0.20895,0.00405,0.02745,0.7508
0.2099,0.0042,0.0272,0.7503
0.2093,0.00535,0.02805,0.7496
0.20985,0.00395,0.02775,0.74955
0.2098,0.00495,0.0274,0.749
0.21005,0.0053,0.0284,0.7473
0.20965,0.0053,0.02885,0.74685
0.20815,0.006,0.02955,0.7473
0.2079,0.0045,0.02955,0.74845
0.2068,0.0056,0.0298,0.74865
0.2067,0.00445,0.03045,0.7494
0.2052,0.00545,0.0298,0.7511
0.20505,0.00455,0.03045,0.7511
0.20475,0.00525,0.03055,0.7506
0.2054,0.00435,0.0316,0.7502
0.2063,0.00505,0.0308,0.7497
0.20695,0.00425,0.02985,0.75015
0.2072,0.00525,0.0297,0.74955
0.20755,0.0043,0.02915,0.7497
0.2071,0.00485,0.02955,0.7498
0.20665,0.0055,0.03055,0.7488
0.20625,0.00505,0.03105,0.7491
0.2059,0.00455,0.03165,0.74925
0.2047,0.0057,0.03205,0.74995
0.20485,0.0052,0.03145,0.7497
0.20595,0.00515,0.0327,0.7475
0.20555,0.00515,0.03205,0.7481
0.20425,0.00505,0.03285,0.74935
0.20505,0.00435,0.0323,0.7496
0.20415,0.0053,0.0312,0.7509
0.20365,0.0049,0.03095,0.75135
0.2037,0.00525,0.0308,0.75105
0.20395,0.0055,0.0312,0.75025
0.20435,0.00435,0.0312,0.7511
0.2038,0.0048,0.02995,0.75235
0.2046,0.00475,0.0313,0.7513
0.2032,0.00585,0.0311,0.7518
0.20265,0.0051,0.0314,0.75225
0.2029,0.00475,0.03265,0.7516
0.20345,0.00485,0.0315,0.75205
0.20345,0.0046,0.032,0.7521
0.20405,0.0043,0.0319,0.75215
0.2038,0.005,0.0308,0.7527
0.20365,0.00495,0.0301,0.7528
0.2039,0.00505,0.0311,0.75225
0.20415,0.0043,0.0309,0.7526
0.2052,0.00505,0.0311,0.75095
0.2056,0.0048,0.0313,0.7505
0.20475,0.00545,0.03165,0.75105
0.20415,0.00465,0.0307,0.75195
0.2043,0.00455,0.03055,0.7519
0.204,0.00565,0.03055,0.75125
0.2032,0.0049,0.0316,0.7517
0.20345,0.00555,0.0315,0.75035
0.20255,0.0057,0.03245,0.75045
0.2019,0.0057,0.0327,0.75105
0.2008,0.00585,0.0333,0.7509
0.1993,0.00585,0.03335,0.75175
0.19935,0.00515,0.03295,0.7524
0.1995,0.0051,0.0328,0.7527
0.1991,0.00565,0.0332,0.7525
0.19895,0.00485,0.03375,0.75305
0.19805,0.00545,0.03325,0.75455
0.1974,0.0053,0.0333,0.75515
0.19775,0.00465,0.03245,0.75585
0.1984,0.00415,0.0314,0.757
0.19765,0.00575,0.0306,0.7572
0.19665,0.0055,0.0311,0.75735
0.19715,0.0042,0.0315,0.75825
0.19745,0.0048,0.03185,0.75825
0.19725,0.00535,0.03165,0.7582
0.19725,0.0045,0.0302,0.75955
0.19755,0.0045,0.0296,0.7598
0.1986,0.0039,0.0299,0.75925
0.1992,0.0041,0.029,0.7596
0.19945,0.0047,0.0285,0.7594
0.1999,0.00405,0.02805,0.7597
0.2014,0.0037,0.0279,0.7591
0.20195,0.0039,0.02725,0.75955
0.2027,0.00405,0.02705,0.7591
0.2039,0.0041,0.0269,0.7581
0.2046,0.0043,0.0266,0.75715
0.20535,0.00405,0.02665,0.75645
0.20515,0.0052,0.02545,0.7564
0.20525,0.0045,0.0252,0.75685
0.20605,0.004,0.0255,0.7564
0.20725,0.00415,0.026,0.75475
0.209,0.00395,0.02495,0.7538
0.20955,0.0046,0.02475,0.75315
0.20985,0.00465,0.02515,0.7519
0.2088,0.00425,0.02595,0.7524
0.2092,0.00445,0.02575,0.7517
0.2094,0.00445,0.02705,0.75055
0.21,0.00435,0.02725,0.7498
0.2092,0.0053,0.0277,0.74945
0.20995,0.0044,0.0289,0.74855
0.2089,0.0058,0.0291,0.74845
0.20885,0.0046,0.02975,0.74845
0.2094,0.00535,0.0296,0.74755
0.2087,0.00515,0.03025,0.7474
0.20765,0.0055,0.03025,0.7481
0.20565,0.00575,0.03095,0.74915
0.2035,0.00645,0.0317,0.74895
0.20365,0.00475,0.0328,0.74915
0.2008,0.0062,0.0336,0.75095
0.20105,0.00495,0.033,0.75225
0.19905,0.0058,0.0332,0.7535
0.19735,0.00645,0.03335,0.75395
0.1974,0.00485,0.0338,0.75445
0.19635,0.00525,0.03275,0.75595
0.19605,0.00505,0.03225,0.7567
0.1949,0.00535,0.0335,0.7579
0.1947,0.0053,0.0327,0.75835
0.19505,0.00485,0.03215,0.75885
0.19485,0.0049,0.03235,0.7593
0.19585,0.00525,0.0321,0.75815
0.19575,0.005,0.03205,0.75845
0.1952,0.0049,0.03225,0.7587
0.19445,0.00545,0.0333,0.75825
0.19425,0.0055,0.03315,0.75835
0.19375,0.00465,0.0335,0.75855
0.1939,0.0045,0.0331,0.7594
0.19415,0.0045,0.03285,0.7597
0.19215,0.00635,0.0327,0.7602
0.19215,0.005,0.033,0.761
0.19195,0.00525,0.03305,0.76145
0.19235,0.00495,0.0325,0.7623
0.19315,0.00425,0.0311,0.763
0.1925,0.00515,0.0299,0.76475
0.1927,0.0048,0.03025,0.76415
0.1933,0.0042,0.03025,0.76395
0.1939,0.0042,0.02995,0.76375
0.1952,0.0037,0.02935,0.76355
0.19665,0.004,0.02925,0.7622
0.1974,0.00385,0.0289,0.76195
0.19695,0.0047,0.028,0.7622
0.19715,0.0041,0.02795,0.76265
0.1973,0.0042,0.02835,0.76255
0.1973,0.00385,0.02785,0.7639
0.19895,0.0033,0.0272,0.76345
0.1983,0.00445,0.0271,0.76365
0.19945,0.0045,0.02655,0.76255
0.2015,0.0032,0.02595,0.76195
0.203,0.0034,0.0259,0.761
0.20355,0.00405,0.02535,0.76005
0.20415,0.00405,0.025,0.7597
0.20495,0.00385,0.02555,0.7591
0.2053,0.0037,0.0241,0.75995
0.2059,0.00425,0.02435,0.7587
0.2067,0.0037,0.02395,0.7587
0.2072,0.00435,0.0241,0.75765
0.20835,0.00385,0.02405,0.7568
0.20915,0.0033,0.02445,0.7564
0.2103,0.004,0.0245,0.75505
0.21235,0.00375,0.02385,0.75325
0.2131,0.0039,0.0237,0.75225
0.21275,0.0043,0.02415,0.75195
0.2134,0.0038,0.02415,0.7516
0.21355,0.0039,0.0244,0.75125
0.2145,0.004,0.0246,0.7505
0.2149,0.00435,0.02575,0.7492
0.2152,0.00405,0.02555,0.749
0.21555,0.0046,0.02525,0.74795
0.215,0.0046,0.0249,0.74795
0.2151,0.00435,0.0253,0.7475
0.2152,0.0039,0.02525,0.7477
0.2158,0.00465,0.02535,0.74655
0.21565,0.0045,0.0256,0.7458
0.2156,0.0044,0.02545,0.7455
0.21545,0.0043,0.026,0.74595
0.21405,0.00485,0.02655,0.74665
0.21375,0.00465,0.02625,0.7474
0.21325,0.0048,0.02645,0.74735
0.2133,0.00495,0.0272,0.74645
0.21365,0.0043,0.0278,0.74565
0.2146,0.0052,0.0271,0.74445
0.2144,0.0046,0.029,0.7438
0.21375,0.00525,0.02935,0.7437
0.21245,0.0059,0.02975,0.74385
0.2112,0.00535,0.0316,0.7439
0.2101,0.00625,0.032,0.74385
0.2093,0.00565,0.0327,0.74415
0.2094,0.0052,0.0318,0.74515
0.2082,0.0061,0.0315,0.7458
0.20715,0.00605,0.03125,0.7469
0.20585,0.0061,0.0315,0.74795
0.20725,0.0043,0.0309,0.7476
0.2072,0.00485,0.0304,0.7479
0.2076,0.00485,0.02955,0.7482
0.20835,0.0051,0.03,0.7473
0.20755,0.0062,0.0307,0.74635
0.20715,0.00535,0.03145,0.7465
0.20595,0.00525,0.03205,0.74745
0.2064,0.0049,0.03145,0.7475
0.2063,0.00505,0.03195,0.74765
0.2061,0.00515,0.0322,0.7473
0.20545,0.0052,0.033,0.74765
0.20465,0.0056,0.0329,0.7477
0.20445,0.00545,0.0322,0.7477
0.20295,0.00555,0.0342,0.74845
0.20175,0.00515,0.03465,0.7496
0.20045,0.00605,0.034,0.74995
0.2011,0.00525,0.034,0.7499
0.2007,0.0057,0.0335,0.7496
0.2006,0.0049,0.03555,0.7495
0.2003,0.0054,0.03465,0.75065
0.2002,0.0051,0.03365,0.75105
0.2,0.0051,0.0339,0.7512
0.1992,0.00525,0.0325,0.7527
0.199,0.00535,0.03355,0.7526
0.19935,0.0044,0.0335,0.7535
0.1988,0.0062,0.0338,0.75305
0.1986,0.00525,0.03455,0.7535
0.19755,0.0058,0.03295,0.7553
0.19655,0.0062,0.03235,0.75555
0.19585,0.0049,0.03305,0.75645
0.1955,0.00535,0.0336,0.7563
0.19475,0.00615,0.0333,0.756
0.19495,0.0049,0.03375,0.7564
0.19415,0.0057,0.03255,0.7578
0.19525,0.00435,0.0329,0.7577
0.1948,0.0053,0.0336,0.7574
0.19435,0.00505,0.0332,0.7577
0.1938,0.0053,0.0339,0.7581
0.1937,0.00505,0.03345,0.759
0.1941,0.005,0.03365,0.75825
0.19405,0.0049,0.03355,0.7583
0.19355,0.0055,0.0342,0.75805
0.19215,0.0057,0.0345,0.7585
0.1918,0.0054,0.0351,0.7589
0.19165,0.00495,0.0342,0.75995
0.19095,0.00545,0.0345,0.7605
0.19145,0.005,0.0352,0.7596
0.1918,0.0053,0.03475,0.7596
0.1925,0.00475,0.03495,0.75935
0.1922,0.0061,0.0354,0.75875
0.192,0.0057,0.03475,0.7588
0.1924,0.00535,0.035,0.75805
0.1922,0.00485,0.0341,0.759
0.19245,0.00475,0.0342,0.75885
0.1911,0.0056,0.03425,0.7601
0.18985,0.00545,0.035,0.7609
0.1895,0.0055,0.0349,0.76065
0.189,0.00455,0.0345,0.7623
0.1895,0.00545,0.03455,0.76105
0.18885,0.00575,0.03415,0.76165
0.1886,0.00525,0.03465,0.7615
0.1884,0.005,0.0334,0.763
0.18795,0.005,0.0331,0.7641
0.18845,0.0044,0.03275,0.76475
0.1884,0.00485,0.03315,0.76525
0.1896,0.00425,0.03235,0.766
0.1893,0.0056,0.0313,0.76615
0.19005,0.00505,0.03245,0.76505
0.1901,0.00475,0.03295,0.76435
0.1908,0.0053,0.03205,0.7638
0.19095,0.0051,0.0324,0.76345
0.1906,0.0049,0.0312,0.7647
0.1899,0.0049,0.0311,0.7655
0.1897,0.00445,0.031,0.7668
0.1901,0.00475,0.0314,0.76605
0.1887,0.0056,0.0313,0.7672
0.1878,0.0057,0.03125,0.76725
0.18815,0.00455,0.0315,0.76675
0.1889,0.0046,0.0317,0.76595
0.1892,0.00475,0.0301,0.76665
0.1904,0.0044,0.0303,0.76585
0.19125,0.00425,0.03065,0.76525
0.19095,0.0047,0.03035,0.7656
0.19025,0.0054,0.02995,0.7657
0.1909,0.00415,0.03025,0.7659
0.1921,0.0045,0.03065,0.76515
0.1918,0.00485,0.0309,0.76505
0.1917,0.00475,0.03085,0.7651
0.1928,0.0044,0.0304,0.76445
0.1917,0.0057,0.0301,0.76475
0.1916,0.005,0.0309,0.76425
0.19185,0.0046,0.02995,0.7651
0.1929,0.0041,0.03025,0.7648
0.19335,0.00375,0.03,0.7658
0.1949,0.0043,0.0288,0.76515
0.19555,0.00465,0.0293,0.76405
0.19585,0.0043,0.02825,0.76455
0.19695,0.004,0.02815,0.7639
0.19815,0.0039,0.0277,0.76325
0.19795,0.00445,0.02675,0.76375
0.1982,0.0043,0.02605,0.7634
0.1978,0.00535,0.0265,0.7627
0.1981,0.00375,0.02685,0.76335
0.19835,0.00425,0.027,0.76325
0.1992,0.0039,0.0274,0.76245
0.2001,0.00445,0.0279,0.7614
0.20075,0.0039,0.02725,0.76195
0.20155,0.0041,0.02745,0.76055
0.20235,0.004,0.02655,0.76055
0.2019,0.0047,0.02685,0.76005
0.20145,0.0044,0.0264,0.76045
0.20205,0.004,0.026,0.76075
0.20295,0.0049,0.0265,0.7586
0.20475,0.0037,0.02565,0.7579
0.20525,0.00455,0.0255,0.75745
0.20565,0.00475,0.0257,0.75625
0.2065,0.00445,0.02525,0.75595
0.20755,0.0035,0.02465,0.75585
0.20865,0.0036,0.02565,0.7544
0.21,0.0045,0.02565,0.75255
0.2114,0.0038,0.02635,0.75115
0.21175,0.0039,0.0269,0.75055
0.2119,0.00465,0.0264,0.7499
0.21125,0.00525,0.0263,0.74955
0.2107,0.00515,0.027,0.74925
0.21145,0.0045,0.02805,0.74845
0.21105,0.0052,0.028,0.74835
0.2105,0.00545,0.02815,0.74745
0.21065,0.0046,0.02835,0.7469
0.20995,0.0045,0.02935,0.74735
0.20915,0.005,0.02875,0.74855
0.2099,0.00425,0.0293,0.7484
0.21005,0.00505,0.02895,0.74825
0.20935,0.0053,0.029,0.748
0.2079,0.0061,0.02975,0.74775
0.2078,0.0047,0.03,0.7486
0.20735,0.0052,0.02915,0.7491
0.20805,0.00505,0.0294,0.74855
0.20675,0.00605,0.02965,0.7486
0.20645,0.0057,0.03115,0.7475
0.2058,0.00515,0.0307,0.74905
0.20555,0.006,0.03195,0.748
0.2044,0.0057,0.0323,0.7483
0.2041,0.0044,0.0327,0.74955
0.2043,0.00545,0.0323,0.74965
0.2051,0.0038,0.0319,0.75065
0.20565,0.00495,0.0322,0.7498
0.2055,0.0046,0.0319,0.7503
0.2044,0.0059,0.03095,0.75055
0.20375,0.0059,0.0317,0.7503
0.20495,0.00445,0.03165,0.7504
0.204,0.00505,0.03065,0.75125
0.2034,0.0052,0.0313,0.7512
0.2044,0.0043,0.0323,0.7507
0.2049,0.0054,0.03195,0.75045
0.2051,0.00485,0.0313,0.7508
0.20495,0.00455,0.0311,0.75085
0.2045,0.00515,0.0321,0.7505
0.2036,0.00535,0.03165,0.7513
0.2044,0.0045,0.03165,0.751
0.20405,0.0054,0.0323,0.7505
0.2052,0.00445,0.03185,0.74995
0.20435,0.0056,0.0321,0.7501
0.2035,0.0062,0.03225,0.7501
0.20305,0.0053,0.0322,0.7505
0.2038,0.00515,0.0324,0.74965
0.2047,0.0051,0.03295,0.74845
0.20475,0.0043,0.03295,0.74955
0.20365,0.00545,0.03165,0.75075
0.2025,0.00605,0.0328,0.7502
0.20145,0.00575,0.0327,0.7514
0.20215,0.00455,0.03295,0.75165
0.2024,0.0045,0.03255,0.75205
0.203,0.0049,0.0326,0.751
0.20195,0.00585,0.03255,0.75085
0.20085,0.0059,0.0327,0.7515
0.20015,0.00525,0.03265,0.753
0.19935,0.0054,0.03205,0.7544
0.19905,0.0054,0.03215,0.755
0.20005,0.0046,0.0319,0.7545
0.1999,0.00565,0.03195,0.7542
0.1988,0.00605,0.03265,0.7537
0.19965,0.0046,0.03305,0.75375
0.1994,0.00485,0.0331,0.75385
0.1996,0.0053,0.03255,0.75425
0.1991,0.0047,0.0316,0.75605
0.1985,0.00565,0.0325,0.7561
0.1973,0.00565,0.0315,0.75745
0.198,0.00475,0.03145,0.75665
0.19825,0.0046,0.03065,0.7563
0.1969,0.0062,0.03205,0.75575
0.19815,0.0039,0.0317,0.7564
0.19795,0.0049,0.0305,0.7573
0.1977,0.0056,0.031,0.7564
0.1989,0.00415,0.03185,0.75565
0.1992,0.00525,0.03145,0.7552
0.199,0.0053,0.03215,0.75475
0.1974,0.0061,0.032,0.755
