moyS, moyE, moyI, moyR
0.999,0.0,0.001,0.0
0.99865,3.5E-4,7.5E-4,2.5E-4
0.9982,4.5E-4,9.0E-4,2.5E-4
0.99755,6.5E-4,8.5E-4,5.5E-4
0.997,5.5E-4,0.00105,6.5E-4
0.99595,0.00105,0.00145,8.0E-4
0.99485,0.0011,0.00185,0.001
0.9929,0.00195,0.0024,0.0013
0.9904,0.0025,0.00335,0.00175
0.9866,0.0038,0.0048,0.0024
0.98145,0.00515,0.0068,0.00295
0.974,0.00745,0.0088,0.0042
0.96435,0.0097,0.01335,0.00555
0.9521,0.01225,0.0177,0.00825
0.9349,0.01725,0.02385,0.01105
0.91165,0.02325,0.03225,0.0158
0.88235,0.02935,0.04035,0.02235
0.8447,0.03785,0.05465,0.02925
0.79945,0.04535,0.07435,0.03835
0.74025,0.0594,0.096,0.05155
0.6703,0.0701,0.12215,0.06725
0.5941,0.0764,0.1565,0.08785
0.51065,0.08385,0.1901,0.1146
0.42535,0.0855,0.22805,0.14525
0.34585,0.08005,0.26295,0.18395
0.27535,0.0714,0.29215,0.22775
0.2156,0.0607,0.316,0.27415
0.16485,0.0518,0.33465,0.32235
0.12655,0.03935,0.33945,0.3759
0.0979,0.03035,0.33955,0.42815
0.0757,0.02325,0.33145,0.47955
0.0605,0.01695,0.31655,0.52915
0.04935,0.01335,0.29945,0.5726
0.03995,0.01085,0.281,0.6151
0.0348,0.00715,0.2616,0.65205
0.0296,0.00775,0.2406,0.6877
0.02695,0.0053,0.22065,0.71985
0.0245,0.0049,0.19875,0.74905
0.0231,0.00405,0.1798,0.77405
0.0224,0.003,0.16205,0.7966
0.02245,0.0023,0.1447,0.81745
0.02385,0.0022,0.1295,0.83455
0.0256,0.00205,0.1144,0.8498
0.02615,0.00265,0.1017,0.8633
0.0281,0.002,0.09155,0.87275
0.02945,0.0023,0.0808,0.8827
0.0309,0.00155,0.0718,0.8911
0.03235,0.00155,0.06235,0.89955
0.0338,0.0015,0.0563,0.90465
0.0354,0.00195,0.0494,0.91015
0.03755,0.00105,0.04465,0.91375
0.04025,0.0013,0.03885,0.91725
0.0424,9.5E-4,0.03465,0.9199
0.0453,0.0013,0.03175,0.9202
0.04835,9.0E-4,0.0286,0.9205
0.0504,0.00105,0.02535,0.9217
0.05315,0.001,0.0223,0.92195
0.0561,8.5E-4,0.01975,0.92185
0.0575,8.0E-4,0.0176,0.9227
0.06015,7.0E-4,0.01565,0.92215
0.06285,6.5E-4,0.01405,0.92095
0.06585,9.0E-4,0.0126,0.9194
0.06895,5.0E-4,0.0111,0.91805
0.0718,3.5E-4,0.01015,0.91655
0.0749,5.0E-4,0.00845,0.91515
0.0773,4.0E-4,0.0075,0.9137
0.0808,4.5E-4,0.00705,0.9108
0.0832,7.0E-4,0.00625,0.90885
0.08585,4.5E-4,0.0056,0.9068
0.0889,2.5E-4,0.0054,0.9042
0.0916,2.5E-4,0.00495,0.9021
0.094,4.0E-4,0.00465,0.9002
0.097,3.0E-4,0.00405,0.898
0.0995,2.5E-4,0.0033,0.8962
0.1025,2.0E-4,0.0033,0.8934
0.105,2.0E-4,0.003,0.89135
0.10765,2.5E-4,0.00275,0.88885
0.11015,2.0E-4,0.0024,0.88675
0.11305,4.5E-4,0.00205,0.88395
0.1161,4.0E-4,0.00185,0.88105
0.11855,2.0E-4,0.0019,0.8788
0.12205,3.5E-4,0.00185,0.87515
0.1248,1.5E-4,0.0017,0.87275
0.1279,0.0,0.00165,0.86995
0.13145,2.0E-4,0.0014,0.8665
0.1344,1.5E-4,0.00155,0.86355
0.13745,5.0E-5,0.0014,0.8608
0.1399,1.5E-4,0.0012,0.85845
0.1423,1.5E-4,0.00135,0.8559
0.1446,2.0E-4,0.00115,0.85365
0.1469,2.0E-4,0.001,0.8515
0.1487,0.0,9.0E-4,0.85
0.15105,0.0,6.0E-4,0.848
0.1538,5.0E-5,5.5E-4,0.8453
0.1564,0.0,6.5E-4,0.84275
0.15935,5.0E-5,5.0E-4,0.83995
0.16175,1.0E-4,5.5E-4,0.83745
0.16415,5.0E-5,4.5E-4,0.83515
0.16685,0.0,4.0E-4,0.83255
0.1698,0.0,4.5E-4,0.82965
0.172,0.0,4.0E-4,0.8275
0.1738,5.0E-5,3.5E-4,0.82575
0.1769,0.0,3.5E-4,0.8227
0.1791,5.0E-5,2.0E-4,0.8206
0.18145,1.0E-4,2.5E-4,0.81815
0.1844,5.0E-5,2.5E-4,0.81515
0.1869,1.0E-4,3.5E-4,0.81255
0.1891,0.0,2.5E-4,0.8105
0.19095,0.0,2.0E-4,0.8087
0.1937,0.0,1.5E-4,0.80605
0.1956,0.0,1.0E-4,0.8042
0.198,5.0E-5,1.0E-4,0.8018
0.19995,0.0,1.5E-4,0.79985
0.20255,0.0,1.5E-4,0.79725
0.205,0.0,1.5E-4,0.7948
0.2069,0.0,1.0E-4,0.79295
0.2088,0.0,1.0E-4,0.79105
0.21125,0.0,1.0E-4,0.7886
0.2143,0.0,1.0E-4,0.78555
0.2165,0.0,1.0E-4,0.7834
0.2189,0.0,1.0E-4,0.781
0.22135,0.0,1.0E-4,0.77855
0.224,0.0,1.0E-4,0.7759
0.22615,5.0E-5,1.0E-4,0.7737
0.2284,0.0,5.0E-5,0.7715
0.2302,0.0,5.0E-5,0.7697
0.233,0.0,5.0E-5,0.7669
0.2353,0.0,5.0E-5,0.7646
0.2372,0.0,5.0E-5,0.7627
0.23985,5.0E-5,5.0E-5,0.76
0.2419,0.0,5.0E-5,0.75795
0.24395,0.0,5.0E-5,0.7559
0.24645,0.0,1.0E-4,0.7534
0.24865,0.0,5.0E-5,0.75125
0.25045,0.0,5.0E-5,0.74945
0.2522,0.0,5.0E-5,0.74775
0.2541,0.0,5.0E-5,0.74585
0.2563,0.0,5.0E-5,0.74365
0.258,5.0E-5,5.0E-5,0.7419
0.25975,0.0,1.0E-4,0.74015
0.26195,5.0E-5,1.0E-4,0.7379
0.26395,5.0E-5,1.5E-4,0.73585
0.26605,0.0,1.5E-4,0.7338
0.2684,0.0,1.5E-4,0.73145
0.2705,0.0,5.0E-5,0.72945
0.27255,0.0,5.0E-5,0.7274
0.2741,0.0,0.0,0.7259
0.27625,0.0,0.0,0.72375
0.27825,0.0,0.0,0.72175
0.2806,0.0,0.0,0.7194
0.28255,0.0,0.0,0.71745
0.2847,0.0,0.0,0.7153
0.2868,0.0,0.0,0.7132
0.2891,0.0,0.0,0.7109
0.2908,0.0,0.0,0.7092
0.2924,0.0,0.0,0.7076
0.2943,0.0,0.0,0.7057
0.29625,0.0,0.0,0.70375
0.2989,0.0,0.0,0.7011
0.3009,0.0,0.0,0.6991
0.3026,0.0,0.0,0.6974
0.30415,0.0,0.0,0.69585
0.306,0.0,0.0,0.694
0.30745,0.0,0.0,0.69255
0.31005,0.0,0.0,0.68995
0.31195,0.0,0.0,0.68805
0.31395,0.0,0.0,0.68605
0.31555,0.0,0.0,0.68445
0.31745,0.0,0.0,0.68255
0.31905,0.0,0.0,0.68095
0.3209,0.0,0.0,0.6791
0.32275,0.0,0.0,0.67725
0.3245,0.0,0.0,0.6755
0.327,0.0,0.0,0.673
0.32895,0.0,0.0,0.67105
0.3307,0.0,0.0,0.6693
0.33245,0.0,0.0,0.66755
0.3341,0.0,0.0,0.6659
0.33575,0.0,0.0,0.66425
0.3379,0.0,0.0,0.6621
0.33945,0.0,0.0,0.66055
0.3413,0.0,0.0,0.6587
0.343,0.0,0.0,0.657
0.34515,0.0,0.0,0.65485
0.3469,0.0,0.0,0.6531
0.34915,0.0,0.0,0.65085
0.35125,0.0,0.0,0.64875
0.35355,0.0,0.0,0.64645
0.35495,0.0,0.0,0.64505
0.3569,0.0,0.0,0.6431
0.3585,0.0,0.0,0.6415
0.3604,0.0,0.0,0.6396
0.362,0.0,0.0,0.638
0.36395,0.0,0.0,0.63605
0.36545,0.0,0.0,0.63455
0.36755,0.0,0.0,0.63245
0.36905,0.0,0.0,0.63095
0.37065,0.0,0.0,0.62935
0.3726,0.0,0.0,0.6274
0.37465,0.0,0.0,0.62535
0.376,0.0,0.0,0.624
0.37805,0.0,0.0,0.62195
0.3798,0.0,0.0,0.6202
0.3815,0.0,0.0,0.6185
0.38375,0.0,0.0,0.61625
0.38495,0.0,0.0,0.61505
0.3862,0.0,0.0,0.6138
0.3877,0.0,0.0,0.6123
0.3899,0.0,0.0,0.6101
0.39105,0.0,0.0,0.60895
0.39255,0.0,0.0,0.60745
0.39455,0.0,0.0,0.60545
0.39675,0.0,0.0,0.60325
0.39815,0.0,0.0,0.60185
0.3994,0.0,0.0,0.6006
0.40055,0.0,0.0,0.59945
0.40235,0.0,0.0,0.59765
0.40395,0.0,0.0,0.59605
0.40555,0.0,0.0,0.59445
0.407,0.0,0.0,0.593
0.40885,0.0,0.0,0.59115
0.4101,0.0,0.0,0.5899
0.41215,0.0,0.0,0.58785
0.4137,0.0,0.0,0.5863
0.41505,0.0,0.0,0.58495
0.4165,0.0,0.0,0.5835
0.41855,0.0,0.0,0.58145
0.41985,0.0,0.0,0.58015
0.4217,0.0,0.0,0.5783
0.42325,0.0,0.0,0.57675
0.425,0.0,0.0,0.575
0.4264,0.0,0.0,0.5736
0.42785,0.0,0.0,0.57215
0.42915,0.0,0.0,0.57085
0.43145,0.0,0.0,0.56855
0.4329,0.0,0.0,0.5671
0.4349,0.0,0.0,0.5651
0.4367,0.0,0.0,0.5633
0.43835,0.0,0.0,0.56165
0.439,0.0,0.0,0.561
0.44075,0.0,0.0,0.55925
0.4423,0.0,0.0,0.5577
0.44425,0.0,0.0,0.55575
0.4458,0.0,0.0,0.5542
0.44735,0.0,0.0,0.55265
0.4486,0.0,0.0,0.5514
0.4502,0.0,0.0,0.5498
0.45175,0.0,0.0,0.54825
0.4529,0.0,0.0,0.5471
0.4542,0.0,0.0,0.5458
0.4557,0.0,0.0,0.5443
0.4572,0.0,0.0,0.5428
0.45835,0.0,0.0,0.54165
0.4599,0.0,0.0,0.5401
0.46135,0.0,0.0,0.53865
0.46285,0.0,0.0,0.53715
0.46435,0.0,0.0,0.53565
0.4661,0.0,0.0,0.5339
0.4677,0.0,0.0,0.5323
0.4689,0.0,0.0,0.5311
0.4699,0.0,0.0,0.5301
0.4713,0.0,0.0,0.5287
0.47255,0.0,0.0,0.52745
0.47405,0.0,0.0,0.52595
0.4756,0.0,0.0,0.5244
0.47645,0.0,0.0,0.52355
0.4779,0.0,0.0,0.5221
0.47895,0.0,0.0,0.52105
0.4802,0.0,0.0,0.5198
0.4815,0.0,0.0,0.5185
0.4829,0.0,0.0,0.5171
0.4841,0.0,0.0,0.5159
0.48595,0.0,0.0,0.51405
0.48715,0.0,0.0,0.51285
0.48895,0.0,0.0,0.51105
0.4901,0.0,0.0,0.5099
0.4913,0.0,0.0,0.5087
0.49295,0.0,0.0,0.50705
0.4943,0.0,0.0,0.5057
0.4958,0.0,0.0,0.5042
0.4973,0.0,0.0,0.5027
0.49885,0.0,0.0,0.50115
0.50095,0.0,0.0,0.49905
0.5023,0.0,0.0,0.4977
0.5041,0.0,0.0,0.4959
0.505,0.0,0.0,0.495
0.5067,0.0,0.0,0.4933
0.50745,0.0,0.0,0.49255
0.5086,0.0,0.0,0.4914
0.5099,0.0,0.0,0.4901
0.51115,0.0,0.0,0.48885
0.5127,0.0,0.0,0.4873
0.51375,0.0,0.0,0.48625
0.5152,0.0,0.0,0.4848
0.5165,0.0,0.0,0.4835
0.51745,0.0,0.0,0.48255
0.51855,0.0,0.0,0.48145
0.51965,0.0,0.0,0.48035
0.5207,0.0,0.0,0.4793
0.52205,0.0,0.0,0.47795
0.5234,0.0,0.0,0.4766
0.5244,0.0,0.0,0.4756
0.52585,0.0,0.0,0.47415
0.52675,0.0,0.0,0.47325
0.52775,0.0,0.0,0.47225
0.5289,0.0,0.0,0.4711
0.5304,0.0,0.0,0.4696
0.53155,0.0,0.0,0.46845
0.53305,0.0,0.0,0.46695
0.5343,0.0,0.0,0.4657
0.53535,0.0,0.0,0.46465
0.5368,0.0,0.0,0.4632
0.5385,0.0,0.0,0.4615
0.53945,0.0,0.0,0.46055
0.54105,0.0,0.0,0.45895
0.542,0.0,0.0,0.458
0.5434,0.0,0.0,0.4566
0.54475,0.0,0.0,0.45525
0.54615,0.0,0.0,0.45385
0.5473,0.0,0.0,0.4527
0.54885,0.0,0.0,0.45115
0.55005,0.0,0.0,0.44995
0.55135,0.0,0.0,0.44865
0.55265,0.0,0.0,0.44735
0.55405,0.0,0.0,0.44595
0.5553,0.0,0.0,0.4447
0.5566,0.0,0.0,0.4434
0.55785,0.0,0.0,0.44215
0.5595,0.0,0.0,0.4405
0.561,0.0,0.0,0.439
0.56225,0.0,0.0,0.43775
0.56345,0.0,0.0,0.43655
0.5647,0.0,0.0,0.4353
0.5658,0.0,0.0,0.4342
0.5672,0.0,0.0,0.4328
0.5682,0.0,0.0,0.4318
0.5693,0.0,0.0,0.4307
0.57065,0.0,0.0,0.42935
0.57205,0.0,0.0,0.42795
0.5734,0.0,0.0,0.4266
0.57455,0.0,0.0,0.42545
0.5754,0.0,0.0,0.4246
0.57645,0.0,0.0,0.42355
0.5777,0.0,0.0,0.4223
0.5787,0.0,0.0,0.4213
0.5801,0.0,0.0,0.4199
0.5815,0.0,0.0,0.4185
0.5833,0.0,0.0,0.4167
0.5845,0.0,0.0,0.4155
0.5855,0.0,0.0,0.4145
0.58655,0.0,0.0,0.41345
0.588,0.0,0.0,0.412
0.5895,0.0,0.0,0.4105
0.5906,0.0,0.0,0.4094
0.5916,0.0,0.0,0.4084
0.5928,0.0,0.0,0.4072
0.5937,0.0,0.0,0.4063
0.59515,0.0,0.0,0.40485
0.59625,0.0,0.0,0.40375
0.5973,0.0,0.0,0.4027
0.5983,0.0,0.0,0.4017
0.59935,0.0,0.0,0.40065
0.6004,0.0,0.0,0.3996
0.6014,0.0,0.0,0.3986
0.6022,0.0,0.0,0.3978
0.60315,0.0,0.0,0.39685
0.604,0.0,0.0,0.396
0.60555,0.0,0.0,0.39445
0.6062,0.0,0.0,0.3938
0.6075,0.0,0.0,0.3925
0.60835,0.0,0.0,0.39165
0.6093,0.0,0.0,0.3907
0.61025,0.0,0.0,0.38975
0.61115,0.0,0.0,0.38885
0.6125,0.0,0.0,0.3875
0.61385,0.0,0.0,0.38615
0.6151,0.0,0.0,0.3849
0.61575,0.0,0.0,0.38425
0.61705,0.0,0.0,0.38295
0.61775,0.0,0.0,0.38225
0.61855,0.0,0.0,0.38145
0.61955,0.0,0.0,0.38045
0.62055,0.0,0.0,0.37945
0.62165,0.0,0.0,0.37835
0.6228,0.0,0.0,0.3772
0.6239,0.0,0.0,0.3761
0.62475,0.0,0.0,0.37525
0.6256,0.0,0.0,0.3744
0.62715,0.0,0.0,0.37285
0.6284,0.0,0.0,0.3716
0.6289,0.0,0.0,0.3711
0.62995,0.0,0.0,0.37005
0.63105,0.0,0.0,0.36895
0.63175,0.0,0.0,0.36825
0.6329,0.0,0.0,0.3671
0.634,0.0,0.0,0.366
0.6353,0.0,0.0,0.3647
0.6364,0.0,0.0,0.3636
0.63725,0.0,0.0,0.36275
0.63825,0.0,0.0,0.36175
0.63925,0.0,0.0,0.36075
0.64045,0.0,0.0,0.35955
0.64135,0.0,0.0,0.35865
0.64225,0.0,0.0,0.35775
0.64325,0.0,0.0,0.35675
0.64405,0.0,0.0,0.35595
0.64555,0.0,0.0,0.35445
0.6465,0.0,0.0,0.3535
0.64745,0.0,0.0,0.35255
0.6484,0.0,0.0,0.3516
0.6497,0.0,0.0,0.3503
0.65125,0.0,0.0,0.34875
0.6523,0.0,0.0,0.3477
0.6526,0.0,0.0,0.3474
0.65385,0.0,0.0,0.34615
0.6545,0.0,0.0,0.3455
0.6556,0.0,0.0,0.3444
0.6565,0.0,0.0,0.3435
0.6576,0.0,0.0,0.3424
0.6585,0.0,0.0,0.3415
0.65945,0.0,0.0,0.34055
0.6601,0.0,0.0,0.3399
0.66085,0.0,0.0,0.33915
0.6615,0.0,0.0,0.3385
0.66205,0.0,0.0,0.33795
0.66285,0.0,0.0,0.33715
0.6634,0.0,0.0,0.3366
0.6643,0.0,0.0,0.3357
0.66525,0.0,0.0,0.33475
0.6661,0.0,0.0,0.3339
0.66675,0.0,0.0,0.33325
0.6676,0.0,0.0,0.3324
0.66845,0.0,0.0,0.33155
0.6697,0.0,0.0,0.3303
0.67065,0.0,0.0,0.32935
0.67115,0.0,0.0,0.32885
0.6721,0.0,0.0,0.3279
0.6728,0.0,0.0,0.3272
0.67405,0.0,0.0,0.32595
0.67455,0.0,0.0,0.32545
0.67585,0.0,0.0,0.32415
0.67665,0.0,0.0,0.32335
0.67725,0.0,0.0,0.32275
0.6781,0.0,0.0,0.3219
0.6789,0.0,0.0,0.3211
0.6798,0.0,0.0,0.3202
0.68075,0.0,0.0,0.31925
0.68185,0.0,0.0,0.31815
0.68255,0.0,0.0,0.31745
0.68335,0.0,0.0,0.31665
0.6847,0.0,0.0,0.3153
0.68545,0.0,0.0,0.31455
0.6866,0.0,0.0,0.3134
0.68735,0.0,0.0,0.31265
0.6883,0.0,0.0,0.3117
0.68915,0.0,0.0,0.31085
0.69015,0.0,0.0,0.30985
0.6908,0.0,0.0,0.3092
0.69175,0.0,0.0,0.30825
0.6926,0.0,0.0,0.3074
0.69335,0.0,0.0,0.30665
0.69415,0.0,0.0,0.30585
0.69515,0.0,0.0,0.30485
0.6957,0.0,0.0,0.3043
0.69655,0.0,0.0,0.30345
0.69715,0.0,0.0,0.30285
0.69795,0.0,0.0,0.30205
0.69865,0.0,0.0,0.30135
0.69965,0.0,0.0,0.30035
0.70045,0.0,0.0,0.29955
0.70115,0.0,0.0,0.29885
0.702,0.0,0.0,0.298
0.7024,0.0,0.0,0.2976
0.70315,0.0,0.0,0.29685
0.7036,0.0,0.0,0.2964
0.7043,0.0,0.0,0.2957
0.70495,0.0,0.0,0.29505
0.7056,0.0,0.0,0.2944
0.70665,0.0,0.0,0.29335
0.7073,0.0,0.0,0.2927
0.7079,0.0,0.0,0.2921
0.7087,0.0,0.0,0.2913
0.7097,0.0,0.0,0.2903
0.71055,0.0,0.0,0.28945
0.71155,0.0,0.0,0.28845
0.7121,0.0,0.0,0.2879
0.7126,0.0,0.0,0.2874
0.7131,0.0,0.0,0.2869
0.7137,0.0,0.0,0.2863
0.7144,0.0,0.0,0.2856
0.71505,0.0,0.0,0.28495
0.716,0.0,0.0,0.284
0.71675,0.0,0.0,0.28325
0.71745,0.0,0.0,0.28255
0.7182,0.0,0.0,0.2818
0.71905,0.0,0.0,0.28095
0.71965,0.0,0.0,0.28035
0.72055,0.0,0.0,0.27945
0.7214,0.0,0.0,0.2786
0.72225,0.0,0.0,0.27775
0.72295,0.0,0.0,0.27705
0.72355,0.0,0.0,0.27645
0.72395,0.0,0.0,0.27605
0.725,0.0,0.0,0.275
0.72545,0.0,0.0,0.27455
0.72615,0.0,0.0,0.27385
0.7271,0.0,0.0,0.2729
0.7277,0.0,0.0,0.2723
0.7285,0.0,0.0,0.2715
0.7293,0.0,0.0,0.2707
0.7304,0.0,0.0,0.2696
0.7312,0.0,0.0,0.2688
0.73205,0.0,0.0,0.26795
0.73335,0.0,0.0,0.26665
0.734,0.0,0.0,0.266
0.7348,0.0,0.0,0.2652
0.73555,0.0,0.0,0.26445
0.73625,0.0,0.0,0.26375
0.7372,0.0,0.0,0.2628
0.7379,0.0,0.0,0.2621
0.73855,0.0,0.0,0.26145
0.73965,0.0,0.0,0.26035
0.74035,0.0,0.0,0.25965
0.7413,0.0,0.0,0.2587
0.742,0.0,0.0,0.258
0.7423,0.0,0.0,0.2577
0.74295,0.0,0.0,0.25705
0.74375,0.0,0.0,0.25625
0.7445,0.0,0.0,0.2555
0.7453,0.0,0.0,0.2547
0.74595,0.0,0.0,0.25405
0.74655,0.0,0.0,0.25345
0.7475,0.0,0.0,0.2525
0.7483,0.0,0.0,0.2517
0.74885,0.0,0.0,0.25115
0.7495,0.0,0.0,0.2505
0.75005,0.0,0.0,0.24995
0.75085,0.0,0.0,0.24915
0.75145,0.0,0.0,0.24855
0.7519,0.0,0.0,0.2481
0.75245,0.0,0.0,0.24755
0.7535,0.0,0.0,0.2465
0.75405,0.0,0.0,0.24595
0.7549,0.0,0.0,0.2451
0.75595,0.0,0.0,0.24405
0.75645,0.0,0.0,0.24355
0.7568,0.0,0.0,0.2432
0.75725,0.0,0.0,0.24275
0.7578,0.0,0.0,0.2422
0.7589,0.0,0.0,0.2411
0.7595,0.0,0.0,0.2405
0.76025,0.0,0.0,0.23975
0.76065,0.0,0.0,0.23935
0.76125,0.0,0.0,0.23875
0.762,0.0,0.0,0.238
0.763,0.0,0.0,0.237
0.76335,0.0,0.0,0.23665
0.7639,0.0,0.0,0.2361
0.76445,0.0,0.0,0.23555
0.76495,0.0,0.0,0.23505
0.76565,0.0,0.0,0.23435
0.76625,0.0,0.0,0.23375
0.7666,0.0,0.0,0.2334
0.76735,0.0,0.0,0.23265
0.7681,0.0,0.0,0.2319
0.76865,0.0,0.0,0.23135
0.7692,0.0,0.0,0.2308
0.77005,0.0,0.0,0.22995
0.77055,0.0,0.0,0.22945
0.771,0.0,0.0,0.229
0.7715,0.0,0.0,0.2285
0.77215,0.0,0.0,0.22785
0.77285,0.0,0.0,0.22715
0.7733,0.0,0.0,0.2267
0.77395,0.0,0.0,0.22605
0.77475,0.0,0.0,0.22525
0.77535,0.0,0.0,0.22465
0.7759,0.0,0.0,0.2241
0.7764,0.0,0.0,0.2236
0.7767,0.0,0.0,0.2233
0.7773,0.0,0.0,0.2227
0.7778,0.0,0.0,0.2222
0.7784,0.0,0.0,0.2216
0.77915,0.0,0.0,0.22085
0.7798,0.0,0.0,0.2202
0.78045,0.0,0.0,0.21955
0.78085,0.0,0.0,0.21915
0.7816,0.0,0.0,0.2184
0.7821,0.0,0.0,0.2179
0.7827,0.0,0.0,0.2173
0.78345,0.0,0.0,0.21655
0.78445,0.0,0.0,0.21555
0.7849,0.0,0.0,0.2151
0.78575,0.0,0.0,0.21425
0.7862,0.0,0.0,0.2138
0.78685,0.0,0.0,0.21315
0.7875,0.0,0.0,0.2125
0.7882,0.0,0.0,0.2118
0.78895,0.0,0.0,0.21105
0.78975,0.0,0.0,0.21025
0.79095,0.0,0.0,0.20905
0.79165,0.0,0.0,0.20835
0.79225,0.0,0.0,0.20775
0.7925,0.0,0.0,0.2075
0.79305,0.0,0.0,0.20695
0.79355,0.0,0.0,0.20645
0.7939,0.0,0.0,0.2061
0.79465,0.0,0.0,0.20535
0.79545,0.0,0.0,0.20455
0.79615,0.0,0.0,0.20385
0.79675,0.0,0.0,0.20325
0.79725,0.0,0.0,0.20275
0.7978,0.0,0.0,0.2022
0.7984,0.0,0.0,0.2016
0.7991,0.0,0.0,0.2009
0.7996,0.0,0.0,0.2004
0.80015,0.0,0.0,0.19985
0.8008,0.0,0.0,0.1992
0.80115,0.0,0.0,0.19885
0.80165,0.0,0.0,0.19835
0.80235,0.0,0.0,0.19765
0.80275,0.0,0.0,0.19725
0.80325,0.0,0.0,0.19675
0.804,0.0,0.0,0.196
0.80485,0.0,0.0,0.19515
0.8053,0.0,0.0,0.1947
0.80605,0.0,0.0,0.19395
0.80655,0.0,0.0,0.19345
0.8073,0.0,0.0,0.1927
0.8078,0.0,0.0,0.1922
0.8085,0.0,0.0,0.1915
0.80895,0.0,0.0,0.19105
0.8097,0.0,0.0,0.1903
0.8102,0.0,0.0,0.1898
0.81075,0.0,0.0,0.18925
0.8112,0.0,0.0,0.1888
0.81195,0.0,0.0,0.18805
0.8122,0.0,0.0,0.1878
0.81275,0.0,0.0,0.18725
0.8132,0.0,0.0,0.1868
0.81355,0.0,0.0,0.18645
0.81425,0.0,0.0,0.18575
0.8148,0.0,0.0,0.1852
0.8153,0.0,0.0,0.1847
0.81575,0.0,0.0,0.18425
0.8164,0.0,0.0,0.1836
0.817,0.0,0.0,0.183
0.8173,0.0,0.0,0.1827
0.8178,0.0,0.0,0.1822
0.8185,0.0,0.0,0.1815
0.81885,0.0,0.0,0.18115
0.81915,0.0,0.0,0.18085
0.81955,0.0,0.0,0.18045
0.81985,0.0,0.0,0.18015
0.82075,0.0,0.0,0.17925
0.82135,0.0,0.0,0.17865
0.82155,0.0,0.0,0.17845
0.82245,0.0,0.0,0.17755
0.8229,0.0,0.0,0.1771
0.8232,0.0,0.0,0.1768
0.8239,0.0,0.0,0.1761
0.8243,0.0,0.0,0.1757
0.8245,0.0,0.0,0.1755
0.82475,0.0,0.0,0.17525
0.82555,0.0,0.0,0.17445
0.82605,0.0,0.0,0.17395
0.8265,0.0,0.0,0.1735
0.827,0.0,0.0,0.173
0.82735,0.0,0.0,0.17265
0.8276,0.0,0.0,0.1724
0.8281,0.0,0.0,0.1719
0.82865,0.0,0.0,0.17135
0.8289,0.0,0.0,0.1711
0.8293,0.0,0.0,0.1707
0.82985,0.0,0.0,0.17015
0.8304,0.0,0.0,0.1696
0.8306,0.0,0.0,0.1694
0.8312,0.0,0.0,0.1688
0.83195,0.0,0.0,0.16805
0.8323,0.0,0.0,0.1677
0.8328,0.0,0.0,0.1672
0.8333,0.0,0.0,0.1667
0.8338,0.0,0.0,0.1662
0.83425,0.0,0.0,0.16575
0.83475,0.0,0.0,0.16525
0.8351,0.0,0.0,0.1649
0.8354,0.0,0.0,0.1646
0.83605,0.0,0.0,0.16395
0.8365,0.0,0.0,0.1635
0.83675,0.0,0.0,0.16325
0.83725,0.0,0.0,0.16275
0.8379,0.0,0.0,0.1621
0.8383,0.0,0.0,0.1617
0.83875,0.0,0.0,0.16125
0.8389,0.0,0.0,0.1611
0.8393,0.0,0.0,0.1607
0.83945,0.0,0.0,0.16055
0.84,0.0,0.0,0.16
0.8404,0.0,0.0,0.1596
0.84085,0.0,0.0,0.15915
0.84125,0.0,0.0,0.15875
0.8418,0.0,0.0,0.1582
0.8421,0.0,0.0,0.1579
0.8425,0.0,0.0,0.1575
0.8428,0.0,0.0,0.1572
0.8431,0.0,0.0,0.1569
0.8435,0.0,0.0,0.1565
0.84415,0.0,0.0,0.15585
0.8445,0.0,0.0,0.1555
0.84515,0.0,0.0,0.15485
0.84555,0.0,0.0,0.15445
0.8465,0.0,0.0,0.1535
0.84705,0.0,0.0,0.15295
0.8476,0.0,0.0,0.1524
0.84785,0.0,0.0,0.15215
0.8483,0.0,0.0,0.1517
0.8486,0.0,0.0,0.1514
0.8491,0.0,0.0,0.1509
0.84985,0.0,0.0,0.15015
0.85025,0.0,0.0,0.14975
0.85065,0.0,0.0,0.14935
0.8511,0.0,0.0,0.1489
0.8515,0.0,0.0,0.1485
0.85195,0.0,0.0,0.14805
0.85235,0.0,0.0,0.14765
0.85255,0.0,0.0,0.14745
0.85295,0.0,0.0,0.14705
0.85325,0.0,0.0,0.14675
0.8536,0.0,0.0,0.1464
0.8541,0.0,0.0,0.1459
0.85435,0.0,0.0,0.14565
