moyS, moyE, moyI, moyR
0.999,0.0,0.001,0.0
0.99815,8.5E-4,7.5E-4,2.5E-4
0.9977,4.5E-4,9.5E-4,4.5E-4
0.9969,8.0E-4,0.001,7.0E-4
0.996,9.0E-4,0.0015,8.0E-4
0.9948,0.0012,0.00165,0.0011
0.99305,0.00175,0.00225,0.0015
0.991,0.0021,0.00295,0.00215
0.9883,0.0027,0.0039,0.0028
0.9836,0.0047,0.00575,0.0034
0.9784,0.0052,0.008,0.00435
0.97075,0.00765,0.0102,0.00555
0.9603,0.0105,0.01375,0.00725
0.9471,0.0132,0.0188,0.0097
0.92955,0.0176,0.02405,0.0128
0.9072,0.02235,0.03255,0.0169
0.87665,0.0306,0.0434,0.02285
0.8381,0.03865,0.0582,0.0307
0.78915,0.049,0.07735,0.04055
0.728,0.06125,0.1017,0.0536
0.65565,0.0726,0.1283,0.07115
0.57615,0.07995,0.1639,0.0928
0.4917,0.0847,0.19855,0.12235
0.4113,0.08095,0.23655,0.1557
0.3309,0.08105,0.26895,0.19485
0.2603,0.0713,0.298,0.2402
0.19975,0.0615,0.3285,0.2841
0.15385,0.04685,0.34395,0.33435
0.1176,0.03725,0.34865,0.38585
0.09095,0.02855,0.3408,0.4401
0.0712,0.0212,0.33045,0.4906
0.057,0.01615,0.3138,0.5382
0.0471,0.01255,0.29925,0.58025
0.0385,0.01045,0.27605,0.62425
0.03305,0.00755,0.25705,0.66135
0.0293,0.0064,0.2356,0.69515
0.0275,0.005,0.2131,0.72725
0.02655,0.00405,0.1936,0.75335
0.02595,0.0038,0.17505,0.7774
0.026,0.0031,0.15665,0.7998
0.0258,0.0029,0.13905,0.8211
0.0268,0.002,0.12375,0.83815
0.0275,0.00285,0.10905,0.85285
0.0287,0.00255,0.09785,0.8642
0.03015,0.0018,0.08705,0.87545
0.03205,0.00195,0.07855,0.8834
0.0338,0.00155,0.0699,0.8914
0.03515,0.0019,0.06235,0.89785
0.03635,0.00225,0.05615,0.90285
0.03835,0.00185,0.05005,0.90705
0.0405,0.0013,0.0439,0.9116
0.043,8.5E-4,0.03975,0.914
0.04565,0.00105,0.0353,0.916
0.048,0.00165,0.03075,0.91775
0.051,6.5E-4,0.02705,0.91895
0.05325,0.001,0.024,0.9198
0.0554,0.0013,0.0214,0.92
0.0578,9.5E-4,0.0196,0.91965
0.06025,8.5E-4,0.01805,0.91915
0.0632,7.0E-4,0.0162,0.9183
0.0658,8.5E-4,0.014,0.91785
0.06855,9.5E-4,0.0135,0.91545
0.07155,5.0E-4,0.0126,0.91385
0.0743,6.0E-4,0.0114,0.9125
0.07715,6.5E-4,0.0103,0.9108
0.07955,4.0E-4,0.00915,0.9099
0.08215,5.0E-4,0.00785,0.90855
0.0853,8.0E-4,0.0072,0.9056
0.088,6.0E-4,0.0071,0.90325
0.09095,2.5E-4,0.007,0.90105
0.09445,2.5E-4,0.00605,0.89885
0.0973,4.0E-4,0.00535,0.8966
0.10045,2.0E-4,0.00485,0.8941
0.10255,4.0E-4,0.00405,0.89265
0.106,1.5E-4,0.00375,0.88965
0.10925,2.0E-4,0.00315,0.88695
0.1118,2.0E-4,0.00295,0.88475
0.1141,3.0E-4,0.0026,0.8827
0.1168,1.0E-4,0.00215,0.8805
0.1197,1.5E-4,0.00205,0.8778
0.12205,1.0E-4,0.00185,0.8757
0.12515,1.5E-4,0.00155,0.8728
0.12755,1.5E-4,0.00165,0.87045
0.1303,2.0E-4,0.00175,0.86755
0.1329,5.0E-5,0.00145,0.8654
0.13575,1.5E-4,0.00145,0.8625
0.13855,0.0,0.00125,0.86005
0.14155,1.5E-4,0.00115,0.85715
0.1443,2.0E-4,9.0E-4,0.85455
0.14715,5.0E-5,9.0E-4,0.85175
0.15,1.0E-4,7.5E-4,0.84895
0.15205,1.5E-4,9.0E-4,0.84675
0.1545,5.0E-5,8.5E-4,0.84445
0.15685,5.0E-5,7.5E-4,0.8422
0.1594,5.0E-5,6.5E-4,0.8398
0.162,5.0E-5,7.0E-4,0.83715
0.16435,0.0,5.0E-4,0.835
0.16655,0.0,6.0E-4,0.8328
0.16885,1.5E-4,5.0E-4,0.83045
0.1709,5.0E-5,5.0E-4,0.82835
0.173,0.0,5.0E-4,0.8263
0.1757,0.0,4.0E-4,0.8237
0.17835,0.0,4.5E-4,0.82105
0.18065,5.0E-5,5.0E-4,0.8187
0.18305,5.0E-5,4.0E-4,0.8164
0.18565,5.0E-5,3.5E-4,0.8139
0.18785,5.0E-5,3.5E-4,0.81175
0.19065,0.0,3.5E-4,0.80895
0.19275,1.5E-4,3.0E-4,0.80675
0.1951,5.0E-5,3.5E-4,0.80435
0.19745,5.0E-5,2.5E-4,0.80205
0.2001,0.0,3.0E-4,0.79945
0.2026,1.0E-4,2.0E-4,0.79695
0.20505,0.0,2.5E-4,0.7945
0.20665,1.5E-4,3.5E-4,0.79275
0.20865,1.0E-4,3.0E-4,0.7908
0.2112,5.0E-5,4.0E-4,0.78825
0.21345,0.0,3.5E-4,0.78615
0.2159,5.0E-5,3.5E-4,0.78365
0.2188,5.0E-5,4.0E-4,0.7807
0.22125,5.0E-5,3.5E-4,0.7783
0.22365,5.0E-5,3.5E-4,0.77585
0.22635,1.0E-4,4.5E-4,0.77305
0.22845,1.0E-4,4.0E-4,0.77095
0.2299,5.0E-5,4.0E-4,0.76955
0.23215,5.0E-5,4.5E-4,0.7673
0.23415,5.0E-5,5.0E-4,0.76525
0.2364,0.0,4.5E-4,0.7631
0.2382,1.0E-4,4.5E-4,0.7612
0.2404,1.0E-4,5.0E-4,0.75895
0.2423,0.0,5.0E-4,0.75715
0.24415,5.0E-5,5.0E-4,0.75525
0.24685,5.0E-5,4.0E-4,0.75265
0.24905,1.0E-4,3.5E-4,0.7504
0.2513,1.0E-4,3.5E-4,0.7481
0.25315,5.0E-5,3.5E-4,0.7463
0.2551,1.0E-4,3.5E-4,0.74425
0.25685,2.0E-4,5.5E-4,0.7423
0.2584,3.5E-4,6.5E-4,0.7405
0.26035,5.0E-5,7.5E-4,0.73865
0.26225,1.5E-4,8.5E-4,0.73665
0.2637,1.0E-4,8.5E-4,0.7352
0.2655,5.0E-5,7.5E-4,0.73355
0.2668,3.0E-4,7.0E-4,0.7321
0.26965,5.0E-5,6.5E-4,0.7294
0.2714,1.0E-4,7.0E-4,0.7276
0.27325,5.0E-5,6.5E-4,0.7259
0.27495,1.0E-4,6.5E-4,0.7241
0.277,2.0E-4,7.5E-4,0.7219
0.2784,2.0E-4,8.0E-4,0.72035
0.2809,3.5E-4,0.001,0.7176
0.28205,4.5E-4,0.0011,0.71605
0.28385,2.0E-4,0.0013,0.71425
0.2865,1.5E-4,0.0013,0.7117
0.2883,3.5E-4,0.0011,0.7099
0.2902,2.0E-4,0.0012,0.708
0.2922,2.5E-4,9.5E-4,0.70615
0.29375,3.0E-4,0.0011,0.70445
0.29515,2.0E-4,0.0011,0.70305
0.29715,2.0E-4,0.00115,0.701
0.29905,4.5E-4,0.0013,0.6988
0.30115,3.0E-4,0.00125,0.69685
0.30315,3.5E-4,0.0014,0.6947
0.30415,4.5E-4,0.0015,0.6935
0.30575,3.0E-4,0.00155,0.69185
0.30805,1.0E-4,0.00175,0.6896
0.30905,7.5E-4,0.00175,0.68815
0.31075,2.0E-4,0.00205,0.68655
0.31245,3.0E-4,0.00195,0.6848
0.3136,4.5E-4,0.00205,0.68345
0.3149,6.0E-4,0.00225,0.6817
0.3169,2.5E-4,0.0023,0.68
0.3186,5.0E-4,0.0021,0.67815
0.3202,3.5E-4,0.0022,0.6765
0.3215,7.0E-4,0.0024,0.6748
0.32335,5.0E-4,0.0026,0.6728
0.32455,5.5E-4,0.0024,0.67155
0.32575,0.00115,0.0031,0.66935
0.32735,5.5E-4,0.00355,0.66785
0.32785,0.001,0.00345,0.667
0.3285,9.5E-4,0.00365,0.66595
0.3297,0.001,0.0041,0.6642
0.33025,0.00115,0.00385,0.6634
0.332,0.00105,0.0044,0.66115
0.3325,0.0015,0.0047,0.6599
0.3333,0.00105,0.005,0.65885
0.3342,9.0E-4,0.00515,0.65795
0.33515,9.5E-4,0.00465,0.6572
0.33545,0.0015,0.00555,0.6561
0.33615,0.00105,0.0054,0.6554
0.3366,0.00105,0.0059,0.6546
0.33705,0.00155,0.0062,0.6536
0.33735,0.0016,0.0065,0.65265
0.33765,0.0018,0.00665,0.6518
0.3377,0.00215,0.0072,0.65085
0.3376,0.0022,0.00775,0.65015
0.33625,0.00265,0.00835,0.6502
0.33675,0.00195,0.0092,0.64945
0.3356,0.0024,0.00965,0.64965
0.3354,0.0023,0.0104,0.64875
0.3348,0.0026,0.00995,0.64905
0.3342,0.0024,0.01065,0.64885
0.3332,0.0033,0.01115,0.6485
0.3315,0.00345,0.01215,0.64855
0.33075,0.0028,0.01275,0.6488
0.3292,0.0033,0.0134,0.649
0.32755,0.0041,0.0141,0.64925
0.32435,0.0046,0.0163,0.6494
0.32125,0.00485,0.0176,0.6499
0.31865,0.00495,0.0194,0.6506
0.31595,0.00485,0.0202,0.6518
0.31305,0.0053,0.02065,0.65315
0.30945,0.006,0.0225,0.65375
0.3052,0.0062,0.0249,0.6551
0.3008,0.0064,0.02625,0.65695
0.29615,0.00635,0.0266,0.66025
0.29035,0.00755,0.0281,0.66295
0.2856,0.007,0.0303,0.66505
0.2811,0.0064,0.0324,0.668
0.2758,0.00725,0.03475,0.67035
0.27105,0.00685,0.03615,0.6737
0.2653,0.00835,0.03695,0.67705
0.2594,0.0084,0.03875,0.68065
0.25425,0.008,0.04015,0.68415
0.24755,0.0089,0.04245,0.6884
0.2413,0.009,0.0432,0.69305
0.23635,0.00695,0.044,0.69795
0.231,0.0079,0.04445,0.70245
0.22575,0.00835,0.04625,0.7061
0.2196,0.00815,0.04695,0.71075
0.21355,0.0083,0.0478,0.71565
0.20815,0.0088,0.0491,0.71945
0.2026,0.00855,0.0511,0.7235
0.19685,0.0086,0.05095,0.72905
0.19195,0.0081,0.0514,0.7348
0.18615,0.0093,0.05095,0.7395
0.1841,0.00615,0.05235,0.7428
0.1805,0.00685,0.0513,0.74825
0.1759,0.00725,0.051,0.75295
0.17355,0.00645,0.05005,0.7567
0.16905,0.0081,0.04975,0.76075
0.16545,0.00715,0.0486,0.76545
0.1607,0.00765,0.0489,0.7696
0.15815,0.0062,0.04745,0.77445
0.1554,0.00585,0.048,0.779
0.1533,0.0059,0.04635,0.78275
0.15195,0.00465,0.0453,0.7858
0.1499,0.0053,0.04385,0.78975
0.14825,0.0052,0.0421,0.7937
0.1477,0.00465,0.04065,0.7966
0.14695,0.00495,0.03865,0.7996
0.1472,0.00445,0.03705,0.80165
0.14755,0.0035,0.03605,0.80425
0.1481,0.0034,0.0339,0.80645
0.14835,0.0036,0.03175,0.80825
0.1478,0.00395,0.0318,0.80875
0.14865,0.0037,0.03175,0.8085
0.14875,0.00335,0.03125,0.81
0.1494,0.00375,0.0303,0.81015
0.1507,0.0031,0.0302,0.81
0.15155,0.00365,0.0284,0.8104
0.15255,0.0032,0.02815,0.8101
0.1536,0.0033,0.0263,0.81085
0.15475,0.00355,0.02535,0.8109
0.15635,0.00295,0.0251,0.80995
0.15765,0.00315,0.02435,0.80965
0.15915,0.00225,0.02285,0.81045
0.15975,0.00255,0.0212,0.81125
0.16155,0.00235,0.0208,0.81025
0.16275,0.0029,0.0207,0.8088
0.16385,0.00345,0.0216,0.8067
0.1649,0.00345,0.0208,0.80585
0.1669,0.0026,0.02095,0.8046
0.16845,0.0031,0.0193,0.804
0.1703,0.00285,0.01935,0.8022
0.17115,0.0032,0.01925,0.80145
0.17175,0.00325,0.0193,0.8011
0.17405,0.00295,0.0192,0.7991
0.17565,0.0028,0.01915,0.7975
0.17685,0.00205,0.01835,0.7976
0.1774,0.00285,0.01825,0.79665
0.17915,0.0022,0.0184,0.7957
0.1805,0.00265,0.0185,0.79415
0.1818,0.00285,0.0183,0.79275
0.18415,0.00255,0.01835,0.79015
0.1856,0.0026,0.01795,0.7892
0.18785,0.00315,0.0177,0.7869
0.18895,0.00295,0.01695,0.7863
0.19045,0.0027,0.01715,0.7847
0.19175,0.00275,0.01745,0.783
0.19335,0.0031,0.0173,0.7812
0.19495,0.00225,0.01765,0.78005
0.1966,0.0029,0.0174,0.7784
0.1979,0.0024,0.0175,0.77765
0.19945,0.0021,0.0173,0.7771
0.20065,0.00345,0.0167,0.77545
0.2023,0.0028,0.0175,0.77345
0.20435,0.0026,0.01755,0.7713
0.20585,0.00305,0.017,0.76985
0.2073,0.00285,0.0167,0.76845
0.2086,0.0024,0.01665,0.76695
0.20975,0.00285,0.01695,0.76545
0.21105,0.00265,0.01695,0.76415
0.2131,0.0025,0.01705,0.76225
0.2147,0.00265,0.01685,0.76095
0.2152,0.0035,0.01715,0.75955
0.21695,0.00275,0.0178,0.75795
0.21745,0.00325,0.01835,0.7567
0.21905,0.0024,0.01855,0.75535
0.2207,0.00285,0.01805,0.7538
0.222,0.0028,0.01835,0.7524
0.22255,0.0036,0.01845,0.7506
0.2237,0.00315,0.01825,0.7496
0.2247,0.00335,0.0183,0.74815
0.2274,0.0028,0.0189,0.7456
0.22935,0.00275,0.0186,0.7437
0.23025,0.0034,0.01915,0.7422
0.23225,0.003,0.0192,0.7404
0.23315,0.0038,0.0202,0.73855
0.2325,0.0039,0.01995,0.73865
0.23265,0.0041,0.02015,0.7377
0.2333,0.0039,0.0203,0.7369
0.234,0.00415,0.02065,0.7354
0.23415,0.00375,0.02225,0.7342
0.23415,0.0038,0.0213,0.7346
0.23475,0.00365,0.02225,0.73335
0.23405,0.0048,0.02215,0.73265
0.2358,0.0035,0.02235,0.73125
0.23625,0.00375,0.0218,0.7315
0.23615,0.0043,0.02205,0.7305
0.2361,0.00365,0.02225,0.73085
0.23645,0.00425,0.02275,0.72975
0.23565,0.00465,0.02365,0.72955
0.236,0.00425,0.02435,0.7287
0.23605,0.0043,0.02415,0.7284
0.2362,0.00515,0.02515,0.7264
0.2354,0.0051,0.02675,0.7257
0.2352,0.0048,0.02705,0.72525
0.23305,0.0057,0.0276,0.72585
0.2309,0.00635,0.0288,0.7258
0.22945,0.00565,0.0298,0.7262
0.2288,0.00455,0.0299,0.72705
0.2272,0.0056,0.03,0.7279
0.2267,0.0051,0.03,0.72835
0.22635,0.00485,0.03095,0.728
0.22605,0.0056,0.03175,0.7273
0.22435,0.00555,0.03265,0.7283
0.2233,0.00625,0.0318,0.72845
0.2226,0.00525,0.03245,0.72955
0.22035,0.0063,0.0337,0.73065
0.2185,0.0063,0.03375,0.73145
0.21645,0.0058,0.0346,0.7328
0.21555,0.00585,0.0346,0.73335
0.2144,0.00595,0.0358,0.7334
0.213,0.00555,0.0365,0.7355
0.21165,0.00605,0.0356,0.73705
0.21005,0.00595,0.0356,0.73875
0.208,0.00595,0.0356,0.741
0.20725,0.00595,0.03545,0.74165
0.206,0.00595,0.03535,0.7429
0.2051,0.0059,0.03595,0.743
0.20415,0.00645,0.03665,0.743
0.20365,0.0056,0.0354,0.7448
0.2036,0.00535,0.03645,0.74455
0.20445,0.00495,0.03615,0.74465
0.20495,0.00485,0.0352,0.74555
0.20305,0.0057,0.03575,0.7465
0.20145,0.00585,0.034,0.74865
0.2003,0.00555,0.03465,0.74945
0.1998,0.0049,0.03455,0.7505
0.1989,0.006,0.03505,0.7503
0.19755,0.0056,0.0353,0.7518
0.1977,0.0051,0.0357,0.75175
0.19855,0.00565,0.0343,0.752
0.19775,0.00555,0.03515,0.75225
0.197,0.00575,0.03535,0.7527
0.1966,0.00495,0.03515,0.75395
0.19415,0.0063,0.035,0.75515
0.1927,0.00585,0.0358,0.7561
0.19165,0.0061,0.03595,0.7571
0.1916,0.0047,0.03605,0.7584
0.19115,0.00525,0.03445,0.7602
0.1898,0.00585,0.03425,0.7611
0.1904,0.005,0.03465,0.76095
0.19025,0.00485,0.0338,0.7623
0.1913,0.00515,0.03365,0.76085
0.19155,0.0054,0.03375,0.76005
0.19215,0.0052,0.03425,0.7593
0.1914,0.00575,0.03465,0.75915
0.192,0.00455,0.03535,0.75865
0.1906,0.0063,0.03475,0.7591
0.1908,0.0053,0.03475,0.75935
0.1904,0.00595,0.0347,0.7592
0.18985,0.00515,0.0347,0.7605
0.1892,0.0051,0.03475,0.7614
0.18915,0.00535,0.03485,0.76145
0.18985,0.0049,0.03525,0.7609
0.18965,0.0053,0.0351,0.7615
0.1895,0.00525,0.03445,0.7618
0.18935,0.00495,0.0345,0.7621
0.1891,0.00485,0.03365,0.76295
0.18905,0.0054,0.03375,0.7634
0.1892,0.005,0.0336,0.7642
0.1894,0.00495,0.033,0.7644
0.19085,0.0048,0.03215,0.7638
0.19245,0.0046,0.03215,0.7621
0.1925,0.0054,0.0314,0.7623
0.19305,0.00425,0.0306,0.76305
0.19315,0.00475,0.0309,0.76295
0.1924,0.0053,0.03105,0.7631
0.1928,0.0059,0.03255,0.7614
0.19415,0.00475,0.03085,0.76155
0.19455,0.0045,0.0312,0.76155
0.1952,0.00485,0.03105,0.7608
0.195,0.00495,0.03095,0.76095
0.19435,0.00545,0.03115,0.7608
0.1943,0.00545,0.0323,0.75985
0.19385,0.0056,0.0322,0.76
0.19455,0.005,0.0327,0.75945
0.19445,0.00505,0.0332,0.7593
0.1939,0.0057,0.0321,0.75975
0.194,0.0048,0.0319,0.7598
0.19415,0.0049,0.03135,0.76055
0.1948,0.0047,0.0323,0.75975
0.19465,0.00525,0.0319,0.75965
0.19355,0.0052,0.0332,0.76005
0.1943,0.00545,0.0341,0.75875
0.19435,0.00585,0.03355,0.75785
0.19455,0.00495,0.0331,0.7583
0.1943,0.005,0.0331,0.7585
0.195,0.0044,0.03295,0.7588
0.19475,0.0054,0.03195,0.75905
0.1933,0.0061,0.0328,0.759
0.19275,0.00535,0.033,0.75975
0.1923,0.0051,0.0321,0.76075
0.1913,0.00575,0.0329,0.76105
0.1908,0.006,0.03275,0.76075
0.1917,0.0046,0.03355,0.76005
0.19175,0.0048,0.03185,0.7609
0.1919,0.0045,0.03255,0.76085
0.19135,0.0051,0.03285,0.76175
0.19085,0.0055,0.0329,0.76185
0.19125,0.0044,0.033,0.7622
0.19065,0.0049,0.03235,0.76285
0.19105,0.0043,0.032,0.7636
0.1922,0.00465,0.0319,0.76215
0.19245,0.0045,0.03185,0.76255
0.1929,0.00425,0.03195,0.76295
0.192,0.005,0.0302,0.76485
0.19285,0.0048,0.03085,0.76335
0.1934,0.0051,0.0302,0.76275
0.1945,0.0038,0.02995,0.7625
0.19455,0.00495,0.02975,0.76225
0.19465,0.0051,0.0301,0.7624
0.1955,0.00425,0.0301,0.76235
0.19635,0.0043,0.0292,0.7622
0.1964,0.00545,0.0282,0.76175
0.1975,0.0043,0.0297,0.7604
0.19765,0.0048,0.0293,0.7605
0.1971,0.0052,0.0299,0.75985
0.197,0.00445,0.0298,0.7603
0.1967,0.005,0.0295,0.7606
0.1956,0.0053,0.02995,0.76085
0.1949,0.00505,0.0304,0.7613
0.1942,0.00495,0.03065,0.76195
0.19495,0.00415,0.03055,0.76155
0.19585,0.0041,0.03045,0.76155
0.1974,0.00385,0.0288,0.76175
0.1982,0.0043,0.0288,0.7606
0.19825,0.0041,0.0298,0.7604
0.1981,0.0049,0.0287,0.76075
0.1999,0.00435,0.02815,0.7593
0.20065,0.00435,0.0269,0.7593
0.20035,0.0046,0.0281,0.75895
0.2019,0.0037,0.0283,0.7582
0.20275,0.004,0.0271,0.7581
0.2022,0.00495,0.02665,0.75795
0.20265,0.0048,0.0273,0.75715
0.20275,0.00455,0.0269,0.75715
0.20275,0.0044,0.0278,0.7572
0.20315,0.00415,0.0284,0.75725
0.2026,0.00445,0.02885,0.757
0.2018,0.00495,0.02865,0.7571
0.2021,0.0048,0.02885,0.75615
0.2023,0.00465,0.0292,0.7553
0.2023,0.0047,0.0287,0.75585
0.20205,0.00495,0.029,0.7563
0.2029,0.0044,0.0284,0.75625
0.20385,0.0042,0.0287,0.75585
0.20295,0.0056,0.02905,0.75575
0.203,0.00425,0.0295,0.756
0.20405,0.00375,0.0288,0.75625
0.2039,0.0048,0.02745,0.75655
0.20335,0.0048,0.02805,0.75695
0.20325,0.0048,0.02895,0.75605
0.20275,0.00475,0.02885,0.7567
0.2035,0.00365,0.0282,0.7572
0.2038,0.00455,0.02775,0.7569
0.2048,0.00395,0.02795,0.7563
0.2046,0.00465,0.0272,0.7566
0.2049,0.00425,0.0267,0.75645
0.20545,0.00415,0.02605,0.7567
0.20495,0.00485,0.02625,0.75675
0.20425,0.00485,0.02625,0.7565
0.20405,0.00525,0.02665,0.75585
0.2032,0.00475,0.0277,0.7559
0.20375,0.0046,0.0288,0.75485
0.20405,0.00445,0.02855,0.75485
0.2039,0.00505,0.0287,0.75455
0.204,0.0046,0.0287,0.75435
0.204,0.00405,0.02865,0.7547
0.20335,0.00495,0.0288,0.75495
0.20355,0.0042,0.02895,0.7554
0.2043,0.00445,0.0292,0.75445
0.2045,0.00405,0.02895,0.7554
0.20415,0.00425,0.02895,0.7558
0.2044,0.0045,0.02945,0.7551
0.20355,0.0045,0.0295,0.7559
0.20425,0.0044,0.0293,0.75475
0.2033,0.00505,0.02885,0.7549
0.2026,0.00475,0.02865,0.7551
0.20325,0.0044,0.03025,0.7535
0.2028,0.0048,0.0303,0.7538
0.2028,0.0044,0.03105,0.75405
0.2023,0.0048,0.0314,0.7544
0.202,0.00525,0.0306,0.75455
0.2011,0.0051,0.0308,0.7551
0.20195,0.00395,0.03045,0.7555
0.2014,0.0053,0.0297,0.7556
0.202,0.00485,0.0307,0.7541
0.20255,0.00465,0.03005,0.75405
0.20195,0.0048,0.0304,0.7547
0.20225,0.00485,0.0301,0.75415
0.2015,0.0052,0.02945,0.75465
0.2017,0.004,0.0302,0.7546
0.201,0.0054,0.0301,0.75445
0.20105,0.00445,0.03125,0.75455
0.2013,0.0049,0.0311,0.7549
0.20145,0.0043,0.03065,0.7552
0.2005,0.00515,0.0298,0.75595
0.20105,0.005,0.03115,0.75465
0.2001,0.0054,0.0314,0.7551
0.1997,0.00495,0.03135,0.7554
0.199,0.0052,0.0312,0.75565
0.1984,0.0044,0.0308,0.75715
0.19835,0.00465,0.0313,0.7572
0.1981,0.0053,0.0317,0.7567
0.19855,0.00445,0.03075,0.757
0.1978,0.0051,0.0308,0.75765
0.1977,0.0048,0.03085,0.7578
0.1978,0.0049,0.03105,0.75785
0.1975,0.0049,0.0316,0.758
0.19705,0.00465,0.03055,0.75975
0.1973,0.00455,0.0298,0.7603
0.19715,0.00525,0.02975,0.7595
0.19725,0.00455,0.0306,0.7591
0.19585,0.0055,0.03035,0.7603
0.1954,0.0052,0.0307,0.7599
0.19585,0.00445,0.03095,0.7602
0.195,0.0054,0.03095,0.7607
0.19665,0.0038,0.02935,0.76165
0.1964,0.00495,0.028,0.76195
0.1963,0.0046,0.0291,0.76175
0.197,0.00475,0.02995,0.76055
0.1979,0.0038,0.0289,0.7613
0.19745,0.00495,0.0293,0.76105
0.1977,0.00465,0.02885,0.7604
0.1979,0.00455,0.03,0.75985
0.1978,0.00475,0.0295,0.76025
0.1987,0.00365,0.02865,0.7609
0.1994,0.00465,0.0283,0.76025
0.19985,0.0045,0.02855,0.75935
0.20065,0.00415,0.0285,0.75915
0.2007,0.0049,0.0286,0.75795
0.20195,0.00445,0.029,0.75665
0.2028,0.00435,0.03035,0.7554
0.20345,0.00445,0.0291,0.7557
0.20375,0.0044,0.02825,0.75615
0.2037,0.00505,0.0287,0.75575
0.2035,0.00495,0.02815,0.75585
0.20355,0.0046,0.0272,0.7565
0.20385,0.00455,0.027,0.7566
0.20415,0.00425,0.02635,0.7568
0.204,0.005,0.0268,0.75585
0.20255,0.00595,0.0279,0.7553
0.2024,0.00485,0.0297,0.7545
0.20315,0.0043,0.02985,0.75405
0.20375,0.00455,0.02875,0.7547
0.20315,0.00545,0.0287,0.75465
0.20185,0.0059,0.03005,0.7539
0.20245,0.00475,0.03075,0.75335
0.2032,0.0047,0.02945,0.75345
0.20265,0.00465,0.03055,0.7536
0.20235,0.00525,0.03045,0.75375
0.201,0.00545,0.03045,0.75465
0.2006,0.00565,0.03055,0.75455
0.2014,0.00475,0.03065,0.7544
0.20115,0.0058,0.0305,0.7541
0.2026,0.0042,0.03175,0.75265
0.20245,0.0054,0.031,0.7527
0.2023,0.005,0.03115,0.753
0.20245,0.00455,0.03165,0.753
0.2018,0.0059,0.0309,0.75305
0.20145,0.0059,0.0325,0.7519
0.2003,0.006,0.03255,0.7519
0.20025,0.00495,0.0333,0.75245
0.2002,0.00505,0.03215,0.75335
0.20055,0.00485,0.03135,0.75355
0.20045,0.0047,0.0316,0.7538
0.19955,0.0049,0.03105,0.7557
0.1995,0.00565,0.03095,0.75555
0.1993,0.00495,0.03195,0.75535
0.20085,0.0036,0.03175,0.75525
0.20085,0.00485,0.03115,0.75555
0.2015,0.00495,0.03125,0.75415
0.2008,0.0058,0.03085,0.7546
0.20235,0.00405,0.0313,0.75385
0.2038,0.0047,0.0307,0.7523
0.2034,0.0056,0.0306,0.75205
0.2023,0.00645,0.0316,0.7517
0.2019,0.0051,0.03265,0.7517
0.203,0.0048,0.0317,0.75135
0.20315,0.00555,0.03205,0.75055
0.20275,0.0056,0.03255,0.7501
0.2033,0.0045,0.032,0.75035
0.2029,0.0056,0.0321,0.75025
0.20285,0.0058,0.0332,0.7492
0.20275,0.0053,0.03295,0.74935
0.2018,0.00545,0.0331,0.75015
0.20185,0.0058,0.0339,0.74895
0.2022,0.00495,0.03495,0.7486
0.20115,0.0057,0.03485,0.7495
0.1995,0.006,0.0359,0.74935
0.19945,0.00545,0.0357,0.7493
0.199,0.00565,0.0358,0.75
0.1978,0.00625,0.03535,0.7506
0.19945,0.00465,0.0349,0.75045
0.2002,0.0053,0.03485,0.74945
0.19965,0.0052,0.03495,0.7503
0.1989,0.0052,0.0355,0.7509
0.19965,0.00415,0.03545,0.75165
0.1989,0.00525,0.0344,0.75235
0.19895,0.00545,0.0343,0.75215
0.19795,0.0056,0.0351,0.7524
0.1983,0.0045,0.03475,0.75335
0.1964,0.0067,0.0335,0.7547
0.1971,0.00495,0.0335,0.75525
0.1967,0.00505,0.0337,0.7557
0.19705,0.0048,0.0338,0.75545
0.1968,0.005,0.03335,0.75595
0.19675,0.00485,0.0331,0.75635
0.19655,0.0057,0.03185,0.75735
0.19615,0.0049,0.03185,0.7583
0.1952,0.0055,0.03225,0.75885
0.1958,0.0045,0.03195,0.75895
0.1952,0.00535,0.03155,0.7595
0.19435,0.00555,0.03185,0.75945
0.193,0.00615,0.03235,0.75995
0.1935,0.00475,0.03225,0.76035
0.1929,0.0053,0.0316,0.76145
0.1945,0.00425,0.0312,0.7607
0.19515,0.0047,0.0311,0.7602
0.19545,0.00505,0.03095,0.76025
0.196,0.00465,0.03135,0.75935
0.1958,0.0048,0.0315,0.7596
0.1962,0.00425,0.03105,0.76045
0.19835,0.0037,0.02995,0.75975
0.19905,0.0047,0.02995,0.7585
0.19875,0.00485,0.0307,0.75875
0.1996,0.00495,0.0301,0.75825
0.199,0.00545,0.03025,0.75795
0.19975,0.00465,0.0307,0.7572
0.19885,0.00515,0.03035,0.758
0.19965,0.00425,0.03035,0.75755
0.2005,0.0048,0.03,0.75665
0.2005,0.00475,0.0308,0.7563
0.2005,0.00605,0.0311,0.755
0.1997,0.0048,0.0304,0.7568
0.1995,0.00485,0.03025,0.7567
0.20115,0.00405,0.0304,0.75585
0.2015,0.0053,0.02925,0.7557
0.2028,0.00465,0.0293,0.75475
0.20425,0.0039,0.0296,0.7539
0.20455,0.00445,0.0288,0.75335
0.20415,0.00485,0.0292,0.75305
0.2036,0.00505,0.0294,0.75265
0.20425,0.0047,0.02985,0.75245
0.2044,0.00495,0.0295,0.7522
0.20435,0.0051,0.03045,0.75185
0.20495,0.0047,0.03095,0.7512
0.205,0.00525,0.03005,0.75115
0.20625,0.00365,0.03075,0.75125
0.2052,0.00535,0.03005,0.75175
0.20515,0.0047,0.03045,0.7514
0.2044,0.0045,0.03015,0.75285
0.20535,0.0049,0.0294,0.7526
0.2063,0.0051,0.0299,0.7512
0.20695,0.00455,0.0301,0.7512
0.20835,0.0041,0.03045,0.75
0.21015,0.00435,0.03,0.7484
0.20915,0.0048,0.02875,0.74965
0.2093,0.0051,0.02865,0.74875
0.2091,0.00485,0.029,0.7484
0.20975,0.00545,0.02985,0.74625
0.20945,0.00535,0.03055,0.74595
0.2092,0.00535,0.0312,0.7456
0.2086,0.00615,0.0313,0.7455
0.2086,0.00525,0.0315,0.74505
0.2078,0.00545,0.03035,0.7462
0.209,0.005,0.0312,0.74485
0.20935,0.00495,0.0316,0.7447
0.2089,0.005,0.02945,0.74605
0.2088,0.0047,0.03015,0.74665
0.20735,0.0057,0.03025,0.74665
0.20755,0.00455,0.03065,0.7466
0.207,0.00495,0.0309,0.74795
0.20645,0.0048,0.0305,0.74935
0.2058,0.00495,0.0313,0.7492
0.2066,0.00525,0.03165,0.748
0.2059,0.0049,0.0314,0.74885
0.2056,0.00485,0.03105,0.7496
0.205,0.00565,0.0303,0.7498
0.2061,0.00375,0.03105,0.75015
0.207,0.0045,0.03055,0.7495
0.20715,0.0053,0.03045,0.7488
0.2061,0.0055,0.03035,0.74945
0.20645,0.00495,0.03065,0.74905
0.2067,0.0044,0.0302,0.75015
0.2075,0.00475,0.0307,0.74905
0.20655,0.0055,0.0298,0.74955
0.20795,0.00495,0.03095,0.7479
