moyS, moyE, moyI, moyR
0.999,0.0,0.001,0.0
0.99835,6.5E-4,8.0E-4,2.0E-4
0.9976,7.5E-4,8.5E-4,3.5E-4
0.9968,8.0E-4,0.00115,5.0E-4
0.99535,0.00145,0.00135,8.0E-4
0.99365,0.0017,0.0022,0.00105
0.9916,0.00205,0.00295,0.00145
0.98875,0.00285,0.00385,0.0022
0.9846,0.00415,0.005,0.003
0.9795,0.0051,0.0071,0.00385
0.97275,0.00675,0.0094,0.0053
0.9622,0.0106,0.01335,0.00685
0.949,0.01325,0.0181,0.0089
0.92905,0.01995,0.02505,0.01215
0.9042,0.025,0.0338,0.01665
0.87415,0.0302,0.04505,0.02265
0.83285,0.04135,0.06015,0.0309
0.78395,0.04895,0.08075,0.04075
0.72305,0.06095,0.10355,0.05555
0.6536,0.0696,0.1299,0.075
0.57455,0.07915,0.162,0.09825
0.49195,0.08285,0.195,0.12635
0.41205,0.0802,0.23245,0.1595
0.3349,0.0775,0.2663,0.1974
0.2667,0.0691,0.29795,0.2402
0.20965,0.05795,0.3152,0.2893
0.16175,0.049,0.3315,0.33675
0.12525,0.0374,0.3397,0.3868
0.09515,0.03155,0.33955,0.4359
0.0718,0.0247,0.3325,0.48425
0.0567,0.0168,0.31845,0.53345
0.0466,0.0118,0.3014,0.57995
0.03845,0.00995,0.2787,0.6237
0.03255,0.00835,0.2553,0.6631
0.02995,0.0052,0.23555,0.697
0.0259,0.00605,0.2151,0.72735
0.0233,0.00495,0.19605,0.75455
0.023,0.00345,0.1762,0.7799
0.02315,0.0027,0.15865,0.80145
0.02255,0.003,0.1427,0.8206
0.0235,0.00295,0.12745,0.8368
0.02395,0.00235,0.11215,0.85325
0.0258,0.00165,0.0989,0.8661
0.0269,0.0019,0.08755,0.87745
0.02875,0.00185,0.0794,0.8851
0.03105,0.0015,0.0702,0.893
0.03245,0.00165,0.0632,0.89895
0.0341,0.00125,0.05695,0.90475
0.0369,9.0E-4,0.05,0.90965
0.03855,0.0012,0.04315,0.915
0.0406,0.0013,0.0377,0.9184
0.04285,8.5E-4,0.03275,0.92135
0.0447,9.0E-4,0.029,0.9233
0.04705,0.001,0.0262,0.9237
0.0488,0.00135,0.02395,0.9239
0.05055,0.0011,0.02215,0.92425
0.0532,9.5E-4,0.0202,0.9242
0.05565,7.5E-4,0.01795,0.9242
0.05815,9.0E-4,0.01615,0.9234
0.0613,7.0E-4,0.01425,0.92225
0.06375,7.5E-4,0.01255,0.9212
0.06635,5.0E-4,0.0113,0.9202
0.0687,6.0E-4,0.01055,0.9189
0.0716,3.5E-4,0.0094,0.91755
0.0745,6.0E-4,0.00845,0.91555
0.0772,8.0E-4,0.00765,0.9135
0.0803,5.5E-4,0.0074,0.911
0.08275,6.0E-4,0.00665,0.90925
0.0854,4.5E-4,0.0056,0.90765
0.08855,4.5E-4,0.0053,0.90495
0.091,4.0E-4,0.00505,0.90285
0.093,5.5E-4,0.00465,0.9011
0.0956,2.5E-4,0.00425,0.89905
0.0985,3.5E-4,0.004,0.89635
0.10095,5.0E-5,0.00375,0.8946
0.10375,2.0E-4,0.0032,0.8925
0.10625,2.5E-4,0.00275,0.8903
0.10855,1.0E-4,0.0027,0.8882
0.11135,5.0E-5,0.00255,0.8858
0.1144,1.0E-4,0.00235,0.88305
0.1172,1.0E-4,0.00205,0.8805
0.11995,1.5E-4,0.00175,0.878
0.12175,1.5E-4,0.0017,0.8763
0.12375,1.0E-4,0.00135,0.87455
0.12655,0.0,0.00115,0.87205
0.129,1.5E-4,0.001,0.8697
0.13225,1.5E-4,8.5E-4,0.8666
0.1354,0.0,8.5E-4,0.86365
0.13755,1.5E-4,6.0E-4,0.8616
0.14,5.0E-5,6.5E-4,0.8592
0.14255,0.0,6.0E-4,0.8568
0.14575,0.0,4.0E-4,0.8538
0.148,0.0,4.0E-4,0.85155
0.1505,5.0E-5,4.0E-4,0.849
0.1525,5.0E-5,4.0E-4,0.84705
0.15475,0.0,2.5E-4,0.84495
0.15755,5.0E-5,2.5E-4,0.8421
0.16,0.0,2.5E-4,0.83965
0.1624,0.0,3.0E-4,0.83725
0.1649,1.0E-4,2.5E-4,0.8347
0.1674,0.0,3.0E-4,0.8322
0.1696,5.0E-5,2.5E-4,0.83
0.17215,5.0E-5,3.5E-4,0.8274
0.1743,5.0E-5,3.5E-4,0.82525
0.1761,0.0,3.5E-4,0.8235
0.17865,5.0E-5,3.0E-4,0.82095
0.181,5.0E-5,2.5E-4,0.8186
0.18355,0.0,2.5E-4,0.8161
0.186,0.0,2.0E-4,0.8137
0.1882,5.0E-5,1.5E-4,0.8115
0.19045,0.0,1.5E-4,0.80925
0.19235,0.0,1.0E-4,0.8074
0.1944,0.0,1.0E-4,0.80535
0.1967,0.0,1.0E-4,0.80305
0.19875,0.0,1.5E-4,0.801
0.2007,0.0,1.5E-4,0.7991
0.20275,0.0,1.5E-4,0.7971
0.205,0.0,1.5E-4,0.79485
0.2074,0.0,1.5E-4,0.79245
0.20995,5.0E-5,1.5E-4,0.78985
0.21215,0.0,1.0E-4,0.7877
0.21405,0.0,1.0E-4,0.7858
0.2165,5.0E-5,1.5E-4,0.7833
0.21835,0.0,1.5E-4,0.78145
0.22095,0.0,1.0E-4,0.7789
0.2234,1.0E-4,1.5E-4,0.77635
0.2253,5.0E-5,2.0E-4,0.77445
0.22745,0.0,2.0E-4,0.7723
0.22955,1.0E-4,2.0E-4,0.77015
0.23225,0.0,2.0E-4,0.7675
0.2346,0.0,2.0E-4,0.76515
0.23645,1.0E-4,1.5E-4,0.76325
0.23895,0.0,1.5E-4,0.76075
0.2402,1.0E-4,2.5E-4,0.7594
0.2434,0.0,3.5E-4,0.7562
0.2454,5.0E-5,3.5E-4,0.75415
0.2473,5.0E-5,4.0E-4,0.7522
0.24895,0.0,2.0E-4,0.75075
0.2509,5.0E-5,2.0E-4,0.74875
0.25285,0.0,2.0E-4,0.74685
0.25495,0.0,2.5E-4,0.7448
0.2569,2.0E-4,2.0E-4,0.7427
0.25945,0.0,2.0E-4,0.7402
0.26195,5.0E-5,2.0E-4,0.7377
0.26425,5.0E-5,2.5E-4,0.73535
0.2662,0.0,2.5E-4,0.73345
0.26875,5.0E-5,2.5E-4,0.7309
0.2704,0.0,3.0E-4,0.72925
0.27305,0.0,3.0E-4,0.72665
0.27435,5.0E-5,2.5E-4,0.72535
0.27615,5.0E-5,2.5E-4,0.7235
0.2784,5.0E-5,2.0E-4,0.7213
0.27995,1.0E-4,1.5E-4,0.7197
0.2813,0.0,1.0E-4,0.7184
0.2831,5.0E-5,2.0E-4,0.71655
0.2847,5.0E-5,1.5E-4,0.71495
0.2865,0.0,3.0E-4,0.71315
0.28785,1.5E-4,2.5E-4,0.7117
0.2895,0.0,3.0E-4,0.71005
0.29155,0.0,3.0E-4,0.7081
0.29345,0.0,3.0E-4,0.7062
0.2952,1.0E-4,3.0E-4,0.7044
0.297,0.0,4.0E-4,0.7026
0.29865,1.5E-4,3.5E-4,0.70085
0.30055,5.0E-5,4.0E-4,0.6989
0.30285,1.0E-4,4.0E-4,0.6966
0.3051,1.5E-4,5.0E-4,0.6942
0.3071,5.0E-5,6.5E-4,0.6922
0.30895,2.5E-4,5.5E-4,0.6902
0.311,3.5E-4,7.0E-4,0.6878
0.3128,2.0E-4,9.0E-4,0.686
0.31435,2.0E-4,9.5E-4,0.68445
0.3162,3.5E-4,9.0E-4,0.68235
0.3177,3.0E-4,0.001,0.6807
0.31885,3.5E-4,9.5E-4,0.6795
0.32085,2.0E-4,9.0E-4,0.67745
0.32295,2.0E-4,9.0E-4,0.6753
0.32555,1.0E-4,9.5E-4,0.6728
0.32715,4.5E-4,9.5E-4,0.671
0.3294,1.0E-4,0.0013,0.6687
0.3307,2.0E-4,0.00115,0.66745
0.3321,2.5E-4,0.0011,0.66605
0.33375,3.0E-4,0.00115,0.66425
0.33455,2.5E-4,0.0011,0.66345
0.33635,4.0E-4,0.00125,0.6613
0.3379,3.0E-4,0.0016,0.65945
0.33905,6.0E-4,0.00185,0.65805
0.34025,4.5E-4,0.002,0.6566
0.3406,9.0E-4,0.00215,0.65575
0.34175,8.0E-4,0.0024,0.6542
0.3424,6.5E-4,0.00285,0.6531
0.34295,0.001,0.00295,0.65195
0.34365,8.0E-4,0.00335,0.6508
0.3444,0.00105,0.004,0.64945
0.34515,0.001,0.0043,0.6483
0.3458,0.0012,0.00435,0.64725
0.346,0.0013,0.0045,0.64645
0.3472,9.0E-4,0.00525,0.6451
0.34715,0.00145,0.0054,0.6446
0.34745,0.00185,0.006,0.6433
0.34755,0.00145,0.0065,0.6426
0.34775,0.0014,0.0072,0.6419
0.348,0.00165,0.007,0.6413
0.3481,0.0016,0.007,0.64035
0.34775,0.00205,0.0071,0.6401
0.34755,0.0017,0.00795,0.63995
0.34725,0.0026,0.00825,0.639
0.3472,0.00235,0.00885,0.6379
0.34635,0.00305,0.00975,0.6372
0.34505,0.00285,0.01145,0.6368
0.3434,0.0036,0.01245,0.6366
0.3414,0.00405,0.0141,0.6359
0.3392,0.0037,0.0145,0.6372
0.33625,0.00495,0.0162,0.63725
0.3331,0.0048,0.01745,0.6384
0.3306,0.00435,0.0188,0.63915
0.3269,0.0059,0.0193,0.6404
0.3237,0.0053,0.0211,0.6413
0.3199,0.0057,0.0237,0.64195
0.3148,0.00725,0.02535,0.6432
0.3095,0.0069,0.0275,0.64565
0.3051,0.0073,0.02925,0.64735
0.29995,0.0073,0.0313,0.6496
0.2947,0.00755,0.0322,0.6524
0.2883,0.00835,0.03555,0.6555
0.28205,0.00855,0.03615,0.65985
0.2753,0.0081,0.0387,0.6644
0.2689,0.00855,0.04085,0.6682
0.26265,0.0085,0.04305,0.6719
0.2568,0.00855,0.0445,0.676
0.24915,0.0097,0.04455,0.68155
0.2417,0.0095,0.04815,0.68615
0.23385,0.0098,0.0494,0.6922
0.2279,0.00875,0.04975,0.6978
0.22305,0.0083,0.0512,0.7027
0.21595,0.0095,0.05085,0.70905
0.2101,0.00905,0.0515,0.7141
0.20455,0.00865,0.05145,0.71985
0.1997,0.00815,0.05225,0.72425
0.19465,0.008,0.05205,0.73
0.1903,0.00735,0.05245,0.7352
0.1851,0.0083,0.0525,0.73995
0.1808,0.0073,0.05145,0.74565
0.17605,0.00735,0.0517,0.75135
0.1719,0.0075,0.0514,0.75595
0.1678,0.0073,0.04955,0.76165
0.1641,0.007,0.04955,0.7652
0.16105,0.00625,0.04885,0.7702
0.15805,0.0059,0.0478,0.7751
0.1557,0.00605,0.04835,0.7783
0.15445,0.00505,0.0476,0.78165
0.15315,0.00505,0.0456,0.7852
0.1504,0.00575,0.0448,0.78915
0.1474,0.00595,0.04345,0.79395
0.14675,0.0045,0.04115,0.79695
0.1453,0.0047,0.04155,0.7991
0.14505,0.0048,0.04025,0.8011
0.1435,0.005,0.0397,0.80345
0.14195,0.00485,0.0386,0.8068
0.14175,0.00405,0.0379,0.80935
0.1417,0.00385,0.03615,0.8116
0.14115,0.0042,0.0342,0.81395
0.1414,0.00375,0.03165,0.816
0.1425,0.0028,0.03075,0.8169
0.14305,0.0034,0.0295,0.81765
0.1424,0.00395,0.02845,0.8189
0.1425,0.00345,0.0282,0.81965
0.143,0.0031,0.0262,0.8209
0.14405,0.00265,0.0258,0.82105
0.1444,0.00315,0.0246,0.8219
0.1468,0.00225,0.0241,0.82085
0.1475,0.00305,0.02255,0.821
0.1492,0.00225,0.0216,0.82095
0.1505,0.00225,0.02105,0.82085
0.15285,0.0022,0.0202,0.81995
0.15545,0.002,0.0193,0.81895
0.15745,0.0024,0.0187,0.81765
0.15925,0.0017,0.0178,0.81705
0.161,0.00155,0.0176,0.81655
0.1627,0.0023,0.01615,0.8157
0.1655,0.0012,0.01595,0.81385
0.1677,0.00205,0.0147,0.8123
0.1699,0.0015,0.0142,0.81085
0.17225,0.0016,0.014,0.80865
0.17495,0.00175,0.0133,0.8067
0.1773,0.00215,0.0138,0.80385
0.18,0.0019,0.01405,0.8008
0.1837,0.00175,0.0137,0.7978
0.1853,0.00225,0.013,0.79625
0.18715,0.0017,0.01345,0.79455
0.1894,0.0016,0.0134,0.7925
0.1928,0.0019,0.01295,0.78935
0.1951,0.00175,0.01305,0.7873
0.1966,0.002,0.0127,0.78595
0.19845,0.0024,0.01275,0.78335
0.2007,0.00195,0.0128,0.7813
0.20245,0.00235,0.0125,0.77945
0.20495,0.00185,0.01285,0.77695
0.2068,0.0024,0.0126,0.77465
0.2084,0.00185,0.0124,0.77355
0.2106,0.0018,0.01255,0.77175
0.2127,0.0018,0.01215,0.7701
0.21465,0.002,0.01205,0.76825
0.2171,0.0015,0.012,0.766
0.21915,0.00165,0.0119,0.76415
0.22195,0.0015,0.01185,0.76185
0.2251,0.00155,0.0109,0.75935
0.22775,0.00175,0.01085,0.7567
0.23035,0.00185,0.0105,0.754
0.23195,0.0023,0.01095,0.75185
0.23355,0.0026,0.01155,0.7495
0.23595,0.0016,0.0113,0.7475
0.23815,0.00175,0.011,0.7455
0.2399,0.00195,0.01045,0.744
0.24155,0.0019,0.01135,0.74185
0.24295,0.0019,0.0114,0.7403
0.24445,0.00225,0.0117,0.73815
0.2462,0.00215,0.0122,0.73575
0.2475,0.0026,0.0124,0.73355
0.24835,0.0028,0.0133,0.7318
0.24955,0.0029,0.0135,0.73005
0.2499,0.00285,0.01435,0.72885
0.2511,0.0026,0.0148,0.7271
0.25115,0.0033,0.0151,0.7261
0.25165,0.0035,0.0161,0.7241
0.25145,0.0032,0.01675,0.72345
0.25155,0.00345,0.01705,0.7227
0.25185,0.0032,0.01725,0.72245
0.25155,0.0041,0.0177,0.72105
0.25155,0.00395,0.01855,0.7202
0.25175,0.00395,0.0194,0.7191
0.25165,0.004,0.0199,0.7179
0.25175,0.0043,0.0206,0.7161
0.25125,0.00375,0.0212,0.71635
0.2507,0.00415,0.02115,0.7166
0.2495,0.00455,0.02095,0.71765
0.2488,0.0047,0.02135,0.7177
0.2474,0.0049,0.0223,0.7179
0.24735,0.0038,0.02195,0.71805
0.24715,0.00445,0.02245,0.7173
0.24655,0.005,0.0235,0.7167
0.24535,0.005,0.02455,0.7168
0.2442,0.00465,0.0261,0.7173
0.24275,0.00525,0.02625,0.7177
0.24105,0.00565,0.0271,0.7175
0.24045,0.005,0.0282,0.7171
0.2391,0.0058,0.02745,0.71815
0.2372,0.0063,0.0288,0.71815
0.2374,0.0047,0.0295,0.7181
0.23665,0.0053,0.02995,0.71835
0.23445,0.00575,0.03075,0.71895
0.23385,0.0051,0.0317,0.71925
0.232,0.0062,0.03195,0.72
0.2307,0.00575,0.0323,0.72065
0.229,0.0059,0.03235,0.72215
0.2264,0.00695,0.03325,0.723
0.2237,0.0065,0.0345,0.72465
0.21985,0.00795,0.03635,0.72535
0.21745,0.0068,0.03765,0.72615
0.2152,0.00685,0.0382,0.72725
0.2133,0.0061,0.03895,0.7292
0.21125,0.00645,0.03955,0.7314
0.20895,0.00615,0.03965,0.7338
0.20675,0.00695,0.0395,0.7355
0.20475,0.0063,0.03945,0.73825
0.2013,0.00675,0.0392,0.7418
0.19975,0.0055,0.03955,0.7446
0.19915,0.0059,0.0388,0.74625
0.19725,0.00605,0.0395,0.7475
0.19515,0.0056,0.0389,0.7504
0.19345,0.0062,0.03825,0.75265
0.19335,0.00455,0.0388,0.754
0.1929,0.0054,0.0372,0.75485
0.1922,0.0062,0.0373,0.7546
0.1915,0.00575,0.03735,0.755
0.1914,0.00545,0.036,0.75615
0.1905,0.0058,0.03685,0.7563
0.19015,0.0054,0.03655,0.75725
0.18935,0.0056,0.03665,0.75815
0.1878,0.00675,0.03715,0.7587
0.18715,0.00605,0.03735,0.759
0.18705,0.0051,0.03795,0.7597
0.18495,0.00655,0.0387,0.76025
0.1843,0.0064,0.03915,0.7603
0.1836,0.00595,0.0395,0.76095
0.18375,0.0053,0.03895,0.76155
0.18245,0.00645,0.0387,0.76285
0.1814,0.00615,0.0384,0.7636
0.1807,0.00535,0.03905,0.76455
0.1807,0.0047,0.0373,0.7672
0.1813,0.00525,0.0362,0.7673
0.18085,0.00515,0.0363,0.7678
0.17995,0.006,0.0362,0.7686
0.17875,0.0058,0.03605,0.76995
0.1779,0.00535,0.0361,0.77105
0.1786,0.00485,0.03605,0.7709
0.1783,0.0059,0.0347,0.77165
0.1794,0.00475,0.03435,0.77185
0.17955,0.0053,0.03475,0.77145
0.1787,0.0058,0.0342,0.77245
0.178,0.0055,0.0342,0.77305
0.17785,0.0047,0.0344,0.77335
0.1781,0.0051,0.0335,0.7736
0.17885,0.00455,0.03345,0.77355
0.18,0.0047,0.0329,0.77285
0.17995,0.00555,0.03305,0.77225
0.18085,0.0042,0.0328,0.77295
0.1806,0.0051,0.0327,0.77375
0.1805,0.0053,0.03305,0.77315
0.18025,0.0049,0.0332,0.7735
0.18055,0.0051,0.033,0.7732
0.1813,0.00485,0.03235,0.7729
0.1811,0.00465,0.0325,0.77325
0.18235,0.0053,0.03175,0.77225
0.1827,0.0049,0.0325,0.77165
0.1829,0.00425,0.0303,0.77295
0.18315,0.0043,0.0309,0.7724
0.18305,0.00535,0.03065,0.772
0.1836,0.0043,0.0301,0.77205
0.1832,0.0048,0.02995,0.7723
0.1845,0.0039,0.0304,0.77235
0.18415,0.00485,0.02925,0.77325
0.1848,0.00555,0.0299,0.77155
0.1858,0.00415,0.02975,0.77115
0.18555,0.00535,0.0296,0.7712
0.18545,0.00515,0.03005,0.7711
0.1866,0.0042,0.03035,0.7702
0.18635,0.0046,0.0301,0.77045
0.1871,0.0045,0.0293,0.7701
0.18825,0.00415,0.02985,0.76915
0.19065,0.00365,0.02955,0.7678
0.1906,0.0042,0.0296,0.7678
0.19115,0.0047,0.0298,0.7668
0.19105,0.0052,0.0311,0.7654
0.19135,0.0047,0.03125,0.7652
0.1913,0.00465,0.03045,0.76565
0.1924,0.0046,0.03085,0.76455
0.1924,0.0046,0.02955,0.76545
0.1923,0.00545,0.02945,0.7648
0.193,0.00455,0.02965,0.7644
0.19245,0.0052,0.02925,0.7649
0.19315,0.00485,0.02915,0.7637
0.1931,0.0045,0.0287,0.76505
0.1937,0.0044,0.0292,0.7644
0.19435,0.00425,0.02855,0.7644
0.1953,0.0045,0.02815,0.7637
0.1957,0.00435,0.0283,0.76335
0.19565,0.00455,0.0286,0.7632
0.19605,0.00395,0.0274,0.7645
0.19735,0.0037,0.0283,0.76335
0.19805,0.00415,0.02805,0.7627
0.1984,0.0043,0.02835,0.76205
0.1986,0.00515,0.02915,0.761
0.19805,0.0057,0.02835,0.76105
0.1981,0.005,0.02885,0.7604
0.19865,0.00445,0.0283,0.76035
0.19975,0.004,0.02885,0.7595
0.19955,0.0047,0.0287,0.75935
0.199,0.00435,0.0286,0.76015
0.1995,0.0044,0.0277,0.76045
0.20045,0.004,0.0276,0.75945
0.20085,0.00385,0.02735,0.75955
0.2008,0.00405,0.02745,0.76
0.20225,0.0036,0.02685,0.76
0.203,0.00375,0.02595,0.75985
0.2036,0.0043,0.02545,0.7588
0.20385,0.0042,0.0251,0.7592
0.20425,0.0044,0.02585,0.7582
0.2057,0.0034,0.02495,0.7582
0.20665,0.0034,0.0242,0.75825
0.20655,0.00445,0.024,0.75775
0.2065,0.0042,0.0246,0.7572
0.2068,0.0048,0.0254,0.7557
0.207,0.00365,0.0257,0.75575
0.2076,0.0043,0.0254,0.75565
0.20795,0.0041,0.02475,0.7557
0.20925,0.0036,0.0252,0.7546
0.20995,0.00385,0.02475,0.7537
0.2099,0.0046,0.0256,0.7528
0.2094,0.00495,0.02615,0.75215
0.20945,0.0048,0.02645,0.75135
0.21005,0.00375,0.02605,0.7522
0.21135,0.00295,0.02645,0.7517
0.21075,0.0051,0.0261,0.75155
0.21025,0.00455,0.02615,0.75175
0.2105,0.00365,0.0263,0.75185
0.21105,0.00425,0.02595,0.7515
0.2113,0.00435,0.0266,0.75095
0.21165,0.00415,0.0262,0.75125
0.2121,0.00425,0.02635,0.75075
0.2132,0.00385,0.02585,0.7501
0.2143,0.00345,0.02555,0.74955
0.21445,0.00465,0.02625,0.74835
0.2147,0.0044,0.02605,0.74745
0.21325,0.00505,0.02675,0.748
0.2123,0.00495,0.0275,0.74865
0.211,0.00565,0.0273,0.7491
0.2106,0.00435,0.0282,0.7494
0.21025,0.00505,0.0288,0.749
0.21,0.0048,0.02885,0.74915
0.21025,0.0044,0.02885,0.74945
0.21045,0.00495,0.0294,0.74815
0.20965,0.0049,0.0294,0.749
0.2102,0.00415,0.0287,0.74965
0.20985,0.00445,0.02755,0.7504
0.20955,0.00465,0.02735,0.75055
0.20905,0.0046,0.02685,0.7514
0.20895,0.00505,0.02765,0.75065
0.20825,0.0047,0.02745,0.7516
0.20805,0.00465,0.0276,0.7514
0.2074,0.0052,0.0279,0.75145
0.2065,0.00485,0.02815,0.7521
0.20615,0.00495,0.0289,0.75165
0.20555,0.0048,0.0299,0.7515
0.2039,0.0059,0.0294,0.7521
0.2022,0.00495,0.03155,0.7526
0.20155,0.0053,0.03155,0.75365
0.19875,0.00575,0.0314,0.7558
0.19865,0.00445,0.03135,0.75675
0.19775,0.00565,0.0313,0.75655
0.19715,0.00455,0.03155,0.7579
0.19685,0.0038,0.0316,0.75915
0.19645,0.00515,0.0315,0.75885
0.196,0.0041,0.03175,0.76005
0.195,0.0052,0.03135,0.76085
0.19545,0.00425,0.031,0.76115
0.19565,0.00395,0.02935,0.76285
0.19575,0.0048,0.0302,0.76155
0.19495,0.0053,0.02955,0.7618
0.1945,0.0045,0.03045,0.76205
0.195,0.00385,0.0305,0.7618
0.195,0.0044,0.0298,0.7623
0.1946,0.00515,0.0288,0.76325
0.1944,0.00465,0.02905,0.76385
0.19415,0.00545,0.0296,0.7627
0.194,0.00475,0.03095,0.7622
0.19365,0.0043,0.03105,0.7622
0.1939,0.0042,0.03055,0.76315
0.19305,0.005,0.02965,0.76485
0.1932,0.00435,0.0298,0.765
0.19225,0.0051,0.0297,0.76545
0.1917,0.00515,0.02995,0.76525
0.192,0.0043,0.02995,0.76565
0.1926,0.00445,0.0297,0.76525
0.1933,0.0043,0.02915,0.76515
0.19335,0.00405,0.0282,0.7666
0.19265,0.0051,0.0276,0.7672
0.1935,0.00405,0.028,0.7668
0.193,0.00445,0.0272,0.76735
0.19395,0.00395,0.02675,0.7676
0.19405,0.0051,0.0272,0.76615
0.19495,0.0044,0.0279,0.7653
0.195,0.00485,0.0274,0.76485
0.19655,0.0039,0.0283,0.76345
0.1969,0.0042,0.0279,0.7636
0.1983,0.0035,0.0278,0.763
0.199,0.0032,0.02725,0.7632
0.1989,0.00525,0.0262,0.76285
0.19995,0.004,0.0263,0.7621
0.20005,0.0051,0.0269,0.76105
0.19985,0.0047,0.02725,0.7608
0.20005,0.0038,0.0271,0.76095
0.20065,0.0041,0.027,0.76065
0.20125,0.00335,0.0261,0.7615
0.20175,0.00405,0.02625,0.76085
0.20325,0.00355,0.0248,0.76095
0.20405,0.00385,0.02415,0.76075
0.20605,0.00385,0.02475,0.7582
0.20605,0.0043,0.02415,0.7583
0.2063,0.004,0.02495,0.75725
0.2063,0.0042,0.02575,0.7563
0.20615,0.0051,0.026,0.7559
0.20675,0.00415,0.026,0.755
0.2071,0.0043,0.02665,0.7548
0.2084,0.0037,0.02645,0.7544
0.2091,0.004,0.02585,0.75385
0.20855,0.00465,0.0257,0.75405
0.20945,0.00385,0.02665,0.75315
0.2094,0.0046,0.02655,0.75285
0.2099,0.00435,0.02685,0.7519
0.21065,0.00375,0.0268,0.7515
0.2103,0.005,0.02605,0.7511
0.2102,0.0045,0.02625,0.7512
0.21125,0.00375,0.02685,0.7505
0.2125,0.0041,0.0269,0.7496
0.2122,0.00515,0.02745,0.7484
0.2121,0.0046,0.02755,0.7483
0.2126,0.00445,0.0269,0.74845
0.21235,0.00475,0.0274,0.7479
0.2132,0.00425,0.028,0.74705
0.21225,0.0051,0.02795,0.7479
0.2117,0.00535,0.02855,0.7473
0.2126,0.0042,0.028,0.7471
0.21285,0.00515,0.0279,0.746
0.21225,0.0041,0.0289,0.7472
0.2111,0.0058,0.0284,0.7478
0.21125,0.0043,0.02675,0.7488
0.2112,0.0042,0.0271,0.74905
0.2104,0.00455,0.02755,0.7494
0.21165,0.00415,0.02725,0.74885
0.21135,0.0055,0.0277,0.74775
0.2111,0.00535,0.02925,0.74705
0.2091,0.00595,0.0294,0.7477
0.2091,0.0051,0.02975,0.74735
0.20875,0.00485,0.0304,0.7475
0.2085,0.00495,0.0308,0.74765
0.2082,0.0051,0.03055,0.74825
0.20815,0.0049,0.03085,0.7479
0.20885,0.00455,0.0308,0.74735
0.20915,0.00485,0.03105,0.7471
0.2079,0.0057,0.03045,0.7478
0.20695,0.0053,0.03115,0.7478
0.20725,0.005,0.03205,0.7471
0.2067,0.0052,0.0321,0.7471
0.2058,0.00515,0.03195,0.7485
0.2054,0.00575,0.0319,0.7481
0.2042,0.0055,0.0331,0.74815
0.20395,0.0056,0.03255,0.7487
0.2034,0.00515,0.0331,0.7483
0.2028,0.005,0.03245,0.75025
0.20315,0.00495,0.03235,0.75055
0.2026,0.0061,0.0317,0.75065
0.20245,0.0046,0.03235,0.7509
0.203,0.00505,0.03305,0.75005
0.2023,0.0051,0.0328,0.7517
0.2014,0.00555,0.03135,0.7528
0.2,0.00525,0.03285,0.75365
0.20035,0.00515,0.0335,0.75335
0.1991,0.00525,0.0328,0.7548
0.1986,0.00625,0.0329,0.75395
0.19925,0.00465,0.0331,0.75395
0.19845,0.0064,0.0332,0.7535
0.19825,0.0051,0.03405,0.75345
0.19855,0.00455,0.03365,0.7538
0.198,0.0058,0.0337,0.75375
0.19855,0.0046,0.03315,0.7545
0.19695,0.00645,0.03235,0.7547
0.1978,0.0048,0.0329,0.75385
0.1969,0.00555,0.03285,0.75405
0.19635,0.00565,0.03345,0.75455
0.1962,0.0051,0.03355,0.7555
0.19625,0.0051,0.03335,0.75595
0.19455,0.0062,0.0342,0.7564
0.19485,0.0052,0.03455,0.7562
0.19405,0.00645,0.03485,0.75585
0.1944,0.0049,0.0345,0.75615
0.1936,0.005,0.0352,0.75715
0.1922,0.0055,0.03335,0.75935
0.192,0.0053,0.0335,0.7594
0.1914,0.00465,0.03375,0.7605
0.1912,0.00515,0.03325,0.76125
0.19185,0.00465,0.0332,0.76155
0.1912,0.00585,0.033,0.7613
0.18995,0.0051,0.0316,0.76335
0.19045,0.0049,0.03245,0.76255
0.1906,0.0053,0.0319,0.7633
0.19155,0.005,0.03185,0.7637
0.1921,0.00495,0.0314,0.7635
0.1933,0.0045,0.03155,0.76245
0.1944,0.004,0.03055,0.7627
0.195,0.00435,0.03015,0.7626
0.1941,0.00575,0.02965,0.76225
0.1951,0.00435,0.03005,0.76145
0.19515,0.00605,0.02975,0.75995
0.19645,0.00365,0.0306,0.76025
0.1973,0.00405,0.02975,0.76075
0.19815,0.00395,0.0294,0.7607
0.19975,0.0038,0.0289,0.75975
0.1997,0.0053,0.0292,0.7586
0.2,0.00525,0.0299,0.75705
0.2013,0.0045,0.0295,0.756
0.2007,0.005,0.0304,0.7558
0.2011,0.0043,0.03025,0.75545
0.2014,0.00465,0.03025,0.7558
0.2001,0.00525,0.0295,0.7571
0.2009,0.004,0.02945,0.7574
0.20085,0.00515,0.02845,0.7571
0.2025,0.00385,0.02915,0.7558
0.20205,0.0047,0.0288,0.7561
0.20245,0.0045,0.03,0.7553
0.2034,0.0043,0.02865,0.75565
0.204,0.00435,0.0285,0.75495
0.20455,0.0038,0.0284,0.75475
0.20545,0.0053,0.02865,0.7526
0.205,0.00485,0.0293,0.75245
0.20485,0.0053,0.02955,0.7523
0.2044,0.0047,0.02965,0.753
0.2054,0.0041,0.02975,0.7526
0.20615,0.00445,0.0295,0.7522
0.2048,0.00645,0.02975,0.75135
0.20425,0.00555,0.0307,0.7509
0.20365,0.00545,0.03185,0.75065
0.2032,0.00545,0.03295,0.7503
0.20185,0.006,0.03215,0.75095
0.20085,0.00575,0.03295,0.7507
0.2005,0.00525,0.03415,0.7505
0.2001,0.00505,0.0343,0.75115
0.1993,0.0063,0.03515,0.75075
0.198,0.0054,0.0344,0.75295
0.1973,0.00565,0.03395,0.75355
0.1959,0.00685,0.03445,0.7532
0.19485,0.00515,0.03395,0.75535
0.1943,0.00565,0.03345,0.75575
0.19275,0.00615,0.0356,0.756
0.19365,0.00465,0.03515,0.75665
0.1928,0.00615,0.0355,0.7568
0.1925,0.0048,0.03545,0.75815
0.19,0.00665,0.036,0.75885
0.1879,0.0065,0.03635,0.7601
0.1875,0.00515,0.0359,0.76155
0.186,0.0063,0.03595,0.762
0.18475,0.0058,0.037,0.7633
0.18435,0.0055,0.0361,0.7647
0.1826,0.0069,0.0364,0.7652
0.18205,0.00555,0.03515,0.7669
0.1822,0.00515,0.03455,0.7674
0.1812,0.00575,0.0361,0.76775
0.17975,0.00615,0.0361,0.7688
0.17835,0.0062,0.03685,0.7695
0.1788,0.0056,0.03625,0.7699
0.17755,0.0063,0.03625,0.77045
0.17835,0.0053,0.03495,0.7715
0.1783,0.00525,0.03515,0.7717
0.17925,0.00415,0.0357,0.7716
0.181,0.00405,0.0348,0.77135
0.18155,0.0044,0.03315,0.7727
0.18225,0.0045,0.03275,0.77225
0.1826,0.00535,0.0324,0.77075
0.18365,0.00405,0.03325,0.77045
0.1844,0.0048,0.03275,0.7701
0.1854,0.00425,0.0318,0.7703
