moyS, moyE, moyI, moyR
0.999,0.0,0.001,0.0
0.99835,6.5E-4,6.0E-4,4.0E-4
0.99755,8.0E-4,9.0E-4,4.5E-4
0.99645,0.0011,0.0013,6.0E-4
0.99465,0.0018,0.0018,8.5E-4
0.99235,0.0023,0.0025,0.0012
0.9891,0.00325,0.0039,0.00155
0.98475,0.00435,0.00495,0.00245
0.97935,0.0054,0.00695,0.00365
0.97205,0.0073,0.0102,0.0049
0.96085,0.0112,0.0138,0.00645
0.946,0.01485,0.01945,0.00865
0.9264,0.0196,0.0253,0.0128
0.90035,0.02615,0.03395,0.01705
0.86495,0.0355,0.0476,0.02355
0.82475,0.0403,0.06285,0.0326
0.77165,0.0531,0.0843,0.0433
0.70865,0.0631,0.10985,0.0582
0.63615,0.07275,0.13825,0.07755
0.55265,0.08365,0.17425,0.10095
0.46745,0.08565,0.2101,0.1304
0.38615,0.08175,0.24435,0.166
0.31035,0.0764,0.277,0.2072
0.2427,0.0687,0.3062,0.24935
0.18885,0.0545,0.3252,0.2983
0.14795,0.042,0.3364,0.34965
0.1149,0.03415,0.3407,0.4019
0.08835,0.0277,0.34025,0.45175
0.06785,0.02225,0.32765,0.5022
0.0521,0.0172,0.31275,0.5503
0.0427,0.01135,0.29435,0.59495
0.03575,0.01,0.27335,0.63445
0.03135,0.00695,0.25265,0.6714
0.0276,0.00595,0.2313,0.7047
0.02485,0.00575,0.21195,0.73225
0.0233,0.00445,0.19355,0.758
0.0232,0.0031,0.17405,0.78195
0.02385,0.0029,0.15485,0.8043
0.02415,0.0028,0.13825,0.82285
0.02535,0.0024,0.12355,0.83915
0.0263,0.00245,0.1089,0.8544
0.02765,0.0019,0.09695,0.8671
0.02905,0.0023,0.0864,0.87705
0.03105,0.00145,0.0766,0.8858
0.03295,0.00155,0.0677,0.89355
0.03595,0.0017,0.06045,0.89865
0.03755,0.0018,0.0541,0.90345
0.039,0.0021,0.0493,0.9069
0.04125,0.00125,0.04395,0.9106
0.04345,0.00145,0.039,0.9133
0.0457,0.001,0.035,0.91605
0.0478,0.00165,0.03065,0.9179
0.05055,0.0011,0.0273,0.91885
0.05365,6.5E-4,0.02385,0.9195
0.05585,0.0012,0.02145,0.9198
0.05785,0.0012,0.02,0.91965
0.0609,6.5E-4,0.01785,0.91895
0.06435,5.0E-4,0.0161,0.91765
0.06695,7.0E-4,0.01435,0.9167
0.07015,6.5E-4,0.013,0.91495
0.0727,6.5E-4,0.0125,0.9131
0.0759,9.0E-4,0.01065,0.91155
0.0781,4.0E-4,0.00945,0.9109
0.08045,7.5E-4,0.0085,0.9093
0.0829,5.5E-4,0.0078,0.90765
0.0859,5.0E-4,0.00755,0.9052
0.0885,6.0E-4,0.00675,0.90335
0.0911,4.5E-4,0.0064,0.9012
0.09395,4.0E-4,0.0056,0.89915
0.0969,1.5E-4,0.00535,0.8969
0.0997,4.5E-4,0.0047,0.8946
0.1024,3.5E-4,0.0048,0.892
0.1057,5.0E-4,0.00385,0.8894
0.1079,3.5E-4,0.0037,0.8876
0.11095,5.0E-4,0.00355,0.88455
0.1141,2.5E-4,0.0033,0.8818
0.1168,2.0E-4,0.00305,0.87955
0.1195,3.0E-4,0.0027,0.87715
0.12175,1.5E-4,0.00245,0.8753
0.1239,1.0E-4,0.0022,0.8735
0.12685,5.0E-5,0.00215,0.8707
0.1295,2.5E-4,0.0021,0.868
0.1318,2.5E-4,0.002,0.86575
0.1344,5.0E-5,0.00165,0.86355
0.1368,1.5E-4,0.00165,0.8612
0.13905,1.5E-4,0.0015,0.8591
0.14245,2.0E-4,0.00135,0.85575
0.1448,1.5E-4,0.00125,0.8535
0.1474,5.0E-5,0.00125,0.851
0.15005,2.5E-4,0.0013,0.8483
0.1526,1.5E-4,0.00125,0.84585
0.1552,1.5E-4,0.0011,0.84325
0.1578,5.0E-5,0.00105,0.8408
0.16045,1.0E-4,9.0E-4,0.8382
0.1627,1.0E-4,9.0E-4,0.836
0.1655,0.0,9.5E-4,0.8333
0.16785,0.0,8.5E-4,0.83105
0.17005,1.0E-4,7.5E-4,0.82905
0.1733,0.0,6.0E-4,0.82605
0.1761,5.0E-5,5.5E-4,0.82325
0.17855,0.0,3.5E-4,0.8211
0.1805,0.0,3.0E-4,0.8192
0.18325,1.0E-4,2.0E-4,0.81645
0.1854,5.0E-5,2.0E-4,0.81425
0.18765,0.0,2.0E-4,0.812
0.19025,5.0E-5,3.5E-4,0.80935
0.1924,5.0E-5,3.5E-4,0.80715
0.1942,0.0,3.0E-4,0.80545
0.19655,5.0E-5,3.0E-4,0.80305
0.1985,1.0E-4,3.0E-4,0.801
0.20065,5.0E-5,3.5E-4,0.79885
0.2028,1.5E-4,4.0E-4,0.79655
0.20495,1.5E-4,3.0E-4,0.7944
0.2066,1.0E-4,3.0E-4,0.7927
0.2088,0.0,2.5E-4,0.7906
0.21095,0.0,4.5E-4,0.78845
0.21355,0.0,3.0E-4,0.786
0.21595,5.0E-5,3.0E-4,0.78355
0.218,5.0E-5,3.5E-4,0.78145
0.22055,1.0E-4,2.5E-4,0.77895
0.222,5.0E-5,3.0E-4,0.77755
0.2242,0.0,2.0E-4,0.7755
0.22605,0.0,2.0E-4,0.77365
0.22815,5.0E-5,2.0E-4,0.77155
0.23005,0.0,2.0E-4,0.76965
0.2327,0.0,1.5E-4,0.7671
0.23475,0.0,1.0E-4,0.7651
0.23755,5.0E-5,1.5E-4,0.76225
0.23915,0.0,1.0E-4,0.7607
0.2415,5.0E-5,1.5E-4,0.7583
0.24365,0.0,1.5E-4,0.75615
0.2458,5.0E-5,1.5E-4,0.754
0.2478,0.0,1.0E-4,0.75205
0.2497,0.0,1.0E-4,0.75015
0.25195,5.0E-5,1.0E-4,0.74785
0.25375,0.0,1.0E-4,0.74605
0.25665,0.0,1.5E-4,0.74315
0.25845,0.0,2.0E-4,0.74135
0.26045,5.0E-5,1.5E-4,0.73935
0.2627,5.0E-5,1.5E-4,0.73705
0.26505,0.0,2.0E-4,0.7347
0.26715,0.0,1.0E-4,0.7327
0.26965,0.0,1.0E-4,0.7302
0.2718,0.0,1.0E-4,0.72805
0.2736,0.0,1.0E-4,0.72625
0.27525,0.0,1.0E-4,0.7246
0.2776,5.0E-5,5.0E-5,0.72225
0.28,5.0E-5,1.0E-4,0.7198
0.28165,1.0E-4,1.0E-4,0.71805
0.2836,0.0,2.0E-4,0.7161
0.2858,1.0E-4,2.5E-4,0.7138
0.2878,1.0E-4,3.0E-4,0.71175
0.28995,2.0E-4,3.0E-4,0.7095
0.2925,5.0E-5,4.0E-4,0.70695
0.29425,1.0E-4,4.0E-4,0.7052
0.29595,5.0E-5,3.5E-4,0.70355
0.2981,0.0,3.5E-4,0.7015
0.2998,2.0E-4,3.0E-4,0.69965
0.3018,0.0,3.5E-4,0.6977
0.3033,0.0,4.0E-4,0.69625
0.30525,5.0E-5,4.0E-4,0.6943
0.30695,2.0E-4,4.0E-4,0.6924
0.30865,1.5E-4,5.0E-4,0.6906
0.31,2.5E-4,5.0E-4,0.6891
0.3115,1.5E-4,5.0E-4,0.6877
0.3134,1.0E-4,5.5E-4,0.68575
0.31495,1.0E-4,5.0E-4,0.6842
0.3173,5.0E-5,5.0E-4,0.6819
0.319,1.0E-4,6.0E-4,0.6801
0.321,3.0E-4,5.0E-4,0.67795
0.32355,1.0E-4,5.0E-4,0.6754
0.32545,1.5E-4,7.5E-4,0.6734
0.32695,3.5E-4,7.5E-4,0.6717
0.32845,3.0E-4,0.001,0.66995
0.32975,3.5E-4,0.0011,0.66845
0.3312,1.5E-4,0.0012,0.66715
0.3332,5.0E-5,0.00105,0.66535
0.3347,2.0E-4,0.001,0.6638
0.3363,2.5E-4,9.5E-4,0.6622
0.338,5.5E-4,0.001,0.6601
0.33995,1.5E-4,0.00125,0.65805
0.34205,2.5E-4,0.0011,0.65605
0.34365,1.0E-4,0.0012,0.65445
0.3445,4.0E-4,0.00135,0.6534
0.3456,7.0E-4,0.00165,0.6517
0.3469,8.0E-4,0.0022,0.64985
0.3485,4.5E-4,0.0025,0.64815
0.34955,5.0E-4,0.0023,0.64705
0.35155,5.5E-4,0.00225,0.6449
0.3526,3.0E-4,0.0021,0.64415
0.35365,3.5E-4,0.0022,0.643
0.3551,5.0E-4,0.00255,0.64125
0.35585,5.5E-4,0.00255,0.64045
0.3571,9.0E-4,0.0027,0.6386
0.35795,8.5E-4,0.00275,0.6373
0.35915,8.5E-4,0.0029,0.63575
0.3595,0.0015,0.0034,0.63435
0.3604,0.0011,0.00395,0.6329
0.362,6.5E-4,0.0039,0.6314
0.36285,0.0011,0.00415,0.62995
0.36335,0.00125,0.00415,0.6293
0.3633,0.0019,0.00445,0.6282
0.3628,0.0019,0.00465,0.62805
0.36225,0.0019,0.00615,0.6273
0.36235,0.0017,0.0065,0.6267
0.3627,0.00225,0.00685,0.62495
0.3619,0.00245,0.0078,0.62435
0.36125,0.00225,0.0088,0.62365
0.36035,0.00225,0.00885,0.62405
0.3593,0.0026,0.0098,0.62395
0.3585,0.003,0.01085,0.6232
0.35695,0.0035,0.01195,0.62365
0.3551,0.00365,0.01265,0.62405
0.35295,0.0041,0.01405,0.62425
0.35035,0.0047,0.01545,0.62405
0.3477,0.0043,0.01595,0.6256
0.3455,0.00435,0.01705,0.6264
0.34185,0.0051,0.01805,0.62765
0.3377,0.0056,0.0202,0.62885
0.334,0.00585,0.0217,0.63065
0.33025,0.00585,0.0243,0.6317
0.3266,0.00585,0.0247,0.63385
0.3221,0.0065,0.0266,0.63555
0.3167,0.00775,0.0275,0.6385
0.31035,0.0081,0.0296,0.6413
0.30435,0.00825,0.0326,0.6436
0.29915,0.00765,0.03555,0.64595
0.29245,0.0093,0.03675,0.6491
0.28575,0.0086,0.0382,0.65405
0.2787,0.00945,0.04055,0.657
0.27195,0.00935,0.0427,0.66145
0.2653,0.0089,0.04305,0.6675
0.25835,0.00915,0.04325,0.67315
0.2515,0.0093,0.045,0.67785
0.2455,0.0087,0.04575,0.68285
0.23945,0.00915,0.04775,0.68725
0.2333,0.00905,0.05025,0.69155
0.22635,0.0096,0.0507,0.6975
0.21985,0.0094,0.05215,0.70255
0.2134,0.00945,0.05295,0.7085
0.2078,0.0085,0.0532,0.7148
0.2032,0.0077,0.0529,0.72045
0.19885,0.00815,0.05335,0.72545
0.19295,0.0088,0.053,0.7307
0.1878,0.00785,0.05325,0.7364
0.18425,0.0075,0.05205,0.74195
0.1799,0.0074,0.05205,0.74655
0.1766,0.0072,0.0499,0.7517
0.17155,0.00785,0.04915,0.75685
0.16805,0.0064,0.0498,0.76175
0.1653,0.00575,0.05065,0.7659
0.1622,0.0066,0.04895,0.7708
0.1597,0.0059,0.04765,0.77525
0.15865,0.0052,0.0464,0.77835
0.1577,0.00535,0.0446,0.78135
0.15655,0.0049,0.04295,0.78465
0.15645,0.00435,0.04215,0.78705
0.15565,0.00465,0.0414,0.789
0.15455,0.00495,0.04,0.79155
0.1543,0.00385,0.03875,0.7943
0.15345,0.00465,0.0373,0.7963
0.15265,0.0045,0.0365,0.7982
0.1523,0.00445,0.03485,0.8
0.15155,0.0047,0.0342,0.80185
0.15205,0.004,0.03385,0.80255
0.1532,0.0033,0.0334,0.8034
0.15275,0.00365,0.0315,0.8056
0.1531,0.0035,0.03085,0.80625
0.1532,0.00415,0.02955,0.8068
0.1545,0.00315,0.02915,0.8069
0.15535,0.00295,0.0275,0.80815
0.1563,0.00285,0.0259,0.8092
0.15755,0.00325,0.02425,0.80925
0.15925,0.00295,0.02345,0.80865
0.1602,0.0031,0.02295,0.8077
0.16135,0.0023,0.02275,0.80795
0.1621,0.00325,0.0223,0.80725
0.1627,0.00315,0.02265,0.8069
0.16335,0.00335,0.0214,0.807
0.1657,0.0022,0.0209,0.80605
0.16655,0.0027,0.0193,0.8064
0.1678,0.0026,0.01895,0.8053
0.1698,0.00275,0.01875,0.80395
0.17135,0.0028,0.0196,0.80185
0.17245,0.00255,0.01915,0.8007
0.17385,0.00275,0.0188,0.79955
0.1758,0.00285,0.0191,0.79755
0.17785,0.0025,0.0176,0.7968
0.17925,0.00275,0.01775,0.7953
0.18155,0.0023,0.0176,0.79365
0.1829,0.00295,0.01745,0.7922
0.1843,0.0029,0.0171,0.7907
0.18585,0.0025,0.01725,0.7894
0.18865,0.00225,0.0173,0.7871
0.18995,0.0027,0.0171,0.78585
0.1918,0.0027,0.01705,0.7841
0.1931,0.00285,0.01715,0.7826
0.1955,0.00205,0.01685,0.7807
0.1963,0.00335,0.01655,0.7795
0.1982,0.00225,0.0176,0.77775
0.1989,0.00275,0.01675,0.7771
0.20035,0.00255,0.0174,0.7754
0.2011,0.00315,0.01725,0.77455
0.2032,0.0028,0.01705,0.7725
0.20455,0.0026,0.01745,0.77115
0.20645,0.00285,0.0175,0.76905
0.2071,0.00295,0.0173,0.76845
0.2077,0.00285,0.0165,0.7685
0.20875,0.0035,0.0166,0.76625
0.21,0.0034,0.01775,0.7636
0.21215,0.00245,0.018,0.7621
0.21375,0.00315,0.01805,0.76065
0.21455,0.0038,0.01835,0.7585
0.21565,0.0033,0.0184,0.75665
0.21605,0.0032,0.01975,0.7557
0.21725,0.00335,0.02045,0.75405
0.21895,0.00305,0.01915,0.7531
0.2195,0.0031,0.01985,0.75245
0.22045,0.00355,0.01925,0.75125
0.22195,0.0034,0.02,0.74925
0.22305,0.00325,0.02015,0.74815
0.223,0.00375,0.02055,0.7479
0.22375,0.0034,0.02065,0.74705
0.2244,0.0034,0.02075,0.7461
0.22515,0.00305,0.0214,0.7448
0.2255,0.00405,0.02165,0.74345
0.22545,0.00385,0.02155,0.7429
0.22555,0.00405,0.02145,0.7424
0.22505,0.0044,0.02205,0.742
0.22475,0.0039,0.0224,0.7422
0.2244,0.005,0.02295,0.7409
0.2248,0.0042,0.0238,0.74035
0.2243,0.00435,0.02325,0.7411
0.22455,0.0041,0.0231,0.7413
0.2242,0.00395,0.0226,0.7421
0.22535,0.00375,0.02375,0.74075
0.2257,0.0047,0.0235,0.73935
0.2255,0.0043,0.02395,0.73885
0.22625,0.00445,0.0249,0.7368
0.226,0.00395,0.02455,0.73735
0.2259,0.004,0.02465,0.7375
0.22585,0.0043,0.0251,0.7368
0.2261,0.0045,0.0252,0.73605
0.2264,0.0043,0.02545,0.73585
0.2264,0.0045,0.02655,0.73465
0.22625,0.0045,0.02695,0.73475
0.226,0.00475,0.02645,0.7347
0.22535,0.0053,0.02805,0.7335
0.22565,0.0045,0.02855,0.73295
0.2246,0.0046,0.0289,0.73455
0.22355,0.0054,0.0288,0.73465
0.2239,0.00465,0.0287,0.73455
0.22225,0.0056,0.0297,0.73475
0.22005,0.0063,0.03065,0.735
0.2194,0.00485,0.03175,0.73555
0.2181,0.0049,0.0317,0.7374
0.21725,0.0057,0.0316,0.7375
0.2168,0.00485,0.0315,0.738
0.2167,0.0052,0.03145,0.7378
0.21575,0.00595,0.03255,0.7376
0.21505,0.0059,0.03305,0.73785
0.21535,0.00515,0.0324,0.73785
0.215,0.0051,0.0325,0.73795
0.2149,0.00525,0.03275,0.7381
0.2153,0.00465,0.0323,0.7386
0.21415,0.00625,0.0326,0.7375
0.21355,0.00545,0.03315,0.7381
0.21235,0.00535,0.033,0.7394
0.2119,0.005,0.0323,0.7404
0.21085,0.00575,0.03295,0.7405
0.2094,0.00605,0.0332,0.74095
0.2083,0.0064,0.0332,0.74105
0.20715,0.00605,0.03405,0.74195
0.2046,0.00605,0.0341,0.7442
0.20375,0.0056,0.0353,0.74465
0.20225,0.0056,0.03495,0.7467
0.20265,0.00525,0.03485,0.7469
0.20145,0.00625,0.03505,0.7474
0.19945,0.0062,0.035,0.74905
0.1987,0.0056,0.03555,0.7494
0.19875,0.00505,0.0351,0.7506
0.1974,0.00515,0.0358,0.7527
0.19565,0.0062,0.03495,0.754
0.1955,0.0049,0.0357,0.7545
0.19575,0.005,0.03565,0.75505
0.19665,0.00525,0.0334,0.75555
0.1977,0.00485,0.03265,0.75495
0.19665,0.00545,0.03385,0.7548
0.1971,0.0047,0.0331,0.7559
0.19785,0.0044,0.03175,0.7564
0.19765,0.0054,0.0309,0.7563
0.1979,0.00475,0.0322,0.75525
0.19725,0.0059,0.03305,0.75445
0.1968,0.0056,0.0321,0.75525
0.19565,0.00575,0.0328,0.756
0.1951,0.0056,0.03405,0.7557
0.1955,0.00505,0.0349,0.75525
0.19415,0.00545,0.03455,0.7566
0.1927,0.0064,0.03415,0.7574
0.19275,0.00535,0.0346,0.7576
0.1923,0.0055,0.0352,0.75795
0.19045,0.0068,0.03665,0.75775
0.1913,0.00525,0.03695,0.75725
0.1909,0.00525,0.0367,0.75795
0.18985,0.0055,0.03605,0.7594
0.1899,0.00525,0.0349,0.76055
0.18995,0.00505,0.0343,0.7614
0.1899,0.00565,0.0338,0.7622
0.19045,0.00415,0.0337,0.7628
0.19085,0.0048,0.0332,0.763
0.19075,0.005,0.03185,0.76395
0.1914,0.00425,0.0324,0.7633
0.1921,0.0044,0.0324,0.76335
0.1928,0.00485,0.032,0.76275
0.19305,0.00515,0.03155,0.7624
0.1922,0.00575,0.0316,0.76275
0.1918,0.00525,0.03165,0.76315
0.1928,0.0051,0.0318,0.76155
0.1929,0.00465,0.0308,0.7627
0.19395,0.00475,0.0307,0.76215
0.1947,0.00435,0.03015,0.76235
0.19615,0.0041,0.03025,0.76155
0.196,0.0048,0.0288,0.762
0.19765,0.00405,0.0293,0.7606
0.1985,0.0047,0.0289,0.76
0.19845,0.0047,0.02845,0.76025
0.19925,0.00405,0.0287,0.7595
0.19985,0.0047,0.02955,0.75805
0.19895,0.00525,0.02915,0.75885
0.199,0.0049,0.02945,0.75835
0.20075,0.0035,0.0302,0.7576
0.20155,0.0048,0.0303,0.7563
0.2019,0.0046,0.03055,0.75625
0.2013,0.00555,0.0305,0.7561
0.2019,0.00445,0.031,0.75625
0.20205,0.0049,0.0305,0.756
0.2031,0.0049,0.03015,0.75515
0.20445,0.0049,0.03005,0.75365
0.2052,0.0041,0.0288,0.7543
0.20605,0.0039,0.02885,0.75405
0.2056,0.00515,0.0286,0.754
0.20595,0.0043,0.02825,0.7545
0.20625,0.0041,0.0274,0.75485
0.2063,0.00435,0.0265,0.75555
0.2049,0.0051,0.02665,0.75575
0.20545,0.00425,0.02745,0.755
0.20615,0.004,0.02625,0.75505
0.20635,0.00475,0.02715,0.75365
0.20655,0.00445,0.0271,0.7533
0.20835,0.004,0.02695,0.75245
0.2092,0.00435,0.02635,0.75245
0.2098,0.00375,0.02595,0.7529
0.21135,0.0037,0.0264,0.7513
0.2102,0.00555,0.0256,0.7512
0.2102,0.00495,0.0269,0.7498
0.21075,0.00485,0.02715,0.749
0.2101,0.0049,0.0271,0.7498
0.2101,0.0044,0.02815,0.7496
0.20995,0.00425,0.0269,0.7506
0.2105,0.0045,0.02665,0.7503
0.2108,0.00525,0.0279,0.74865
0.211,0.0043,0.02965,0.74795
0.211,0.00505,0.02915,0.74765
0.2101,0.00575,0.02905,0.7473
0.2094,0.00535,0.0295,0.7469
0.20925,0.00575,0.0297,0.7458
0.209,0.00515,0.0311,0.7457
0.2084,0.00495,0.0319,0.746
0.2087,0.0053,0.0311,0.74575
0.20905,0.00535,0.03075,0.74575
0.208,0.0053,0.03085,0.7464
0.20685,0.00565,0.03075,0.7473
0.20475,0.0063,0.032,0.7476
0.2042,0.0048,0.0326,0.7488
0.203,0.00505,0.0327,0.74995
0.2026,0.0054,0.03235,0.75055
0.2028,0.0047,0.03205,0.7504
0.20165,0.00535,0.0323,0.7512
0.2006,0.00545,0.03235,0.752
0.20005,0.0056,0.03305,0.75195
0.19975,0.0056,0.0339,0.75155
0.19955,0.00525,0.0342,0.7515
0.1994,0.00575,0.03345,0.7518
0.1974,0.00605,0.03445,0.7527
0.1962,0.00585,0.0346,0.7539
0.19475,0.00625,0.03475,0.75475
0.1945,0.005,0.03535,0.7555
0.19385,0.00565,0.03395,0.7567
0.1929,0.00575,0.0344,0.75675
0.19155,0.0057,0.03505,0.75675
0.19135,0.00495,0.03445,0.7582
0.19145,0.00445,0.03405,0.7593
0.19135,0.00495,0.03435,0.76
0.1895,0.0057,0.03485,0.76075
0.18885,0.0048,0.03475,0.76235
0.1893,0.0052,0.03605,0.76105
0.1893,0.0044,0.036,0.76205
0.1879,0.0058,0.0351,0.7633
0.18785,0.0046,0.03455,0.7646
0.1875,0.0046,0.0341,0.7659
0.1877,0.00525,0.03295,0.76625
0.18685,0.00495,0.0329,0.7674
0.1875,0.00465,0.0328,0.7671
0.18665,0.0056,0.03365,0.7671
0.18665,0.00495,0.03185,0.76795
0.18655,0.0052,0.03145,0.76755
0.18805,0.00345,0.03135,0.76775
0.1865,0.0062,0.0299,0.7686
0.18655,0.0043,0.0311,0.7689
0.1867,0.00405,0.0316,0.7695
0.18785,0.0043,0.02905,0.7701
0.18775,0.0048,0.02895,0.77
0.18805,0.00455,0.0291,0.7699
0.18925,0.0044,0.0292,0.76885
0.191,0.0041,0.02845,0.768
0.19205,0.0042,0.0282,0.76745
0.19285,0.00415,0.02785,0.76725
0.19375,0.004,0.0274,0.7669
0.19365,0.00385,0.0274,0.76715
0.1949,0.0035,0.0267,0.7671
0.195,0.00365,0.0256,0.76845
0.194,0.00465,0.02505,0.76875
0.19445,0.00345,0.0259,0.76815
0.1948,0.00355,0.0257,0.7686
0.19535,0.0041,0.02635,0.7678
0.1965,0.00365,0.02675,0.76705
0.1973,0.004,0.02625,0.7665
0.197,0.00495,0.0258,0.7659
0.1982,0.00345,0.0254,0.7656
0.1991,0.0041,0.0258,0.76455
0.2008,0.0033,0.02675,0.76305
0.2014,0.0041,0.0259,0.76325
0.2027,0.00395,0.025,0.76285
0.20445,0.0034,0.02405,0.76195
0.20565,0.00335,0.0238,0.76095
0.20685,0.0042,0.02345,0.759
0.20895,0.0031,0.02285,0.75795
0.21045,0.00375,0.02325,0.75625
0.21135,0.00405,0.02295,0.75575
0.212,0.0039,0.02345,0.75445
0.21345,0.0034,0.0235,0.75345
0.21415,0.0039,0.0238,0.7526
0.2152,0.00365,0.02365,0.75165
0.2168,0.0036,0.02375,0.75015
0.21705,0.00425,0.0235,0.7491
0.21725,0.00435,0.0243,0.7481
0.2185,0.0042,0.0241,0.7468
0.21985,0.0038,0.0233,0.7458
0.2189,0.00555,0.0241,0.74475
0.2188,0.00505,0.02525,0.7435
0.21815,0.00445,0.0255,0.7439
0.21805,0.0046,0.02585,0.74385
0.2185,0.00425,0.0262,0.7434
0.2188,0.004,0.02695,0.74295
0.21985,0.00425,0.0271,0.74175
0.22015,0.00435,0.02595,0.7422
0.2193,0.00495,0.02655,0.74205
0.21835,0.0053,0.0266,0.7426
0.2187,0.0042,0.0271,0.74185
0.2178,0.0052,0.027,0.7416
0.21675,0.00535,0.02885,0.7409
0.21615,0.0051,0.0278,0.742
0.2154,0.0052,0.029,0.74125
0.21535,0.00435,0.0292,0.74225
0.2156,0.0049,0.02925,0.74205
0.2144,0.00525,0.0308,0.7415
0.2141,0.00575,0.0304,0.74125
0.2132,0.0061,0.03135,0.74115
0.21275,0.0051,0.0312,0.7418
0.2122,0.0047,0.0324,0.7425
0.2112,0.006,0.0322,0.74255
0.21055,0.0055,0.0316,0.7431
0.2095,0.0056,0.03305,0.7432
0.20985,0.00485,0.03365,0.7431
0.20985,0.00445,0.0323,0.74485
0.21025,0.00435,0.03035,0.7461
0.21105,0.00445,0.03015,0.7449
0.2114,0.00515,0.03085,0.74355
0.21035,0.00575,0.03145,0.74365
0.2093,0.0052,0.03215,0.74435
0.20945,0.00505,0.03195,0.74455
0.20925,0.00495,0.03265,0.74475
0.20805,0.00575,0.03245,0.74515
0.20665,0.0062,0.03295,0.74515
0.20635,0.005,0.03355,0.74555
0.20565,0.00565,0.03295,0.74605
0.20425,0.00615,0.03405,0.74645
0.2024,0.00595,0.0347,0.7475
0.2018,0.00515,0.03405,0.7484
0.1994,0.00665,0.03505,0.74945
0.1985,0.0063,0.0369,0.7485
0.19835,0.0055,0.03695,0.7492
0.19765,0.00545,0.038,0.74965
0.19725,0.0052,0.0367,0.7517
0.1971,0.0051,0.0347,0.75385
0.1956,0.006,0.03475,0.75495
0.1959,0.00535,0.034,0.7556
0.19555,0.00495,0.03305,0.75695
0.19545,0.00495,0.03285,0.75715
0.19405,0.0052,0.0314,0.75945
0.19295,0.00595,0.0315,0.76005
0.1936,0.0052,0.03255,0.759
0.1943,0.00505,0.0318,0.75885
0.1946,0.00445,0.03225,0.7594
0.19515,0.0051,0.03305,0.75845
0.1961,0.00435,0.0327,0.75855
0.1968,0.0042,0.0325,0.75865
0.19585,0.00595,0.0319,0.7584
0.19695,0.00475,0.03225,0.75725
0.19775,0.00455,0.03125,0.75745
0.1979,0.005,0.0306,0.7581
0.1965,0.00515,0.0299,0.76005
0.19605,0.00555,0.0302,0.75975
0.19655,0.0044,0.03025,0.7597
0.19635,0.00545,0.0299,0.7597
0.19685,0.0047,0.0306,0.75865
0.1974,0.00485,0.0308,0.7577
0.19815,0.00475,0.03025,0.75715
0.1996,0.0044,0.0311,0.7565
0.1995,0.0052,0.0305,0.7563
0.1994,0.00545,0.0308,0.7557
0.19895,0.00515,0.03085,0.75615
0.19885,0.0049,0.0314,0.7563
0.19805,0.00545,0.0316,0.75615
0.1981,0.0048,0.03245,0.7557
0.1991,0.0045,0.03195,0.75555
0.19885,0.0047,0.03175,0.7561
0.20015,0.0045,0.03205,0.7566
0.20085,0.00495,0.02965,0.75755
0.2003,0.00535,0.0288,0.7584
0.20235,0.00345,0.0288,0.7572
0.20275,0.0045,0.02785,0.7567
0.2038,0.00415,0.0284,0.7559
0.2042,0.0049,0.0283,0.7552
0.20545,0.0047,0.0279,0.7534
0.2072,0.0036,0.0283,0.75315
0.2079,0.00475,0.02785,0.75235
0.20865,0.00515,0.02815,0.75075
0.20865,0.00465,0.02805,0.75045
0.20875,0.0049,0.0279,0.7503
0.2089,0.0048,0.02745,0.74975
0.20925,0.0045,0.0288,0.74915
0.20855,0.00485,0.02925,0.7498
0.2083,0.00475,0.02865,0.75045
0.2088,0.00385,0.02955,0.7502
0.2092,0.0047,0.02895,0.7496
0.21005,0.0037,0.0283,0.7499
0.20935,0.00485,0.02745,0.75065
0.2105,0.00425,0.0277,0.74925
0.21085,0.00465,0.02815,0.7484
0.21015,0.00595,0.02915,0.7473
0.20985,0.00495,0.02985,0.74695
0.2087,0.00555,0.03,0.74715
0.20945,0.0045,0.03045,0.74745
0.2097,0.00495,0.02975,0.74735
0.20935,0.0047,0.03085,0.74715
0.21065,0.00435,0.0301,0.74625
0.2106,0.005,0.0299,0.746
0.21145,0.0049,0.03055,0.7448
0.21055,0.0049,0.03135,0.7451
0.2106,0.0048,0.0311,0.7454
0.21035,0.0045,0.03105,0.746
0.21065,0.00485,0.0305,0.7454
0.20965,0.0052,0.03065,0.74645
0.2089,0.00555,0.0306,0.7464
0.20855,0.005,0.0311,0.74615
0.20915,0.0048,0.0306,0.74575
0.2088,0.006,0.0306,0.7451
0.20775,0.00585,0.032,0.7455
0.2083,0.0049,0.03205,0.74485
0.2083,0.0052,0.03285,0.74445
0.2074,0.0057,0.0328,0.74465
0.2066,0.00595,0.03215,0.74525
0.20665,0.0052,0.03385,0.7453
0.20515,0.0061,0.0338,0.7462
0.20445,0.00595,0.0343,0.7461
0.20445,0.00555,0.0343,0.74625
0.2041,0.00525,0.03545,0.7464
0.2041,0.00555,0.03535,0.7464
0.2034,0.00555,0.03515,0.7471
0.2034,0.00495,0.0345,0.7479
0.2033,0.00465,0.0337,0.7498
0.20265,0.0056,0.0337,0.75015
0.20205,0.00545,0.0341,0.75005
0.202,0.0047,0.0342,0.7506
0.2027,0.0056,0.0341,0.7492
0.20235,0.0051,0.03405,0.74945
0.2014,0.0062,0.03455,0.74895
0.20135,0.0053,0.03505,0.74925
0.20165,0.0047,0.0341,0.74995
0.20185,0.00495,0.0329,0.7515
0.20235,0.005,0.03305,0.75105
0.20075,0.00545,0.03255,0.75285
0.2013,0.00505,0.03205,0.7524
0.20005,0.00675,0.0319,0.7527
0.2009,0.00495,0.0324,0.752
0.2008,0.0049,0.03205,0.75255
0.2007,0.00465,0.03245,0.7522
0.1998,0.00525,0.0321,0.75275
0.19925,0.005,0.0322,0.75395
0.1985,0.0048,0.03365,0.75455
0.19935,0.00475,0.0326,0.7546
0.19835,0.00575,0.033,0.7546
0.19795,0.00495,0.03425,0.75515
0.19965,0.00415,0.0339,0.7547
0.2001,0.00485,0.033,0.7543
0.20015,0.0049,0.03185,0.7547
0.2008,0.00435,0.0319,0.75475
0.20035,0.0054,0.03115,0.7549
0.2008,0.00565,0.03265,0.75285
0.20105,0.00505,0.03235,0.75255
0.2016,0.0055,0.03335,0.7508
0.2012,0.00485,0.03305,0.75185
0.2006,0.00575,0.0329,0.75175
0.201,0.00495,0.03265,0.7517
0.2014,0.0045,0.03335,0.75165
0.2017,0.0049,0.0323,0.7526
0.20315,0.0046,0.0325,0.75125
0.2017,0.0061,0.032,0.75155
0.20115,0.00525,0.0326,0.752
0.20045,0.0047,0.0313,0.75415
0.19865,0.0063,0.03205,0.7541
0.1988,0.0049,0.03235,0.7552
0.19945,0.0044,0.03135,0.7557
0.19875,0.00505,0.0318,0.75565
0.1983,0.00495,0.0312,0.75625
0.198,0.0052,0.0306,0.75685
0.1984,0.00445,0.0304,0.75715
0.19955,0.00485,0.0304,0.7563
0.19915,0.00435,0.0311,0.75675
0.1995,0.005,0.031,0.7564
