moyS, moyE, moyI, moyR
0.999,0.0,0.001,0.0
0.9982,8.0E-4,9.0E-4,1.0E-4
0.99735,8.5E-4,0.00115,2.5E-4
0.99615,0.0012,0.0016,5.0E-4
0.99445,0.0017,0.0022,8.0E-4
0.9925,0.00195,0.0028,0.0012
0.9897,0.00285,0.0038,0.00155
0.98515,0.00455,0.0052,0.00235
0.98045,0.0047,0.00705,0.00315
0.9733,0.00715,0.0096,0.00445
0.96345,0.00985,0.01315,0.0059
0.95075,0.0127,0.0171,0.00825
0.93385,0.0169,0.02345,0.01135
0.9084,0.02545,0.0318,0.0155
0.87575,0.03265,0.0439,0.022
0.83675,0.03905,0.05775,0.03025
0.7884,0.0485,0.07645,0.04015
0.728,0.06055,0.0993,0.0543
0.6572,0.07095,0.1289,0.0718
0.5768,0.08085,0.16165,0.09245
0.496,0.08115,0.1993,0.11905
0.4143,0.08225,0.2352,0.154
0.3339,0.08085,0.26975,0.19325
0.2665,0.06785,0.29545,0.24105
0.20805,0.05925,0.318,0.28895
0.15885,0.0499,0.33105,0.33975
0.12365,0.0364,0.3352,0.39085
0.0946,0.03045,0.334,0.4398
0.07265,0.0232,0.33,0.48755
0.0581,0.01625,0.31635,0.5344
0.04775,0.01245,0.29975,0.5796
0.0403,0.00955,0.27835,0.6219
0.034,0.00825,0.2568,0.6603
0.03075,0.00605,0.23645,0.69385
0.0281,0.0054,0.2151,0.72495
0.0262,0.00415,0.19355,0.75375
0.0256,0.0034,0.17395,0.77845
0.02555,0.00295,0.158,0.7991
0.02535,0.0029,0.14145,0.81785
0.0264,0.00285,0.1256,0.8349
0.02745,0.00225,0.111,0.85065
0.0283,0.00265,0.10055,0.86135
0.02905,0.0024,0.0909,0.8714
0.0309,0.00205,0.08285,0.8792
0.0327,0.00175,0.0724,0.88865
0.034,0.0017,0.0652,0.8952
0.0353,0.00145,0.0576,0.90215
0.03685,0.00175,0.0506,0.90805
0.03765,0.00175,0.0452,0.9127
0.03995,0.00145,0.0402,0.91575
0.04355,0.0012,0.03505,0.9178
0.04485,0.0017,0.03045,0.9205
0.0477,0.0012,0.02795,0.92075
0.0503,0.001,0.02605,0.92075
0.05245,0.0012,0.0233,0.92125
0.05535,7.0E-4,0.0208,0.92115
0.05815,8.5E-4,0.01855,0.92065
0.061,9.5E-4,0.0162,0.92005
0.0637,6.0E-4,0.01465,0.9193
0.06765,3.5E-4,0.01315,0.9173
0.0703,8.0E-4,0.01155,0.916
0.0719,0.0011,0.01075,0.9151
0.0752,3.5E-4,0.01055,0.9128
0.0779,6.5E-4,0.0092,0.91125
0.08065,4.5E-4,0.0084,0.90965
0.0832,5.5E-4,0.00705,0.9083
0.0864,5.5E-4,0.00675,0.9056
0.08915,2.5E-4,0.00605,0.90395
0.09205,7.5E-4,0.00555,0.9011
0.0948,2.5E-4,0.00485,0.89895
0.09855,3.5E-4,0.00455,0.8955
0.1013,3.5E-4,0.0046,0.89295
0.10415,4.5E-4,0.00435,0.89025
0.1066,5.0E-4,0.00375,0.88805
0.1089,3.0E-4,0.00345,0.8863
0.112,3.5E-4,0.0031,0.8837
0.1143,4.5E-4,0.003,0.88145
0.11655,3.5E-4,0.0028,0.8795
0.1187,3.5E-4,0.0028,0.8774
0.1215,3.0E-4,0.00275,0.87475
0.1241,1.5E-4,0.00265,0.8725
0.12665,2.5E-4,0.0024,0.8702
0.12885,2.5E-4,0.0025,0.86805
0.13145,5.0E-4,0.00235,0.86545
0.13385,4.0E-4,0.00265,0.86285
0.1367,5.0E-5,0.00265,0.8602
0.13955,3.5E-4,0.0024,0.8574
0.1418,2.0E-4,0.0023,0.8554
0.14425,2.0E-4,0.002,0.8532
0.14745,4.0E-4,0.00195,0.8498
0.14945,1.0E-4,0.002,0.84785
0.15175,1.0E-4,0.00215,0.84575
0.1543,2.0E-4,0.00185,0.84355
0.1562,2.5E-4,0.00145,0.8418
0.15815,2.0E-4,0.0016,0.83975
0.16055,1.0E-4,0.00145,0.83755
0.16325,5.0E-5,0.00135,0.8351
0.1653,3.5E-4,0.0013,0.8329
0.16715,2.0E-4,0.0014,0.831
0.1695,1.5E-4,0.00125,0.82885
0.17215,2.0E-4,0.00115,0.8263
0.1739,5.0E-5,0.0012,0.8246
0.17605,1.0E-4,0.0011,0.82255
0.17795,1.5E-4,9.0E-4,0.82085
0.1803,1.0E-4,9.5E-4,0.8184
0.18275,2.0E-4,0.001,0.8159
0.18455,3.0E-4,0.00105,0.8139
0.1871,2.5E-4,9.5E-4,0.81135
0.18865,1.5E-4,0.00105,0.80985
0.1909,1.5E-4,9.0E-4,0.8077
0.19275,3.5E-4,0.00115,0.8056
0.1949,3.5E-4,0.0013,0.8032
0.1966,2.5E-4,0.0014,0.8014
0.1987,2.5E-4,0.0015,0.79935
0.19995,5.0E-4,0.0016,0.79785
0.20195,3.0E-4,0.0016,0.7958
0.2037,1.0E-4,0.0013,0.7944
0.20575,2.0E-4,0.0012,0.7924
0.20745,3.0E-4,0.0012,0.7905
0.2093,2.0E-4,0.00135,0.78855
0.212,1.5E-4,0.00175,0.7858
0.2142,2.0E-4,0.0016,0.78375
0.21585,2.5E-4,0.00155,0.782
0.21755,3.0E-4,0.00175,0.7801
0.2196,1.5E-4,0.00165,0.77815
0.2218,1.5E-4,0.0013,0.7764
0.2234,3.0E-4,0.00115,0.7747
0.2252,2.5E-4,0.00155,0.7727
0.22715,2.0E-4,0.00155,0.77075
0.22935,1.5E-4,0.0015,0.76865
0.23175,1.0E-4,0.0015,0.76635
0.23395,5.0E-5,0.0014,0.76435
0.23625,1.0E-4,0.00125,0.7621
0.238,2.5E-4,0.0012,0.76025
0.24025,1.5E-4,0.0011,0.7581
0.24215,2.0E-4,0.001,0.75615
0.24435,3.5E-4,0.001,0.75375
0.2473,2.0E-4,0.00105,0.75085
0.2497,3.0E-4,0.001,0.74845
0.2512,2.5E-4,0.00125,0.74685
0.253,2.0E-4,0.0012,0.7451
0.25515,3.5E-4,0.0013,0.74275
0.25685,3.0E-4,0.0016,0.74095
0.2587,2.0E-4,0.00145,0.7393
0.25995,2.5E-4,0.00135,0.738
0.2621,3.5E-4,0.0016,0.73555
0.26435,3.5E-4,0.0017,0.73325
0.26595,4.5E-4,0.00165,0.73155
0.2679,4.0E-4,0.00185,0.72945
0.26975,3.0E-4,0.00195,0.72745
0.2716,4.5E-4,0.0017,0.7256
0.2735,5.5E-4,0.002,0.72325
0.27535,4.5E-4,0.0025,0.72105
0.27645,7.5E-4,0.0026,0.71965
0.2777,4.5E-4,0.0029,0.7182
0.2793,6.0E-4,0.00315,0.7163
0.28095,6.5E-4,0.0035,0.71435
0.28205,0.001,0.0034,0.71265
0.28355,6.0E-4,0.00325,0.71135
0.28505,7.0E-4,0.0034,0.70975
0.2859,0.001,0.00375,0.70835
0.28675,8.5E-4,0.0039,0.70725
0.28755,9.5E-4,0.004,0.70615
0.28885,7.5E-4,0.0041,0.70485
0.28955,0.001,0.00385,0.70405
0.29025,9.5E-4,0.00405,0.7031
0.2913,9.5E-4,0.00465,0.70165
0.2923,7.5E-4,0.0045,0.7008
0.2935,9.5E-4,0.0048,0.6993
0.29435,9.5E-4,0.0044,0.69835
0.2954,0.0012,0.00455,0.6969
0.296,0.0012,0.005,0.69575
0.2965,0.0012,0.00525,0.6949
0.2973,0.00145,0.00615,0.6934
0.2971,0.0019,0.00655,0.69265
0.29715,0.0018,0.00725,0.69155
0.2972,0.0019,0.00705,0.69095
0.2973,0.00175,0.00755,0.6902
0.29785,0.00195,0.0079,0.68905
0.2974,0.0021,0.00825,0.6889
0.29765,0.0018,0.00895,0.6883
0.29755,0.00235,0.0091,0.68745
0.2972,0.0026,0.01,0.68665
0.2976,0.00205,0.01005,0.68625
0.296,0.0033,0.01095,0.6861
0.29585,0.00245,0.0117,0.68555
0.29595,0.00245,0.0122,0.6846
0.29575,0.00255,0.013,0.68405
0.2952,0.0024,0.01335,0.68465
0.2937,0.00355,0.01375,0.6849
0.29195,0.00385,0.0149,0.68465
0.2898,0.00435,0.01605,0.685
0.28695,0.00455,0.01725,0.686
0.28465,0.00435,0.01765,0.68725
0.28265,0.00505,0.0189,0.68715
0.28085,0.0042,0.0193,0.6882
0.2783,0.00445,0.02035,0.6891
0.27645,0.00435,0.0214,0.68985
0.27385,0.0056,0.0222,0.69065
0.27155,0.005,0.024,0.6918
0.26845,0.00525,0.02385,0.6936
0.2655,0.0053,0.025,0.6948
0.26415,0.0041,0.0259,0.69655
0.26225,0.0044,0.02555,0.6986
0.25915,0.005,0.026,0.70155
0.25535,0.0058,0.02525,0.70485
0.25175,0.0057,0.02615,0.7068
0.2481,0.00545,0.02695,0.7098
0.2456,0.0055,0.02855,0.7109
0.24285,0.0062,0.02935,0.71215
0.23905,0.00635,0.03055,0.71375
0.23585,0.0062,0.0311,0.71605
0.232,0.00685,0.03275,0.718
0.2292,0.00625,0.03355,0.71995
0.2263,0.0058,0.034,0.7231
0.22255,0.0061,0.03405,0.7264
0.21915,0.00575,0.0339,0.73025
0.21515,0.00615,0.03495,0.73295
0.2113,0.00685,0.03485,0.7363
0.2081,0.0052,0.0359,0.73985
0.2053,0.0056,0.03715,0.74195
0.2022,0.0064,0.0379,0.74375
0.1986,0.0069,0.038,0.74655
0.19635,0.00585,0.03925,0.7486
0.1933,0.0061,0.0383,0.7522
0.1907,0.0059,0.03745,0.7556
0.1882,0.00545,0.03715,0.75855
0.18585,0.00545,0.03605,0.7616
0.1835,0.00515,0.03575,0.76495
0.18145,0.00585,0.036,0.76685
0.1793,0.00535,0.03605,0.7689
0.17805,0.00465,0.03635,0.77145
0.1761,0.00545,0.0356,0.7737
0.1747,0.0048,0.03415,0.7767
0.1735,0.00475,0.03315,0.7796
0.1736,0.0043,0.0327,0.7805
0.17265,0.004,0.03185,0.78285
0.1718,0.00435,0.03165,0.78415
0.1714,0.00405,0.03205,0.78485
0.1709,0.00435,0.031,0.78635
0.17185,0.00345,0.03035,0.7867
0.17225,0.003,0.02975,0.7879
0.17155,0.0039,0.02865,0.78925
0.172,0.0037,0.0285,0.78935
0.17175,0.00415,0.0278,0.79
0.17155,0.00455,0.0272,0.78975
0.17145,0.00365,0.0272,0.79065
0.17175,0.0036,0.02735,0.7904
0.17025,0.005,0.02675,0.79155
0.17075,0.0034,0.0266,0.79195
0.17105,0.00335,0.0261,0.7921
0.17065,0.0044,0.02565,0.7925
0.1721,0.00355,0.0242,0.79235
0.1731,0.00345,0.0235,0.7924
0.1739,0.00335,0.02285,0.79255
0.17515,0.00335,0.02265,0.7918
0.1767,0.003,0.02205,0.79135
0.1771,0.0033,0.0217,0.7917
0.1786,0.0027,0.02155,0.7906
0.17895,0.0035,0.0224,0.7899
0.1798,0.0034,0.02185,0.78955
0.1802,0.0032,0.0214,0.7894
0.18155,0.00295,0.0211,0.78895
0.18245,0.00345,0.02095,0.7878
0.18415,0.00275,0.0212,0.7864
0.1847,0.00295,0.02105,0.78635
0.1855,0.00305,0.02065,0.78595
0.18605,0.00295,0.0207,0.78555
0.18685,0.00285,0.0205,0.78525
0.18795,0.00295,0.02005,0.7844
0.18995,0.00305,0.0194,0.78295
0.1909,0.00275,0.0201,0.782
0.192,0.0028,0.0198,0.781
0.19265,0.00285,0.0194,0.7805
0.19325,0.00355,0.01845,0.7798
0.1947,0.00275,0.01885,0.77875
0.1958,0.003,0.018,0.7781
0.19655,0.00265,0.01785,0.7775
0.19805,0.0026,0.01745,0.7772
0.20055,0.00225,0.01705,0.77595
0.20215,0.0029,0.01655,0.77405
0.2037,0.00285,0.0166,0.77195
0.20535,0.0021,0.017,0.7706
0.20585,0.0028,0.01695,0.76995
0.20765,0.00285,0.0169,0.76785
0.2094,0.00355,0.01815,0.76435
0.2096,0.0034,0.01765,0.76395
0.21075,0.00285,0.0182,0.76285
0.21175,0.00325,0.0189,0.761
0.21235,0.00295,0.019,0.7606
0.211,0.0044,0.01945,0.76035
0.2113,0.00385,0.0205,0.75895
0.21245,0.0033,0.01985,0.7581
0.2126,0.00415,0.02035,0.7567
0.21355,0.0039,0.0208,0.75515
0.2143,0.0035,0.0204,0.7549
0.21495,0.0039,0.02085,0.7538
0.21495,0.0041,0.02095,0.75345
0.21535,0.0037,0.02125,0.7528
0.21505,0.00425,0.02235,0.75175
0.21605,0.00375,0.0237,0.7501
0.21585,0.00505,0.0232,0.7493
0.21595,0.0048,0.02435,0.74775
0.2153,0.00475,0.0245,0.74775
0.2157,0.00375,0.02455,0.74825
0.21625,0.00425,0.0244,0.7476
0.2168,0.00425,0.0252,0.74675
0.2175,0.004,0.0257,0.7459
0.21765,0.00415,0.0257,0.7458
0.21865,0.00365,0.0256,0.74545
0.219,0.00415,0.025,0.7448
0.21975,0.0038,0.02565,0.7443
0.21935,0.0043,0.0255,0.74445
0.21985,0.0039,0.02655,0.7431
0.22035,0.00455,0.02625,0.74185
0.2208,0.00425,0.0257,0.7414
0.2207,0.0048,0.0261,0.74075
0.2199,0.00445,0.0263,0.74155
0.21965,0.0046,0.0271,0.7413
0.22025,0.0038,0.02685,0.7416
0.21915,0.00555,0.02615,0.74175
0.2183,0.00525,0.0268,0.74155
0.21845,0.0049,0.0284,0.73965
0.21715,0.00505,0.02895,0.7402
0.21625,0.0047,0.02895,0.74075
0.21545,0.0052,0.0299,0.74045
0.21445,0.00505,0.02985,0.74145
0.21505,0.0045,0.03035,0.7409
0.2146,0.0052,0.0298,0.74125
0.2141,0.0052,0.0299,0.74105
0.2142,0.0044,0.0298,0.7416
0.2124,0.006,0.03025,0.74225
0.21225,0.00495,0.0312,0.74225
0.2118,0.0051,0.0305,0.7436
0.2113,0.00525,0.03035,0.7438
0.2097,0.00555,0.02995,0.74495
0.20975,0.0046,0.03025,0.7456
0.20905,0.0045,0.0297,0.74695
0.20825,0.00515,0.0301,0.7475
0.2087,0.0043,0.031,0.74725
0.2085,0.00485,0.03075,0.7477
0.20785,0.00535,0.03065,0.74815
0.20715,0.00535,0.03045,0.74875
0.20765,0.00465,0.0309,0.7487
0.207,0.0052,0.0298,0.75025
0.20685,0.0048,0.02885,0.75115
0.2077,0.00475,0.029,0.7504
0.2078,0.0047,0.0292,0.75005
0.20945,0.00425,0.0296,0.7483
0.20915,0.0047,0.029,0.74885
0.20735,0.00545,0.029,0.75
0.2097,0.0037,0.02935,0.7487
0.20995,0.0044,0.0293,0.74845
0.2086,0.0055,0.0286,0.7495
0.209,0.00445,0.02895,0.7492
0.2096,0.00435,0.02835,0.7491
0.20885,0.0045,0.0288,0.75005
0.2082,0.0055,0.0291,0.74975
0.2081,0.0044,0.0291,0.75045
0.20805,0.00495,0.0288,0.75035
0.208,0.00495,0.02875,0.75055
0.2081,0.0049,0.0291,0.7499
0.2077,0.0045,0.02865,0.7512
0.208,0.0043,0.0285,0.7514
0.2084,0.0051,0.0285,0.75015
0.2081,0.00455,0.028,0.75105
0.20795,0.00455,0.02825,0.75085
0.2096,0.0045,0.02705,0.7499
0.2106,0.0041,0.02615,0.75
0.2103,0.00515,0.0267,0.7498
0.21045,0.00495,0.02715,0.749
0.211,0.0047,0.02705,0.7489
0.21225,0.00375,0.0277,0.7483
0.2127,0.0045,0.02755,0.74845
0.21285,0.0044,0.02735,0.74835
0.213,0.0047,0.02705,0.74785
0.21395,0.0041,0.02685,0.7475
0.2137,0.0047,0.0268,0.74765
0.21535,0.0041,0.02645,0.7465
0.21525,0.00445,0.02625,0.7462
0.21475,0.00445,0.02675,0.7463
0.2152,0.004,0.02715,0.74555
0.2143,0.0046,0.0274,0.74615
0.214,0.0046,0.0269,0.7465
0.2148,0.00455,0.0283,0.74505
0.2148,0.00435,0.029,0.7452
0.21525,0.00505,0.02855,0.74455
0.21495,0.0047,0.02895,0.74395
0.2154,0.0046,0.02845,0.74425
0.2152,0.00495,0.0282,0.74395
0.2144,0.0055,0.02835,0.74365
0.21415,0.00485,0.02955,0.7429
0.2146,0.00455,0.03005,0.7422
0.2147,0.0048,0.0299,0.74215
0.214,0.0051,0.0298,0.74225
0.2131,0.0053,0.0303,0.7422
0.2136,0.0048,0.03065,0.7418
0.21355,0.00405,0.03005,0.74275
0.21275,0.00505,0.0289,0.74375
0.21125,0.00515,0.0297,0.74485
0.21035,0.0049,0.0301,0.74555
0.20955,0.00535,0.03,0.74575
0.20945,0.00535,0.0308,0.74525
0.2092,0.00515,0.03115,0.74515
0.2089,0.00565,0.03135,0.74495
0.209,0.0049,0.0312,0.7454
0.2076,0.00605,0.03105,0.74555
0.20735,0.00495,0.0305,0.74655
0.20665,0.0057,0.03105,0.74685
0.2069,0.00475,0.03075,0.7475
0.2069,0.00505,0.03105,0.7475
0.20615,0.00575,0.03225,0.747
0.20575,0.0058,0.03265,0.7463
0.20415,0.00655,0.03285,0.74665
0.2039,0.0053,0.03315,0.74645
0.20205,0.0062,0.03345,0.74795
0.2017,0.00555,0.0337,0.74825
0.1994,0.00595,0.0338,0.75065
0.19845,0.00535,0.0352,0.7515
0.197,0.0058,0.0364,0.75215
0.19565,0.00645,0.0363,0.7522
0.1953,0.00545,0.03655,0.75275
0.19485,0.00555,0.03655,0.75365
0.1939,0.0057,0.03555,0.75545
0.19305,0.0055,0.0356,0.7565
0.1925,0.0052,0.0346,0.75785
0.19285,0.00475,0.03335,0.7592
0.19185,0.0059,0.03305,0.7597
0.19095,0.00545,0.03345,0.76075
0.1903,0.00555,0.03255,0.76175
0.19005,0.00515,0.0329,0.76245
0.19055,0.0047,0.03265,0.76275
0.19065,0.00495,0.03245,0.76315
0.19015,0.0045,0.03175,0.7643
0.19,0.0048,0.0318,0.7651
0.1897,0.00485,0.0317,0.7654
0.1896,0.00455,0.03125,0.7662
0.18915,0.0053,0.03165,0.76565
0.18915,0.00485,0.03165,0.766
0.19085,0.00395,0.03115,0.76535
0.1905,0.005,0.0304,0.766
0.18965,0.0051,0.0302,0.76635
0.1899,0.00425,0.0306,0.7661
0.18965,0.00475,0.03115,0.76615
0.19075,0.00405,0.03,0.7668
0.1913,0.0041,0.0296,0.7669
0.19175,0.00465,0.02945,0.7663
0.19215,0.00445,0.02995,0.7657
0.19225,0.00485,0.0307,0.7647
0.19155,0.0048,0.03065,0.76535
0.1913,0.00435,0.03055,0.7659
0.1915,0.0051,0.02945,0.76625
0.19095,0.00495,0.02885,0.76685
0.19035,0.00455,0.02855,0.76755
0.1901,0.0046,0.02955,0.76775
0.18945,0.00525,0.02815,0.7683
0.19045,0.0041,0.02975,0.76755
0.191,0.0044,0.02845,0.7683
0.19125,0.00435,0.02795,0.7685
0.1919,0.0042,0.0287,0.7676
0.19165,0.0044,0.029,0.76735
0.19185,0.00415,0.0285,0.76765
0.1911,0.0047,0.02735,0.7688
0.19175,0.0044,0.0279,0.76805
0.1919,0.0043,0.0275,0.7681
0.19315,0.0036,0.02725,0.7677
0.19325,0.00395,0.02645,0.76835
0.19445,0.00405,0.02605,0.76795
0.1955,0.00415,0.0256,0.7669
0.1971,0.0039,0.0257,0.76525
0.19685,0.00455,0.02635,0.7645
0.19705,0.00355,0.02635,0.7652
0.19675,0.0045,0.02615,0.76515
0.1984,0.0041,0.0263,0.7637
0.1982,0.00435,0.02635,0.7637
0.1989,0.0042,0.02685,0.763
0.20005,0.00385,0.02705,0.7615
0.2008,0.00385,0.02755,0.7608
0.20105,0.00465,0.02735,0.76005
0.20095,0.00495,0.028,0.7596
0.2017,0.0043,0.0285,0.75835
0.20205,0.0042,0.0277,0.7586
0.2021,0.00525,0.02805,0.7574
0.20225,0.00405,0.02805,0.75795
0.20095,0.00535,0.0268,0.75925
0.2015,0.00395,0.02735,0.7587
0.1999,0.00535,0.0275,0.7589
0.201,0.0035,0.0289,0.7583
0.20075,0.00475,0.02825,0.7583
0.2008,0.0045,0.0277,0.7585
0.2007,0.0048,0.0275,0.7587
0.20145,0.0039,0.0274,0.7589
0.2018,0.0046,0.02735,0.7588
0.20245,0.0038,0.02715,0.75855
0.20225,0.00485,0.02755,0.7583
0.20275,0.00405,0.0276,0.7583
0.2039,0.00415,0.02725,0.75735
0.2037,0.0042,0.0272,0.75775
0.2036,0.0047,0.02615,0.7583
0.20465,0.0044,0.026,0.75685
0.20455,0.0045,0.02605,0.75705
0.20405,0.005,0.0272,0.7561
0.2051,0.0044,0.0271,0.75475
0.20575,0.00395,0.02715,0.75495
0.20425,0.00525,0.0273,0.75555
0.20445,0.00425,0.02845,0.7552
0.2044,0.00395,0.02825,0.75585
0.2048,0.00395,0.0288,0.7556
0.2048,0.0043,0.02775,0.75625
0.2042,0.00485,0.02725,0.75645
0.2045,0.00455,0.0275,0.7559
0.20455,0.00525,0.02745,0.7552
0.2048,0.0045,0.02745,0.75505
0.2037,0.0051,0.028,0.7548
0.20225,0.00575,0.02805,0.7551
0.2027,0.0047,0.0282,0.75475
0.20295,0.0046,0.02945,0.7539
0.2023,0.0053,0.0294,0.7546
0.20245,0.0048,0.0296,0.75425
0.20195,0.005,0.02935,0.7552
0.20305,0.0045,0.02955,0.75445
0.20245,0.005,0.0288,0.7554
0.2016,0.00485,0.0293,0.75605
0.201,0.00515,0.03025,0.7556
0.2027,0.0034,0.0295,0.7561
0.2032,0.0045,0.0279,0.7561
0.204,0.0045,0.0275,0.75555
0.2043,0.00395,0.0276,0.75565
0.2037,0.00485,0.02805,0.75525
0.20285,0.0052,0.02775,0.75585
0.2032,0.0049,0.02835,0.75505
0.20315,0.0051,0.0289,0.7549
0.20345,0.0045,0.0284,0.75485
0.2036,0.00435,0.0279,0.7549
0.2038,0.00425,0.0272,0.7555
0.204,0.0047,0.02835,0.75465
0.20455,0.0046,0.02795,0.75425
0.2048,0.00435,0.0289,0.75385
0.2051,0.00365,0.0298,0.7543
0.2057,0.0041,0.0294,0.7545
0.20755,0.00345,0.02825,0.7543
0.20775,0.00485,0.0275,0.75385
0.2071,0.00465,0.0268,0.7547
0.20815,0.00385,0.02685,0.7541
0.20865,0.00475,0.0265,0.7532
0.20845,0.0044,0.02605,0.7538
0.20855,0.0047,0.02645,0.75275
0.2085,0.00425,0.0269,0.75235
0.20955,0.00365,0.02715,0.75145
0.21035,0.00365,0.0267,0.75145
0.21035,0.00455,0.02665,0.7516
0.21075,0.00425,0.02585,0.7514
0.21065,0.00455,0.02645,0.75105
0.21205,0.00365,0.0272,0.75
0.21155,0.0052,0.028,0.74905
0.21175,0.00425,0.0276,0.7494
0.21115,0.00505,0.0289,0.7488
0.21255,0.0038,0.02885,0.7481
0.2133,0.00465,0.02665,0.74765
0.212,0.005,0.02615,0.74885
0.21245,0.0038,0.0266,0.7494
0.214,0.0041,0.02705,0.7477
0.21405,0.00465,0.0267,0.7477
0.21485,0.00425,0.02475,0.7481
0.2156,0.00425,0.02495,0.74705
0.2165,0.00375,0.02505,0.74655
0.2168,0.0044,0.0258,0.74565
0.21685,0.0053,0.0253,0.7449
0.2166,0.00415,0.0256,0.7454
0.21715,0.0037,0.0252,0.7458
0.21855,0.0034,0.0251,0.74525
0.21915,0.00395,0.0248,0.74495
0.22015,0.00435,0.02455,0.7433
0.21985,0.00505,0.02555,0.74175
0.21985,0.0047,0.02585,0.74165
0.21955,0.0049,0.02675,0.74085
0.2197,0.0047,0.02675,0.7406
0.2205,0.0044,0.0265,0.7403
0.2212,0.0041,0.0272,0.73915
0.22115,0.00365,0.02735,0.7394
0.2209,0.00525,0.0275,0.73865
0.2207,0.00535,0.0276,0.73835
0.22025,0.0051,0.02785,0.73785
0.2206,0.0047,0.02895,0.73715
0.2199,0.00565,0.0286,0.7369
0.21895,0.0052,0.02965,0.73705
0.21865,0.00525,0.03055,0.7366
0.2184,0.00545,0.03115,0.7365
0.2178,0.00575,0.03165,0.73675
0.21625,0.00545,0.03165,0.7381
0.2148,0.00625,0.0319,0.7382
0.21445,0.00535,0.0306,0.7394
0.2142,0.00475,0.03175,0.7393
0.2132,0.00515,0.0323,0.74005
0.21245,0.00535,0.03215,0.7409
0.2117,0.00585,0.03225,0.7413
0.21115,0.00555,0.03265,0.7416
0.2095,0.0066,0.03345,0.74115
0.2082,0.0056,0.0335,0.74265
0.2078,0.00535,0.03235,0.74445
0.207,0.00505,0.0327,0.7453
0.20645,0.0057,0.033,0.7458
0.2062,0.0055,0.03325,0.7458
0.20585,0.0055,0.03425,0.74535
0.2038,0.00655,0.0346,0.7461
0.20215,0.0056,0.03405,0.7489
0.2006,0.0055,0.03345,0.7503
0.1994,0.0055,0.0346,0.75045
0.1988,0.0048,0.03455,0.7516
0.1978,0.00545,0.03525,0.7523
0.19865,0.00415,0.0329,0.75395
0.19875,0.00515,0.0325,0.7538
0.19925,0.0041,0.03245,0.75465
0.19885,0.0049,0.0322,0.7551
0.1975,0.0059,0.0322,0.7558
0.19845,0.0052,0.03305,0.7543
0.19765,0.0048,0.03295,0.756
0.19815,0.00455,0.03215,0.75635
0.19845,0.00465,0.03315,0.75585
0.19775,0.0056,0.0328,0.75595
0.1964,0.00555,0.03245,0.75705
0.1958,0.0057,0.03195,0.75735
0.194,0.00645,0.03265,0.75775
0.19455,0.00515,0.03235,0.7578
0.1948,0.00545,0.03315,0.75705
0.19435,0.00535,0.033,0.75755
0.19465,0.00505,0.03315,0.75755
0.1934,0.00655,0.0334,0.75775
0.19415,0.0052,0.0341,0.7568
0.19465,0.00465,0.0343,0.75685
0.19425,0.0054,0.0335,0.7576
0.19485,0.00485,0.034,0.75765
0.19395,0.0056,0.03295,0.75885
0.194,0.0056,0.03325,0.7584
0.1947,0.0053,0.03455,0.7575
0.19425,0.005,0.0337,0.7581
0.1933,0.00515,0.03425,0.75855
0.1932,0.00475,0.03385,0.75915
0.19405,0.00425,0.0324,0.7603
0.19435,0.00455,0.03205,0.7606
0.19315,0.0052,0.0327,0.7608
0.1935,0.0041,0.0327,0.7612
0.1938,0.0048,0.0328,0.7606
0.1949,0.00385,0.03105,0.76205
0.19575,0.00455,0.03065,0.7615
0.19465,0.00545,0.03105,0.7616
0.1945,0.0049,0.03005,0.7625
0.1963,0.0038,0.0304,0.76095
0.19635,0.0048,0.03,0.7608
0.19705,0.0044,0.03045,0.75995
0.1963,0.00465,0.03075,0.76035
0.19675,0.0045,0.03095,0.75985
0.19765,0.00415,0.03105,0.7589
0.19735,0.00445,0.0297,0.7601
0.19855,0.0043,0.02875,0.76005
0.1989,0.0046,0.0288,0.75965
0.19875,0.00505,0.0284,0.75985
0.1981,0.00575,0.0286,0.75965
0.199,0.0043,0.02815,0.75985
0.2004,0.00355,0.02745,0.7602
0.20145,0.00365,0.02725,0.75955
0.2022,0.00465,0.0264,0.75885
0.20375,0.0039,0.0275,0.7573
0.2056,0.0034,0.0272,0.7569
0.2069,0.00465,0.02635,0.75555
0.2077,0.00475,0.02565,0.7546
0.2088,0.0037,0.0258,0.7536
0.21045,0.0035,0.0267,0.75185
0.2117,0.00395,0.02615,0.7512
0.2119,0.00435,0.0255,0.751
0.2123,0.00435,0.0265,0.75
0.21205,0.00455,0.0267,0.74965
0.21165,0.00455,0.0273,0.7502
0.2114,0.0048,0.02735,0.75
0.21145,0.00455,0.0273,0.74935
0.21115,0.00485,0.028,0.74885
0.21115,0.005,0.0283,0.74815
0.2115,0.00435,0.0274,0.7482
0.2129,0.00385,0.0279,0.74735
0.21225,0.005,0.029,0.74715
0.2117,0.0052,0.02915,0.74685
0.2119,0.00435,0.02945,0.74695
0.2125,0.0045,0.02845,0.7468
0.2111,0.00555,0.02875,0.74665
0.21045,0.0056,0.02935,0.74625
0.21095,0.0045,0.02945,0.746
0.2094,0.006,0.0302,0.746
0.2092,0.0048,0.0305,0.74615
0.21,0.0042,0.031,0.7459
0.20865,0.00665,0.0305,0.7461
0.2078,0.00535,0.03125,0.74675
0.2079,0.0049,0.03205,0.74665
0.20695,0.00555,0.0322,0.7472
0.2061,0.00515,0.03235,0.74755
0.2067,0.0045,0.0328,0.74745
0.20585,0.00535,0.03175,0.74835
0.20595,0.00455,0.03085,0.7495
0.20695,0.0046,0.03045,0.74935
0.20735,0.00445,0.03065,0.74905
0.2081,0.00445,0.03005,0.7487
0.20825,0.00505,0.03025,0.74805
0.20825,0.0051,0.0308,0.7473
0.2078,0.005,0.03165,0.74755
0.2072,0.0056,0.0314,0.74795
0.2065,0.00535,0.0308,0.7487
0.2057,0.00525,0.0306,0.74955
0.2054,0.00495,0.0305,0.7501
0.20565,0.00435,0.03075,0.75055
0.2052,0.00525,0.0302,0.7506
0.20545,0.0052,0.0301,0.7503
0.20555,0.00485,0.0304,0.74995
0.20425,0.00575,0.03045,0.7504
0.2044,0.0047,0.02985,0.7503
0.20515,0.00415,0.03,0.7504
0.2049,0.00495,0.03015,0.7507
0.2043,0.0046,0.03025,0.75195
0.2024,0.0057,0.03045,0.75275
0.20155,0.0051,0.03045,0.75425
0.20065,0.0052,0.031,0.75475
0.20015,0.0051,0.03105,0.75525
0.1993,0.00485,0.03135,0.75595
0.19835,0.00535,0.03055,0.7563
0.1984,0.00465,0.0314,0.75675
0.19875,0.0044,0.02995,0.75785
0.19865,0.00495,0.03065,0.75705
0.1988,0.00505,0.0309,0.75685
0.1996,0.00515,0.0306,0.756
0.19925,0.0054,0.03065,0.7565
0.19925,0.0046,0.03015,0.757
0.20055,0.0041,0.03005,0.75595
0.2011,0.00435,0.02885,0.7565
