moyS, moyE, moyI, moyR
0.999,0.0,0.001,0.0
0.9984,6.0E-4,7.5E-4,2.5E-4
0.9974,0.001,0.001,4.0E-4
0.9962,0.0012,0.0016,4.5E-4
0.99495,0.00125,0.002,8.0E-4
0.99325,0.0017,0.00235,0.0013
0.9907,0.00255,0.0028,0.00175
0.9871,0.0036,0.00365,0.00255
0.98295,0.00415,0.00595,0.00315
0.97625,0.0067,0.0083,0.0043
0.96735,0.0089,0.011,0.00545
0.9554,0.012,0.0159,0.00675
0.93995,0.01545,0.02145,0.00985
0.91795,0.022,0.02895,0.0135
0.89105,0.02695,0.0392,0.0185
0.8564,0.03475,0.0516,0.02595
0.8134,0.0431,0.06755,0.03545
0.7599,0.0537,0.0886,0.04725
0.695,0.06515,0.11515,0.06165
0.6211,0.07425,0.1459,0.0796
0.53955,0.08195,0.1815,0.10355
0.45615,0.08365,0.21285,0.1367
0.3733,0.0832,0.24995,0.1713
0.29735,0.07675,0.2818,0.21415
0.23175,0.06655,0.3092,0.2593
0.1822,0.0509,0.32695,0.30745
0.13985,0.0436,0.33795,0.35765
0.10595,0.0354,0.34015,0.40915
0.0832,0.02415,0.3339,0.4611
0.0653,0.0197,0.3227,0.51085
0.0522,0.0148,0.30835,0.5555
0.04315,0.0111,0.29095,0.5982
0.0367,0.0085,0.26965,0.6396
0.0328,0.00665,0.2464,0.6771
0.03035,0.00555,0.22695,0.7082
0.0283,0.0053,0.2053,0.7378
0.02755,0.00415,0.1852,0.7636
0.02585,0.00365,0.16785,0.78705
0.025,0.00335,0.1529,0.80625
0.02575,0.0024,0.13435,0.8267
0.0272,0.0023,0.1197,0.84165
0.0291,0.00185,0.1061,0.8556
0.03025,0.0021,0.095,0.8674
0.0319,0.0019,0.08365,0.87765
0.0331,0.00165,0.07525,0.8859
0.0347,0.00195,0.066,0.8938
0.03655,0.00155,0.0585,0.8999
0.0393,0.00165,0.05155,0.90405
0.0414,0.0012,0.0455,0.90885
0.0437,0.00155,0.04035,0.91175
0.04655,0.00125,0.0352,0.9145
0.04935,0.001,0.03045,0.91655
0.05095,0.001,0.02685,0.9189
0.0525,0.00125,0.0244,0.91975
0.0558,0.0013,0.0219,0.919
0.0582,0.001,0.02,0.91885
0.06045,7.5E-4,0.01725,0.9201
0.06395,9.0E-4,0.01555,0.9181
0.06665,6.0E-4,0.01375,0.91745
0.0691,6.5E-4,0.0131,0.91595
0.07115,7.0E-4,0.0117,0.9151
0.07405,5.5E-4,0.0099,0.91405
0.0773,5.5E-4,0.00915,0.91175
0.08035,4.5E-4,0.00865,0.9093
0.0832,4.0E-4,0.00805,0.90735
0.08635,4.5E-4,0.00755,0.9048
0.0887,7.5E-4,0.00705,0.90255
0.09135,4.5E-4,0.007,0.90025
0.0938,7.0E-4,0.0066,0.898
0.09655,4.5E-4,0.00615,0.89585
0.0993,6.0E-4,0.0056,0.8935
0.10185,5.5E-4,0.00555,0.89125
0.10385,2.0E-4,0.005,0.89005
0.10625,4.0E-4,0.00445,0.8881
0.10935,3.5E-4,0.0043,0.88525
0.1122,3.5E-4,0.0037,0.883
0.1153,2.0E-4,0.00355,0.88025
0.1177,3.0E-4,0.0033,0.8782
0.1204,1.5E-4,0.00295,0.8758
0.1235,1.0E-4,0.00285,0.87305
0.1265,2.0E-4,0.0024,0.8706
0.1296,4.0E-4,0.0024,0.86745
0.13245,3.5E-4,0.00235,0.86465
0.1351,4.0E-4,0.00205,0.8621
0.1378,2.5E-4,0.0021,0.85955
0.1404,4.0E-4,0.0019,0.85685
0.1423,3.0E-4,0.00205,0.8549
0.1445,2.5E-4,0.00205,0.85275
0.147,2.0E-4,0.00205,0.85035
0.1498,2.0E-4,0.00195,0.84765
0.15205,2.5E-4,0.0019,0.8454
0.15405,2.5E-4,0.0018,0.84345
0.1567,1.0E-4,0.00185,0.84085
0.15915,1.5E-4,0.00185,0.83845
0.16205,1.5E-4,0.00185,0.8356
0.1639,4.0E-4,0.0019,0.83345
0.16565,2.5E-4,0.00185,0.83175
0.16795,2.5E-4,0.0018,0.8295
0.1705,1.0E-4,0.0018,0.82735
0.1729,2.0E-4,0.0019,0.8248
0.175,2.5E-4,0.00165,0.82275
0.1778,1.0E-4,0.00155,0.8201
0.17995,1.0E-4,0.00155,0.818
0.1824,2.0E-4,0.00145,0.81555
0.1846,1.5E-4,0.0015,0.81335
0.18685,1.5E-4,0.0016,0.81105
0.18945,2.5E-4,0.0015,0.8085
0.1916,5.0E-5,0.00165,0.80635
0.1936,3.5E-4,0.00155,0.8042
0.1956,2.0E-4,0.00165,0.8021
0.19845,3.0E-4,0.0015,0.79925
0.20045,2.0E-4,0.00165,0.79725
0.2026,4.5E-4,0.0018,0.79495
0.20455,1.5E-4,0.00185,0.7932
0.2065,3.5E-4,0.00175,0.79125
0.2085,2.5E-4,0.0017,0.78925
0.2106,3.5E-4,0.00135,0.7872
0.21255,2.5E-4,0.0014,0.7852
0.2147,1.5E-4,0.00155,0.78305
0.21715,0.0,0.0014,0.78095
0.21895,3.0E-4,0.00155,0.7789
0.2208,2.0E-4,0.00175,0.77695
0.22295,5.0E-5,0.00155,0.7751
0.22555,1.0E-4,0.0013,0.77285
0.22725,3.0E-4,0.0012,0.7711
0.2288,2.5E-4,0.0012,0.76945
0.23135,3.5E-4,0.0012,0.7667
0.234,1.5E-4,0.0012,0.76405
0.23645,5.0E-5,0.0011,0.76165
0.2383,2.0E-4,0.0013,0.75975
0.24065,3.5E-4,0.0014,0.75725
0.2424,3.5E-4,0.0014,0.75535
0.2448,1.5E-4,0.0013,0.75325
0.247,1.0E-4,0.0014,0.7511
0.2484,3.0E-4,0.0014,0.7496
0.25015,1.5E-4,0.00125,0.74795
0.25255,4.5E-4,0.00135,0.74525
0.2544,3.5E-4,0.00135,0.7434
0.2567,2.5E-4,0.00135,0.74115
0.2586,3.5E-4,0.00135,0.7392
0.26015,2.5E-4,0.00135,0.7377
0.26195,3.5E-4,0.0015,0.73575
0.26375,3.0E-4,0.0014,0.73385
0.26575,2.0E-4,0.00165,0.73175
0.26715,4.0E-4,0.00185,0.73015
0.2692,2.5E-4,0.002,0.7281
0.27195,5.5E-4,0.00175,0.7253
0.27415,3.0E-4,0.0018,0.72315
0.2759,6.5E-4,0.0019,0.721
0.27815,2.5E-4,0.0021,0.7189
0.2804,2.5E-4,0.0018,0.71695
0.28225,4.5E-4,0.00195,0.7148
0.28365,4.0E-4,0.002,0.7133
0.2848,6.5E-4,0.00215,0.7118
0.2868,5.0E-4,0.0023,0.7097
0.28825,7.5E-4,0.00245,0.7078
0.28985,6.0E-4,0.00275,0.70585
0.2908,8.5E-4,0.003,0.7044
0.2928,4.5E-4,0.00325,0.7025
0.2939,8.5E-4,0.0034,0.70095
0.2955,7.0E-4,0.0037,0.699
0.2967,0.00145,0.0035,0.6971
0.29775,9.5E-4,0.00375,0.69575
0.29915,7.0E-4,0.00425,0.69415
0.30015,9.5E-4,0.0043,0.6931
0.30095,0.0012,0.00455,0.6918
0.30225,0.0013,0.0042,0.69005
0.3032,0.0013,0.00495,0.68845
0.30315,0.00185,0.0055,0.6874
0.3042,0.00135,0.0059,0.68615
0.3042,0.00185,0.006,0.68555
0.30475,0.00175,0.0064,0.6844
0.30535,0.00145,0.0069,0.68345
0.306,0.00135,0.0076,0.68255
0.3062,0.00205,0.0075,0.68175
0.3069,0.0016,0.0079,0.68085
0.3067,0.0023,0.0082,0.68005
0.3065,0.002,0.00845,0.67955
0.30585,0.00245,0.0092,0.6791
0.30575,0.00215,0.00995,0.6785
0.30525,0.0024,0.01035,0.67795
0.30415,0.003,0.01085,0.67795
0.30405,0.00245,0.0116,0.67725
0.3032,0.00315,0.0126,0.6766
0.3023,0.0031,0.0132,0.67685
0.3013,0.00285,0.01355,0.6775
0.3005,0.00315,0.01425,0.6774
0.29935,0.0032,0.01445,0.67815
0.29765,0.0039,0.01495,0.6787
0.29645,0.0034,0.0165,0.67875
0.2939,0.00455,0.0166,0.6796
0.2927,0.004,0.0181,0.67895
0.29045,0.0045,0.01955,0.6793
0.288,0.00475,0.02055,0.6805
0.28575,0.0051,0.02105,0.68135
0.2826,0.0061,0.02295,0.6817
0.27915,0.00535,0.0241,0.68315
0.27535,0.00605,0.0262,0.68405
0.2726,0.00555,0.0271,0.68585
0.2692,0.0058,0.02685,0.6885
0.2647,0.0067,0.02845,0.6906
0.2611,0.0058,0.0306,0.69235
0.25635,0.00685,0.0318,0.6951
0.2523,0.00685,0.0328,0.69725
0.24945,0.00555,0.0338,0.7001
0.2454,0.0063,0.03245,0.70385
0.24075,0.00685,0.03365,0.7073
0.2381,0.0056,0.03475,0.71005
0.23355,0.007,0.03485,0.7134
0.22905,0.00695,0.03605,0.71605
0.2247,0.007,0.0367,0.71885
0.22105,0.00655,0.03795,0.72155
0.2169,0.0067,0.03895,0.72525
0.21285,0.00675,0.03975,0.72785
0.20815,0.007,0.0398,0.7316
0.2034,0.00825,0.0404,0.7347
0.2004,0.00585,0.04125,0.7392
0.1978,0.00565,0.0414,0.7433
0.19355,0.0067,0.0421,0.74675
0.1906,0.00555,0.0407,0.75145
0.18785,0.00575,0.03915,0.7557
0.18635,0.00515,0.03735,0.7589
0.1837,0.00585,0.0371,0.76185
0.18205,0.00545,0.0367,0.7641
0.18005,0.00505,0.03765,0.7663
0.17815,0.0053,0.0376,0.7686
0.1751,0.00585,0.0371,0.77115
0.1732,0.00545,0.03825,0.77245
0.1716,0.00505,0.0373,0.77545
0.1709,0.00425,0.03685,0.77745
0.1694,0.0054,0.03715,0.77925
0.16885,0.0055,0.03705,0.77965
0.167,0.0048,0.03615,0.783
0.166,0.00485,0.0351,0.78515
0.1644,0.0053,0.0345,0.78715
0.1639,0.0046,0.03415,0.78835
0.16375,0.00435,0.03365,0.7898
0.1631,0.00425,0.03245,0.79175
0.1632,0.0042,0.03195,0.7928
0.1627,0.00415,0.03145,0.7937
0.1629,0.0039,0.03075,0.7946
0.16185,0.0049,0.03045,0.795
0.1618,0.00385,0.0308,0.7957
0.16095,0.00435,0.0307,0.7969
0.16165,0.0037,0.03035,0.79695
0.16145,0.0043,0.02925,0.7977
0.1619,0.0038,0.02775,0.7984
0.16265,0.0037,0.02795,0.79805
0.16315,0.0037,0.0274,0.79865
0.1642,0.00325,0.0266,0.7987
0.16395,0.00345,0.0262,0.79955
0.1653,0.00335,0.02565,0.7988
0.1661,0.0032,0.02435,0.7992
0.1683,0.00275,0.02325,0.7988
0.16965,0.0028,0.02345,0.7979
0.1706,0.0026,0.02315,0.79735
0.17165,0.00325,0.0223,0.7968
0.1735,0.0023,0.0214,0.79625
0.17485,0.00255,0.02095,0.7956
0.1764,0.00275,0.0209,0.79455
0.17775,0.0025,0.01995,0.7945
0.1796,0.00275,0.0192,0.79335
0.1811,0.0032,0.0191,0.7918
0.18225,0.00295,0.01925,0.7908
0.185,0.00235,0.0183,0.7896
0.18645,0.00255,0.01765,0.78865
0.1878,0.003,0.0171,0.7875
0.1883,0.0036,0.0169,0.78655
0.18965,0.00275,0.0176,0.78515
0.1916,0.00245,0.0174,0.7836
0.19365,0.0024,0.01685,0.78225
0.19525,0.00245,0.0163,0.78095
0.19745,0.00225,0.01655,0.77895
0.1989,0.00225,0.01665,0.77765
0.20055,0.00295,0.01605,0.77595
0.2026,0.00255,0.0154,0.7744
0.2045,0.00275,0.01565,0.7722
0.20715,0.0019,0.0154,0.7709
0.20995,0.00225,0.0153,0.76805
0.21255,0.0022,0.0154,0.76535
0.2144,0.00225,0.01545,0.76325
0.21545,0.0029,0.0152,0.76205
0.2169,0.0029,0.01595,0.75995
0.2178,0.0031,0.01645,0.75805
0.21965,0.0026,0.01685,0.75645
0.2205,0.00315,0.01625,0.7555
0.2222,0.00275,0.01685,0.75305
0.2231,0.0032,0.0165,0.752
0.2236,0.00335,0.0177,0.7506
0.2244,0.00335,0.0179,0.74945
0.2254,0.00305,0.01825,0.7479
0.22595,0.00355,0.01825,0.7465
0.2276,0.0029,0.0182,0.74515
0.2281,0.0039,0.0189,0.74315
0.2287,0.0034,0.0192,0.7426
0.23015,0.00385,0.0192,0.7411
0.2313,0.00405,0.01955,0.73895
0.2323,0.00365,0.02,0.7374
0.2336,0.00345,0.02,0.73615
0.23435,0.00355,0.0206,0.73505
0.23455,0.0036,0.0205,0.73445
0.23485,0.00335,0.02025,0.73425
0.23465,0.0039,0.02125,0.73375
0.23565,0.0036,0.021,0.7334
0.23505,0.0047,0.02185,0.73225
0.23535,0.004,0.02175,0.7312
0.2355,0.0038,0.0223,0.73075
0.23555,0.0044,0.02325,0.7298
0.2368,0.00385,0.02375,0.7279
0.23665,0.00485,0.02425,0.7262
0.236,0.00505,0.0253,0.725
0.2347,0.00515,0.0261,0.72495
0.23315,0.00565,0.0273,0.7252
0.23205,0.0054,0.0277,0.726
0.23185,0.0052,0.02775,0.72585
0.23,0.00595,0.02885,0.7263
0.2296,0.00505,0.02945,0.7263
0.2286,0.00555,0.03025,0.7262
0.22645,0.0061,0.0305,0.72685
0.2243,0.006,0.03135,0.72805
0.2219,0.00645,0.03195,0.72855
0.2208,0.00545,0.03305,0.7299
0.21965,0.0055,0.0342,0.73025
0.2175,0.00645,0.0356,0.7304
0.21555,0.0061,0.03575,0.7317
0.21325,0.00605,0.03675,0.7329
0.21155,0.00605,0.0374,0.7337
0.20845,0.0066,0.0377,0.7363
0.20575,0.0071,0.03705,0.7385
0.20335,0.006,0.03735,0.74145
0.20105,0.0069,0.0382,0.7429
0.19935,0.0061,0.03835,0.74485
0.19865,0.0063,0.03835,0.7455
0.1981,0.00545,0.03855,0.74725
0.19545,0.00695,0.038,0.7492
0.1942,0.0059,0.0389,0.75025
0.1928,0.00635,0.03965,0.7511
0.19125,0.006,0.04025,0.75235
0.1892,0.007,0.04025,0.75345
0.1884,0.00585,0.03985,0.7543
0.18805,0.0059,0.0387,0.75615
0.1874,0.00595,0.03865,0.7565
0.1852,0.0067,0.0381,0.7583
0.18425,0.0056,0.03885,0.76015
0.18285,0.00565,0.03855,0.7622
0.1824,0.005,0.03745,0.7642
0.18195,0.00565,0.0373,0.76495
0.18275,0.00465,0.038,0.7652
0.1827,0.00505,0.03745,0.76595
0.18225,0.0052,0.03535,0.7674
0.1814,0.00545,0.03435,0.76915
0.1811,0.0049,0.0343,0.77015
0.18235,0.0041,0.03365,0.7703
0.1834,0.0043,0.03355,0.77
0.18355,0.0053,0.03175,0.77045
0.18305,0.00525,0.0318,0.7706
0.183,0.00475,0.0323,0.77075
0.18315,0.0055,0.03235,0.7703
0.1827,0.0049,0.03235,0.77125
0.18325,0.00425,0.03135,0.77235
0.18395,0.0046,0.03075,0.77215
0.1845,0.00445,0.02935,0.77265
0.18575,0.0042,0.0293,0.7723
0.1856,0.00505,0.02875,0.7715
0.1859,0.00455,0.029,0.77095
0.18665,0.004,0.02935,0.7703
0.18775,0.00415,0.0291,0.7693
0.1886,0.0046,0.02955,0.7682
0.18945,0.004,0.0297,0.768
0.19135,0.004,0.03045,0.76665
0.19065,0.0049,0.02935,0.76785
0.1916,0.0045,0.0288,0.76745
0.191,0.00545,0.02885,0.76745
0.19075,0.0045,0.0287,0.7684
0.1921,0.0037,0.02895,0.76765
0.19275,0.0044,0.0282,0.7676
0.1942,0.00375,0.02805,0.76675
0.1951,0.0042,0.02725,0.7662
0.19635,0.0039,0.0273,0.76535
0.198,0.00435,0.0272,0.7631
0.19935,0.0036,0.0274,0.76245
0.1987,0.0048,0.0271,0.76215
0.19845,0.0047,0.02705,0.7619
0.1995,0.00435,0.0263,0.7616
0.20075,0.0038,0.02585,0.76125
0.20065,0.0049,0.02565,0.7607
0.2026,0.0038,0.02715,0.7586
0.20245,0.0046,0.02645,0.75905
0.2042,0.0038,0.02615,0.7581
0.20405,0.0047,0.0259,0.7581
0.2053,0.00385,0.02585,0.75715
0.20565,0.00445,0.0257,0.7563
0.20685,0.00435,0.02695,0.75455
0.2066,0.0047,0.02685,0.75475
0.20765,0.00435,0.0259,0.7542
0.20785,0.0043,0.02635,0.7535
0.2072,0.0046,0.0267,0.7538
0.2074,0.0049,0.02645,0.7527
0.2075,0.00435,0.02555,0.7536
0.20865,0.00415,0.02685,0.7522
0.20945,0.0044,0.0267,0.752
0.2107,0.00435,0.0264,0.7512
0.21185,0.00365,0.026,0.7509
0.2123,0.0048,0.02565,0.75015
0.21375,0.00355,0.0256,0.74955
0.21435,0.0035,0.02505,0.7497
0.21445,0.00415,0.02435,0.7498
0.21555,0.00435,0.0245,0.748
0.21665,0.004,0.02505,0.74655
0.21695,0.00425,0.02505,0.74635
0.2169,0.005,0.02555,0.7451
0.21695,0.00445,0.02555,0.7451
0.2174,0.0039,0.02575,0.7447
0.21775,0.0042,0.0257,0.74475
0.21645,0.0055,0.02695,0.7439
0.2159,0.0051,0.02675,0.74395
0.2166,0.0042,0.0271,0.74335
0.21715,0.00425,0.0273,0.743
0.2184,0.00435,0.0278,0.7418
0.21835,0.00525,0.02795,0.741
0.2182,0.00475,0.02865,0.7403
0.21795,0.00485,0.02835,0.7407
0.21725,0.00515,0.0285,0.7408
0.2165,0.0053,0.02985,0.7405
0.21565,0.0059,0.0292,0.7408
0.2138,0.0056,0.02985,0.7418
0.21295,0.00535,0.03105,0.7419
0.213,0.00485,0.0316,0.742
0.2135,0.00535,0.03085,0.7413
0.21115,0.00575,0.03115,0.7427
0.21185,0.0046,0.03265,0.74105
0.21055,0.0062,0.0342,0.7404
0.20975,0.00575,0.03485,0.74045
0.20785,0.0059,0.03505,0.7419
0.2059,0.00655,0.0351,0.7429
0.2041,0.0061,0.0341,0.74475
0.20335,0.00535,0.03395,0.746
0.2042,0.00475,0.0348,0.74565
0.203,0.00515,0.0334,0.748
0.20265,0.00565,0.03405,0.74775
0.20265,0.00495,0.0337,0.74795
0.20175,0.0054,0.0332,0.74955
0.2018,0.0047,0.03355,0.75065
0.2012,0.00545,0.0338,0.7503
0.2006,0.0053,0.0339,0.75075
0.20005,0.0053,0.03325,0.7513
0.1995,0.00555,0.0329,0.7515
0.19855,0.0055,0.0353,0.7513
0.1972,0.0059,0.03535,0.7521
0.19685,0.00505,0.036,0.7526
0.19735,0.00485,0.0358,0.7528
0.1965,0.0049,0.0346,0.75435
0.1961,0.00535,0.03395,0.75485
0.1958,0.00495,0.0343,0.75535
0.1962,0.0046,0.03435,0.75615
0.1949,0.00525,0.0339,0.75715
0.1945,0.0047,0.03355,0.758
0.19395,0.0051,0.03365,0.75825
0.1935,0.0049,0.0324,0.7593
0.194,0.00455,0.0324,0.7596
0.1933,0.00465,0.0314,0.7612
0.1935,0.0044,0.0319,0.7607
0.19365,0.00555,0.0308,0.7605
0.19395,0.00555,0.0311,0.7597
0.1936,0.00545,0.03185,0.75935
0.19305,0.00535,0.03215,0.7596
0.19355,0.00475,0.03335,0.75935
0.19265,0.0054,0.03245,0.7603
0.1915,0.0055,0.0328,0.76135
0.19145,0.00455,0.0325,0.76165
0.19045,0.00535,0.03265,0.76215
0.1895,0.0056,0.0326,0.7626
0.1913,0.0042,0.0329,0.76245
0.1903,0.00515,0.03215,0.76365
0.19105,0.00505,0.033,0.76215
0.19025,0.0055,0.03215,0.7631
0.18925,0.00475,0.03265,0.7645
0.18995,0.00465,0.03085,0.76555
0.19085,0.0038,0.02955,0.76665
0.1897,0.0056,0.02975,0.76695
0.19005,0.00495,0.02985,0.7666
0.19115,0.00425,0.03005,0.7663
0.19235,0.004,0.03005,0.76595
0.1909,0.00545,0.02955,0.76685
0.19245,0.00335,0.0287,0.76725
0.1933,0.00405,0.02815,0.7665
0.19405,0.0035,0.0275,0.76725
0.1943,0.00405,0.0262,0.768
0.19535,0.00385,0.0261,0.7669
0.1952,0.00465,0.0266,0.76615
0.196,0.0041,0.0265,0.7659
0.1951,0.00475,0.0262,0.76665
0.19615,0.00375,0.02655,0.76595
0.1968,0.00415,0.02745,0.7646
0.19735,0.00425,0.02605,0.76565
0.19675,0.00455,0.0263,0.76555
0.19655,0.005,0.026,0.7654
0.19895,0.00325,0.0259,0.76405
0.19865,0.00495,0.02595,0.7636
0.19875,0.0044,0.02625,0.7633
0.1996,0.004,0.0262,0.76295
0.201,0.0035,0.0255,0.76265
0.20195,0.0036,0.02465,0.76255
0.2034,0.00385,0.02405,0.7611
0.20415,0.00375,0.02405,0.7602
0.20545,0.003,0.02325,0.76015
0.20475,0.0048,0.0234,0.75975
0.2065,0.00365,0.0248,0.75815
0.2073,0.00405,0.0235,0.7583
0.20715,0.004,0.02445,0.7578
0.2073,0.0042,0.02435,0.75765
0.20815,0.00335,0.0242,0.7578
0.20965,0.0038,0.02375,0.7562
0.20935,0.00465,0.0244,0.75575
0.2098,0.0046,0.02435,0.75455
0.2097,0.0048,0.025,0.75325
0.21025,0.00395,0.02455,0.75325
0.2104,0.0044,0.02495,0.7527
0.2108,0.00365,0.0257,0.7529
0.21115,0.0042,0.0256,0.75215
0.2112,0.00455,0.0257,0.751
0.21175,0.00425,0.02565,0.75005
0.2122,0.0045,0.0256,0.74905
0.21185,0.00465,0.02715,0.7484
0.21255,0.0041,0.0269,0.7481
0.2135,0.00405,0.0271,0.7477
0.21415,0.00445,0.027,0.7469
0.21435,0.00485,0.02635,0.74605
0.21385,0.0053,0.02735,0.7453
0.21485,0.0043,0.028,0.7438
0.2143,0.005,0.028,0.7436
0.2145,0.0043,0.0286,0.74365
0.2147,0.00455,0.0291,0.74315
0.21435,0.00515,0.02855,0.7432
0.2136,0.005,0.0289,0.7431
0.21215,0.00565,0.0287,0.7446
0.2135,0.0044,0.0288,0.74345
0.213,0.00525,0.0293,0.74365
0.21285,0.0051,0.0295,0.74325
0.2119,0.0052,0.0303,0.7437
0.2115,0.00505,0.03025,0.74385
0.2108,0.00495,0.02975,0.7454
0.20955,0.0055,0.03045,0.7456
0.21035,0.0042,0.03005,0.74565
0.21105,0.0048,0.0298,0.74515
0.21125,0.00515,0.03025,0.74395
0.2111,0.0053,0.0316,0.74355
0.2103,0.0052,0.0316,0.74415
0.21,0.00495,0.0317,0.74445
0.2093,0.00535,0.03235,0.74465
0.20815,0.0058,0.03265,0.74475
0.20855,0.0046,0.03245,0.7454
0.20855,0.0052,0.0314,0.7459
0.20755,0.00515,0.0329,0.746
0.20585,0.00575,0.0334,0.74695
0.20665,0.00445,0.0343,0.7465
0.20655,0.00595,0.03275,0.7468
0.20835,0.00435,0.032,0.74645
0.20905,0.00435,0.0317,0.74635
0.2094,0.00475,0.031,0.7471
0.2098,0.00465,0.03105,0.74665
0.2089,0.0055,0.031,0.7463
0.2087,0.00545,0.0313,0.7457
0.20955,0.00455,0.03115,0.7456
0.20925,0.00455,0.031,0.7466
0.20925,0.0048,0.03155,0.74545
0.2094,0.0052,0.0314,0.7449
0.20825,0.0058,0.03215,0.7447
0.2082,0.0048,0.0326,0.7444
0.2078,0.00535,0.03305,0.74415
0.2072,0.0055,0.03325,0.74405
0.207,0.00485,0.03345,0.7449
0.20615,0.00495,0.0331,0.74635
0.2059,0.00565,0.03255,0.74645
0.20515,0.0055,0.032,0.7476
0.20515,0.0058,0.0315,0.7479
0.2055,0.005,0.0317,0.74785
0.2058,0.0054,0.0315,0.74755
0.2057,0.0051,0.03205,0.74735
0.20665,0.0047,0.0313,0.7474
0.2059,0.0059,0.0324,0.74685
0.205,0.00605,0.0331,0.7463
0.2036,0.0063,0.03285,0.74725
0.203,0.0058,0.0334,0.7476
0.20255,0.0062,0.0336,0.74835
0.2004,0.0069,0.0336,0.74905
0.19945,0.0062,0.0342,0.74925
0.1981,0.00595,0.03375,0.75125
0.1975,0.0047,0.0336,0.75285
0.1987,0.00505,0.0342,0.7515
0.1995,0.00445,0.03345,0.7516
0.1992,0.00555,0.03215,0.7522
0.19825,0.0057,0.0336,0.75245
0.1977,0.00505,0.0326,0.75425
0.1999,0.0041,0.033,0.7529
0.19895,0.00545,0.03185,0.75425
0.19785,0.00595,0.0315,0.7549
0.1981,0.00545,0.031,0.75475
0.19965,0.0039,0.03145,0.7543
0.20075,0.004,0.03205,0.75355
0.20195,0.004,0.03125,0.7537
0.20305,0.00495,0.03025,0.7529
0.2045,0.0042,0.03065,0.7513
0.2063,0.00435,0.0303,0.7503
0.2071,0.0041,0.0299,0.7505
0.2072,0.0051,0.0295,0.75045
0.207,0.00535,0.02915,0.7504
0.20785,0.0045,0.0297,0.74945
0.20825,0.0043,0.0297,0.74925
0.20735,0.0058,0.0295,0.74915
0.2069,0.00525,0.031,0.74875
0.2067,0.00465,0.03085,0.7496
0.2068,0.00535,0.03135,0.74845
0.20555,0.00535,0.03115,0.7497
0.2061,0.0054,0.03185,0.7479
0.2075,0.00445,0.03075,0.74795
0.2075,0.00495,0.03115,0.74795
0.20725,0.0052,0.03165,0.74755
0.2066,0.0051,0.0306,0.7487
0.2057,0.00485,0.03025,0.7494
0.2048,0.0053,0.03135,0.74945
0.2052,0.00565,0.0316,0.7486
0.2047,0.0052,0.0317,0.74915
0.2042,0.0059,0.03125,0.7493
0.20355,0.00585,0.03135,0.74915
0.2024,0.0058,0.0323,0.74925
0.202,0.00565,0.03385,0.74825
0.2014,0.0057,0.0328,0.749
0.2013,0.00475,0.0338,0.7493
0.2004,0.00545,0.03465,0.74965
0.1997,0.00575,0.03525,0.7502
0.201,0.00485,0.0351,0.7498
0.1992,0.0063,0.03495,0.7501
0.19875,0.00495,0.0332,0.7519
0.1985,0.0052,0.0345,0.7516
0.1974,0.00535,0.0339,0.75345
0.1983,0.0046,0.0339,0.75365
0.1975,0.00555,0.0342,0.75395
0.1982,0.00475,0.0335,0.75375
0.1967,0.00595,0.03405,0.7539
0.19595,0.006,0.0338,0.754
0.195,0.00565,0.0351,0.7538
0.19545,0.00465,0.0352,0.7541
0.1948,0.00495,0.0342,0.75595
0.19465,0.0058,0.03445,0.75605
0.1948,0.0053,0.03505,0.756
0.19515,0.00535,0.0344,0.75625
0.195,0.0054,0.0344,0.75665
0.1947,0.00455,0.03485,0.75705
0.19375,0.00575,0.0341,0.7579
0.19435,0.0054,0.03325,0.758
0.19535,0.004,0.0338,0.7579
0.1957,0.0052,0.0323,0.75875
0.1954,0.00495,0.03205,0.75885
0.1958,0.0042,0.0315,0.7591
0.19545,0.00505,0.03185,0.7589
0.19645,0.00455,0.0319,0.75855
0.19665,0.0045,0.03175,0.75885
0.1965,0.0049,0.03075,0.7599
0.1972,0.00505,0.03,0.75915
0.1971,0.0046,0.03045,0.75935
0.1968,0.005,0.03075,0.75895
0.1953,0.0052,0.0307,0.76005
0.1956,0.0041,0.03075,0.76095
0.19535,0.00525,0.02955,0.76185
0.19705,0.00395,0.0289,0.7613
0.19805,0.0043,0.0285,0.7612
0.1982,0.00485,0.02865,0.76055
0.20025,0.00375,0.02825,0.76
0.2004,0.00455,0.028,0.7599
0.20075,0.0046,0.02685,0.75995
0.2003,0.00485,0.02675,0.7602
0.1997,0.00495,0.0274,0.7606
0.19955,0.00475,0.02695,0.76065
0.201,0.004,0.0277,0.75925
0.20115,0.0049,0.0273,0.7586
0.2026,0.004,0.027,0.75775
0.20205,0.00515,0.0267,0.7571
0.20315,0.0044,0.02665,0.7564
0.2029,0.004,0.0271,0.7566
0.20415,0.00485,0.02785,0.7544
0.20455,0.0047,0.0283,0.75385
0.2052,0.00455,0.02805,0.75335
0.2058,0.0042,0.028,0.7532
0.2062,0.0047,0.02805,0.7532
0.2064,0.0044,0.0286,0.75315
0.2062,0.00485,0.0275,0.75345
0.2075,0.00435,0.0281,0.7517
0.2076,0.00505,0.0291,0.75035
0.2061,0.00555,0.0301,0.75035
0.2063,0.0051,0.03055,0.7498
0.20515,0.00485,0.0312,0.7507
0.20485,0.0051,0.03065,0.7506
0.2042,0.0045,0.03055,0.752
0.2049,0.0049,0.03115,0.75125
0.2044,0.00545,0.0311,0.7507
0.2039,0.00495,0.03175,0.75085
0.20245,0.0056,0.03105,0.7517
0.2021,0.00475,0.03155,0.75195
0.20225,0.00475,0.0314,0.75155
0.2023,0.0047,0.0323,0.7515
0.20115,0.00585,0.03285,0.7522
0.20145,0.0049,0.03305,0.7522
0.2013,0.00475,0.03245,0.7531
0.20075,0.0051,0.0323,0.7535
0.1999,0.0053,0.0322,0.75385
0.19965,0.0049,0.03125,0.7545
0.2012,0.00395,0.0312,0.7546
0.2002,0.00595,0.0304,0.75515
0.1994,0.00545,0.0308,0.7549
0.2,0.0042,0.03075,0.7553
0.2,0.0051,0.0308,0.7546
0.1994,0.00545,0.03135,0.75455
0.19935,0.0045,0.032,0.75515
0.1989,0.0055,0.03095,0.75655
0.1987,0.0048,0.0309,0.7572
0.1995,0.00395,0.02945,0.7579
0.1989,0.00455,0.0291,0.75895
0.20065,0.00355,0.0288,0.7582
0.2014,0.0042,0.0279,0.7579
0.2021,0.00435,0.0281,0.75715
0.20285,0.00455,0.02805,0.7569
0.2034,0.0039,0.027,0.7574
0.20355,0.00455,0.0265,0.75765
0.20435,0.00415,0.02555,0.75745
0.20485,0.004,0.0266,0.75655
0.2047,0.00445,0.0268,0.7565
0.2046,0.00435,0.02745,0.75625
0.2054,0.00405,0.0264,0.75625
0.2051,0.0046,0.0265,0.7558
0.2052,0.0045,0.02785,0.75515
