moyS, moyE, moyI, moyR
0.999,0.0,0.001,0.0
0.99845,5.5E-4,7.5E-4,2.5E-4
0.99765,8.0E-4,0.001,3.0E-4
0.99665,0.001,0.0013,4.5E-4
0.99515,0.0015,0.0019,6.0E-4
0.99315,0.002,0.0025,8.5E-4
0.99065,0.0025,0.0037,0.0012
0.987,0.00365,0.0045,0.00195
0.98305,0.00395,0.00605,0.00295
0.97645,0.0066,0.0081,0.00415
0.9678,0.00865,0.0113,0.00565
0.95605,0.01175,0.0148,0.00815
0.9424,0.01365,0.0191,0.01115
0.92015,0.0223,0.0261,0.01435
0.8926,0.02755,0.03765,0.0183
0.8578,0.0349,0.0492,0.0257
0.81235,0.04555,0.06775,0.03375
0.7544,0.058,0.08915,0.04555
0.68785,0.06655,0.1157,0.06175
0.61575,0.07215,0.1477,0.08155
0.5349,0.08115,0.1803,0.107
0.45225,0.08305,0.21385,0.1397
0.3723,0.08045,0.24795,0.17625
0.2999,0.0735,0.2788,0.21645
0.23625,0.06425,0.3089,0.2601
0.18235,0.05505,0.3232,0.31135
0.141,0.04275,0.33435,0.3618
0.10995,0.0326,0.33955,0.41165
0.0853,0.0259,0.3302,0.46335
0.06905,0.01785,0.31915,0.51215
0.05585,0.0151,0.3056,0.556
0.04625,0.0113,0.28575,0.6009
0.0394,0.00935,0.26745,0.6375
0.0345,0.00705,0.24855,0.67335
0.0321,0.0054,0.22585,0.7075
0.0303,0.00485,0.20475,0.7366
0.02865,0.00475,0.1858,0.76205
0.02795,0.00385,0.16715,0.78565
0.02695,0.0044,0.1506,0.8051
0.02735,0.0028,0.13755,0.822
0.0277,0.0026,0.1216,0.8388
0.02795,0.00285,0.10885,0.85245
0.0295,0.00175,0.09695,0.8654
0.0303,0.0026,0.0864,0.8762
0.03265,0.00205,0.0763,0.88455
0.03525,0.00135,0.06735,0.89205
0.0375,0.0014,0.05935,0.89845
0.04045,0.0014,0.0527,0.9028
0.0428,0.00165,0.0456,0.90715
0.0454,0.00135,0.04015,0.9104
0.04765,0.00175,0.0361,0.91155
0.04975,0.00165,0.03335,0.91265
0.05105,0.00165,0.02985,0.91465
0.05305,0.0015,0.0278,0.91445
0.0547,9.0E-4,0.02495,0.91675
0.0575,7.5E-4,0.0221,0.9175
0.06105,5.0E-4,0.0195,0.91725
0.06425,7.0E-4,0.0171,0.9166
0.06705,0.0012,0.015,0.9154
0.07,8.5E-4,0.01375,0.91415
0.0724,4.5E-4,0.0125,0.91325
0.07525,5.0E-4,0.0114,0.91195
0.0783,4.5E-4,0.00975,0.91055
0.081,3.0E-4,0.00855,0.90935
0.08375,2.0E-4,0.00745,0.90785
0.0868,4.5E-4,0.0065,0.90565
0.09,2.5E-4,0.0058,0.9033
0.0928,6.0E-4,0.005,0.90095
0.0964,3.5E-4,0.00495,0.8976
0.09965,2.5E-4,0.0048,0.89465
0.1021,2.5E-4,0.0041,0.89285
0.10495,2.0E-4,0.00385,0.89055
0.10715,1.5E-4,0.00315,0.88925
0.1105,3.0E-4,0.00275,0.8862
0.114,2.0E-4,0.00265,0.8828
0.11685,2.0E-4,0.0024,0.8801
0.11895,4.0E-4,0.0023,0.87795
0.1222,3.0E-4,0.0021,0.87485
0.1251,1.5E-4,0.002,0.8721
0.1293,1.0E-4,0.0018,0.8682
0.1319,1.5E-4,0.00165,0.86585
0.1341,3.0E-4,0.0016,0.8636
0.1373,4.0E-4,0.0016,0.86035
0.14005,1.5E-4,0.0019,0.8576
0.1426,2.0E-4,0.00175,0.8552
0.1455,0.0,0.0015,0.8526
0.14765,3.0E-4,0.00145,0.85035
0.15025,2.5E-4,0.0014,0.84775
0.15255,1.0E-4,0.0013,0.84565
0.1552,3.5E-4,0.00115,0.84285
0.1582,1.0E-4,0.0014,0.83985
0.1605,1.0E-4,0.00135,0.83765
0.16235,2.5E-4,0.0015,0.83565
0.16525,1.0E-4,0.0016,0.8327
0.16745,1.0E-4,0.0015,0.83055
0.1701,1.0E-4,0.00125,0.8282
0.1725,5.0E-5,0.00115,0.82605
0.1743,2.5E-4,0.00105,0.8241
0.1762,1.0E-4,9.0E-4,0.8223
0.17865,2.5E-4,0.00105,0.8197
0.18105,1.5E-4,0.001,0.8173
0.1831,5.0E-5,0.0011,0.81535
0.1854,5.0E-5,0.00105,0.81315
0.1873,2.0E-4,9.5E-4,0.8112
0.189,3.0E-4,0.0011,0.80925
0.19085,3.0E-4,0.0013,0.8073
0.19345,1.0E-4,0.0011,0.80485
0.19605,5.0E-5,0.0012,0.8023
0.19795,1.5E-4,9.0E-4,0.80065
0.20065,1.0E-4,8.5E-4,0.798
0.20265,1.5E-4,8.0E-4,0.79605
0.20465,5.0E-5,9.5E-4,0.79405
0.2063,2.0E-4,9.5E-4,0.79235
0.2087,5.0E-5,8.5E-4,0.79015
0.21115,2.0E-4,8.5E-4,0.7877
0.2134,0.0,7.5E-4,0.7856
0.2152,5.0E-5,7.5E-4,0.7838
0.21715,1.0E-4,8.5E-4,0.78175
0.21975,1.5E-4,8.5E-4,0.7792
0.22135,1.0E-4,8.0E-4,0.7776
0.22335,1.5E-4,8.5E-4,0.7756
0.2256,1.0E-4,8.5E-4,0.77335
0.22765,1.5E-4,8.5E-4,0.77125
0.23,1.5E-4,6.5E-4,0.769
0.23185,1.0E-4,7.5E-4,0.7671
0.2338,5.0E-5,8.0E-4,0.76515
0.2355,1.5E-4,8.5E-4,0.76335
0.2374,1.5E-4,9.5E-4,0.76145
0.2394,1.0E-4,7.5E-4,0.75965
0.2412,2.5E-4,7.5E-4,0.7577
0.2431,1.0E-4,6.5E-4,0.7559
0.24465,3.5E-4,5.5E-4,0.7542
0.2466,1.5E-4,8.5E-4,0.75215
0.2484,1.5E-4,7.5E-4,0.7504
0.25085,1.0E-4,7.0E-4,0.748
0.2521,1.5E-4,9.5E-4,0.7466
0.2539,2.5E-4,0.0011,0.7446
0.2557,2.0E-4,0.00105,0.74285
0.25745,4.5E-4,9.5E-4,0.741
0.2598,1.5E-4,0.00105,0.7386
0.26195,1.5E-4,0.0012,0.73655
0.2637,1.5E-4,9.5E-4,0.735
0.2649,3.0E-4,9.0E-4,0.7337
0.267,4.0E-4,0.001,0.7313
0.2688,2.0E-4,0.00125,0.7293
0.27105,3.5E-4,0.00155,0.7268
0.27345,2.5E-4,0.00145,0.7244
0.27535,3.0E-4,0.0014,0.72245
0.27755,2.5E-4,0.0013,0.72045
0.2788,4.5E-4,0.00145,0.7189
0.2806,1.5E-4,0.00155,0.7173
0.28275,4.0E-4,0.00125,0.71515
0.28475,3.0E-4,0.00135,0.713
0.2862,3.5E-4,0.0015,0.71135
0.28815,2.0E-4,0.0017,0.70935
0.28935,3.5E-4,0.00175,0.708
0.29085,3.5E-4,0.00175,0.70645
0.29265,3.5E-4,0.00165,0.70465
0.2933,6.5E-4,0.00175,0.70365
0.29455,5.5E-4,0.00195,0.7021
0.296,4.0E-4,0.00235,0.7004
0.29765,5.0E-4,0.00225,0.6986
0.29865,6.0E-4,0.0026,0.6973
0.2999,6.0E-4,0.00285,0.69575
0.3013,6.5E-4,0.0032,0.69395
0.3026,6.0E-4,0.0032,0.6926
0.3035,0.00105,0.0031,0.6914
0.30535,7.0E-4,0.00345,0.6894
0.30695,6.5E-4,0.00355,0.68775
0.3073,0.0011,0.0033,0.6871
0.3079,9.5E-4,0.00385,0.68605
0.3086,0.001,0.00375,0.68505
0.3099,0.00115,0.00405,0.68305
0.311,7.5E-4,0.0043,0.682
0.3116,0.0012,0.0044,0.6808
0.31255,9.5E-4,0.0046,0.6797
0.31305,0.00105,0.00495,0.6788
0.3135,0.00105,0.005,0.6783
0.31375,0.00115,0.0054,0.67745
0.3147,0.0014,0.00585,0.67575
0.3149,0.0017,0.00655,0.67485
0.3149,0.00195,0.0069,0.67395
0.31555,0.0015,0.0072,0.6732
0.3163,0.00175,0.00725,0.672
0.317,0.00155,0.00815,0.67075
0.31715,0.0021,0.00785,0.6701
0.31735,0.00165,0.0079,0.66975
0.31725,0.0022,0.00795,0.66935
0.31755,0.00185,0.00855,0.6684
0.3176,0.00155,0.0086,0.66845
0.318,0.00195,0.0092,0.6674
0.31835,0.0021,0.00975,0.6661
0.31825,0.00235,0.01065,0.6652
0.3183,0.0024,0.0114,0.6645
0.3169,0.003,0.01215,0.6642
0.31555,0.00305,0.01305,0.6639
0.314,0.0033,0.01385,0.6648
0.3125,0.00375,0.01505,0.66445
0.3107,0.0035,0.01425,0.66585
0.3102,0.00335,0.01525,0.66515
0.3087,0.00365,0.016,0.66575
0.3078,0.00395,0.0168,0.66505
0.30555,0.0041,0.0185,0.66595
0.3029,0.00445,0.0192,0.6673
0.30075,0.004,0.01955,0.66865
0.2989,0.00405,0.02045,0.6695
0.2964,0.0047,0.02115,0.67055
0.29355,0.00525,0.0216,0.67205
0.29125,0.00485,0.0227,0.67325
0.2881,0.00545,0.02345,0.6751
0.2847,0.00535,0.02475,0.67705
0.2814,0.0059,0.02505,0.6793
0.2791,0.00535,0.02645,0.68025
0.2759,0.0057,0.02655,0.68255
0.2727,0.00575,0.02655,0.68505
0.2691,0.00615,0.028,0.68695
0.264,0.00705,0.0307,0.6887
0.25935,0.0069,0.03285,0.6912
0.25525,0.0067,0.0335,0.6939
0.2516,0.0069,0.03495,0.69545
0.24685,0.00695,0.03655,0.6985
0.24295,0.0066,0.0372,0.70195
0.23855,0.00735,0.038,0.70435
0.23375,0.00765,0.03825,0.7081
0.22955,0.00695,0.0403,0.7115
0.22595,0.00705,0.0399,0.7155
0.2224,0.0064,0.04045,0.71915
0.2173,0.0079,0.04125,0.72245
0.2141,0.0064,0.041,0.7264
0.2104,0.0071,0.0407,0.72925
0.2053,0.00775,0.042,0.7329
0.20225,0.00565,0.04355,0.7369
0.19785,0.00725,0.0436,0.7408
0.19385,0.00695,0.0451,0.74355
0.1908,0.00605,0.0441,0.74745
0.1882,0.0062,0.0423,0.7517
0.1839,0.00735,0.0423,0.7549
0.18035,0.007,0.0417,0.759
0.1784,0.00575,0.04105,0.76185
0.17495,0.00635,0.0403,0.76555
0.17255,0.0055,0.04135,0.76815
0.1704,0.0053,0.0423,0.771
0.16835,0.00605,0.0415,0.77345
0.1657,0.00575,0.0414,0.77655
0.1639,0.00575,0.04025,0.77925
0.1609,0.00605,0.04035,0.78215
0.16035,0.00475,0.0401,0.7846
0.15955,0.0044,0.0381,0.788
0.15895,0.0047,0.038,0.7894
0.15915,0.0041,0.0364,0.79145
0.15865,0.00445,0.03605,0.7928
0.1591,0.0042,0.0351,0.7937
0.15875,0.00415,0.0348,0.7948
0.15875,0.0042,0.03375,0.7959
0.1587,0.00455,0.03295,0.79695
0.1595,0.0037,0.03275,0.7972
0.1596,0.00385,0.03075,0.79845
0.16025,0.0035,0.03,0.7989
0.15945,0.00445,0.02895,0.7997
0.16035,0.00335,0.02955,0.7996
0.16095,0.00335,0.02885,0.79965
0.16125,0.004,0.02865,0.7997
0.1613,0.0035,0.02795,0.8006
0.16305,0.00255,0.02715,0.8006
0.16375,0.0034,0.0261,0.80085
0.16595,0.00275,0.0248,0.80075
0.1669,0.00405,0.02455,0.79905
0.16805,0.0031,0.02445,0.7987
0.1694,0.00315,0.0236,0.79825
0.17045,0.003,0.02225,0.79865
0.1715,0.0032,0.0213,0.7981
0.17295,0.0028,0.0206,0.797
0.1748,0.00245,0.02045,0.7963
0.1764,0.00285,0.02065,0.795
0.17865,0.00265,0.02065,0.7932
0.18135,0.0026,0.0196,0.79135
0.1835,0.00245,0.01965,0.79
0.18575,0.00225,0.0185,0.78895
0.1884,0.0023,0.0178,0.78715
0.18975,0.00295,0.01645,0.7864
0.1915,0.00255,0.01675,0.7847
0.1936,0.00245,0.01615,0.78295
0.19465,0.0029,0.01605,0.7815
0.19625,0.00255,0.0164,0.77995
0.1974,0.0028,0.0166,0.77825
0.19975,0.003,0.01685,0.77565
0.2014,0.0031,0.01715,0.7734
0.20255,0.00345,0.0175,0.77115
0.2039,0.00295,0.01815,0.7693
0.2045,0.00305,0.0187,0.7681
0.20615,0.0031,0.0184,0.76625
0.2075,0.00255,0.01895,0.765
0.2085,0.0033,0.0192,0.76425
0.21015,0.0024,0.01855,0.7635
0.212,0.0029,0.0188,0.76125
0.2123,0.0032,0.01885,0.76065
0.2135,0.0028,0.01835,0.75985
0.21435,0.00245,0.0175,0.76
0.2156,0.00305,0.0172,0.75885
0.21745,0.0028,0.01745,0.75705
0.2188,0.00265,0.01735,0.7561
0.2201,0.0031,0.0171,0.7551
0.22185,0.0029,0.01685,0.75335
0.2233,0.003,0.01715,0.75145
0.22465,0.00325,0.0178,0.74965
0.2268,0.00285,0.01805,0.74705
0.22775,0.0029,0.01795,0.74605
0.2299,0.0031,0.01785,0.74395
0.23115,0.00325,0.01765,0.7427
0.23205,0.00335,0.01745,0.74185
0.2322,0.0035,0.01755,0.7413
0.2323,0.00315,0.01825,0.74075
0.2317,0.0041,0.0185,0.7405
0.23235,0.0036,0.0196,0.73915
0.2337,0.00325,0.0191,0.7384
0.23395,0.0043,0.0196,0.73665
0.23435,0.00325,0.02005,0.73645
0.2343,0.00365,0.0201,0.736
0.2348,0.00345,0.02095,0.73495
0.23575,0.0032,0.0209,0.7341
0.23535,0.0043,0.02045,0.7338
0.23485,0.00405,0.02015,0.73395
0.23535,0.0036,0.0211,0.73325
0.23535,0.00365,0.02165,0.73295
0.2349,0.0051,0.02165,0.73155
0.23555,0.0034,0.02185,0.7314
0.2348,0.00395,0.02245,0.73145
0.235,0.004,0.02335,0.7309
0.23555,0.00345,0.02345,0.7304
0.23585,0.0042,0.02325,0.73005
0.2354,0.00455,0.02405,0.72945
0.23525,0.00505,0.0246,0.72835
0.23455,0.00445,0.02435,0.7288
0.2345,0.00445,0.02435,0.72925
0.23395,0.0046,0.0246,0.729
0.2335,0.0046,0.02545,0.72895
0.2338,0.00445,0.026,0.728
0.23335,0.00475,0.02625,0.72815
0.233,0.0049,0.02635,0.7282
0.2311,0.00555,0.0273,0.72855
0.23035,0.00495,0.02705,0.72915
0.2299,0.0044,0.02805,0.72955
0.2296,0.00485,0.02805,0.72965
0.2303,0.00475,0.02825,0.72895
0.2299,0.005,0.02865,0.7293
0.22845,0.0063,0.02875,0.7289
0.22705,0.00585,0.0297,0.72945
0.22635,0.0053,0.02975,0.73025
0.22435,0.00645,0.03065,0.7303
0.22285,0.00585,0.0312,0.73105
0.2213,0.00555,0.0317,0.73235
0.22,0.00555,0.03255,0.73295
0.21805,0.00635,0.03285,0.73395
0.2166,0.00555,0.0336,0.7344
0.2167,0.005,0.0339,0.7345
0.2149,0.0066,0.0333,0.73515
0.21225,0.006,0.03365,0.7364
0.21105,0.0063,0.0347,0.7361
0.20945,0.0065,0.03665,0.73675
0.2073,0.0068,0.0373,0.73775
0.20575,0.00705,0.0381,0.7383
0.20285,0.00715,0.039,0.7401
0.2017,0.00635,0.0381,0.7418
0.2001,0.0061,0.03795,0.74405
0.1986,0.00555,0.0373,0.74655
0.19795,0.00595,0.03865,0.74675
0.19635,0.0063,0.0392,0.7476
0.1953,0.0062,0.04015,0.7482
0.1935,0.00665,0.0399,0.7492
0.1932,0.00605,0.04035,0.7495
0.1917,0.0064,0.0399,0.75115
0.19,0.00585,0.0392,0.7535
0.19025,0.00535,0.03875,0.7543
0.1884,0.0065,0.0381,0.75645
0.1878,0.00575,0.03865,0.7571
0.1863,0.0062,0.0374,0.75935
0.18605,0.0051,0.03745,0.76025
0.18445,0.0058,0.0361,0.76305
0.18395,0.0054,0.0365,0.76365
0.1842,0.00525,0.03645,0.7644
0.1848,0.00445,0.03585,0.7655
0.18525,0.00465,0.03405,0.76695
0.1854,0.0052,0.0338,0.76685
0.1853,0.00485,0.034,0.7675
0.18515,0.0047,0.0334,0.76815
0.1855,0.0045,0.0326,0.7684
0.1852,0.0051,0.03235,0.7685
0.1844,0.0053,0.03195,0.7685
0.18455,0.0055,0.03215,0.76755
0.1843,0.0052,0.03395,0.76695
0.18375,0.0057,0.03385,0.76785
0.1837,0.0052,0.0336,0.7686
0.18385,0.0049,0.0337,0.7687
0.1847,0.0047,0.0334,0.7691
0.18485,0.00515,0.03265,0.76915
0.1859,0.00375,0.03365,0.7688
0.18655,0.00485,0.03185,0.7688
0.18655,0.00435,0.031,0.76945
0.18815,0.0039,0.0311,0.769
0.18805,0.0046,0.03055,0.7695
0.18755,0.0046,0.0291,0.7713
0.1888,0.0036,0.02865,0.7709
0.19045,0.0036,0.0281,0.77055
0.1912,0.0047,0.0281,0.76895
0.19145,0.00455,0.0277,0.76865
0.1933,0.0033,0.02775,0.7683
0.19405,0.0043,0.0273,0.76785
0.19425,0.0047,0.0271,0.76685
0.1933,0.00515,0.0269,0.76695
0.19335,0.0049,0.02705,0.7666
0.19305,0.0049,0.0274,0.76635
0.19465,0.00355,0.0277,0.7662
0.19455,0.0054,0.02695,0.7657
0.19585,0.00335,0.02725,0.7662
0.19745,0.0045,0.02665,0.765
0.19655,0.0056,0.0263,0.7647
0.1972,0.0038,0.0275,0.76415
0.19765,0.00375,0.0281,0.7638
0.19725,0.005,0.02785,0.76335
0.1979,0.00425,0.0285,0.7627
0.19805,0.00425,0.0288,0.7624
0.19785,0.00505,0.0282,0.7619
0.19885,0.00415,0.0286,0.7607
0.201,0.004,0.0281,0.7594
0.2015,0.0052,0.02625,0.7582
0.20225,0.00455,0.02675,0.75695
0.2036,0.00415,0.0285,0.75545
0.2039,0.0052,0.02885,0.7546
0.20425,0.00455,0.02885,0.7545
0.20335,0.0049,0.02935,0.7551
0.20495,0.00405,0.0283,0.75495
0.20585,0.0045,0.02825,0.7542
0.20605,0.0049,0.0266,0.7547
0.2079,0.00385,0.0263,0.75345
0.2092,0.00415,0.0264,0.752
0.21015,0.00415,0.02665,0.7512
0.20915,0.00465,0.02635,0.75175
0.20865,0.00445,0.0265,0.7521
0.20935,0.0043,0.02615,0.75195
0.2093,0.0043,0.0261,0.75175
0.2103,0.00405,0.02695,0.7502
0.21005,0.00505,0.0263,0.75015
0.2102,0.0045,0.02755,0.7491
0.20995,0.0051,0.0274,0.74865
0.2097,0.00495,0.0284,0.7478
0.20905,0.0053,0.0294,0.7471
0.2086,0.00515,0.02935,0.7476
0.20715,0.0055,0.03085,0.7481
0.20685,0.0048,0.0308,0.74905
0.20735,0.00465,0.0302,0.7498
0.2062,0.0052,0.03015,0.75095
0.20575,0.0056,0.03085,0.75005
0.20595,0.00495,0.0319,0.74965
0.20555,0.00585,0.03155,0.7496
0.2046,0.0051,0.0299,0.75165
0.20485,0.00505,0.0301,0.7508
0.2037,0.0052,0.0305,0.75155
0.2034,0.0051,0.0318,0.75105
0.2026,0.00575,0.03135,0.75145
0.2015,0.00525,0.03195,0.7521
0.2005,0.0055,0.03255,0.7521
0.20005,0.00495,0.0322,0.7535
0.199,0.00535,0.032,0.7542
0.19795,0.0053,0.0315,0.7558
0.1986,0.00445,0.032,0.7558
0.1981,0.00575,0.0314,0.75565
0.19885,0.00495,0.03165,0.7549
0.1983,0.0054,0.03215,0.7552
0.19885,0.00485,0.03295,0.7547
0.19965,0.00445,0.03305,0.7544
0.1989,0.0051,0.03275,0.7545
0.19935,0.00465,0.0329,0.7538
0.19885,0.0045,0.0323,0.7557
0.19805,0.0055,0.0323,0.7556
0.1981,0.0044,0.03215,0.7561
0.1988,0.00475,0.03225,0.7554
0.19845,0.0045,0.03175,0.7564
0.197,0.0059,0.0311,0.75765
0.19745,0.0048,0.03105,0.75755
0.1965,0.0048,0.0318,0.7582
0.1964,0.00465,0.03125,0.7588
0.197,0.00405,0.0319,0.75865
0.19735,0.00435,0.03045,0.75935
0.19635,0.00555,0.03095,0.7593
0.1968,0.0049,0.0311,0.75825
0.1964,0.0048,0.0308,0.7587
0.19575,0.00495,0.03045,0.7598
0.1973,0.00425,0.0294,0.7596
0.19825,0.00375,0.0287,0.7603
0.19955,0.0036,0.0281,0.7601
0.20025,0.00405,0.0281,0.76
0.2002,0.0045,0.0273,0.7604
0.2009,0.00355,0.0267,0.7604
0.20125,0.00435,0.0259,0.76025
0.20195,0.0039,0.02605,0.7599
0.20305,0.0036,0.0264,0.7593
0.204,0.00395,0.0268,0.7584
0.20395,0.0042,0.02685,0.7584
0.2049,0.0044,0.0258,0.7575
0.2055,0.00465,0.02625,0.7568
0.2063,0.0045,0.02715,0.75485
0.2048,0.00505,0.02815,0.7551
0.20425,0.00445,0.0271,0.75585
0.2031,0.0055,0.0273,0.75585
0.2035,0.00435,0.0284,0.7553
0.2039,0.0051,0.0288,0.75385
0.2037,0.0048,0.0296,0.75355
0.2036,0.00495,0.02845,0.7541
0.2031,0.0052,0.0291,0.75415
0.20375,0.0041,0.02885,0.75405
0.20465,0.00405,0.028,0.75445
0.20495,0.0049,0.02775,0.75425
0.20565,0.0039,0.0288,0.75375
0.20675,0.00365,0.0279,0.7543
0.20705,0.00435,0.027,0.7543
0.20725,0.00455,0.0275,0.75295
0.2071,0.00445,0.0273,0.7534
0.20685,0.00415,0.027,0.7544
0.20665,0.0041,0.02725,0.75465
0.20585,0.00515,0.0269,0.75455
0.2072,0.0046,0.0268,0.75365
0.2077,0.00425,0.02735,0.75345
0.2085,0.0041,0.02725,0.7529
0.2088,0.0045,0.0258,0.7531
0.2093,0.0039,0.02575,0.75265
0.2085,0.00435,0.0263,0.75285
0.21035,0.0041,0.02685,0.7511
0.2092,0.0048,0.0278,0.7514
0.2095,0.00445,0.02735,0.7513
0.21155,0.00365,0.0274,0.75005
0.2106,0.0048,0.02675,0.75085
0.21145,0.00385,0.02725,0.74985
0.21205,0.00385,0.0275,0.7495
0.21245,0.0044,0.02695,0.74945
0.2125,0.005,0.0262,0.7494
0.2131,0.0039,0.0265,0.749
0.21415,0.00415,0.0257,0.74885
0.21395,0.0049,0.0258,0.74815
0.2139,0.0045,0.02635,0.74755
0.2129,0.00495,0.0263,0.7483
0.2128,0.0045,0.027,0.74805
0.212,0.00435,0.02645,0.74935
0.21085,0.0061,0.0264,0.7484
0.2097,0.0046,0.0276,0.7488
0.20935,0.00535,0.02865,0.74855
0.21,0.0047,0.02895,0.74795
0.2097,0.005,0.0293,0.74715
0.20995,0.00485,0.02995,0.74655
0.2082,0.00555,0.0298,0.7481
0.208,0.00545,0.0304,0.74765
0.2091,0.00385,0.02995,0.7474
0.2089,0.00485,0.0301,0.7478
0.20935,0.0046,0.03015,0.7476
0.209,0.0049,0.0299,0.748
0.20865,0.00535,0.03,0.74785
0.2083,0.00525,0.02965,0.74845
0.20745,0.0059,0.02985,0.7486
0.2081,0.0049,0.03045,0.74825
0.20865,0.00475,0.0304,0.7473
0.2085,0.00485,0.0308,0.74775
0.20885,0.00465,0.0309,0.74755
0.2099,0.00415,0.0304,0.7478
0.2096,0.0054,0.03025,0.74795
0.2092,0.00495,0.0298,0.7482
0.2102,0.00405,0.02875,0.74845
0.21135,0.00455,0.02865,0.7477
0.21185,0.0042,0.02735,0.74795
0.21125,0.0046,0.02645,0.74865
0.21175,0.0043,0.02665,0.7482
0.211,0.0054,0.0273,0.74745
0.21015,0.00475,0.02755,0.74815
0.2101,0.0055,0.02795,0.7472
0.21035,0.00435,0.02945,0.74635
0.21155,0.0047,0.0304,0.74495
0.21165,0.00475,0.0311,0.7443
0.20985,0.00605,0.03045,0.7455
0.20955,0.00505,0.03105,0.74565
0.2095,0.00495,0.03075,0.7453
0.20955,0.0047,0.03125,0.74545
0.20935,0.00505,0.0308,0.74545
0.2092,0.0048,0.0313,0.7455
0.2097,0.00525,0.03165,0.74475
0.20895,0.00555,0.03225,0.7451
0.2075,0.0054,0.03265,0.74595
0.20645,0.0062,0.0335,0.7456
0.20625,0.00505,0.0332,0.74615
0.20595,0.00525,0.03375,0.74605
0.2055,0.0056,0.03305,0.7464
0.2047,0.00515,0.03275,0.7479
0.2042,0.0065,0.03345,0.74705
0.2034,0.00585,0.0343,0.74705
0.20285,0.0054,0.0347,0.74735
0.2008,0.0063,0.035,0.7483
0.2007,0.00465,0.03535,0.7495
0.19925,0.0059,0.03455,0.75065
0.19795,0.00575,0.035,0.75115
0.19715,0.00585,0.035,0.7517
0.19665,0.0051,0.03505,0.75295
0.19645,0.0059,0.03575,0.7522
0.19565,0.00525,0.0363,0.75305
0.19445,0.00585,0.03655,0.75385
0.19365,0.00515,0.0366,0.7555
0.1934,0.0051,0.03485,0.7568
0.19375,0.00535,0.03555,0.75665
0.19345,0.00595,0.0354,0.75665
0.1932,0.00545,0.0353,0.757
0.1926,0.00585,0.03475,0.7576
0.19375,0.0048,0.0351,0.7573
0.19305,0.00555,0.0341,0.7587
0.1926,0.00605,0.03435,0.758
0.19195,0.0059,0.03525,0.7579
0.1915,0.00485,0.03635,0.75845
0.1917,0.00515,0.0353,0.75905
0.1924,0.005,0.0346,0.75875
0.1926,0.00495,0.0334,0.75905
0.1926,0.0051,0.03275,0.7594
0.19345,0.0046,0.0331,0.75865
0.193,0.00525,0.0344,0.7585
0.19425,0.00435,0.03365,0.75915
0.19425,0.00515,0.03235,0.7598
0.19525,0.00455,0.0318,0.7598
0.1947,0.006,0.0321,0.7591
0.19355,0.00535,0.0335,0.75955
0.1938,0.0049,0.0332,0.7597
0.1931,0.00545,0.034,0.75935
0.19425,0.0041,0.03305,0.75985
0.1949,0.0053,0.0327,0.7592
0.19645,0.0039,0.03155,0.75935
0.1972,0.0048,0.0308,0.7592
0.19835,0.00515,0.03035,0.7578
0.19885,0.00515,0.02965,0.7574
0.1998,0.0048,0.02915,0.75705
0.20005,0.00455,0.02935,0.75695
0.2005,0.00495,0.02985,0.75615
0.20065,0.00475,0.03015,0.7562
0.20135,0.00435,0.03045,0.7553
0.201,0.00515,0.03085,0.75505
0.2005,0.00535,0.0311,0.75475
0.2002,0.0056,0.0306,0.7551
0.2016,0.00455,0.03055,0.75455
0.20195,0.00495,0.02915,0.7548
0.2022,0.0046,0.02945,0.7546
0.2029,0.00435,0.03065,0.7538
0.20265,0.00485,0.0296,0.7551
0.2037,0.00375,0.02975,0.75475
0.2036,0.0053,0.02935,0.7541
0.20425,0.00465,0.02965,0.75355
0.20465,0.0051,0.02915,0.7532
0.20645,0.00465,0.0295,0.75135
0.207,0.00495,0.02955,0.75035
0.2074,0.0047,0.02925,0.7501
0.20725,0.0055,0.03,0.74875
0.208,0.00395,0.0297,0.7494
0.20855,0.00505,0.03025,0.7479
0.2081,0.0051,0.0312,0.74785
0.20865,0.0048,0.03135,0.747
0.20835,0.00545,0.03075,0.74795
0.2089,0.0055,0.0306,0.74655
0.20995,0.0046,0.0318,0.745
0.2093,0.0055,0.0326,0.7442
0.20865,0.00515,0.03235,0.74495
0.2077,0.00545,0.0329,0.74575
0.2086,0.0048,0.03225,0.7457
0.20755,0.0059,0.03275,0.74555
0.20635,0.006,0.0332,0.74605
0.206,0.0057,0.0332,0.7457
0.20555,0.00525,0.03185,0.7472
0.2043,0.00555,0.0325,0.7481
0.20445,0.0056,0.03275,0.7476
0.20435,0.0049,0.0327,0.7474
0.20405,0.00535,0.03245,0.74755
0.2039,0.00535,0.03245,0.74845
0.2027,0.00605,0.0333,0.7479
0.20195,0.006,0.03445,0.74745
0.2014,0.0052,0.03465,0.7487
0.20145,0.00515,0.03445,0.74925
0.20125,0.00545,0.03395,0.74945
0.2019,0.0055,0.03345,0.7493
0.20105,0.00535,0.03225,0.7511
0.20125,0.00515,0.03365,0.75015
0.20055,0.0051,0.03355,0.75125
0.19955,0.00585,0.0329,0.7521
0.19815,0.006,0.03375,0.75235
0.198,0.0057,0.03495,0.7515
0.19775,0.00595,0.0342,0.7518
0.198,0.00525,0.03475,0.7517
0.1981,0.00455,0.0352,0.75255
0.19765,0.00505,0.0345,0.7534
0.19825,0.0053,0.03365,0.75365
0.1977,0.0055,0.0339,0.75405
0.1968,0.00525,0.0329,0.75585
0.1965,0.00555,0.0326,0.7558
0.19555,0.0051,0.0329,0.75705
0.19535,0.00545,0.0327,0.75725
0.19455,0.00545,0.03285,0.75755
0.1956,0.0045,0.0329,0.75705
0.19625,0.00445,0.0325,0.7575
0.19565,0.00585,0.03285,0.7571
0.1959,0.00495,0.033,0.75715
0.19615,0.0044,0.03255,0.75825
0.1954,0.0053,0.0318,0.75945
0.1946,0.00605,0.03105,0.7602
0.1955,0.0049,0.031,0.75915
0.19665,0.00515,0.0308,0.75775
0.1966,0.0045,0.0312,0.7582
0.1966,0.00535,0.0312,0.75805
0.195,0.0052,0.03095,0.76015
0.1946,0.0047,0.0314,0.76045
0.19435,0.00455,0.03155,0.7609
0.1944,0.00555,0.0312,0.75995
0.19395,0.00485,0.032,0.76025
0.19445,0.0052,0.03225,0.7595
0.194,0.00545,0.03345,0.75925
0.19375,0.0052,0.0326,0.7598
0.1925,0.006,0.03325,0.76005
0.19245,0.00485,0.0332,0.7607
0.1921,0.005,0.03225,0.7621
0.19235,0.0048,0.0322,0.7623
0.19425,0.0044,0.03145,0.7615
0.1945,0.00495,0.03075,0.76115
0.195,0.0051,0.0307,0.76025
0.19425,0.0054,0.03095,0.7603
0.19415,0.00485,0.03135,0.76045
0.19415,0.00505,0.0317,0.7603
0.19405,0.0042,0.0307,0.7621
0.19495,0.00445,0.02885,0.76285
0.19535,0.0046,0.02835,0.76255
0.19575,0.0042,0.0289,0.76285
0.1967,0.00465,0.02805,0.76275
0.19675,0.00515,0.02835,0.76165
0.196,0.00495,0.02965,0.76145
