moyS, moyE, moyI, moyR
0.999,0.0,0.001,0.0
0.99855,4.5E-4,7.5E-4,2.5E-4
0.9979,6.5E-4,8.0E-4,4.0E-4
0.99675,0.00115,9.0E-4,5.5E-4
0.99545,0.0013,0.00155,7.0E-4
0.9934,0.00205,0.00235,0.001
0.9913,0.0021,0.00365,0.0013
0.98775,0.00355,0.00455,0.0019
0.983,0.00475,0.0061,0.00275
0.97615,0.00685,0.00785,0.00395
0.9676,0.00855,0.01125,0.0053
0.95745,0.01015,0.0153,0.0071
0.94135,0.01615,0.02105,0.00985
0.9223,0.01905,0.0265,0.01415
0.8962,0.0261,0.0378,0.0188
0.8634,0.0329,0.05115,0.0251
0.82145,0.042,0.06545,0.0344
0.76505,0.0566,0.08335,0.0461
0.70155,0.0636,0.10985,0.06
0.6287,0.073,0.1398,0.08
0.5468,0.0823,0.1721,0.10515
0.46415,0.0832,0.20675,0.1351
0.38205,0.08255,0.24365,0.1699
0.30945,0.0731,0.27315,0.2121
0.2447,0.06535,0.29995,0.25795
0.19175,0.0535,0.3194,0.305
0.14995,0.04325,0.3347,0.35255
0.1155,0.03555,0.3395,0.4024
0.091,0.026,0.3347,0.4532
0.0714,0.02135,0.32445,0.5038
0.0563,0.01675,0.3112,0.54975
0.04665,0.0117,0.29205,0.5945
0.03945,0.0095,0.2688,0.6371
0.03505,0.00725,0.2476,0.6739
0.03255,0.0055,0.22575,0.70655
0.0311,0.00485,0.2047,0.73535
0.0298,0.00425,0.186,0.76105
0.0277,0.00515,0.1675,0.7844
0.0279,0.0032,0.15115,0.80435
0.02795,0.00315,0.13365,0.824
0.0288,0.0032,0.1198,0.83935
0.0293,0.0025,0.10845,0.8522
0.0298,0.0023,0.09635,0.8653
0.03135,0.0019,0.0865,0.8748
0.03305,0.00215,0.07685,0.8828
0.0333,0.00265,0.0678,0.8913
0.03435,0.0021,0.06045,0.89855
0.0363,0.0016,0.05305,0.9047
0.03855,0.00135,0.0471,0.9091
0.0413,0.00125,0.04265,0.91135
0.04325,0.00175,0.0386,0.9134
0.0456,0.0012,0.0344,0.9157
0.04795,0.00135,0.03035,0.91785
0.05095,0.001,0.0263,0.91945
0.0538,8.0E-4,0.0239,0.9197
0.05655,9.5E-4,0.0218,0.91905
0.05905,8.0E-4,0.01905,0.91945
0.061,0.00125,0.0173,0.91905
0.06485,5.5E-4,0.01615,0.91685
0.06775,9.0E-4,0.0143,0.9156
0.06965,0.00105,0.0127,0.9149
0.07155,0.0011,0.0114,0.9143
0.07375,7.5E-4,0.01035,0.91335
0.07655,6.0E-4,0.00965,0.9116
0.0796,6.0E-4,0.00915,0.90915
0.08225,7.0E-4,0.0083,0.90735
0.0851,3.0E-4,0.00755,0.9055
0.08875,4.5E-4,0.0069,0.90275
0.0916,6.0E-4,0.0064,0.90035
0.0948,5.0E-4,0.00615,0.89745
0.09775,5.0E-4,0.0058,0.89495
0.10085,4.0E-4,0.0054,0.8923
0.10385,5.0E-4,0.0053,0.8895
0.1064,5.0E-4,0.00505,0.88725
0.1083,2.0E-4,0.00425,0.88625
0.11085,5.0E-4,0.00415,0.88385
0.1141,1.0E-4,0.00395,0.8811
0.11585,5.0E-4,0.0034,0.87985
0.1187,1.5E-4,0.0031,0.8775
0.1212,1.5E-4,0.00285,0.8754
0.12455,2.5E-4,0.0027,0.8721
0.1277,1.5E-4,0.00255,0.8692
0.13015,1.5E-4,0.00225,0.86705
0.13295,2.5E-4,0.0022,0.86415
0.13535,2.0E-4,0.00235,0.86175
0.13805,3.0E-4,0.00225,0.85905
0.1403,2.5E-4,0.00225,0.85675
0.1423,5.0E-5,0.00235,0.8549
0.1449,1.5E-4,0.002,0.8526
0.147,1.0E-4,0.0018,0.85075
0.1493,1.5E-4,0.0016,0.8486
0.15165,5.0E-5,0.00145,0.84655
0.15355,2.5E-4,0.0014,0.8446
0.15635,3.0E-4,0.00125,0.84175
0.159,1.0E-4,0.00125,0.83915
0.1619,1.0E-4,0.00155,0.8362
0.1644,2.5E-4,0.0012,0.83385
0.1666,2.0E-4,0.0012,0.83175
0.1696,1.0E-4,0.00115,0.8289
0.1723,5.0E-5,0.00105,0.8263
0.1744,1.5E-4,0.00115,0.82405
0.17695,3.0E-4,0.0011,0.8213
0.17895,3.0E-4,0.0013,0.81915
0.1809,5.0E-5,0.0012,0.81745
0.1836,2.0E-4,0.0011,0.81475
0.18615,2.5E-4,0.0014,0.81205
0.188,3.5E-4,0.0012,0.81025
0.19,5.0E-5,0.00105,0.80845
0.19175,2.0E-4,0.00115,0.80665
0.19405,1.0E-4,0.00115,0.8045
0.1965,5.0E-5,0.0011,0.8022
0.19875,1.0E-4,0.0011,0.79985
0.20125,2.0E-4,0.0012,0.7972
0.2037,2.5E-4,0.0011,0.7947
0.20615,5.0E-5,0.001,0.79245
0.20785,2.5E-4,8.5E-4,0.7907
0.21025,1.0E-4,9.5E-4,0.78825
0.21205,5.0E-5,0.00115,0.78645
0.21385,1.5E-4,0.001,0.7847
0.21605,4.5E-4,0.001,0.7822
0.21765,3.0E-4,0.0013,0.78035
0.21945,3.0E-4,0.00145,0.7784
0.2211,1.5E-4,0.0016,0.7768
0.2225,3.5E-4,0.0014,0.77535
0.2247,2.0E-4,0.00135,0.77325
0.2262,1.0E-4,0.0012,0.77205
0.22825,1.0E-4,0.0012,0.77015
0.2301,3.5E-4,0.0014,0.768
0.23145,2.5E-4,0.00135,0.76665
0.23345,1.0E-4,0.00125,0.7648
0.2354,2.5E-4,0.0011,0.7629
0.2371,2.0E-4,0.00125,0.76115
0.23945,2.0E-4,0.00125,0.7588
0.2415,3.5E-4,0.0014,0.75655
0.2438,1.5E-4,0.0013,0.7544
0.2458,3.5E-4,0.0013,0.75235
0.2477,2.5E-4,0.0012,0.75045
0.2499,4.0E-4,0.0013,0.74795
0.25155,2.0E-4,0.0014,0.74635
0.25315,2.5E-4,0.0014,0.7448
0.2545,6.0E-4,0.00145,0.74305
0.25605,1.0E-4,0.00165,0.74155
0.2586,0.0,0.00145,0.73925
0.2606,4.5E-4,0.0016,0.73685
0.262,4.5E-4,0.0017,0.7353
0.2639,2.5E-4,0.00165,0.7335
0.2657,4.5E-4,0.00145,0.7317
0.2672,2.5E-4,0.0016,0.73025
0.2688,5.0E-4,0.00165,0.7285
0.2704,6.5E-4,0.00195,0.7265
0.27315,3.0E-4,0.00205,0.72395
0.2753,1.5E-4,0.0016,0.7222
0.2767,1.5E-4,0.00135,0.72115
0.27865,4.5E-4,0.0016,0.7188
0.2806,4.5E-4,0.00165,0.7167
0.2821,2.5E-4,0.00165,0.71525
0.2842,4.0E-4,0.0018,0.713
0.28565,4.5E-4,0.00185,0.71145
0.2872,5.5E-4,0.00195,0.7097
0.28855,5.0E-4,0.00185,0.70845
0.2901,7.0E-4,0.002,0.70645
0.29195,2.5E-4,0.0019,0.70475
0.2935,4.5E-4,0.00205,0.70305
0.2953,6.5E-4,0.00225,0.70085
0.29675,6.5E-4,0.002,0.6994
0.2986,5.0E-4,0.0022,0.6974
0.3001,4.0E-4,0.0024,0.69585
0.30115,8.0E-4,0.0025,0.69445
0.30215,9.0E-4,0.0031,0.69265
0.3035,4.5E-4,0.0029,0.6916
0.30425,9.0E-4,0.00315,0.6903
0.3058,5.5E-4,0.00355,0.6887
0.307,7.0E-4,0.00375,0.68735
0.30835,9.0E-4,0.00365,0.68615
0.30935,0.00125,0.00375,0.6844
0.31,0.00105,0.00395,0.6832
0.31075,0.0015,0.00445,0.6817
0.31165,0.0012,0.0047,0.68025
0.3119,0.0014,0.0047,0.67965
0.31265,0.00165,0.0049,0.67815
0.31365,0.00105,0.0059,0.67685
0.31435,0.0018,0.00615,0.67535
0.3148,0.002,0.00675,0.674
0.31535,0.00155,0.00745,0.67285
0.31505,0.00205,0.0071,0.6726
0.315,0.00215,0.0081,0.6717
0.3152,0.0021,0.00865,0.67035
0.31495,0.0019,0.0096,0.67005
0.3152,0.0017,0.00935,0.6702
0.315,0.0022,0.00995,0.6697
0.3149,0.0021,0.0104,0.66955
0.3142,0.0025,0.01115,0.66925
0.3135,0.003,0.0112,0.6685
0.31235,0.00315,0.0119,0.668
0.3118,0.0027,0.01295,0.66765
0.31075,0.0034,0.0137,0.6674
0.30935,0.0034,0.01385,0.6687
0.3076,0.00365,0.01495,0.6685
0.3058,0.00425,0.0156,0.66825
0.30295,0.0048,0.0171,0.66905
0.2997,0.00505,0.01895,0.67005
0.29785,0.00495,0.0206,0.6699
0.29505,0.0047,0.0217,0.6715
0.29235,0.00485,0.0227,0.673
0.2894,0.0049,0.02435,0.67435
0.2865,0.00535,0.02465,0.67535
0.2831,0.00595,0.02545,0.6769
0.27865,0.00585,0.0266,0.6796
0.2749,0.006,0.0274,0.6819
0.271,0.00575,0.029,0.68445
0.2682,0.00515,0.0292,0.687
0.2628,0.0073,0.02965,0.68945
0.25955,0.0062,0.03095,0.691
0.25485,0.0072,0.03275,0.6944
0.2501,0.00725,0.03375,0.69725
0.24625,0.00625,0.03465,0.7002
0.24245,0.00655,0.03565,0.7028
0.2387,0.00655,0.0361,0.70655
0.23535,0.00595,0.03605,0.7097
0.23135,0.00715,0.03735,0.7123
0.2279,0.00645,0.0373,0.71565
0.22295,0.0071,0.0395,0.719
0.21905,0.0072,0.03885,0.72265
0.21595,0.0064,0.03985,0.7251
0.21365,0.0055,0.0408,0.7281
0.21015,0.00655,0.04155,0.7316
0.20545,0.00745,0.04145,0.73515
0.2017,0.0071,0.04225,0.73835
0.19925,0.0056,0.0414,0.7425
0.1961,0.0062,0.04175,0.746
0.19275,0.00645,0.04195,0.74905
0.19075,0.00535,0.0403,0.753
0.18705,0.0065,0.0393,0.7568
0.18435,0.0065,0.0398,0.7592
0.1817,0.00565,0.04005,0.76245
0.17835,0.0058,0.0387,0.76695
0.1776,0.0043,0.0385,0.76965
0.17545,0.00545,0.03785,0.7718
0.17365,0.00515,0.03765,0.7744
0.17055,0.0063,0.0368,0.777
0.16995,0.00455,0.0359,0.77885
0.1692,0.00465,0.03605,0.7805
0.1685,0.00455,0.03565,0.78225
0.1676,0.00415,0.03455,0.7853
0.1676,0.0037,0.0338,0.7871
0.1679,0.00415,0.03245,0.78765
0.16855,0.0038,0.03125,0.78835
0.168,0.00425,0.0316,0.7888
0.1682,0.00385,0.03085,0.78985
0.16795,0.00415,0.0301,0.791
0.16745,0.00375,0.02835,0.79285
0.16755,0.00345,0.0276,0.79405
0.1683,0.0028,0.0274,0.7946
0.1681,0.0036,0.02685,0.7951
0.16855,0.0031,0.02555,0.79595
0.16945,0.0033,0.0249,0.79595
0.1715,0.0029,0.02465,0.7949
0.1729,0.00285,0.02495,0.79375
0.17495,0.00275,0.0246,0.7928
0.1757,0.00315,0.02395,0.79245
0.17595,0.0037,0.0235,0.79225
0.17625,0.00375,0.0232,0.7919
0.1777,0.0028,0.02335,0.7911
0.17855,0.0028,0.0223,0.7914
0.17975,0.0031,0.02145,0.79105
0.18065,0.003,0.02115,0.7906
0.1817,0.0031,0.02,0.7904
0.1824,0.003,0.0209,0.78885
0.18315,0.00275,0.0203,0.78855
0.18415,0.00265,0.0183,0.78905
0.1843,0.00335,0.01755,0.78875
0.18445,0.0029,0.01885,0.7878
0.1852,0.00365,0.0187,0.7866
0.1858,0.00275,0.0187,0.7863
0.1875,0.00255,0.0192,0.78485
0.1891,0.00255,0.0186,0.7844
0.19085,0.00195,0.0183,0.7839
0.19215,0.0032,0.01815,0.78235
0.1938,0.00255,0.0185,0.7807
0.19535,0.00265,0.01825,0.7794
0.19755,0.0023,0.0171,0.77835
0.1986,0.0025,0.0172,0.77705
0.19985,0.00325,0.0168,0.77525
0.2019,0.002,0.0172,0.7735
0.2023,0.0029,0.0169,0.7724
0.2035,0.00245,0.0169,0.77195
0.20495,0.003,0.01725,0.7698
0.206,0.0028,0.0171,0.76895
0.20685,0.0034,0.0173,0.76785
0.20785,0.0031,0.018,0.7664
0.2081,0.0031,0.018,0.76575
0.21025,0.00265,0.0177,0.76395
0.2115,0.00365,0.01785,0.7619
0.2121,0.00315,0.01825,0.76095
0.21245,0.00275,0.01925,0.7605
0.21375,0.0032,0.0195,0.7586
0.2144,0.0039,0.01915,0.7574
0.21555,0.003,0.0188,0.7569
0.21775,0.00215,0.01925,0.75545
0.2186,0.0034,0.0187,0.7542
0.21945,0.00235,0.01875,0.75425
0.2204,0.0035,0.01925,0.7522
0.22105,0.00345,0.0194,0.75085
0.2212,0.004,0.0197,0.74995
0.2219,0.0034,0.0199,0.74915
0.22405,0.00275,0.0195,0.748
0.22515,0.0028,0.01875,0.7478
0.22615,0.00325,0.0187,0.7466
0.2273,0.0034,0.01905,0.7443
0.22755,0.00375,0.02005,0.74295
0.22785,0.0036,0.01995,0.7421
0.2281,0.0032,0.0198,0.74195
0.2294,0.00265,0.021,0.74065
0.23015,0.004,0.0208,0.73935
0.2313,0.00315,0.0204,0.7388
0.2314,0.00425,0.02,0.738
0.2324,0.0034,0.0205,0.7372
0.23215,0.00405,0.02075,0.73665
0.23155,0.00475,0.0218,0.7357
0.2322,0.0036,0.02205,0.73485
0.2328,0.00345,0.0219,0.73465
0.23395,0.00335,0.0222,0.7335
0.23345,0.00445,0.02225,0.73285
0.23375,0.0039,0.02265,0.732
0.234,0.0035,0.02275,0.732
0.2333,0.0047,0.0229,0.7319
0.23285,0.0048,0.02335,0.73125
0.2327,0.0044,0.0242,0.73105
0.2331,0.00445,0.023,0.7308
0.23285,0.005,0.0247,0.72965
0.23295,0.00405,0.02515,0.7299
0.23225,0.0045,0.0243,0.73035
0.2325,0.0044,0.0258,0.7295
0.23125,0.00475,0.02665,0.72985
0.23015,0.00565,0.02765,0.72875
0.2287,0.00535,0.02765,0.7297
0.22705,0.00615,0.02925,0.7289
0.22635,0.0051,0.03075,0.72905
0.2248,0.00575,0.0307,0.7303
0.22405,0.0054,0.03245,0.73
0.22195,0.0063,0.03215,0.7309
0.21925,0.00635,0.033,0.732
0.21745,0.00575,0.033,0.7341
0.2169,0.0047,0.03325,0.73545
0.21605,0.00515,0.03295,0.7363
0.21465,0.00625,0.0332,0.73645
0.21485,0.0052,0.03365,0.7371
0.2139,0.0054,0.03335,0.7381
0.2132,0.0054,0.03415,0.73805
0.2118,0.0055,0.0333,0.73995
0.21055,0.0059,0.033,0.7412
0.20965,0.0057,0.0327,0.7425
0.2085,0.00565,0.0335,0.7431
0.2091,0.00495,0.03475,0.7422
0.20875,0.00545,0.0348,0.74285
0.20725,0.006,0.0346,0.7435
0.2066,0.00525,0.0341,0.7444
0.20505,0.00495,0.034,0.7468
0.20455,0.00505,0.0331,0.74815
0.2038,0.0053,0.0324,0.7493
0.2033,0.0058,0.0325,0.7489
0.20225,0.0055,0.03295,0.75005
0.2031,0.00475,0.0331,0.74965
0.2022,0.0062,0.0328,0.7494
0.2011,0.00595,0.03435,0.74865
0.2,0.00595,0.03415,0.74975
0.20035,0.00485,0.0347,0.74985
0.1991,0.00585,0.0354,0.75055
0.1978,0.00575,0.03475,0.7521
0.1967,0.0056,0.03505,0.75355
0.19585,0.00535,0.035,0.75445
0.19665,0.0053,0.0346,0.7543
0.19645,0.0051,0.03355,0.7558
0.19635,0.0052,0.0326,0.7566
0.1962,0.0052,0.03225,0.75705
0.1948,0.0057,0.0328,0.75765
0.19415,0.0051,0.0315,0.7591
0.19455,0.00465,0.0322,0.7589
0.1944,0.0057,0.0325,0.7577
0.1935,0.0057,0.03325,0.7577
0.19375,0.00455,0.0339,0.75825
0.1935,0.0048,0.03385,0.7591
0.1942,0.0051,0.0343,0.7579
0.19385,0.006,0.03415,0.7575
0.1933,0.00575,0.0336,0.75775
0.1932,0.00545,0.03335,0.75795
0.1931,0.00545,0.03275,0.75865
0.1924,0.0055,0.033,0.7594
0.1919,0.0055,0.03375,0.75955
0.1917,0.0044,0.0339,0.7607
0.19195,0.00515,0.03245,0.761
0.1923,0.00495,0.03205,0.761
0.1922,0.0051,0.03185,0.76185
0.1927,0.0045,0.03185,0.7618
0.19245,0.0056,0.0315,0.7614
0.19275,0.00435,0.03185,0.762
0.19205,0.0051,0.03085,0.7631
0.19245,0.00465,0.03135,0.7626
0.1931,0.00445,0.03105,0.76245
0.19265,0.0049,0.0304,0.76335
0.19315,0.004,0.03,0.76425
0.1942,0.00435,0.02965,0.76315
0.1953,0.00425,0.028,0.7635
0.19505,0.005,0.0286,0.76245
0.19485,0.00435,0.02945,0.76295
0.1949,0.0049,0.0296,0.76245
0.19495,0.0048,0.02985,0.76245
0.19525,0.0043,0.0303,0.76195
0.19545,0.00425,0.0294,0.7629
0.19615,0.00515,0.0297,0.761
0.19675,0.0043,0.02915,0.76125
0.198,0.0043,0.03005,0.75965
0.19895,0.0044,0.03015,0.75905
0.19905,0.00435,0.02985,0.75915
0.2,0.0047,0.03115,0.7573
0.2013,0.00495,0.0304,0.7559
0.2008,0.00505,0.031,0.7557
0.2007,0.00495,0.0306,0.756
0.20025,0.0058,0.03045,0.75535
0.19965,0.00535,0.0304,0.75615
0.2013,0.00415,0.0304,0.75555
0.2013,0.00455,0.03015,0.7555
0.2018,0.00425,0.03015,0.7551
0.20205,0.0046,0.0296,0.75475
0.20215,0.00465,0.03025,0.7545
0.20245,0.0055,0.03065,0.7533
0.2028,0.0051,0.03075,0.753
0.2035,0.0044,0.03025,0.7532
0.2045,0.0045,0.03005,0.75295
0.20445,0.0045,0.0297,0.75385
0.20335,0.005,0.0295,0.75455
0.20355,0.0043,0.0294,0.75455
0.20355,0.004,0.0293,0.75545
0.2045,0.00415,0.02735,0.7559
0.205,0.00465,0.02765,0.7551
0.20515,0.00465,0.028,0.75475
0.20555,0.0042,0.0273,0.75545
0.2059,0.00445,0.02725,0.75515
0.2062,0.0041,0.0271,0.75495
0.20535,0.00505,0.0268,0.75505
0.2056,0.0043,0.02745,0.75445
0.20595,0.00475,0.0279,0.75285
0.2058,0.00545,0.02985,0.75075
0.2057,0.00425,0.02965,0.7515
0.20625,0.0048,0.02985,0.7507
0.2061,0.0047,0.0301,0.7504
0.2056,0.00555,0.0291,0.7502
0.20535,0.00405,0.02955,0.75075
0.20595,0.00445,0.03005,0.7502
0.2071,0.00425,0.03015,0.74955
0.2081,0.00485,0.0297,0.74865
0.2071,0.00505,0.02955,0.7494
0.2074,0.0043,0.0298,0.7504
0.20775,0.00425,0.02975,0.7507
0.2076,0.00455,0.02905,0.7514
0.2076,0.00485,0.02905,0.7511
0.20635,0.00525,0.0289,0.7518
0.2065,0.00445,0.02935,0.75135
0.2059,0.0049,0.0298,0.7516
0.2056,0.00455,0.02865,0.75255
0.2056,0.00425,0.0289,0.75225
0.2053,0.0048,0.02985,0.75165
0.20435,0.00495,0.0294,0.75235
0.2036,0.00475,0.02845,0.7538
0.20405,0.0044,0.0286,0.7531
0.20475,0.0052,0.0293,0.75155
0.2052,0.00485,0.03025,0.75045
0.20585,0.0039,0.0304,0.75115
0.20455,0.0052,0.0303,0.752
0.20415,0.0051,0.0308,0.75185
0.2034,0.00515,0.0307,0.75245
0.20365,0.0042,0.03075,0.7527
0.2036,0.00495,0.03035,0.7528
0.2014,0.0054,0.0311,0.7539
0.2009,0.005,0.0311,0.7544
0.2015,0.0044,0.0311,0.7535
0.2016,0.00515,0.031,0.7533
0.2019,0.00475,0.0311,0.75335
0.20155,0.0056,0.0317,0.7527
0.2009,0.00485,0.0318,0.7537
0.20015,0.00575,0.03135,0.75395
0.1996,0.00545,0.0322,0.75375
0.19825,0.0057,0.03215,0.75495
0.19855,0.0044,0.0318,0.75595
0.19805,0.00535,0.03115,0.75625
0.19915,0.0041,0.0323,0.7561
0.1994,0.0039,0.03085,0.7576
0.1992,0.00565,0.03095,0.7565
0.199,0.0051,0.03095,0.75665
0.1989,0.00465,0.03105,0.75665
0.1983,0.00505,0.03115,0.75735
0.19875,0.00485,0.03135,0.75685
0.19815,0.00495,0.0315,0.75685
0.19755,0.00525,0.03215,0.7561
0.19855,0.0043,0.0317,0.75605
0.19745,0.00535,0.03125,0.75685
0.19735,0.005,0.0311,0.757
0.1972,0.00515,0.0308,0.7574
0.19605,0.00565,0.03065,0.7577
0.19705,0.0051,0.03065,0.75725
0.1968,0.00465,0.03105,0.7581
0.1985,0.00345,0.0318,0.75745
0.19805,0.00495,0.0314,0.75755
0.19775,0.00535,0.03095,0.75835
0.19755,0.00445,0.02925,0.75995
0.1977,0.00395,0.02895,0.76105
0.19865,0.0038,0.02785,0.76155
0.1989,0.0046,0.0277,0.7614
0.19955,0.00425,0.0286,0.7605
0.19835,0.0056,0.029,0.76035
0.19915,0.00405,0.0293,0.7599
0.19955,0.00415,0.02855,0.76015
0.19885,0.0051,0.02865,0.7607
0.1984,0.0046,0.02785,0.76165
0.1976,0.00435,0.02835,0.7623
0.1968,0.00525,0.028,0.76225
0.19795,0.0038,0.0293,0.7619
0.19795,0.0047,0.0286,0.7617
0.1996,0.0037,0.02775,0.7606
0.19925,0.00445,0.02775,0.76075
0.1983,0.00535,0.0282,0.76025
0.19875,0.00475,0.02845,0.7597
0.1991,0.00505,0.02855,0.75895
0.1992,0.00395,0.02815,0.7601
0.1995,0.00405,0.02775,0.76005
0.19955,0.0049,0.02805,0.75955
0.1988,0.00475,0.02875,0.75965
0.19905,0.0043,0.0292,0.7595
0.20005,0.004,0.0289,0.75875
0.19975,0.00535,0.0288,0.7583
0.1999,0.00455,0.0301,0.7576
0.2005,0.00375,0.03,0.75785
0.19905,0.0055,0.02865,0.7592
0.20025,0.00445,0.0296,0.75775
0.19985,0.0048,0.02955,0.7583
0.1992,0.00465,0.02885,0.7598
0.1984,0.00505,0.0289,0.7602
0.1995,0.00375,0.02825,0.76095
0.1984,0.0043,0.02795,0.76225
0.1986,0.0049,0.0274,0.76155
0.1999,0.00395,0.0275,0.7608
0.2018,0.0039,0.0268,0.76
0.2027,0.0043,0.02605,0.7586
0.2012,0.0051,0.02615,0.75945
0.2018,0.0041,0.02825,0.7583
0.2021,0.0045,0.02785,0.75875
0.20235,0.0046,0.0272,0.7584
0.20265,0.0051,0.0266,0.7576
0.20315,0.00445,0.02795,0.75615
0.20375,0.0046,0.02845,0.7551
0.2041,0.00415,0.0299,0.75405
0.2036,0.0048,0.02865,0.75485
0.20325,0.0048,0.02905,0.7553
0.2034,0.004,0.02865,0.75575
0.20545,0.00415,0.02795,0.7546
0.20575,0.0049,0.02745,0.75425
0.20575,0.00485,0.0278,0.75355
0.2039,0.0055,0.0292,0.7544
0.2042,0.0046,0.02835,0.7546
0.2035,0.00485,0.0276,0.75525
0.203,0.00545,0.0285,0.7545
0.20315,0.00445,0.02825,0.75455
0.202,0.00535,0.02905,0.75445
0.2029,0.0048,0.02955,0.754
0.20205,0.00535,0.0289,0.75455
0.20215,0.00515,0.0303,0.75375
0.20225,0.005,0.0296,0.7536
0.20265,0.0044,0.03065,0.75325
0.2032,0.0054,0.0298,0.7531
0.20365,0.0044,0.0301,0.75315
0.20415,0.0044,0.02915,0.75375
0.2048,0.00505,0.0297,0.75275
0.20455,0.0042,0.03025,0.753
0.2047,0.00515,0.02965,0.75255
0.20405,0.00525,0.02955,0.7525
0.20485,0.00415,0.03125,0.7522
0.2055,0.00455,0.03105,0.75175
0.2058,0.0045,0.03065,0.7516
0.2053,0.00505,0.0303,0.7517
0.20415,0.00555,0.0293,0.75275
0.2039,0.00535,0.0299,0.752
0.2041,0.0051,0.03075,0.751
0.2035,0.0053,0.0308,0.7513
0.2043,0.00475,0.0303,0.75115
0.2046,0.00445,0.03045,0.75125
0.20415,0.0053,0.0301,0.7514
0.2027,0.0053,0.0308,0.75215
0.2029,0.00485,0.0317,0.75125
0.2026,0.00505,0.03045,0.7524
0.2016,0.00525,0.0314,0.75325
0.20215,0.0051,0.03125,0.7525
0.20075,0.00625,0.0312,0.7531
0.2004,0.0049,0.03195,0.75325
0.19965,0.00555,0.03245,0.75355
0.1995,0.00515,0.03325,0.75345
0.19935,0.00455,0.0328,0.75475
0.1981,0.00555,0.0318,0.75585
0.1981,0.00565,0.03185,0.75525
0.1972,0.0058,0.0324,0.7553
0.1973,0.0053,0.03315,0.75505
0.1971,0.0049,0.0333,0.7551
0.1969,0.0048,0.0334,0.75535
0.1966,0.0057,0.033,0.7551
0.1966,0.005,0.0348,0.75405
0.19535,0.0054,0.03425,0.7557
0.1954,0.00545,0.03395,0.756
0.19475,0.00595,0.03405,0.7558
0.19485,0.0048,0.03545,0.75515
0.1936,0.0057,0.03465,0.757
0.193,0.0054,0.03465,0.75785
0.19255,0.00565,0.03465,0.7578
0.1928,0.00475,0.03485,0.7581
0.19235,0.0054,0.03445,0.7588
0.19205,0.00605,0.0346,0.7583
0.19185,0.0055,0.03555,0.75835
0.19125,0.00585,0.03515,0.7588
0.1903,0.0057,0.03515,0.76005
0.19015,0.00485,0.03455,0.7612
0.1903,0.0047,0.03295,0.7627
0.1905,0.0052,0.0321,0.76315
0.19105,0.00455,0.0321,0.7637
0.19195,0.0039,0.03185,0.7642
0.19165,0.00515,0.03145,0.76425
0.19185,0.00555,0.0316,0.7628
0.1915,0.00465,0.0318,0.76325
0.1917,0.0047,0.0321,0.7631
0.192,0.00505,0.03185,0.76255
0.1925,0.00435,0.03125,0.7627
0.1926,0.0053,0.0316,0.7615
0.1944,0.0045,0.0308,0.76075
0.19375,0.00535,0.03165,0.76015
0.19465,0.0041,0.03155,0.7613
0.19445,0.0051,0.0304,0.7625
0.195,0.0045,0.0308,0.76265
0.1947,0.0049,0.0302,0.76325
0.19505,0.00465,0.0305,0.7626
0.19365,0.00585,0.0299,0.763
0.1942,0.00495,0.03,0.7622
0.19405,0.00575,0.03155,0.7605
0.193,0.00585,0.03165,0.761
0.19205,0.0051,0.0316,0.7616
0.19235,0.0054,0.0309,0.7611
0.19295,0.0042,0.0316,0.76075
0.19265,0.0049,0.03105,0.76085
0.19265,0.00475,0.03075,0.7618
0.1927,0.0049,0.0317,0.76145
0.19235,0.00515,0.0321,0.76165
0.19275,0.0051,0.033,0.76075
0.1925,0.0054,0.0332,0.761
0.19175,0.00525,0.03295,0.7614
0.19285,0.0046,0.0331,0.761
0.19295,0.0047,0.0329,0.76115
0.1934,0.00425,0.0332,0.7616
0.1947,0.00445,0.0321,0.7612
0.19405,0.00605,0.0334,0.7597
0.1936,0.0053,0.0331,0.76065
0.19415,0.00505,0.0326,0.76065
0.19475,0.00475,0.03245,0.75995
0.19475,0.0053,0.03245,0.7595
0.1948,0.00535,0.03175,0.75955
0.1947,0.00515,0.0315,0.7594
0.1949,0.00485,0.03095,0.7597
0.1957,0.0047,0.03145,0.7589
0.1954,0.0053,0.0315,0.75925
0.19565,0.00485,0.0308,0.75995
0.1962,0.0047,0.03035,0.75985
0.19635,0.0039,0.02925,0.76105
0.19725,0.0047,0.02935,0.76025
0.1965,0.00525,0.03015,0.76005
0.19765,0.00435,0.0304,0.7588
0.19745,0.00545,0.0313,0.75775
0.1982,0.005,0.03165,0.7568
0.19855,0.0049,0.03185,0.75645
0.19905,0.00435,0.02975,0.7577
0.19925,0.0042,0.0292,0.75815
0.1999,0.0044,0.0291,0.75775
0.20065,0.0044,0.02875,0.7582
0.19975,0.00455,0.02865,0.75905
0.20075,0.0044,0.02875,0.75845
0.2018,0.0046,0.0287,0.75715
0.20185,0.0049,0.0299,0.75605
0.20195,0.0049,0.02985,0.75575
0.20225,0.0049,0.03,0.7545
0.2022,0.00445,0.02995,0.7551
0.2027,0.0045,0.03005,0.75435
0.204,0.00445,0.0287,0.75365
0.2039,0.0049,0.0294,0.75305
0.2043,0.00495,0.0298,0.75255
0.20475,0.00425,0.02985,0.75225
0.2046,0.005,0.0294,0.75215
0.20495,0.0049,0.02895,0.7521
0.2054,0.0045,0.02955,0.75165
0.20335,0.006,0.0297,0.7524
0.20455,0.0046,0.0308,0.75115
0.20385,0.0058,0.031,0.75085
0.203,0.00535,0.031,0.7515
0.20275,0.00475,0.03035,0.7525
0.20325,0.0045,0.0301,0.7522
0.2033,0.0049,0.03035,0.7517
0.2039,0.00485,0.03165,0.7505
0.2041,0.0047,0.03215,0.7507
0.20405,0.005,0.0312,0.75155
0.20505,0.0052,0.03095,0.7498
0.20575,0.00455,0.03075,0.75035
0.2063,0.0048,0.0299,0.7501
0.2064,0.00575,0.03085,0.74835
0.20585,0.0053,0.03105,0.74835
0.2055,0.00485,0.0301,0.74935
0.2049,0.0052,0.0313,0.7497
0.2048,0.0044,0.0312,0.75035
0.20545,0.0044,0.03095,0.7504
0.2046,0.0057,0.03125,0.7501
0.2048,0.00485,0.0309,0.75075
0.2042,0.0055,0.02955,0.7525
0.20535,0.0045,0.02895,0.7521
0.2056,0.00485,0.0294,0.75145
0.2059,0.00455,0.0293,0.7513
0.2049,0.00515,0.029,0.75165
0.2052,0.00525,0.0287,0.7512
0.2044,0.00545,0.0289,0.7514
0.20345,0.0049,0.0298,0.7517
0.20305,0.00465,0.0292,0.75345
0.2023,0.00505,0.03025,0.75375
0.20215,0.0047,0.03105,0.7537
0.20305,0.0047,0.03095,0.75335
0.20335,0.0044,0.0299,0.75435
0.2038,0.00455,0.0298,0.754
0.2039,0.00475,0.03075,0.75285
0.2047,0.00445,0.0301,0.7529
0.20475,0.00555,0.0302,0.75185
0.20535,0.00445,0.03,0.7521
