moyS, moyE, moyI, moyR
0.999,0.0,0.001,0.0
0.9985,5.0E-4,8.5E-4,1.5E-4
0.9977,8.0E-4,0.0011,2.0E-4
0.99665,0.00105,0.0014,4.0E-4
0.9942,0.00245,0.00215,4.5E-4
0.99205,0.00215,0.0031,6.5E-4
0.98865,0.0034,0.00435,0.0012
0.98415,0.0045,0.0054,0.00225
0.9787,0.00545,0.008,0.00315
0.97,0.0087,0.0106,0.00445
0.9577,0.0123,0.01445,0.00615
0.9423,0.0154,0.0207,0.00875
0.9229,0.0194,0.0278,0.0125
0.8973,0.0256,0.03655,0.0183
0.86195,0.03535,0.0498,0.025
0.81885,0.0432,0.0645,0.03465
0.7615,0.05745,0.0867,0.04615
0.697,0.06465,0.1131,0.06075
0.62195,0.07525,0.1424,0.0795
0.54305,0.0793,0.1733,0.1062
0.4626,0.0811,0.21045,0.13485
0.3837,0.07955,0.24475,0.1696
0.3108,0.0739,0.2775,0.2103
0.2426,0.06895,0.30275,0.25335
0.18685,0.0569,0.32405,0.3008
0.14465,0.0436,0.3407,0.35085
0.1097,0.03595,0.3432,0.40235
0.085,0.0262,0.3376,0.45445
0.0653,0.0209,0.3272,0.50485
0.05445,0.013,0.31285,0.55055
0.0458,0.0113,0.29225,0.59355
0.0383,0.0096,0.2712,0.6353
0.0337,0.0067,0.2507,0.67215
0.03155,0.00515,0.22715,0.7054
0.02915,0.0055,0.2067,0.7344
0.0274,0.0047,0.18815,0.76055
0.0265,0.0043,0.16915,0.7846
0.0273,0.00255,0.151,0.8056
0.0277,0.00315,0.134,0.82405
0.0297,0.0025,0.1185,0.83985
0.02975,0.00275,0.1077,0.8521
0.03065,0.0021,0.09695,0.8636
0.032,0.0027,0.0866,0.8728
0.03395,0.0019,0.07755,0.88075
0.03575,0.0019,0.06875,0.88865
0.0377,0.00165,0.06035,0.89585
0.0392,0.00185,0.0531,0.9018
0.04125,0.0017,0.04795,0.90575
0.0433,0.0013,0.04275,0.90955
0.04515,0.00175,0.03715,0.9129
0.047,0.00155,0.03335,0.91485
0.04895,0.0015,0.03015,0.9163
0.05195,0.00125,0.0275,0.91645
0.05425,0.00135,0.02495,0.917
0.05645,0.0011,0.0229,0.91725
0.05925,8.0E-4,0.01965,0.91775
0.0614,0.00105,0.01725,0.91825
0.0644,4.5E-4,0.0157,0.9174
0.0665,7.5E-4,0.01445,0.91665
0.06925,9.5E-4,0.013,0.91495
0.0722,8.0E-4,0.0121,0.91325
0.07465,5.0E-4,0.01055,0.9126
0.07755,9.0E-4,0.00995,0.91025
0.08065,4.0E-4,0.00935,0.90845
0.08355,9.5E-4,0.00785,0.90655
0.08655,5.0E-4,0.0073,0.9042
0.0894,3.5E-4,0.0067,0.9023
0.09215,5.0E-4,0.00585,0.90035
0.09415,5.5E-4,0.00575,0.89875
0.09715,5.5E-4,0.00525,0.8963
0.09985,5.5E-4,0.00485,0.89395
0.10325,2.5E-4,0.0046,0.8912
0.10615,3.5E-4,0.0042,0.88855
0.1096,2.5E-4,0.004,0.88525
0.11255,3.0E-4,0.00405,0.8825
0.11455,3.5E-4,0.00375,0.88075
0.1169,2.0E-4,0.00335,0.87885
0.11955,3.0E-4,0.00355,0.8761
0.12205,2.5E-4,0.0031,0.874
0.12535,3.0E-4,0.00265,0.87095
0.1286,2.5E-4,0.00245,0.86805
0.1309,1.5E-4,0.00225,0.866
0.1335,2.0E-4,0.00195,0.86375
0.1359,2.0E-4,0.0017,0.86165
0.1385,5.0E-5,0.00185,0.85925
0.1411,1.0E-4,0.00165,0.85695
0.1436,1.0E-4,0.0012,0.8549
0.14675,5.0E-5,0.0011,0.85195
0.1491,1.5E-4,0.0011,0.84965
0.15185,1.0E-4,0.00105,0.847
0.15395,5.0E-5,9.5E-4,0.845
0.156,2.5E-4,9.0E-4,0.8428
0.15825,1.0E-4,9.5E-4,0.84065
0.1605,1.5E-4,9.0E-4,0.8384
0.1634,2.0E-4,8.0E-4,0.8355
0.16595,0.0,8.0E-4,0.8331
0.16795,5.0E-5,7.5E-4,0.8311
0.17045,0.0,5.5E-4,0.8289
0.17285,1.0E-4,3.5E-4,0.8266
0.1757,1.0E-4,4.0E-4,0.8237
0.17775,0.0,3.0E-4,0.8218
0.1801,1.5E-4,4.0E-4,0.8193
0.18245,1.5E-4,3.5E-4,0.8169
0.1845,1.0E-4,3.0E-4,0.8149
0.18655,0.0,3.0E-4,0.8129
0.1892,0.0,3.0E-4,0.8103
0.19245,0.0,3.0E-4,0.8071
0.19435,5.0E-5,3.0E-4,0.80515
0.19685,0.0,2.5E-4,0.8027
0.1994,0.0,2.0E-4,0.8002
0.20215,1.0E-4,2.5E-4,0.79735
0.20475,0.0,2.5E-4,0.79485
0.20725,5.0E-5,1.5E-4,0.7924
0.2092,1.5E-4,1.5E-4,0.79035
0.2116,5.0E-5,3.0E-4,0.7879
0.21355,5.0E-5,3.5E-4,0.7859
0.2156,0.0,3.0E-4,0.784
0.21835,1.0E-4,3.0E-4,0.78115
0.2197,5.0E-5,3.0E-4,0.7798
0.22235,2.5E-4,2.0E-4,0.77705
0.22435,5.0E-5,2.5E-4,0.77505
0.2264,5.0E-5,3.0E-4,0.77295
0.22855,1.5E-4,4.5E-4,0.77065
0.2308,5.0E-5,6.0E-4,0.76835
0.23305,5.0E-5,5.5E-4,0.7661
0.23535,5.0E-5,6.0E-4,0.7638
0.23775,5.0E-5,5.0E-4,0.76155
0.23965,1.0E-4,5.0E-4,0.7596
0.2415,0.0,4.5E-4,0.75785
0.2435,1.0E-4,2.5E-4,0.75595
0.24515,5.0E-5,5.0E-4,0.75425
0.2469,0.0,4.0E-4,0.7526
0.2489,1.0E-4,4.0E-4,0.75055
0.25145,5.0E-5,3.5E-4,0.74805
0.2538,5.0E-5,3.5E-4,0.74575
0.2554,1.0E-4,3.5E-4,0.74415
0.25745,5.0E-5,4.0E-4,0.74205
0.2595,0.0,3.0E-4,0.74015
0.2612,0.0,3.0E-4,0.73845
0.26335,0.0,2.5E-4,0.73635
0.2657,0.0,1.0E-4,0.73415
0.2676,0.0,1.0E-4,0.73225
0.26975,0.0,1.0E-4,0.7301
0.27215,1.0E-4,1.0E-4,0.7276
0.2742,1.5E-4,2.0E-4,0.7254
0.27625,0.0,2.0E-4,0.7234
0.27815,5.0E-5,1.5E-4,0.7215
0.28005,0.0,2.5E-4,0.7196
0.28225,0.0,2.5E-4,0.71745
0.28425,0.0,2.5E-4,0.71545
0.2863,5.0E-5,2.5E-4,0.71335
0.28835,0.0,3.5E-4,0.7113
0.29,0.0,3.0E-4,0.7097
0.2919,0.0,3.0E-4,0.7078
0.2938,5.0E-5,1.5E-4,0.706
0.2961,0.0,1.5E-4,0.7037
0.2982,5.0E-5,2.0E-4,0.70155
0.3,5.0E-5,1.5E-4,0.69975
0.3019,0.0,1.0E-4,0.6979
0.30345,5.0E-5,1.5E-4,0.6963
0.30555,5.0E-5,2.0E-4,0.69415
0.30745,1.0E-4,2.5E-4,0.69215
0.30965,1.0E-4,2.5E-4,0.6899
0.31175,5.0E-5,3.0E-4,0.68785
0.314,5.0E-5,3.5E-4,0.68555
0.3163,1.0E-4,2.5E-4,0.6833
0.31825,1.0E-4,3.0E-4,0.6813
0.3202,5.0E-5,3.5E-4,0.6793
0.3216,5.0E-5,3.5E-4,0.67795
0.323,1.0E-4,3.0E-4,0.67655
0.3246,5.0E-5,3.0E-4,0.6749
0.32605,0.0,3.0E-4,0.6735
0.32765,1.5E-4,3.0E-4,0.6718
0.32925,1.0E-4,2.5E-4,0.6702
0.33135,0.0,3.0E-4,0.66815
0.33325,5.0E-5,2.5E-4,0.66625
0.3354,0.0,3.0E-4,0.66415
0.33725,5.0E-5,1.5E-4,0.66245
0.33965,0.0,1.5E-4,0.66005
0.3414,1.5E-4,2.0E-4,0.65815
0.3434,0.0,2.5E-4,0.6562
0.345,1.0E-4,2.5E-4,0.6545
0.3468,1.0E-4,2.0E-4,0.65265
0.3485,5.0E-5,3.0E-4,0.6509
0.3502,1.5E-4,5.0E-4,0.64905
0.35185,1.0E-4,4.0E-4,0.6475
0.35365,1.0E-4,4.5E-4,0.64565
0.3548,1.5E-4,4.5E-4,0.6445
0.3563,1.5E-4,5.5E-4,0.6429
0.3577,2.0E-4,6.0E-4,0.6414
0.359,2.5E-4,6.5E-4,0.63995
0.36075,2.0E-4,7.5E-4,0.63805
0.36225,2.0E-4,6.5E-4,0.6366
0.36365,2.0E-4,7.0E-4,0.63515
0.3652,2.5E-4,8.0E-4,0.6335
0.36655,3.5E-4,9.0E-4,0.6319
0.3683,1.0E-4,0.001,0.63015
0.36955,5.0E-4,9.5E-4,0.62855
0.37055,4.0E-4,0.00135,0.6272
0.37205,3.5E-4,0.00155,0.62545
0.37295,3.5E-4,0.0016,0.6244
0.3737,7.5E-4,0.00165,0.6232
0.3751,4.5E-4,0.00205,0.62155
0.37665,4.0E-4,0.0021,0.61995
0.3774,8.5E-4,0.0021,0.6187
0.3786,5.0E-4,0.00275,0.6173
0.3798,8.5E-4,0.00285,0.6156
0.3813,8.0E-4,0.0035,0.6136
0.3824,0.00105,0.00375,0.61195
0.38305,0.0011,0.0037,0.611
0.384,8.0E-4,0.00365,0.61
0.38425,0.0012,0.00415,0.6092
0.38375,0.00205,0.0046,0.6082
0.38385,0.0016,0.00545,0.6071
0.38315,0.00225,0.00615,0.60655
0.38415,0.0016,0.0067,0.60505
0.3839,0.00195,0.0067,0.60465
0.38355,0.00185,0.0066,0.60465
0.38325,0.00205,0.0074,0.60375
0.3822,0.00305,0.0084,0.6029
0.38085,0.00275,0.0095,0.6028
0.38035,0.00235,0.01055,0.6022
0.37855,0.0033,0.01125,0.6023
0.37675,0.0038,0.01245,0.60205
0.37445,0.004,0.0138,0.6022
0.37365,0.0028,0.0136,0.60335
0.37055,0.00485,0.01515,0.6035
0.36775,0.0046,0.0172,0.6041
0.3629,0.0064,0.0185,0.6053
0.3593,0.00585,0.0211,0.60535
0.35505,0.00565,0.0228,0.60745
0.35155,0.0055,0.0238,0.609
0.34635,0.007,0.02505,0.61125
0.34065,0.00765,0.02765,0.6136
0.3351,0.0074,0.0289,0.61675
0.32855,0.0083,0.03095,0.61985
0.32095,0.0089,0.034,0.62325
0.3134,0.00975,0.0355,0.6273
0.30725,0.0086,0.03825,0.6313
0.29965,0.00975,0.04,0.63625
0.2937,0.008,0.0417,0.6412
0.28595,0.01,0.04205,0.6464
0.27805,0.0106,0.04505,0.64985
0.27,0.0104,0.04705,0.65495
0.2621,0.0102,0.05075,0.65975
0.2545,0.0099,0.05385,0.66465
0.24605,0.011,0.05455,0.6706
0.23885,0.01,0.05545,0.6766
0.2331,0.00905,0.05735,0.68145
0.2258,0.0095,0.0592,0.68785
0.2192,0.0091,0.0587,0.69535
0.2108,0.01095,0.05895,0.7023
0.20355,0.01045,0.06005,0.70795
0.1969,0.00945,0.06125,0.71425
0.1909,0.0087,0.0612,0.7213
0.1844,0.0095,0.06075,0.7282
0.1795,0.00855,0.0597,0.73545
0.17475,0.00775,0.0587,0.7423
0.1696,0.00815,0.0587,0.7481
0.1654,0.00775,0.0579,0.7537
0.16125,0.00745,0.0582,0.75845
0.15695,0.008,0.0562,0.76465
0.1536,0.0065,0.0538,0.7711
0.15155,0.0067,0.0533,0.77445
0.14885,0.0065,0.0516,0.7787
0.1457,0.00625,0.0519,0.7827
0.1433,0.0059,0.05075,0.78755
0.1414,0.00595,0.0478,0.79185
0.1389,0.00585,0.04775,0.7952
0.13725,0.0057,0.04605,0.79845
0.1361,0.0055,0.0447,0.8017
0.1357,0.0045,0.04435,0.805
0.1346,0.00455,0.0428,0.80865
0.1364,0.0034,0.0428,0.80895
0.1364,0.0044,0.03995,0.8111
0.13665,0.0037,0.0387,0.8128
0.13705,0.0042,0.03665,0.8143
0.1377,0.0036,0.0348,0.8159
0.13895,0.00305,0.03245,0.8176
0.1393,0.0037,0.03095,0.81865
0.1404,0.0035,0.0295,0.8191
0.1409,0.00345,0.0289,0.82
0.14185,0.00375,0.02835,0.8195
0.14215,0.0034,0.028,0.8201
0.1435,0.00315,0.02745,0.8202
0.1443,0.00335,0.026,0.8206
0.14615,0.00335,0.02585,0.819
0.14735,0.00305,0.0258,0.81835
0.1494,0.0023,0.0247,0.81835
0.1512,0.0024,0.0228,0.8184
0.15185,0.0035,0.0226,0.81745
0.15385,0.0021,0.02265,0.8165
0.1557,0.0029,0.0216,0.81555
0.1572,0.0024,0.0202,0.8158
0.16015,0.0021,0.01905,0.8143
0.16275,0.0017,0.01775,0.8136
0.1645,0.00205,0.01745,0.8124
0.16635,0.0029,0.01685,0.8102
0.16825,0.00225,0.0164,0.8088
0.1699,0.0021,0.01575,0.80825
0.17245,0.002,0.0156,0.80635
0.17525,0.00165,0.01435,0.8047
0.17725,0.00225,0.0142,0.80255
0.1792,0.0024,0.0137,0.8006
0.18115,0.0016,0.0143,0.79905
0.1837,0.002,0.0136,0.79695
0.1869,0.0012,0.01375,0.79475
0.18905,0.00245,0.0131,0.7923
0.1913,0.0021,0.01385,0.7894
0.19345,0.0023,0.01375,0.78725
0.19545,0.0022,0.014,0.78495
0.19695,0.0022,0.0143,0.78285
0.19865,0.0022,0.01415,0.78105
0.2005,0.00185,0.01425,0.77925
0.20225,0.0024,0.01375,0.77775
0.2037,0.0024,0.0135,0.77645
0.20505,0.00245,0.0136,0.77465
0.20685,0.0024,0.0134,0.7728
0.2087,0.00245,0.013,0.7711
0.21075,0.0024,0.01365,0.7686
0.2132,0.00205,0.01425,0.766
0.21385,0.00245,0.01355,0.7658
0.2154,0.0031,0.014,0.7627
0.217,0.00215,0.0142,0.7614
0.2186,0.0026,0.01385,0.7597
0.21995,0.00245,0.0142,0.75835
0.22155,0.0026,0.0148,0.7568
0.22185,0.00345,0.0156,0.7551
0.2235,0.0031,0.01655,0.7528
0.22475,0.0029,0.0168,0.75135
0.22545,0.0032,0.01645,0.75025
0.2262,0.0029,0.01585,0.74975
0.2275,0.00235,0.0165,0.7484
0.2282,0.0033,0.016,0.74715
0.2305,0.00245,0.01645,0.74525
0.2314,0.00315,0.01605,0.74395
0.23345,0.003,0.01645,0.7417
0.23465,0.00315,0.0173,0.73995
0.23755,0.0027,0.0173,0.73725
0.23955,0.0027,0.0175,0.73545
0.24035,0.00315,0.0174,0.734
0.2405,0.00345,0.01765,0.7331
0.2411,0.00415,0.01825,0.7311
0.2413,0.0038,0.01935,0.7298
0.2422,0.00335,0.02035,0.72805
0.2427,0.0038,0.0205,0.72695
0.24285,0.0034,0.02015,0.72705
0.24225,0.00355,0.0205,0.7277
0.24155,0.00465,0.01965,0.72745
0.24105,0.0042,0.0201,0.72725
0.2404,0.00485,0.0212,0.72605
0.24045,0.00425,0.02175,0.72535
0.24125,0.00385,0.0225,0.72435
0.2399,0.00455,0.02345,0.7247
0.23975,0.0043,0.02305,0.72475
0.24,0.0043,0.0233,0.72315
0.23965,0.0047,0.02375,0.723
0.24005,0.00395,0.0246,0.7222
0.24025,0.00455,0.0256,0.72125
0.2411,0.00395,0.0253,0.7211
0.2397,0.00595,0.0257,0.72055
0.2381,0.0055,0.02725,0.7199
0.2368,0.00515,0.02745,0.72075
0.23615,0.0049,0.02825,0.72115
0.2349,0.0059,0.029,0.72105
0.2345,0.00465,0.02945,0.7219
0.2327,0.00595,0.0298,0.7226
0.2309,0.00575,0.0313,0.72305
0.23,0.00555,0.0307,0.7242
0.2295,0.0052,0.03125,0.7247
0.2281,0.0058,0.03115,0.72545
0.22745,0.00455,0.0309,0.72665
0.2261,0.0055,0.03105,0.7275
0.2248,0.0062,0.03135,0.72745
0.2219,0.00625,0.0328,0.7287
0.2204,0.0069,0.0318,0.73005
0.2196,0.0055,0.03325,0.731
0.21845,0.0059,0.03345,0.73135
0.21745,0.0058,0.0338,0.73195
0.2159,0.00675,0.03575,0.73125
0.2142,0.0062,0.0353,0.73285
0.2132,0.0055,0.0356,0.73385
0.21135,0.0057,0.0364,0.73535
0.21035,0.006,0.0371,0.7357
0.2082,0.00645,0.03865,0.73595
0.2052,0.0068,0.0375,0.7395
0.20405,0.00615,0.03745,0.74085
0.20355,0.0051,0.038,0.7422
0.20315,0.0055,0.0377,0.74295
0.2006,0.0067,0.0383,0.74405
0.1997,0.00575,0.0375,0.74575
0.19925,0.00535,0.03805,0.74595
0.19825,0.00615,0.0365,0.7473
0.19745,0.0054,0.03745,0.7486
0.1972,0.0057,0.0371,0.749
0.19545,0.0064,0.03855,0.7494
0.1949,0.00565,0.04025,0.74965
0.1935,0.006,0.0389,0.7515
0.1921,0.00635,0.039,0.75285
0.19035,0.00725,0.0391,0.75355
0.1896,0.00625,0.03895,0.7547
0.1883,0.00625,0.039,0.75575
0.18745,0.00585,0.0381,0.75745
0.18685,0.00575,0.0388,0.75835
0.18635,0.00575,0.03785,0.7595
0.1867,0.0053,0.0364,0.7606
0.1864,0.0052,0.03615,0.7612
0.18645,0.0057,0.0364,0.76045
0.18605,0.005,0.0362,0.7622
0.18505,0.00515,0.0364,0.7639
0.18715,0.00365,0.036,0.76335
0.1876,0.0048,0.03385,0.76445
0.1874,0.0052,0.03265,0.76525
0.1885,0.0042,0.0335,0.76515
0.1882,0.00485,0.0341,0.7651
0.1876,0.00515,0.0325,0.76655
0.1877,0.0048,0.03225,0.7667
0.18885,0.00465,0.03055,0.76655
0.18905,0.00435,0.0299,0.7671
0.18905,0.00475,0.02995,0.76735
0.1901,0.00415,0.03035,0.76705
0.1898,0.0055,0.0301,0.76615
0.1899,0.0045,0.03025,0.76625
0.19055,0.00395,0.02945,0.76675
0.191,0.00505,0.0303,0.7654
0.1915,0.00465,0.03005,0.76535
0.1926,0.00445,0.0303,0.76455
0.1933,0.00495,0.0295,0.7639
0.1937,0.0054,0.0299,0.7628
0.19515,0.00415,0.0299,0.76185
0.1946,0.0051,0.02965,0.7624
0.1953,0.0053,0.029,0.7617
0.19575,0.00425,0.02945,0.7618
0.1964,0.0046,0.0303,0.76055
0.1957,0.00495,0.02915,0.76185
0.1974,0.0047,0.02825,0.76065
0.1987,0.0044,0.0294,0.75925
0.19805,0.0052,0.0292,0.75935
0.19815,0.00515,0.0299,0.7583
0.19895,0.00475,0.02995,0.7577
0.1996,0.0044,0.02985,0.75705
0.1992,0.00595,0.02985,0.7561
0.20025,0.0043,0.031,0.7552
0.2003,0.0049,0.02975,0.75615
0.2003,0.00495,0.02935,0.75695
0.20125,0.0043,0.02885,0.7568
0.20185,0.0044,0.0293,0.75595
0.20225,0.00485,0.0287,0.7555
0.20175,0.00485,0.0288,0.7563
0.20185,0.00535,0.0294,0.7551
0.2015,0.00545,0.0294,0.75485
0.20155,0.00515,0.03005,0.75445
0.20285,0.00485,0.0299,0.75285
0.20275,0.00495,0.0308,0.7526
0.2039,0.00465,0.031,0.75145
0.204,0.0054,0.0305,0.7512
0.20455,0.00465,0.0306,0.751
0.20475,0.0046,0.03085,0.7511
0.2046,0.00475,0.02965,0.7525
0.20465,0.00525,0.0294,0.75145
0.20485,0.0048,0.0305,0.75055
0.20505,0.0048,0.03025,0.75105
0.2052,0.0043,0.03075,0.75115
0.20555,0.00475,0.03025,0.751
0.2052,0.0052,0.0293,0.7517
0.2061,0.00445,0.0293,0.75075
0.20605,0.0047,0.0282,0.75145
0.20675,0.0045,0.02785,0.75115
0.2069,0.00455,0.0277,0.7511
0.2081,0.00395,0.0286,0.7501
0.2083,0.00445,0.02905,0.75035
0.20795,0.00565,0.0298,0.749
0.2085,0.0041,0.02975,0.749
0.2085,0.00585,0.02905,0.7483
0.2083,0.005,0.03075,0.7476
0.2073,0.00535,0.031,0.74825
0.20785,0.0042,0.0307,0.74885
0.20715,0.00455,0.0294,0.75055
0.20835,0.0052,0.0298,0.74835
0.2083,0.00505,0.03045,0.74775
0.2077,0.00505,0.03055,0.74845
0.2091,0.00395,0.0295,0.74855
0.2082,0.0056,0.0283,0.74895
0.20825,0.00415,0.0289,0.7491
0.20905,0.0046,0.02925,0.74765
0.2085,0.0053,0.0297,0.7476
0.20795,0.005,0.0309,0.7476
0.2062,0.00575,0.0319,0.7485
0.20535,0.00575,0.03215,0.74865
0.205,0.0051,0.03135,0.7496
0.20555,0.00475,0.0315,0.7493
0.2064,0.0048,0.03135,0.74845
0.20675,0.00525,0.03195,0.7471
0.20735,0.00455,0.0322,0.74715
0.20555,0.00625,0.03225,0.74795
0.20535,0.0054,0.0332,0.74775
0.2048,0.0052,0.03285,0.7483
0.2038,0.0059,0.0324,0.74895
0.20355,0.00545,0.03225,0.7491
0.2024,0.0059,0.03245,0.7496
0.20325,0.0046,0.0323,0.74925
0.20325,0.0057,0.03395,0.74795
0.2025,0.0055,0.03385,0.7488
0.2013,0.0062,0.0334,0.7499
0.20035,0.0059,0.0333,0.7504
0.199,0.0059,0.0346,0.75035
0.19855,0.00565,0.0343,0.7506
0.19815,0.0053,0.0343,0.75095
0.1967,0.0061,0.03505,0.7512
0.196,0.00535,0.03515,0.7525
0.19515,0.0051,0.03535,0.75405
0.19445,0.00575,0.0346,0.75505
0.194,0.00515,0.0339,0.75685
0.1926,0.00635,0.03365,0.7573
0.1923,0.00475,0.03395,0.75895
0.1926,0.004,0.03305,0.7607
0.19195,0.00525,0.03275,0.76175
0.1924,0.0045,0.03225,0.762
0.19155,0.00505,0.03235,0.7623
0.19295,0.00385,0.032,0.76215
0.1925,0.0051,0.0324,0.76185
0.19005,0.0069,0.0325,0.762
0.1917,0.00415,0.03275,0.7619
0.1919,0.00515,0.03245,0.7621
0.1925,0.00485,0.03235,0.7612
0.1919,0.0056,0.0317,0.7615
0.19105,0.00465,0.03195,0.76335
0.1915,0.00455,0.0322,0.7632
0.19145,0.0056,0.0307,0.76335
0.19205,0.0049,0.03115,0.7627
0.1919,0.0052,0.0309,0.76235
0.19155,0.00495,0.0319,0.76225
0.19145,0.00505,0.0326,0.7621
0.19165,0.00465,0.0316,0.762
0.192,0.00405,0.03125,0.76265
0.1919,0.0049,0.03165,0.76255
0.1912,0.0052,0.03205,0.7628
0.1928,0.00425,0.03185,0.76215
0.1937,0.0046,0.031,0.7617
0.19405,0.00405,0.03115,0.7618
0.1935,0.00475,0.0316,0.76205
0.1929,0.0042,0.03175,0.7629
0.19235,0.0047,0.03095,0.7637
0.192,0.0046,0.03,0.7644
0.19165,0.0049,0.0298,0.76495
0.1924,0.00355,0.02995,0.7659
0.195,0.0043,0.0296,0.7635
0.1951,0.00395,0.0289,0.7639
0.1963,0.00435,0.0288,0.76275
0.1967,0.0042,0.02785,0.76305
0.19765,0.00405,0.02865,0.7621
0.1977,0.0044,0.02805,0.76205
0.19775,0.00465,0.029,0.7609
0.19705,0.0051,0.02915,0.7607
0.1974,0.0039,0.02895,0.761
0.19815,0.0041,0.0292,0.7605
0.1991,0.004,0.0286,0.7602
0.1998,0.0041,0.0283,0.7598
0.2009,0.0044,0.0287,0.7583
0.20095,0.00485,0.029,0.75765
0.20225,0.00415,0.0296,0.75665
0.20115,0.00495,0.02875,0.7585
0.20055,0.00455,0.0288,0.75915
0.20045,0.00505,0.0291,0.75815
0.20075,0.00475,0.02845,0.75815
0.2007,0.0043,0.02815,0.7588
0.201,0.0045,0.02885,0.75785
0.2021,0.0045,0.02905,0.7567
0.2009,0.0051,0.0288,0.7571
0.2009,0.0047,0.0286,0.7575
0.20055,0.0048,0.0289,0.75725
0.20115,0.00475,0.02895,0.7566
0.20005,0.00525,0.02915,0.75675
0.20005,0.00465,0.0294,0.75715
0.1988,0.0052,0.0297,0.758
0.1984,0.00525,0.031,0.75735
0.1998,0.0038,0.0304,0.7569
0.19995,0.00485,0.0296,0.75715
0.19935,0.0046,0.02945,0.7579
0.19915,0.00475,0.02825,0.7586
0.1998,0.0044,0.0294,0.7575
0.2001,0.0046,0.0294,0.75735
0.2,0.00435,0.0297,0.75745
0.1991,0.0048,0.03025,0.7584
0.20015,0.0049,0.029,0.75765
0.20085,0.00455,0.029,0.75715
0.20035,0.0048,0.02865,0.7577
0.20155,0.00415,0.02825,0.7578
0.20145,0.00505,0.0278,0.75715
0.20165,0.00395,0.02815,0.7576
0.20215,0.00455,0.0286,0.7569
0.20175,0.005,0.02875,0.7565
0.20195,0.0048,0.0288,0.75575
0.20165,0.00485,0.02825,0.75615
0.20145,0.00515,0.02905,0.75525
0.20165,0.00445,0.02945,0.7555
0.2008,0.00475,0.02935,0.75635
0.202,0.00385,0.02805,0.7566
0.20235,0.0046,0.0283,0.7561
0.20245,0.00435,0.0277,0.75645
0.2043,0.00395,0.02595,0.7559
0.20385,0.00475,0.0272,0.7551
0.20455,0.00485,0.0283,0.75365
0.20485,0.00435,0.02735,0.75485
0.205,0.00415,0.0277,0.75495
0.2049,0.0038,0.0279,0.75555
0.20475,0.005,0.02815,0.7555
0.20565,0.0047,0.0274,0.7547
0.20575,0.00405,0.02765,0.7548
0.20725,0.00425,0.02725,0.7532
0.2072,0.0046,0.0261,0.7533
0.20745,0.0041,0.02815,0.75245
0.208,0.0045,0.0273,0.7525
0.2095,0.00415,0.02715,0.75165
0.21045,0.0043,0.0273,0.7506
0.21015,0.0053,0.02735,0.7502
0.2113,0.00415,0.02685,0.75
0.21085,0.00515,0.0271,0.74925
0.21065,0.0047,0.0283,0.7489
0.2103,0.0053,0.02775,0.74905
0.2095,0.00445,0.0277,0.75005
0.2095,0.0049,0.02845,0.7491
0.2103,0.00415,0.02815,0.74885
0.21085,0.0047,0.02855,0.74805
0.20905,0.00555,0.02885,0.7493
0.21,0.0041,0.0285,0.7492
0.2109,0.00355,0.0274,0.75005
0.21085,0.0048,0.02685,0.74945
0.2107,0.0049,0.0272,0.74905
0.2108,0.0045,0.0265,0.7496
0.21175,0.00395,0.0263,0.7494
0.2119,0.0044,0.02645,0.74935
0.21205,0.00485,0.0271,0.7489
0.2131,0.00415,0.02665,0.7482
0.21355,0.0047,0.02705,0.7475
0.2138,0.00465,0.02755,0.74675
0.21395,0.0053,0.0272,0.7458
0.2142,0.0045,0.02675,0.74545
0.21485,0.00435,0.0272,0.74465
0.21545,0.0045,0.0268,0.7446
0.2149,0.0051,0.0279,0.74365
0.21555,0.00485,0.02725,0.7434
0.2161,0.00445,0.0268,0.74345
0.2169,0.00435,0.0274,0.74225
0.21715,0.0044,0.02775,0.7417
0.2168,0.0052,0.028,0.74105
0.217,0.0047,0.0283,0.7405
0.2172,0.0049,0.02885,0.7395
0.21625,0.0052,0.0291,0.7401
0.2151,0.00555,0.02945,0.7407
0.2148,0.00515,0.02955,0.74045
0.2142,0.0053,0.02995,0.74065
0.21455,0.0047,0.0304,0.74045
0.2134,0.00565,0.02965,0.74145
0.21295,0.00485,0.03145,0.7412
0.2121,0.0052,0.0323,0.7414
0.21035,0.00595,0.0327,0.74255
0.20965,0.0058,0.03315,0.74245
0.2076,0.0063,0.0345,0.74305
0.2066,0.0063,0.0339,0.7436
0.20645,0.0052,0.03435,0.7443
0.2038,0.00715,0.03465,0.74515
0.2025,0.0061,0.03545,0.7458
0.2021,0.00475,0.03645,0.74705
0.2021,0.00585,0.0356,0.7472
0.20205,0.0056,0.036,0.74675
0.2026,0.00555,0.03635,0.74625
0.2023,0.00435,0.0357,0.74825
0.2026,0.005,0.0351,0.7481
0.20105,0.00565,0.03415,0.75035
0.20085,0.0054,0.03285,0.75135
0.2005,0.0054,0.03275,0.7514
0.20045,0.00505,0.03385,0.7512
0.1991,0.0062,0.03335,0.752
0.19905,0.0053,0.03375,0.7517
0.19975,0.0043,0.03455,0.7517
0.20005,0.005,0.035,0.7509
0.20115,0.00475,0.0345,0.7507
0.20065,0.00625,0.03485,0.7496
0.2011,0.0053,0.0358,0.74905
0.20045,0.00565,0.03435,0.75005
0.20035,0.0048,0.03525,0.75055
0.19925,0.00545,0.0337,0.7522
0.1988,0.0055,0.03335,0.75265
0.19915,0.0051,0.03455,0.75225
0.1984,0.00545,0.03395,0.75275
0.19905,0.0051,0.0334,0.75275
0.19865,0.0054,0.0325,0.75375
0.19975,0.00475,0.0318,0.75335
0.2011,0.00465,0.03135,0.753
0.2005,0.0058,0.0319,0.7526
0.20215,0.0046,0.03245,0.7514
0.20195,0.00555,0.0328,0.7511
0.2011,0.00555,0.03315,0.75105
0.20095,0.0049,0.0333,0.75145
0.202,0.0046,0.03175,0.75125
0.20175,0.0057,0.03305,0.7505
0.20115,0.0053,0.0339,0.7505
0.20085,0.00515,0.03355,0.75105
0.1997,0.00535,0.0338,0.7518
0.20025,0.0045,0.03395,0.75255
0.2004,0.0054,0.03275,0.7531
0.2011,0.0045,0.03245,0.75325
0.2019,0.00485,0.0318,0.753
0.2028,0.00465,0.03215,0.75225
0.2021,0.00505,0.0314,0.75375
0.2032,0.0048,0.03175,0.7525
0.20355,0.00455,0.03095,0.7535
0.204,0.00495,0.0305,0.75345
0.20285,0.00525,0.0305,0.75395
0.2025,0.0056,0.0305,0.75315
0.2016,0.00545,0.0312,0.75365
0.20105,0.0056,0.0315,0.7532
0.2009,0.00485,0.0323,0.75225
0.2015,0.00495,0.03225,0.7517
0.20125,0.0051,0.03205,0.752
0.2007,0.00555,0.03275,0.752
0.19985,0.006,0.0326,0.75235
0.2005,0.00445,0.0325,0.75265
0.2014,0.0049,0.0319,0.7519
0.203,0.00455,0.03235,0.75085
0.2036,0.00455,0.0328,0.74995
0.2033,0.00505,0.03275,0.75035
0.20435,0.00445,0.0322,0.75035
0.20425,0.00585,0.03135,0.75005
0.20435,0.0047,0.03115,0.75045
0.20405,0.00545,0.0318,0.7501
0.20435,0.0047,0.03015,0.75125
0.2043,0.0054,0.031,0.75025
0.20385,0.00495,0.03115,0.75125
0.2037,0.00565,0.03155,0.75045
