moyS, moyE, moyI, moyR
0.999,0.0,0.001,0.0
0.9985,5.0E-4,8.0E-4,2.0E-4
0.9975,0.001,0.00115,3.0E-4
0.9967,8.0E-4,0.00135,6.0E-4
0.99535,0.00135,0.00185,8.5E-4
0.9933,0.00205,0.00275,0.001
0.99095,0.0024,0.0035,0.0014
0.9877,0.00325,0.0043,0.0022
0.9828,0.0049,0.006,0.0028
0.97645,0.00635,0.0081,0.0038
0.96685,0.0096,0.0112,0.00535
0.9549,0.012,0.01545,0.0076
0.9411,0.0138,0.0204,0.01065
0.9195,0.02165,0.02785,0.0141
0.8916,0.02795,0.03795,0.01855
0.8583,0.03335,0.0492,0.02625
0.81305,0.0454,0.06685,0.0345
0.75915,0.05405,0.0879,0.04605
0.6928,0.0665,0.1124,0.0622
0.6186,0.0743,0.14315,0.08115
0.53545,0.08355,0.17855,0.1059
0.4543,0.0813,0.21485,0.13615
0.37415,0.0806,0.24975,0.17295
0.29995,0.07465,0.2839,0.2123
0.23245,0.0684,0.31005,0.2567
0.1785,0.0549,0.33355,0.30435
0.13945,0.04025,0.34555,0.35705
0.10805,0.03245,0.3467,0.40785
0.08435,0.0251,0.3421,0.45655
0.06675,0.01905,0.32885,0.5057
0.0542,0.0149,0.3143,0.5521
0.04445,0.0119,0.2958,0.596
0.0369,0.0095,0.27555,0.63545
0.03225,0.0078,0.25335,0.67205
0.0286,0.0059,0.2317,0.7056
0.0267,0.0043,0.2086,0.7365
0.02535,0.00385,0.1893,0.76505
0.02425,0.00345,0.1696,0.7885
0.0246,0.00275,0.1522,0.80885
0.0245,0.0028,0.13445,0.82875
0.02485,0.0029,0.1198,0.84435
0.02585,0.0024,0.10675,0.858
0.02825,0.0011,0.09535,0.86925
0.02975,0.00195,0.08415,0.8792
0.03175,0.00175,0.0754,0.88725
0.03395,0.00165,0.0658,0.89485
0.0372,0.00145,0.05885,0.8996
0.039,0.00165,0.0517,0.90495
0.04,0.0016,0.04625,0.9095
0.0416,0.00175,0.0417,0.91255
0.0446,9.5E-4,0.0377,0.9146
0.04685,0.00105,0.0331,0.91715
0.0498,9.5E-4,0.02985,0.91755
0.05175,0.001,0.02685,0.9185
0.05435,0.001,0.02335,0.9195
0.05615,8.0E-4,0.02155,0.9199
0.05835,8.5E-4,0.01895,0.92045
0.06,0.00125,0.017,0.9204
0.0625,0.00105,0.01555,0.9192
0.06545,7.5E-4,0.01445,0.9176
0.06825,6.5E-4,0.0136,0.91585
0.0713,6.0E-4,0.01255,0.91425
0.07375,6.5E-4,0.01145,0.91295
0.0765,7.0E-4,0.0103,0.91125
0.07865,7.0E-4,0.0097,0.90965
0.08075,6.0E-4,0.0084,0.90905
0.0835,5.0E-4,0.0078,0.9071
0.08585,6.5E-4,0.0068,0.9055
0.0892,3.5E-4,0.0062,0.90285
0.09245,4.5E-4,0.00585,0.9002
0.09535,1.5E-4,0.00505,0.8983
0.09865,1.5E-4,0.00495,0.89545
0.1006,4.5E-4,0.0046,0.8937
0.1031,1.5E-4,0.0041,0.89205
0.1058,3.0E-4,0.0037,0.88975
0.1083,4.0E-4,0.0034,0.8874
0.11095,3.0E-4,0.00345,0.8849
0.11375,1.5E-4,0.003,0.8825
0.11665,2.5E-4,0.00255,0.8801
0.1193,2.5E-4,0.00205,0.87775
0.12185,2.5E-4,0.0021,0.8752
0.1245,1.5E-4,0.0021,0.87285
0.12695,4.0E-4,0.00215,0.87025
0.1293,3.5E-4,0.002,0.868
0.132,5.0E-5,0.0018,0.86575
0.13505,3.5E-4,0.00155,0.8628
0.13785,1.0E-4,0.00165,0.85995
0.14045,2.0E-4,0.00155,0.8573
0.14325,1.0E-4,0.0016,0.85455
0.14555,2.5E-4,0.00145,0.85225
0.14835,1.5E-4,0.0016,0.84945
0.1513,4.5E-4,0.0017,0.8462
0.1535,2.5E-4,0.00185,0.84405
0.15555,4.0E-4,0.0019,0.8418
0.15825,1.5E-4,0.0019,0.83935
0.1605,3.5E-4,0.0017,0.83715
0.1628,4.0E-4,0.0019,0.8346
0.16515,2.5E-4,0.00165,0.8324
0.1682,5.0E-5,0.00165,0.82955
0.1703,3.5E-4,0.00145,0.82755
0.1724,1.5E-4,0.0016,0.82535
0.17445,1.0E-4,0.00155,0.8234
0.17635,2.0E-4,0.00145,0.82165
0.1786,3.5E-4,0.0015,0.8192
0.18135,5.0E-5,0.00155,0.81665
0.1838,2.5E-4,0.00155,0.8141
0.18625,1.0E-4,0.00155,0.8118
0.18815,3.0E-4,0.0014,0.80985
0.1903,3.5E-4,0.0016,0.8075
0.19225,2.5E-4,0.0014,0.80565
0.19405,3.0E-4,0.00135,0.8039
0.1968,2.5E-4,0.0013,0.8011
0.19865,2.0E-4,0.00135,0.79925
0.2004,1.0E-4,0.00125,0.7977
0.20285,3.0E-4,0.00125,0.79515
0.20485,1.5E-4,0.0014,0.7932
0.20615,5.0E-4,0.00145,0.7916
0.20755,4.0E-4,0.00135,0.79015
0.2092,3.5E-4,0.00145,0.7884
0.2107,4.0E-4,0.00175,0.7866
0.2137,3.0E-4,0.00175,0.7836
0.2157,2.0E-4,0.002,0.7817
0.2174,3.5E-4,0.0018,0.7801
0.21915,6.0E-4,0.00175,0.77805
0.2204,2.5E-4,0.00185,0.7769
0.22275,2.5E-4,0.00185,0.77475
0.22475,3.5E-4,0.00195,0.77265
0.22715,1.0E-4,0.00205,0.7703
0.229,4.0E-4,0.0018,0.76845
0.23075,2.5E-4,0.00185,0.76665
0.23225,5.0E-4,0.002,0.76495
0.23445,1.5E-4,0.0017,0.7631
0.2371,3.5E-4,0.00155,0.76045
0.23925,4.0E-4,0.0015,0.7582
0.24105,3.0E-4,0.0015,0.7564
0.24315,3.0E-4,0.00165,0.7541
0.24465,4.0E-4,0.0017,0.7525
0.2471,3.5E-4,0.0018,0.7499
0.2493,2.5E-4,0.0019,0.74795
0.25165,3.0E-4,0.00175,0.7456
0.25285,2.5E-4,0.00195,0.74435
0.2539,2.0E-4,0.0021,0.7433
0.25565,5.5E-4,0.00205,0.7412
0.2577,4.0E-4,0.0021,0.73895
0.2587,5.0E-4,0.0018,0.7379
0.26035,4.0E-4,0.00215,0.7362
0.26185,4.5E-4,0.002,0.7347
0.2635,4.0E-4,0.00225,0.733
0.26505,3.0E-4,0.00215,0.73165
0.2667,7.0E-4,0.00255,0.7296
0.26865,2.5E-4,0.00245,0.7279
0.27,2.5E-4,0.0025,0.72655
0.27115,6.5E-4,0.00255,0.72515
0.27245,7.0E-4,0.0025,0.7234
0.27405,8.0E-4,0.00265,0.72135
0.2758,7.0E-4,0.00305,0.71935
0.27705,7.5E-4,0.00325,0.71795
0.2789,5.5E-4,0.0033,0.7163
0.2802,0.001,0.00325,0.7145
0.28295,7.0E-4,0.00355,0.71135
0.2846,0.00105,0.0037,0.70935
0.2857,0.001,0.0037,0.7081
0.2875,6.0E-4,0.00405,0.7061
0.2885,0.0012,0.00425,0.7045
0.2899,9.0E-4,0.00435,0.70305
0.29145,0.001,0.0044,0.70105
0.2925,0.00115,0.00465,0.69965
0.2926,0.0019,0.005,0.6985
0.29285,0.0018,0.00595,0.6971
0.29285,0.00185,0.00585,0.69665
0.29395,0.00115,0.00635,0.6955
0.29475,0.0013,0.00685,0.6943
0.2951,0.0017,0.00655,0.69375
0.2962,8.5E-4,0.0073,0.69245
0.2964,0.00175,0.00755,0.69155
0.2967,0.0017,0.0079,0.691
0.29685,0.0021,0.008,0.6902
0.29745,0.00165,0.00775,0.6898
0.29685,0.0021,0.0078,0.68975
0.29705,0.0019,0.0088,0.6888
0.29735,0.0019,0.00935,0.6879
0.29735,0.00245,0.0099,0.68675
0.29655,0.0026,0.0111,0.6863
0.29615,0.00265,0.01165,0.68585
0.29505,0.00345,0.01185,0.68555
0.2945,0.0029,0.01335,0.685
0.29345,0.00315,0.01345,0.6854
0.29335,0.003,0.0143,0.6843
0.29085,0.00455,0.01515,0.68485
0.2894,0.0036,0.0166,0.68525
0.2888,0.0033,0.0162,0.68595
0.2868,0.0042,0.017,0.68645
0.28465,0.0044,0.01845,0.6868
0.28225,0.00475,0.01895,0.6874
0.27895,0.00525,0.02065,0.6884
0.2763,0.005,0.02205,0.6895
0.2732,0.00555,0.02305,0.69005
0.2698,0.00515,0.02375,0.6927
0.26735,0.0051,0.02515,0.6936
0.26345,0.0059,0.02725,0.69515
0.26125,0.0047,0.0273,0.69755
0.2575,0.006,0.02845,0.6988
0.25475,0.0056,0.02875,0.70075
0.2515,0.0059,0.0296,0.70235
0.24785,0.00595,0.0306,0.70485
0.2446,0.00625,0.0331,0.7062
0.2406,0.007,0.03425,0.7085
0.23615,0.0071,0.0345,0.71145
0.2328,0.00625,0.0359,0.7141
0.22815,0.0074,0.03735,0.7167
0.2248,0.00605,0.0385,0.7196
0.22095,0.00665,0.038,0.7229
0.21695,0.0072,0.0384,0.72655
0.21375,0.0062,0.03945,0.729
0.21025,0.00625,0.03995,0.73275
0.20645,0.0063,0.04055,0.7364
0.20325,0.00595,0.04065,0.73945
0.2008,0.00545,0.0394,0.7435
0.1985,0.0053,0.03915,0.74675
0.19555,0.0067,0.03955,0.7488
0.1943,0.00515,0.0385,0.75095
0.19215,0.00545,0.039,0.75315
0.1894,0.00565,0.03745,0.75705
0.1866,0.006,0.03755,0.7598
0.1845,0.00515,0.03745,0.7627
0.18385,0.00445,0.03605,0.76525
0.1829,0.00475,0.0348,0.76775
0.18075,0.00555,0.03385,0.7705
0.18015,0.0047,0.03335,0.77195
0.1799,0.0041,0.0332,0.7731
0.17925,0.00435,0.03235,0.7748
0.17825,0.00455,0.03235,0.77615
0.1762,0.0053,0.03165,0.7781
0.1749,0.00465,0.0324,0.77945
0.17405,0.0045,0.03315,0.7806
0.1734,0.0043,0.03145,0.7826
0.1729,0.0041,0.0307,0.7839
0.1731,0.0037,0.02975,0.78485
0.1721,0.0047,0.0294,0.78575
0.17185,0.00405,0.0302,0.7862
0.17125,0.0051,0.02965,0.7865
0.1717,0.00355,0.0285,0.7884
0.1717,0.0039,0.0276,0.78945
0.17125,0.00405,0.0272,0.79005
0.1714,0.0038,0.0268,0.7906
0.17165,0.00365,0.0261,0.7912
0.17215,0.00315,0.0258,0.79115
0.1732,0.00295,0.0249,0.7915
0.17325,0.0029,0.0241,0.7926
0.17475,0.0029,0.024,0.792
0.1763,0.0029,0.02375,0.7911
0.17695,0.0035,0.024,0.79055
0.1775,0.00345,0.02335,0.7902
0.1786,0.0027,0.02275,0.79005
0.1798,0.00325,0.0226,0.78835
0.1805,0.0042,0.02225,0.78725
0.18035,0.00375,0.02345,0.7866
0.181,0.003,0.02325,0.7866
0.18235,0.0029,0.0221,0.7861
0.1832,0.00355,0.0206,0.78605
0.18405,0.00315,0.02105,0.7848
0.18435,0.0041,0.0218,0.78355
0.18655,0.00295,0.02145,0.7829
0.1867,0.00305,0.0213,0.78305
0.18735,0.00285,0.02125,0.78265
0.18845,0.00305,0.0203,0.7823
0.18885,0.0031,0.02085,0.7815
0.18995,0.0026,0.02015,0.7814
0.1916,0.0027,0.02005,0.78005
0.19335,0.0026,0.02025,0.7784
0.19485,0.0027,0.01975,0.77735
0.19525,0.0034,0.0191,0.77655
0.1971,0.00245,0.0194,0.7754
0.1974,0.00315,0.0201,0.7746
0.19825,0.00345,0.0195,0.77355
0.1989,0.00305,0.0203,0.7726
0.1995,0.0029,0.02095,0.772
0.1995,0.0039,0.0208,0.77125
0.201,0.00345,0.0209,0.7695
0.2018,0.0034,0.0205,0.7686
0.203,0.00245,0.02125,0.76775
0.2051,0.00295,0.02005,0.76645
0.2063,0.00365,0.02035,0.76465
0.20715,0.003,0.02015,0.764
0.207,0.00365,0.0206,0.7638
0.20775,0.0037,0.0213,0.7625
0.2091,0.003,0.02075,0.7618
0.2096,0.00375,0.0201,0.76125
0.21045,0.0035,0.02015,0.76005
0.2107,0.00365,0.02065,0.7593
0.21115,0.00375,0.02055,0.7582
0.21245,0.0029,0.02055,0.7582
0.2137,0.00345,0.0205,0.75675
0.2137,0.0044,0.0204,0.7556
0.2148,0.0035,0.02055,0.75485
0.21555,0.0042,0.02105,0.7535
0.2166,0.00395,0.0218,0.75135
0.2169,0.0038,0.0223,0.75085
0.21775,0.00385,0.0221,0.7498
0.2175,0.00415,0.02225,0.74945
0.21765,0.0042,0.02305,0.7487
0.2177,0.0039,0.0234,0.74845
0.21695,0.00475,0.02355,0.748
0.21665,0.00495,0.02425,0.74695
0.21685,0.00415,0.0256,0.7459
0.2169,0.0043,0.0249,0.74615
0.2165,0.0051,0.02515,0.74545
0.21825,0.0039,0.02645,0.7435
0.2171,0.0048,0.02675,0.74375
0.2157,0.0052,0.0268,0.74435
0.21505,0.0052,0.0277,0.74335
0.21465,0.005,0.0285,0.7434
0.2135,0.00505,0.028,0.74445
0.2139,0.00455,0.02885,0.74335
0.21335,0.0045,0.02995,0.7439
0.2121,0.00535,0.03065,0.744
0.2115,0.0056,0.0313,0.7436
0.21085,0.0059,0.0308,0.74375
0.20915,0.00535,0.03115,0.74515
0.2082,0.00545,0.0316,0.7457
0.2067,0.0059,0.0331,0.7453
0.20615,0.00545,0.0328,0.74585
0.20545,0.005,0.03345,0.74635
0.20635,0.00475,0.03275,0.74585
0.20565,0.0056,0.03425,0.7448
0.2058,0.00475,0.03405,0.7455
0.20585,0.0052,0.0337,0.74575
0.2046,0.00525,0.03395,0.7472
0.20385,0.00495,0.03405,0.7481
0.20355,0.00545,0.034,0.7485
0.2025,0.00515,0.0331,0.75015
0.2015,0.0052,0.0333,0.75085
0.2001,0.0052,0.03445,0.7519
0.19865,0.00615,0.03455,0.7519
0.1971,0.0063,0.03515,0.7519
0.1977,0.0049,0.0359,0.75175
0.1971,0.00565,0.03535,0.7524
0.19615,0.0053,0.0357,0.75335
0.19505,0.0052,0.03515,0.7548
0.1935,0.00545,0.0353,0.75575
0.1917,0.00605,0.03475,0.7574
0.1901,0.0063,0.0348,0.7583
0.18915,0.0058,0.03545,0.7593
0.18935,0.00445,0.0353,0.76095
0.1898,0.0049,0.0345,0.761
0.1887,0.00615,0.03455,0.76095
0.1891,0.0044,0.03555,0.7611
0.18805,0.0052,0.0357,0.762
0.18885,0.00465,0.03465,0.7627
0.1891,0.00475,0.0343,0.7633
0.189,0.0052,0.03355,0.76385
0.1883,0.00535,0.03355,0.76425
0.18725,0.0053,0.0329,0.76565
0.18685,0.00535,0.0338,0.76525
0.18695,0.00515,0.03375,0.7654
0.1853,0.00575,0.03325,0.7665
0.18485,0.0052,0.0336,0.76725
0.18515,0.00485,0.03275,0.76815
0.18495,0.00525,0.03285,0.76785
0.1848,0.0046,0.03285,0.76845
0.18525,0.0049,0.03285,0.76795
0.18515,0.005,0.0323,0.76815
0.1856,0.00415,0.0325,0.76855
0.185,0.0051,0.0319,0.7701
0.18395,0.0055,0.03185,0.77085
0.1848,0.00435,0.0323,0.77055
0.18345,0.0058,0.0331,0.7707
0.1857,0.00405,0.03325,0.7694
0.1849,0.00595,0.0323,0.7694
0.1855,0.00475,0.0316,0.76995
0.18585,0.00495,0.0312,0.7697
0.1871,0.0043,0.0306,0.76915
0.18825,0.0044,0.0311,0.7684
0.1883,0.00465,0.0306,0.76805
0.1885,0.00435,0.03065,0.7683
0.18925,0.0048,0.03055,0.76735
0.18935,0.0044,0.0308,0.7673
0.1887,0.0053,0.03085,0.76715
0.1898,0.00465,0.03005,0.76645
0.1904,0.00425,0.0311,0.7658
0.19105,0.004,0.0303,0.766
0.1918,0.00505,0.02965,0.76505
0.1918,0.0046,0.03035,0.76495
0.1912,0.00555,0.0297,0.76515
0.1904,0.005,0.0304,0.7652
0.1912,0.0038,0.0292,0.7661
0.19175,0.0043,0.03,0.76515
0.19115,0.00545,0.0299,0.7655
0.192,0.00435,0.03005,0.76505
0.1918,0.00415,0.02955,0.76575
0.19165,0.0047,0.02985,0.76565
0.19165,0.0047,0.02955,0.766
0.1915,0.00405,0.02945,0.7664
0.1917,0.0043,0.0293,0.7667
0.1925,0.0043,0.03,0.7658
0.19325,0.0041,0.0296,0.7658
0.1928,0.0049,0.02905,0.7654
0.1935,0.00445,0.0286,0.76485
0.19405,0.00505,0.0293,0.7634
0.1944,0.0049,0.02875,0.76305
0.1955,0.004,0.02935,0.7621
0.19475,0.0052,0.0302,0.7618
0.1952,0.00445,0.0287,0.76215
0.1953,0.00475,0.03005,0.76095
0.19555,0.0047,0.03075,0.76075
0.19495,0.005,0.0298,0.76165
0.1969,0.00375,0.029,0.761
0.19665,0.0044,0.02795,0.7626
0.1982,0.0044,0.029,0.76075
0.19865,0.00425,0.0283,0.7611
0.20015,0.0036,0.02725,0.7612
0.20155,0.00415,0.02715,0.75995
0.20115,0.00535,0.02705,0.75955
0.2027,0.00395,0.0265,0.7592
0.2037,0.0045,0.0264,0.7581
0.20425,0.00385,0.0259,0.75845
0.2049,0.0041,0.02535,0.75835
0.20555,0.0039,0.0259,0.7579
0.20575,0.0043,0.0254,0.75775
0.2059,0.0038,0.02605,0.7578
0.20575,0.0043,0.02655,0.75745
0.20595,0.00395,0.02605,0.75765
0.20635,0.0039,0.02595,0.75755
0.2067,0.00465,0.02645,0.75655
0.2072,0.004,0.0265,0.75595
0.20695,0.00495,0.0243,0.75585
0.2083,0.00395,0.0249,0.75435
0.2081,0.00405,0.02475,0.75515
0.20855,0.00425,0.0258,0.75375
0.20985,0.0036,0.0261,0.7532
0.21085,0.0037,0.0262,0.7524
0.21075,0.0051,0.0267,0.7512
0.2106,0.0042,0.02635,0.75155
0.2113,0.0039,0.02685,0.75085
0.2099,0.00465,0.0268,0.7514
0.21015,0.0044,0.02585,0.752
0.21025,0.00455,0.0265,0.75145
0.21075,0.0043,0.02745,0.75025
0.21085,0.00445,0.0272,0.75045
0.21035,0.0053,0.0277,0.7495
0.2108,0.0049,0.0284,0.749
0.2119,0.00425,0.02785,0.7482
0.21225,0.00415,0.02745,0.7483
0.21135,0.00555,0.0282,0.748
0.21165,0.0041,0.0281,0.7483
0.21225,0.00385,0.02785,0.7481
0.2117,0.00465,0.02815,0.748
0.21195,0.0046,0.02805,0.7477
0.21225,0.0038,0.02745,0.7481
0.21265,0.00455,0.02775,0.74725
0.2128,0.00435,0.02835,0.7475
0.2125,0.0054,0.028,0.7474
0.21265,0.00495,0.02775,0.7471
0.2125,0.00445,0.0275,0.74735
0.2125,0.0046,0.0276,0.74745
0.2123,0.0047,0.0279,0.74715
0.21215,0.00435,0.02835,0.7474
0.2116,0.00435,0.0282,0.74815
0.2102,0.0052,0.02835,0.7482
0.2095,0.0047,0.0286,0.74875
0.2092,0.00495,0.0286,0.7489
0.2092,0.0044,0.0289,0.74935
0.2087,0.0049,0.0288,0.7493
0.2086,0.00445,0.02915,0.74975
0.20925,0.0043,0.0287,0.74995
0.20895,0.0046,0.02835,0.7507
0.2083,0.00475,0.0284,0.7509
0.208,0.0048,0.02875,0.7503
0.20705,0.005,0.02865,0.751
0.20675,0.00465,0.02955,0.75055
0.2063,0.0045,0.02985,0.75095
0.2047,0.0052,0.02995,0.7521
0.2045,0.00475,0.0303,0.75275
0.2054,0.00445,0.0298,0.7521
0.204,0.0055,0.0292,0.75255
0.2014,0.0063,0.0302,0.75345
0.20185,0.00465,0.0308,0.75335
0.2015,0.0054,0.0308,0.75335
0.20085,0.00485,0.0321,0.75335
0.2,0.005,0.0319,0.75485
0.1991,0.00475,0.0318,0.7562
0.19895,0.0053,0.0315,0.75615
0.1988,0.0047,0.03205,0.75655
0.19985,0.0038,0.0322,0.7561
0.2002,0.0053,0.03115,0.75575
0.199,0.0058,0.0318,0.7557
0.19965,0.00385,0.03145,0.75635
0.1998,0.0053,0.031,0.7554
0.19975,0.00485,0.0317,0.7557
0.2001,0.00475,0.0305,0.75645
0.2003,0.00445,0.03015,0.7569
0.20035,0.00515,0.02995,0.75635
0.20075,0.00425,0.02985,0.75645
0.20125,0.00485,0.0301,0.75535
0.20055,0.00445,0.0298,0.7565
0.1999,0.00475,0.03015,0.7571
0.19985,0.00455,0.0291,0.75785
0.2006,0.0043,0.0286,0.75815
0.20155,0.00435,0.02865,0.75695
0.2008,0.00535,0.0296,0.75655
0.20005,0.0051,0.02985,0.7572
0.1998,0.00495,0.0314,0.7563
0.2022,0.0036,0.0308,0.75485
0.203,0.00465,0.03035,0.75365
0.2017,0.00535,0.03015,0.75445
0.20045,0.00535,0.03035,0.7546
0.20035,0.00455,0.0312,0.75485
0.1996,0.0049,0.0309,0.7557
0.19805,0.0053,0.03105,0.7572
0.1977,0.0055,0.031,0.75715
0.19765,0.0046,0.03125,0.7574
0.19805,0.0045,0.0313,0.757
0.1982,0.00455,0.03115,0.7573
0.19715,0.0056,0.0314,0.75725
0.19715,0.00445,0.0313,0.75855
0.19625,0.00485,0.03035,0.75975
0.19745,0.00425,0.02965,0.75975
0.1983,0.00395,0.02975,0.75935
0.19815,0.0045,0.02895,0.76025
0.19885,0.00455,0.0289,0.75925
0.1986,0.0057,0.02975,0.7576
0.1985,0.0047,0.03075,0.75775
0.19765,0.00565,0.0311,0.75755
0.1983,0.0048,0.0303,0.75745
0.1984,0.00465,0.02965,0.7577
0.19875,0.0054,0.0305,0.75595
0.19935,0.0048,0.03045,0.75565
0.19975,0.00405,0.02945,0.7566
0.19965,0.0046,0.02955,0.75735
0.2006,0.0051,0.02975,0.7556
0.20035,0.0048,0.0296,0.75625
0.2003,0.0044,0.02975,0.75625
0.20065,0.00455,0.0296,0.75605
0.20055,0.00495,0.03075,0.75555
0.1997,0.0052,0.0317,0.75575
0.19975,0.00515,0.0314,0.7558
0.1989,0.00585,0.0296,0.75675
0.19865,0.00425,0.03025,0.75725
0.19885,0.00515,0.03085,0.7566
0.1984,0.00485,0.03085,0.75765
0.1985,0.0047,0.03075,0.75745
0.19785,0.0059,0.031,0.75665
0.19855,0.00505,0.033,0.755
0.1973,0.00515,0.03265,0.75685
0.19635,0.00545,0.03225,0.75785
0.19685,0.0049,0.0316,0.75765
0.19735,0.00485,0.03115,0.75755
0.1996,0.0036,0.0316,0.75605
0.2006,0.0039,0.0306,0.75605
0.20045,0.0055,0.02925,0.75565
0.1997,0.00525,0.03115,0.75495
0.199,0.0055,0.0316,0.7549
0.19805,0.00555,0.0325,0.7552
0.1984,0.00435,0.03175,0.7565
0.19745,0.0053,0.03245,0.7568
0.1965,0.00555,0.03255,0.75705
0.1975,0.00495,0.03275,0.7562
0.19815,0.00495,0.0319,0.75595
0.19815,0.00445,0.0314,0.75675
0.19895,0.00425,0.03085,0.75675
0.1987,0.0051,0.03165,0.75625
0.19895,0.00505,0.03195,0.75575
0.19955,0.00465,0.03205,0.75535
0.199,0.0051,0.03225,0.7555
0.1979,0.0054,0.03205,0.7566
0.1972,0.0056,0.0318,0.75685
0.19725,0.00495,0.03215,0.75665
0.19755,0.0049,0.0327,0.7567
0.19665,0.0056,0.0326,0.757
0.1964,0.00515,0.03215,0.75735
0.1964,0.0052,0.0318,0.7572
0.196,0.0053,0.03295,0.7564
0.19585,0.0048,0.03345,0.7566
0.19495,0.0048,0.03315,0.7583
0.19495,0.0051,0.0319,0.7587
0.1948,0.00495,0.03265,0.7589
0.1959,0.00475,0.03235,0.7578
0.19625,0.0051,0.03175,0.7574
0.1979,0.00435,0.0329,0.7561
0.199,0.0041,0.03265,0.7556
0.2,0.0044,0.03195,0.75585
0.2002,0.0048,0.03095,0.75555
0.19975,0.00595,0.0317,0.75445
0.19905,0.00535,0.0324,0.755
0.1982,0.00535,0.0324,0.75575
0.1987,0.00505,0.03285,0.75555
0.1985,0.005,0.03275,0.75615
0.1985,0.00515,0.03225,0.75635
0.198,0.0051,0.03215,0.75715
0.1977,0.0052,0.0317,0.75755
0.19755,0.0051,0.0321,0.75725
0.1971,0.0046,0.03265,0.75755
0.19665,0.0048,0.0317,0.758
0.19525,0.006,0.0321,0.75815
0.19555,0.00565,0.0328,0.75735
0.195,0.0051,0.0337,0.7576
0.19505,0.0058,0.0336,0.757
0.1958,0.0051,0.03385,0.75665
0.19445,0.0056,0.0342,0.75755
0.1933,0.00545,0.03435,0.7583
0.193,0.00535,0.0346,0.75845
0.1931,0.0055,0.0351,0.7579
0.19145,0.00615,0.0351,0.75895
0.1926,0.0051,0.03465,0.75875
0.1927,0.00475,0.03385,0.75935
0.1921,0.00495,0.03295,0.7602
0.1927,0.00505,0.0332,0.7596
0.19315,0.00505,0.03215,0.76075
0.19285,0.00505,0.0324,0.76085
0.19415,0.0046,0.0317,0.76055
0.19485,0.0044,0.03065,0.76085
0.19365,0.0058,0.03135,0.7608
0.1941,0.0043,0.03195,0.76075
0.19405,0.0046,0.03235,0.7599
0.19455,0.00495,0.03275,0.75925
0.19565,0.00465,0.03205,0.75885
0.195,0.005,0.03185,0.7603
0.1951,0.005,0.03125,0.76065
0.1946,0.0053,0.03125,0.7607
0.1946,0.005,0.03185,0.76035
0.1942,0.00575,0.03175,0.75975
0.19455,0.0051,0.0316,0.75915
0.1938,0.00565,0.0327,0.75845
0.19355,0.00565,0.0325,0.75885
0.1948,0.00445,0.03295,0.75885
0.19475,0.00455,0.0324,0.76
0.1968,0.0039,0.03115,0.7594
0.19845,0.0042,0.03005,0.75885
0.19905,0.0041,0.0288,0.75955
0.19855,0.0056,0.02945,0.7586
0.19915,0.0046,0.02995,0.7579
0.19865,0.0053,0.0304,0.75745
0.1981,0.0047,0.03015,0.758
0.19915,0.00445,0.03025,0.75715
0.19905,0.0051,0.03005,0.75695
0.1994,0.0043,0.0305,0.75735
0.1989,0.0055,0.0301,0.7574
0.1983,0.00515,0.0298,0.75845
0.1993,0.0042,0.02995,0.75845
0.20095,0.00405,0.0288,0.7582
0.202,0.0048,0.02915,0.7563
0.2015,0.00465,0.02955,0.75695
0.2013,0.0055,0.02885,0.7566
0.2022,0.00475,0.03,0.755
0.20155,0.0056,0.0299,0.7547
0.202,0.0047,0.02975,0.7545
0.2015,0.00515,0.03035,0.7547
0.20165,0.00465,0.03115,0.75405
0.20105,0.00575,0.03195,0.7534
0.1998,0.0058,0.032,0.754
0.19845,0.00565,0.03335,0.75385
0.1988,0.005,0.0341,0.7536
0.19765,0.00605,0.033,0.7544
0.1966,0.0054,0.03385,0.7551
0.1971,0.00455,0.0335,0.7551
0.1962,0.00645,0.03345,0.75505
0.19475,0.00575,0.0344,0.7559
0.19455,0.0051,0.03515,0.7559
0.19355,0.0048,0.033,0.7589
0.194,0.00515,0.03355,0.7579
0.19365,0.00545,0.03345,0.7588
0.194,0.0046,0.03285,0.7593
0.19385,0.0047,0.0327,0.76
0.19345,0.00515,0.03235,0.761
0.19285,0.00495,0.0328,0.7614
0.19245,0.00495,0.03215,0.762
0.1926,0.00455,0.0331,0.76165
0.1928,0.00545,0.0331,0.7606
0.194,0.00485,0.0334,0.7594
0.1934,0.00505,0.03305,0.7608
0.193,0.0047,0.0319,0.7618
0.1924,0.00495,0.0318,0.76235
0.1929,0.0047,0.03135,0.76225
0.19345,0.00485,0.0311,0.76155
0.1931,0.0052,0.03135,0.7614
0.1929,0.00505,0.0313,0.7618
0.192,0.00555,0.032,0.76205
0.1927,0.0044,0.0318,0.762
0.1936,0.00455,0.03215,0.76045
0.193,0.00535,0.03265,0.75995
0.19315,0.00465,0.0326,0.7608
0.1934,0.0045,0.03215,0.7611
0.1933,0.005,0.03275,0.76085
0.1931,0.0049,0.03155,0.76165
0.19395,0.00535,0.03285,0.75955
0.1929,0.0058,0.0331,0.7601
0.19315,0.005,0.03345,0.7597
0.19395,0.00535,0.0329,0.75875
0.19375,0.0053,0.0336,0.75865
0.1924,0.00595,0.0333,0.75975
0.19165,0.00565,0.03275,0.76065
0.192,0.00485,0.033,0.76045
0.1921,0.00505,0.033,0.7604
0.1931,0.0045,0.03185,0.76095
0.1937,0.0043,0.03235,0.7602
0.19355,0.0043,0.03195,0.76075
0.19385,0.0044,0.03185,0.76085
0.1947,0.0053,0.03115,0.7601
0.19425,0.00545,0.03235,0.7597
0.1955,0.0042,0.03225,0.7591
0.196,0.00505,0.0314,0.7589
0.1961,0.00525,0.0318,0.7583
0.19555,0.0054,0.03195,0.7584
0.19595,0.0043,0.0319,0.7589
0.1953,0.00535,0.03195,0.75895
0.1955,0.00465,0.03235,0.75915
0.1952,0.00495,0.0317,0.75925
0.19495,0.00445,0.03135,0.75975
0.1957,0.00445,0.0317,0.7598
0.19595,0.005,0.0308,0.7601
0.19605,0.00565,0.03115,0.7581
0.1959,0.00505,0.03165,0.7578
0.1964,0.0043,0.0311,0.75855
0.19595,0.0056,0.03125,0.75845
0.1946,0.00585,0.03145,0.75895
0.19435,0.0048,0.03165,0.7593
0.1948,0.0047,0.0318,0.7586
0.1946,0.0052,0.0317,0.7589
0.19375,0.0054,0.0321,0.75885
0.19355,0.00475,0.03335,0.75865
0.1931,0.00575,0.0337,0.7583
0.19335,0.00525,0.0342,0.7578
0.1932,0.00465,0.0339,0.75895
0.1945,0.0037,0.03305,0.75985
0.19375,0.00475,0.03235,0.7608
0.1928,0.00525,0.0326,0.7613
0.19365,0.00375,0.03285,0.76155
0.1936,0.00515,0.03235,0.76205
0.19585,0.00405,0.03255,0.76105
0.19555,0.0058,0.03145,0.76075
0.19455,0.0054,0.0309,0.7616
