moyS, moyE, moyI, moyR
0.999,0.0,0.001,0.0
0.9985,5.0E-4,7.0E-4,3.0E-4
0.99775,7.5E-4,9.0E-4,4.0E-4
0.997,7.5E-4,0.001,6.0E-4
0.99585,0.00115,0.0013,9.0E-4
0.99455,0.0013,0.0018,0.00115
0.9927,0.00185,0.00255,0.00155
0.99005,0.00265,0.0034,0.00205
0.98615,0.00395,0.00485,0.00275
0.9813,0.00485,0.00625,0.0036
0.97465,0.00665,0.0086,0.0047
0.9661,0.00865,0.0123,0.0062
0.954,0.01215,0.0163,0.00875
0.9389,0.01515,0.0215,0.01215
0.91675,0.02215,0.02785,0.0161
0.89015,0.02665,0.0389,0.0211
0.8567,0.03355,0.05095,0.0279
0.81355,0.04325,0.06675,0.03715
0.7599,0.0537,0.08545,0.0493
0.6956,0.0644,0.11155,0.0651
0.624,0.0717,0.13925,0.0852
0.5436,0.0808,0.1716,0.10885
0.46155,0.08245,0.20845,0.1398
0.38345,0.07885,0.2437,0.1738
0.3107,0.07335,0.27175,0.2169
0.24735,0.06445,0.2967,0.2622
0.1955,0.05235,0.3171,0.309
0.1511,0.0462,0.32655,0.3587
0.1166,0.03585,0.33495,0.4067
0.09115,0.027,0.3277,0.4586
0.0716,0.02085,0.31515,0.509
0.05945,0.0142,0.3034,0.55145
0.0499,0.01175,0.2845,0.59465
0.04245,0.01,0.2649,0.6352
0.0359,0.0084,0.24295,0.67345
0.03155,0.00675,0.22055,0.7088
0.0297,0.00435,0.20075,0.73895
0.0279,0.0047,0.18365,0.7634
0.0278,0.0033,0.16335,0.78815
0.02715,0.00365,0.1483,0.8071
0.02745,0.0023,0.13435,0.8249
0.0276,0.00305,0.1203,0.8404
0.0286,0.0021,0.10735,0.85475
0.0291,0.0025,0.0946,0.86725
0.0302,0.0021,0.0848,0.87755
0.03105,0.00245,0.0752,0.8866
0.03295,0.00125,0.0672,0.89405
0.0344,0.00165,0.0593,0.9008
0.03615,0.00155,0.05265,0.90615
0.03755,0.0015,0.04675,0.9106
0.03915,0.0018,0.04205,0.91375
0.0413,0.00125,0.0369,0.9172
0.0442,9.0E-4,0.03365,0.91855
0.0473,0.0012,0.03025,0.9191
0.04985,0.001,0.02795,0.91935
0.05255,0.00105,0.02445,0.92
0.0549,0.00125,0.02195,0.9201
0.0574,9.0E-4,0.01985,0.9201
0.06035,7.0E-4,0.01805,0.9192
0.0627,8.5E-4,0.01535,0.9194
0.06505,5.5E-4,0.0139,0.91875
0.0676,0.001,0.013,0.9171
0.07015,5.0E-4,0.012,0.91595
0.07215,6.0E-4,0.01085,0.9152
0.075,6.0E-4,0.0096,0.9135
0.07695,6.5E-4,0.0088,0.91235
0.0806,2.5E-4,0.0083,0.90985
0.08285,6.0E-4,0.00725,0.90835
0.0867,3.5E-4,0.0066,0.90535
0.0892,4.0E-4,0.0062,0.9034
0.09145,5.5E-4,0.00565,0.90145
0.09445,3.5E-4,0.00515,0.8991
0.0976,3.5E-4,0.00475,0.8967
0.10025,3.0E-4,0.0041,0.8947
0.10295,4.5E-4,0.0038,0.8921
0.10515,4.0E-4,0.0035,0.89025
0.1076,3.0E-4,0.00315,0.88815
0.11035,3.0E-4,0.00315,0.8854
0.113,5.0E-5,0.00275,0.88325
0.1158,4.5E-4,0.00285,0.88015
0.11805,2.5E-4,0.00275,0.87805
0.1209,2.0E-4,0.00305,0.87525
0.12255,1.5E-4,0.003,0.8737
0.12495,2.5E-4,0.0028,0.87165
0.12685,3.0E-4,0.0026,0.86985
0.1285,2.0E-4,0.0025,0.8684
0.1307,4.0E-4,0.0023,0.86625
0.1332,2.0E-4,0.0023,0.86375
0.1357,1.5E-4,0.00225,0.8615
0.13745,2.5E-4,0.00205,0.85995
0.14025,2.0E-4,0.0021,0.85715
0.1428,2.5E-4,0.0022,0.8545
0.14525,5.0E-5,0.0022,0.8522
0.1477,3.0E-4,0.0019,0.8498
0.14975,1.0E-4,0.00185,0.84795
0.15185,2.0E-4,0.00175,0.84595
0.1547,3.0E-4,0.00155,0.84305
0.157,2.0E-4,0.0014,0.841
0.15915,1.5E-4,0.00135,0.839
0.1611,2.5E-4,0.00115,0.83715
0.1639,1.0E-4,0.0013,0.83435
0.1665,1.5E-4,0.0012,0.8318
0.1687,2.0E-4,0.00135,0.82955
0.17115,4.0E-4,0.0014,0.8269
0.17355,1.0E-4,0.00125,0.82475
0.1751,2.0E-4,0.00145,0.823
0.17735,1.5E-4,0.0014,0.82085
0.1795,5.0E-5,0.00125,0.819
0.18135,2.0E-4,0.001,0.81725
0.18295,2.5E-4,0.001,0.81555
0.1854,1.5E-4,0.00105,0.813
0.1877,0.0,0.0011,0.8108
0.1904,1.0E-4,9.5E-4,0.8082
0.19175,2.0E-4,0.00105,0.8067
0.194,1.5E-4,0.0012,0.8044
0.196,4.0E-4,0.0012,0.80215
0.19795,2.0E-4,0.00115,0.80015
0.2003,5.0E-5,0.0012,0.79795
0.20185,1.5E-4,0.00105,0.79655
0.20385,1.0E-4,0.00105,0.79475
0.2064,2.5E-4,0.001,0.7921
0.20815,1.0E-4,8.5E-4,0.79055
0.21025,3.0E-4,8.0E-4,0.7882
0.21275,1.5E-4,8.5E-4,0.78575
0.21475,2.5E-4,7.5E-4,0.78375
0.2166,2.0E-4,9.5E-4,0.7818
0.2184,1.5E-4,8.5E-4,0.7802
0.22045,2.5E-4,0.001,0.77805
0.22255,2.5E-4,9.5E-4,0.77595
0.2246,1.0E-4,0.00115,0.77385
0.227,0.0,9.0E-4,0.7718
0.22855,1.0E-4,8.5E-4,0.77025
0.23075,1.5E-4,0.0011,0.7679
0.23285,1.0E-4,0.0011,0.7658
0.23525,2.0E-4,0.001,0.76335
0.2375,3.5E-4,0.00105,0.7609
0.2398,1.0E-4,7.5E-4,0.75895
0.24195,1.0E-4,6.0E-4,0.757
0.24405,5.0E-5,6.0E-4,0.755
0.2457,1.0E-4,5.5E-4,0.7534
0.24785,1.0E-4,6.0E-4,0.7512
0.2496,2.0E-4,7.0E-4,0.74935
0.2514,3.5E-4,7.0E-4,0.74725
0.2532,0.0,8.5E-4,0.74555
0.2547,0.0,7.5E-4,0.7442
0.2559,2.0E-4,6.0E-4,0.74295
0.25855,2.0E-4,7.0E-4,0.74025
0.2609,2.0E-4,8.0E-4,0.7378
0.26355,2.0E-4,8.0E-4,0.7351
0.2653,2.5E-4,0.001,0.73315
0.2675,2.0E-4,0.0011,0.7309
0.26905,2.5E-4,0.001,0.72935
0.27125,2.5E-4,0.0011,0.727
0.27315,4.0E-4,0.00115,0.7248
0.275,1.5E-4,0.00135,0.72295
0.2761,5.5E-4,0.0015,0.72145
0.27735,7.5E-4,0.0019,0.7196
0.2785,5.5E-4,0.00185,0.71825
0.2798,4.5E-4,0.002,0.7169
0.2817,5.5E-4,0.0023,0.7147
0.28355,5.0E-4,0.00265,0.71265
0.2851,8.0E-4,0.0028,0.71065
0.28665,5.5E-4,0.0028,0.70915
0.28735,0.0011,0.0031,0.70765
0.2893,5.0E-4,0.00335,0.7056
0.29075,9.0E-4,0.00325,0.70385
0.2919,7.0E-4,0.0036,0.7025
0.29315,7.5E-4,0.00355,0.7013
0.2947,0.00105,0.0038,0.6993
0.29555,0.0012,0.00385,0.69805
0.2969,7.5E-4,0.0043,0.6966
0.29825,9.0E-4,0.0045,0.6949
0.29965,0.00105,0.00445,0.6931
0.2998,0.0016,0.00465,0.692
0.3007,0.00155,0.0051,0.6902
0.30075,0.00165,0.00605,0.6893
0.3008,0.002,0.0062,0.68865
0.30135,0.0014,0.00685,0.68765
0.3009,0.00255,0.0075,0.68645
0.30105,0.0019,0.00805,0.6854
0.30085,0.00215,0.00865,0.68465
0.3008,0.002,0.00875,0.68415
0.3006,0.003,0.0096,0.6825
0.30055,0.0021,0.0105,0.682
0.30025,0.0027,0.0106,0.68155
0.29955,0.0022,0.0117,0.6817
0.29825,0.0031,0.01125,0.6828
0.29875,0.0019,0.01175,0.68255
0.29885,0.002,0.01175,0.68275
0.29825,0.00305,0.01225,0.68195
0.2976,0.0032,0.0129,0.6819
0.29705,0.0028,0.0135,0.6818
0.29485,0.00335,0.01415,0.68265
0.2933,0.0038,0.01495,0.68275
0.29255,0.00325,0.01575,0.6829
0.2915,0.00315,0.016,0.68385
0.29025,0.0038,0.01605,0.6839
0.28865,0.00345,0.0167,0.68445
0.28685,0.00385,0.0174,0.68535
0.28525,0.0042,0.01785,0.6858
0.28355,0.00425,0.0189,0.68615
0.28145,0.00485,0.02015,0.68625
0.2784,0.0052,0.0209,0.6877
0.27675,0.0044,0.0225,0.68855
0.27565,0.0038,0.02265,0.68995
0.27265,0.00515,0.02315,0.6916
0.2694,0.0055,0.02535,0.69255
0.2662,0.00515,0.0254,0.6952
0.26295,0.00565,0.0255,0.69715
0.2608,0.00475,0.0274,0.6984
0.25785,0.0047,0.02825,0.7009
0.25455,0.0061,0.02865,0.70255
0.25135,0.0063,0.02935,0.70365
0.2481,0.0057,0.03035,0.7057
0.24395,0.00675,0.0314,0.7079
0.2404,0.0058,0.0317,0.71065
0.2355,0.0072,0.03315,0.71335
0.2321,0.00605,0.0347,0.71615
0.22855,0.00625,0.0347,0.7195
0.2258,0.00575,0.0349,0.72205
0.223,0.00575,0.034,0.72515
0.2195,0.0062,0.0338,0.7286
0.2165,0.0055,0.0351,0.7319
0.21355,0.0057,0.03595,0.7349
0.2121,0.00515,0.03575,0.73675
0.2096,0.00515,0.03495,0.74045
0.2076,0.0055,0.0348,0.7422
0.205,0.0059,0.0359,0.7436
0.20305,0.0052,0.03455,0.7469
0.2004,0.00575,0.034,0.7495
0.1989,0.0049,0.03415,0.75185
0.1965,0.0054,0.03395,0.75465
0.19465,0.00535,0.0344,0.75635
0.194,0.0045,0.03385,0.75855
0.19205,0.0053,0.03295,0.7609
0.19115,0.00455,0.03315,0.7629
0.18945,0.00485,0.03195,0.76545
0.1883,0.00425,0.03105,0.7677
0.18835,0.0041,0.03075,0.7687
0.18715,0.0048,0.03055,0.7698
0.1852,0.0051,0.0303,0.77145
0.18375,0.00515,0.0306,0.77295
0.1827,0.0052,0.03015,0.77405
0.1821,0.00365,0.0306,0.77545
0.18155,0.0037,0.0305,0.7764
0.1804,0.00455,0.0305,0.77755
0.18025,0.00405,0.03045,0.7784
0.17905,0.0048,0.0298,0.7798
0.1794,0.0036,0.02855,0.78095
0.1792,0.0037,0.02765,0.78235
0.1792,0.00395,0.02745,0.78245
0.1789,0.0038,0.02715,0.78305
0.17815,0.0042,0.0265,0.7843
0.17855,0.00405,0.02665,0.78405
0.1788,0.00405,0.02565,0.78485
0.17845,0.0041,0.02555,0.78535
0.17885,0.004,0.02615,0.7846
0.179,0.0034,0.02545,0.7853
0.17895,0.00345,0.0241,0.78635
0.1803,0.00345,0.02365,0.7861
0.1815,0.00315,0.0228,0.7864
0.18205,0.00325,0.02245,0.78605
0.1833,0.0031,0.02135,0.7858
0.1845,0.00275,0.02225,0.7845
0.18565,0.00295,0.02135,0.7841
0.18685,0.00325,0.0208,0.78335
0.1873,0.0027,0.0212,0.78305
0.18835,0.00305,0.0209,0.78215
0.1898,0.00275,0.0211,0.7809
0.19095,0.0023,0.02,0.78135
0.1921,0.0027,0.01985,0.7807
0.1932,0.0027,0.01945,0.7799
0.1946,0.0028,0.0194,0.7785
0.1954,0.0034,0.0192,0.7776
0.1965,0.0034,0.0188,0.7762
0.19805,0.00295,0.01885,0.77465
0.20005,0.00215,0.0192,0.77365
0.2016,0.0026,0.0179,0.7732
0.2035,0.0028,0.0177,0.77115
0.2046,0.00285,0.0175,0.76995
0.20575,0.00355,0.01765,0.76815
0.20765,0.0022,0.018,0.76675
0.2087,0.0028,0.01745,0.76585
0.2087,0.00355,0.017,0.7656
0.21015,0.00265,0.017,0.765
0.21095,0.0024,0.01745,0.76465
0.2116,0.00315,0.017,0.76355
0.2118,0.00345,0.01685,0.76305
0.21405,0.00205,0.01655,0.76165
0.2157,0.00325,0.01675,0.75935
0.21525,0.0037,0.0168,0.75885
0.21665,0.00275,0.01795,0.75705
0.2181,0.0027,0.0172,0.75645
0.21925,0.00305,0.01685,0.75575
0.22065,0.00285,0.01675,0.7541
0.2213,0.0037,0.01805,0.7521
0.22215,0.0028,0.0176,0.75205
0.22305,0.0031,0.0176,0.751
0.22395,0.0031,0.01775,0.7501
0.22425,0.00355,0.01835,0.7487
0.22485,0.0034,0.0181,0.74795
0.2248,0.0031,0.01845,0.74775
0.2253,0.00355,0.019,0.7465
0.22595,0.0035,0.0199,0.74535
0.22545,0.00435,0.02035,0.7444
0.22515,0.00385,0.02065,0.74425
0.2254,0.0038,0.02025,0.744
0.2263,0.00345,0.02085,0.7426
0.22475,0.0053,0.02165,0.7417
0.22475,0.00325,0.0217,0.7423
0.2246,0.00385,0.02195,0.7423
0.22525,0.00385,0.02205,0.74205
0.2249,0.00435,0.0225,0.74115
0.2249,0.0047,0.0231,0.73975
0.2237,0.005,0.0249,0.7392
0.2243,0.0036,0.02535,0.7393
0.22405,0.0044,0.02645,0.7384
0.2228,0.00495,0.02605,0.7389
0.22135,0.00495,0.02655,0.7394
0.22065,0.0054,0.02695,0.73905
0.21935,0.00535,0.0275,0.73915
0.2184,0.00495,0.02865,0.73885
0.2175,0.0057,0.0296,0.7386
0.21605,0.00495,0.02835,0.7409
0.2146,0.00535,0.03,0.7411
0.2138,0.00505,0.0298,0.74225
0.21215,0.0061,0.03065,0.7428
0.2117,0.0051,0.0301,0.74345
0.21085,0.0047,0.0303,0.7443
0.2096,0.00495,0.03015,0.74585
0.20855,0.00545,0.02915,0.74675
0.20885,0.0046,0.03035,0.7463
0.2081,0.00555,0.03065,0.74675
0.2072,0.00555,0.0314,0.7471
0.206,0.005,0.0316,0.7485
0.2051,0.00525,0.03135,0.74915
0.2058,0.00375,0.03095,0.75005
0.2065,0.00405,0.02915,0.7514
0.206,0.0051,0.02875,0.7513
0.20635,0.00405,0.0287,0.7516
0.20575,0.0045,0.02905,0.75235
0.206,0.00495,0.0297,0.75175
0.2062,0.00415,0.0305,0.7515
0.2062,0.00545,0.0306,0.75045
0.20555,0.00545,0.03105,0.75095
0.20355,0.00625,0.03135,0.75095
0.2039,0.00455,0.03115,0.75135
0.20295,0.0052,0.03175,0.75125
0.2021,0.0052,0.0319,0.7519
0.2006,0.00615,0.0315,0.75265
0.1997,0.0057,0.0321,0.7527
0.19885,0.0053,0.03135,0.7542
0.19895,0.00455,0.0316,0.75485
0.1985,0.0053,0.0328,0.75425
0.1982,0.00535,0.03215,0.75455
0.19755,0.00535,0.03265,0.75495
0.19735,0.0057,0.0319,0.75555
0.19865,0.0041,0.03195,0.7557
0.19925,0.0049,0.03125,0.75545
0.19895,0.00445,0.03065,0.7568
0.19825,0.00505,0.03065,0.75715
0.1985,0.0045,0.03015,0.758
0.1989,0.00485,0.03015,0.75755
0.19875,0.0049,0.03055,0.7574
0.19895,0.0051,0.0295,0.7571
0.1997,0.0046,0.03005,0.7563
0.1975,0.00585,0.0303,0.75805
0.1965,0.0058,0.031,0.7578
0.19585,0.00515,0.03195,0.7581
0.1944,0.0057,0.03235,0.75885
0.19445,0.00535,0.0328,0.7583
0.19415,0.0044,0.03115,0.76045
0.19325,0.005,0.0306,0.76155
0.1933,0.00505,0.03075,0.7612
0.1927,0.005,0.0314,0.7609
0.19255,0.0043,0.03145,0.762
0.1921,0.00505,0.0321,0.76205
0.1907,0.00595,0.0327,0.76245
0.19095,0.0045,0.03135,0.764
0.1908,0.0048,0.03095,0.764
0.18955,0.005,0.03055,0.76525
0.1887,0.00525,0.0298,0.76675
0.18905,0.00415,0.02965,0.7676
0.1897,0.00415,0.0299,0.7673
0.18955,0.0046,0.0305,0.767
0.19,0.0045,0.02915,0.768
0.19165,0.00365,0.02875,0.76765
0.1924,0.00385,0.0274,0.76755
0.1926,0.0048,0.02725,0.7671
0.193,0.00425,0.02735,0.76685
0.19385,0.00435,0.02715,0.7666
0.1942,0.00445,0.02645,0.76625
0.19585,0.00305,0.02715,0.76585
0.19635,0.0047,0.02625,0.76555
0.1967,0.0048,0.02665,0.7645
0.19825,0.00405,0.0272,0.7628
0.19885,0.00435,0.02795,0.76185
0.199,0.0041,0.02755,0.7622
0.19925,0.0044,0.0283,0.76115
0.19955,0.0043,0.0274,0.76125
0.1997,0.0045,0.02785,0.7607
0.19975,0.0045,0.02705,0.76105
0.2004,0.0049,0.02635,0.7602
0.2007,0.0044,0.0274,0.75965
0.20085,0.0044,0.027,0.7604
0.20285,0.00385,0.0273,0.7585
0.20305,0.0049,0.0269,0.75795
0.20305,0.00435,0.0265,0.75855
0.20395,0.0042,0.0266,0.7577
0.2045,0.00435,0.02625,0.75745
0.2057,0.0041,0.027,0.7557
0.2053,0.00455,0.02565,0.75645
0.20545,0.00445,0.0265,0.7558
0.20585,0.0045,0.02665,0.75525
0.2073,0.0036,0.0272,0.75435
0.208,0.00425,0.0267,0.75385
0.21035,0.0037,0.0267,0.7517
0.2113,0.0038,0.0258,0.7518
0.211,0.00435,0.0258,0.7518
0.2114,0.0045,0.02605,0.75055
0.2118,0.00405,0.02535,0.7511
0.21265,0.0038,0.0255,0.7503
0.2127,0.004,0.02585,0.75005
0.2129,0.00375,0.02555,0.75015
0.21315,0.00425,0.02475,0.75075
0.21335,0.0046,0.02405,0.75055
0.2148,0.0042,0.0249,0.74875
0.215,0.0041,0.0253,0.74845
0.21575,0.00285,0.0262,0.7489
0.2166,0.0041,0.02595,0.7481
0.21585,0.0053,0.02495,0.74785
0.2165,0.004,0.02515,0.74675
0.2171,0.004,0.0247,0.7467
0.2182,0.0036,0.02455,0.74555
0.2186,0.00385,0.02465,0.7454
0.21875,0.0042,0.0246,0.7449
0.21915,0.0041,0.0245,0.74475
0.21885,0.0044,0.0242,0.74485
0.21975,0.00415,0.0254,0.74315
0.2207,0.0045,0.0258,0.7416
0.22,0.0047,0.02655,0.74115
0.2199,0.0045,0.02715,0.74105
0.2209,0.0036,0.02625,0.7411
0.22075,0.00495,0.02555,0.7406
0.22015,0.0047,0.02645,0.7408
0.21865,0.0056,0.02695,0.7415
0.21875,0.00425,0.0272,0.74175
0.21875,0.00475,0.0277,0.7414
0.2187,0.0047,0.02725,0.74165
0.2196,0.0042,0.02755,0.74075
0.2188,0.00525,0.0272,0.7406
0.21945,0.00445,0.0276,0.73975
0.2195,0.0046,0.0276,0.7396
0.2182,0.0046,0.02815,0.74105
0.21735,0.0056,0.0293,0.74045
0.21695,0.00515,0.02915,0.74055
0.21715,0.005,0.03065,0.7395
0.21575,0.00535,0.0309,0.74025
0.2145,0.0057,0.03035,0.7411
0.2136,0.00545,0.0302,0.7418
0.21365,0.005,0.0304,0.74185
0.21305,0.00515,0.03135,0.7415
0.212,0.0048,0.0301,0.7434
0.2114,0.00525,0.0303,0.74375
0.21135,0.00465,0.02995,0.74475
0.2105,0.0052,0.02925,0.7456
0.21075,0.00515,0.02995,0.74515
0.21095,0.0048,0.03085,0.74485
0.21055,0.00525,0.03085,0.74455
0.2088,0.00605,0.0312,0.74535
0.20805,0.0054,0.0309,0.74575
0.2066,0.0053,0.03085,0.74695
0.20495,0.0058,0.03165,0.7477
0.2043,0.0046,0.0319,0.7495
0.20385,0.0051,0.03145,0.7502
0.20415,0.0042,0.0308,0.7515
0.20445,0.0049,0.0306,0.75195
0.20345,0.00575,0.031,0.7513
0.20255,0.0055,0.0322,0.7511
0.2011,0.00565,0.03215,0.7519
0.1998,0.00595,0.0326,0.7525
0.1988,0.00525,0.0326,0.75425
0.1992,0.00445,0.0329,0.7545
0.1972,0.00655,0.0334,0.7547
0.1971,0.0051,0.03375,0.75415
0.19555,0.00585,0.03425,0.7551
0.1948,0.0052,0.034,0.7563
0.1941,0.00495,0.03515,0.75705
0.1936,0.00485,0.03375,0.7591
0.19235,0.00615,0.03485,0.75825
0.19115,0.00535,0.03545,0.7595
0.19065,0.0054,0.0355,0.7597
0.1905,0.00425,0.03485,0.76125
0.1893,0.0053,0.03425,0.7623
0.18785,0.0061,0.03465,0.7621
0.18905,0.00435,0.03485,0.7616
0.18875,0.0046,0.0352,0.7627
0.1876,0.00575,0.0335,0.76405
0.18795,0.0045,0.03355,0.76475
0.1864,0.00595,0.0336,0.765
0.18695,0.00485,0.0328,0.76555
0.18655,0.0048,0.0321,0.76675
0.1866,0.0048,0.0317,0.76725
0.1863,0.00435,0.0323,0.7682
0.18615,0.0052,0.03115,0.7695
0.18555,0.0059,0.0321,0.76835
0.1868,0.004,0.031,0.76885
0.18665,0.00415,0.0303,0.77
0.18795,0.0041,0.02915,0.7706
0.1896,0.0045,0.02835,0.7691
0.18955,0.00475,0.02825,0.76885
0.18905,0.0051,0.02885,0.7684
0.1894,0.00375,0.02905,0.76875
0.18985,0.0043,0.02925,0.76835
0.19,0.00435,0.02855,0.76895
0.18975,0.0042,0.029,0.7696
0.19135,0.00365,0.02815,0.76965
0.1918,0.0042,0.02615,0.77045
0.1916,0.00455,0.0271,0.76965
0.19195,0.00425,0.02685,0.7689
0.19155,0.0045,0.02805,0.7679
0.1919,0.00415,0.0272,0.76845
0.19215,0.0042,0.0273,0.76845
0.1927,0.00485,0.0273,0.76735
0.1922,0.00495,0.0283,0.7671
0.19275,0.00425,0.0274,0.76765
0.19365,0.0035,0.02725,0.7677
0.19295,0.0044,0.02745,0.76815
0.1931,0.00425,0.02715,0.76845
0.19435,0.0037,0.027,0.7678
0.19395,0.00455,0.0265,0.76835
0.1953,0.00345,0.02685,0.7675
0.1951,0.00445,0.0263,0.7675
0.19695,0.0035,0.0254,0.76715
0.19775,0.0037,0.02365,0.76735
0.2,0.00345,0.02375,0.7656
0.2009,0.0043,0.0235,0.76445
0.20225,0.00305,0.0239,0.7642
0.2036,0.00395,0.02415,0.76205
0.20505,0.00345,0.02405,0.76105
0.206,0.00405,0.02365,0.76015
0.20635,0.0039,0.02335,0.7598
0.206,0.0045,0.02305,0.75935
0.20595,0.0044,0.02485,0.75785
0.20625,0.00355,0.0239,0.75895
0.2081,0.00345,0.02525,0.75695
0.20845,0.00405,0.02515,0.75665
0.20915,0.0034,0.02535,0.7566
0.2093,0.0044,0.0245,0.75635
0.20935,0.00365,0.0249,0.7559
0.21035,0.0044,0.02455,0.75395
0.2114,0.00425,0.02535,0.75195
0.2112,0.0046,0.0256,0.75135
0.21275,0.0037,0.0256,0.7505
0.21415,0.0035,0.0252,0.74965
0.2155,0.00435,0.02605,0.7472
0.21585,0.00475,0.02615,0.74635
0.2162,0.00435,0.0258,0.74575
0.21735,0.00375,0.02705,0.7445
0.21735,0.0045,0.0261,0.7444
0.21745,0.00435,0.0267,0.7445
0.217,0.0046,0.0262,0.7447
0.21565,0.0046,0.0263,0.74575
0.21585,0.00505,0.02605,0.74515
0.215,0.0052,0.02605,0.7448
0.2148,0.0042,0.0261,0.74555
0.21505,0.0043,0.02555,0.74585
0.21505,0.0053,0.02675,0.7447
0.21555,0.00395,0.02765,0.74525
0.2159,0.0042,0.02615,0.7455
0.21675,0.00465,0.02595,0.745
0.2172,0.00465,0.02675,0.74395
0.21775,0.00385,0.02715,0.74365
0.21815,0.00445,0.02625,0.7438
0.21855,0.0042,0.0261,0.7438
0.2183,0.00445,0.0263,0.7437
0.21875,0.00415,0.0264,0.7433
0.2195,0.00475,0.02665,0.74185
0.22125,0.00405,0.02705,0.74025
0.22035,0.00545,0.0264,0.73985
0.2211,0.0043,0.0267,0.7394
0.22135,0.0053,0.02625,0.7384
0.22025,0.0052,0.02855,0.7381
0.2192,0.0052,0.0284,0.73875
0.219,0.00475,0.0283,0.73895
0.21985,0.0048,0.0275,0.7377
0.2202,0.00495,0.02825,0.73685
0.21915,0.0058,0.0289,0.73665
0.21905,0.0048,0.02895,0.7375
0.2191,0.00445,0.02935,0.7381
0.21905,0.0053,0.02875,0.73815
0.21895,0.0048,0.0294,0.738
0.2194,0.00425,0.0292,0.73845
0.21845,0.00515,0.02825,0.73945
0.2183,0.0049,0.02895,0.7392
0.21785,0.0048,0.02905,0.7393
0.2161,0.00575,0.02955,0.73965
0.21435,0.00605,0.0302,0.73995
0.2147,0.00515,0.03095,0.73945
0.21365,0.0057,0.03105,0.74
0.21375,0.0054,0.0316,0.73955
0.21285,0.0053,0.0327,0.7397
0.21115,0.0061,0.0327,0.74095
0.21045,0.00565,0.0327,0.7417
0.209,0.00555,0.03275,0.7428
0.20775,0.00585,0.0332,0.7436
0.20775,0.0049,0.0332,0.7444
0.20725,0.00535,0.0322,0.74565
0.20685,0.0054,0.03125,0.74675
0.20665,0.00545,0.0316,0.74645
0.20445,0.006,0.03195,0.74805
0.20455,0.00555,0.03365,0.74625
0.20385,0.0055,0.03345,0.74725
0.2044,0.00495,0.0332,0.7471
0.2022,0.0057,0.0331,0.74965
0.20155,0.0056,0.0331,0.74985
0.20285,0.00515,0.034,0.7485
0.20225,0.00615,0.03395,0.74815
0.20175,0.0045,0.03415,0.7493
0.2003,0.0061,0.0337,0.75065
0.19955,0.0051,0.0328,0.75275
0.19895,0.00555,0.03255,0.75375
0.1978,0.0059,0.03295,0.7543
0.1977,0.0048,0.0326,0.7556
0.1975,0.0047,0.03305,0.7565
0.19675,0.0052,0.03285,0.7568
0.1966,0.00475,0.03295,0.7573
0.19705,0.0045,0.0317,0.7583
0.19645,0.00515,0.0323,0.7581
0.19545,0.0056,0.03195,0.7582
0.1954,0.00515,0.0324,0.7577
0.19505,0.00445,0.0324,0.75875
0.19675,0.00465,0.03205,0.7575
0.1971,0.0045,0.03125,0.75845
0.1962,0.0058,0.0308,0.7591
0.19645,0.00485,0.0313,0.75895
0.19685,0.0042,0.0311,0.7594
0.19775,0.00495,0.03135,0.7583
0.19755,0.0051,0.03085,0.75825
0.1985,0.004,0.0311,0.75805
0.1985,0.00485,0.03045,0.7578
0.19855,0.00465,0.0302,0.7576
0.19945,0.004,0.03045,0.7577
0.1986,0.0052,0.02995,0.7586
0.19805,0.00495,0.0301,0.7586
0.1967,0.00565,0.03075,0.7593
0.19695,0.00465,0.03075,0.75915
0.19705,0.00495,0.0314,0.7586
0.19695,0.00505,0.03055,0.75905
0.19715,0.0044,0.03135,0.7587
0.19685,0.00415,0.0311,0.75945
0.19755,0.0042,0.0311,0.75925
0.1978,0.00505,0.03075,0.7587
0.19765,0.00495,0.03045,0.7591
0.1966,0.0053,0.0296,0.76
0.1971,0.0046,0.0294,0.75975
0.1983,0.0043,0.03055,0.75815
0.19855,0.0042,0.0299,0.75865
0.19815,0.00535,0.0294,0.75855
0.19775,0.0042,0.02925,0.7595
0.19835,0.005,0.02955,0.7585
0.19905,0.0049,0.0301,0.75705
0.20005,0.0039,0.03,0.75755
0.2005,0.0052,0.02985,0.7565
0.20045,0.0052,0.03015,0.75565
0.19955,0.0052,0.0307,0.75605
0.19815,0.00545,0.0316,0.7566
0.1978,0.0055,0.0314,0.75665
0.1978,0.00535,0.0317,0.7565
0.1976,0.00485,0.03135,0.75725
0.19765,0.00455,0.0312,0.7579
0.1966,0.00545,0.03105,0.75855
0.1973,0.00475,0.03125,0.75825
0.1983,0.0045,0.0316,0.7575
0.19805,0.00565,0.03115,0.7572
0.1971,0.0057,0.032,0.75725
0.19835,0.0042,0.0307,0.7577
0.1982,0.0051,0.02965,0.7582
0.19975,0.0046,0.03,0.7569
0.1995,0.0055,0.0294,0.7565
0.2008,0.00355,0.0288,0.75685
0.20215,0.0035,0.0281,0.7566
0.2024,0.0049,0.02775,0.75625
0.2018,0.00465,0.02925,0.7559
0.2012,0.00555,0.0298,0.75545
0.2021,0.0043,0.03035,0.75495
0.2015,0.0049,0.02955,0.75545
0.20065,0.0051,0.0291,0.7563
0.20005,0.0052,0.03015,0.756
0.19875,0.005,0.03085,0.7569
0.19945,0.00435,0.03105,0.7566
0.1998,0.0041,0.0297,0.75805
0.1995,0.00405,0.02875,0.7594
0.19935,0.00535,0.0286,0.75895
0.1985,0.00475,0.029,0.75965
0.19985,0.00435,0.0296,0.7577
0.19975,0.0049,0.02935,0.75745
0.19955,0.00445,0.02865,0.75805
0.19955,0.00485,0.02885,0.75775
0.1985,0.0056,0.02935,0.7575
0.2005,0.00375,0.0294,0.7566
0.20065,0.0047,0.02945,0.75635
0.201,0.0044,0.0294,0.7571
0.2015,0.00405,0.02855,0.7574
0.2023,0.00435,0.0275,0.757
0.20345,0.00425,0.0281,0.7558
0.20375,0.0045,0.02835,0.7554
0.204,0.0038,0.02785,0.7562
0.2036,0.00465,0.02765,0.75635
0.20345,0.00515,0.02735,0.75635
0.2044,0.00485,0.02725,0.75625
0.20365,0.0048,0.0269,0.75675
0.2039,0.00455,0.028,0.7557
0.20425,0.0037,0.02785,0.75595
0.2049,0.0039,0.0273,0.75575
0.20475,0.00465,0.02705,0.7552
0.2056,0.004,0.02715,0.75485
0.207,0.00405,0.0267,0.7538
0.2084,0.00345,0.0264,0.7537
0.2088,0.00425,0.02605,0.75305
0.21045,0.00395,0.02635,0.75185
0.21155,0.0046,0.026,0.751
0.2116,0.00455,0.0261,0.7504
0.2119,0.0039,0.0254,0.7508
0.212,0.0043,0.0257,0.75035
0.21195,0.0048,0.0274,0.74905
0.21175,0.0042,0.0267,0.7496
0.2127,0.00425,0.0257,0.7492
0.21335,0.0038,0.0255,0.749
0.21425,0.00445,0.0255,0.7478
0.21455,0.0046,0.0256,0.74745
