moyS, moyE, moyI, moyR
0.999,0.0,0.001,0.0
0.99855,4.5E-4,7.5E-4,2.5E-4
0.99795,6.0E-4,8.5E-4,3.5E-4
0.997,9.5E-4,0.0011,4.5E-4
0.99585,0.00115,0.0014,6.0E-4
0.99405,0.0018,0.00215,8.0E-4
0.99215,0.0019,0.00265,0.00125
0.98955,0.0026,0.0036,0.0016
0.98685,0.00275,0.00475,0.0022
0.98315,0.0037,0.006,0.0034
0.97795,0.00525,0.00765,0.00465
0.97015,0.0078,0.0104,0.00595
0.9599,0.0103,0.01395,0.00785
0.947,0.0129,0.01825,0.01045
0.9293,0.0177,0.0241,0.01405
0.90635,0.02295,0.0331,0.0186
0.8749,0.03155,0.04395,0.02445
0.83285,0.0422,0.05975,0.0322
0.7824,0.05065,0.079,0.04245
0.7191,0.0634,0.1045,0.056
0.6491,0.07025,0.1318,0.07425
0.5718,0.07745,0.16225,0.0981
0.49185,0.0801,0.1954,0.12525
0.41005,0.08205,0.2321,0.1573
0.33445,0.0761,0.26665,0.1953
0.26835,0.06655,0.2929,0.2404
0.21105,0.05815,0.31165,0.2917
0.16475,0.04725,0.3255,0.3403
0.12665,0.03965,0.33195,0.3887
0.10015,0.0281,0.3299,0.4382
0.0786,0.02305,0.32235,0.48715
0.0626,0.01765,0.30725,0.537
0.05245,0.01265,0.2961,0.5773
0.04395,0.01135,0.27455,0.6197
0.03925,0.0072,0.25235,0.6572
0.0341,0.00775,0.23165,0.69105
0.0312,0.00575,0.21295,0.7204
0.0289,0.00475,0.1912,0.75155
0.02875,0.00375,0.1739,0.77535
0.02795,0.00415,0.15665,0.7967
0.0285,0.0029,0.1425,0.81355
0.0287,0.00325,0.1287,0.8301
0.0297,0.003,0.11505,0.8446
0.03015,0.0025,0.1016,0.8587
0.0304,0.0021,0.09045,0.87105
0.03235,0.00155,0.0809,0.8798
0.03375,0.00235,0.0724,0.88745
0.0358,0.0018,0.06485,0.8936
0.03755,0.00185,0.05715,0.8996
0.03925,0.0015,0.0497,0.90585
0.0413,0.0016,0.0446,0.9093
0.044,0.0013,0.04005,0.91195
0.0463,9.0E-4,0.03545,0.91485
0.04835,0.00125,0.03185,0.91635
0.05085,9.0E-4,0.02905,0.91745
0.0534,0.0014,0.02605,0.91755
0.05565,0.00115,0.02355,0.918
0.0581,6.0E-4,0.02175,0.9178
0.06035,0.001,0.019,0.9182
0.063,9.5E-4,0.01755,0.917
0.0659,8.5E-4,0.0162,0.9154
0.0688,5.5E-4,0.01465,0.91445
0.07125,7.0E-4,0.013,0.91375
0.07415,5.0E-4,0.0118,0.9121
0.0769,4.0E-4,0.01025,0.911
0.07935,5.0E-4,0.00905,0.9101
0.08195,3.5E-4,0.00815,0.90865
0.0841,6.5E-4,0.0075,0.9069
0.0871,4.0E-4,0.00695,0.9047
0.0898,4.5E-4,0.00645,0.9025
0.0933,5.0E-4,0.00625,0.89935
0.09535,5.5E-4,0.006,0.89745
0.09745,6.5E-4,0.0056,0.89565
0.0999,3.5E-4,0.0053,0.8936
0.10275,3.0E-4,0.0051,0.8913
0.1062,2.5E-4,0.0046,0.88845
0.10875,2.5E-4,0.0041,0.8864
0.11115,3.0E-4,0.00355,0.8846
0.1138,4.5E-4,0.003,0.8823
0.116,1.0E-4,0.0026,0.8807
0.11935,1.5E-4,0.00245,0.8775
0.1218,4.0E-4,0.00215,0.8751
0.1241,1.0E-4,0.00215,0.87305
0.12645,2.5E-4,0.002,0.87085
0.12905,2.5E-4,0.00185,0.8684
0.13165,1.0E-4,0.00175,0.8661
0.13405,1.0E-4,0.0017,0.86395
0.1368,5.0E-5,0.00125,0.86175
0.1394,1.5E-4,0.00115,0.85915
0.142,2.5E-4,0.00115,0.8564
0.1447,1.0E-4,0.0012,0.8539
0.14785,5.0E-5,0.001,0.851
0.15065,2.0E-4,8.0E-4,0.84825
0.1527,5.0E-5,7.5E-4,0.84635
0.15535,0.0,4.5E-4,0.844
0.15785,0.0,4.5E-4,0.84155
0.1599,1.0E-4,3.5E-4,0.8395
0.1626,1.0E-4,4.5E-4,0.83675
0.16535,1.0E-4,4.0E-4,0.8341
0.167,0.0,3.5E-4,0.83255
0.16895,0.0,2.0E-4,0.83075
0.1714,1.5E-4,2.0E-4,0.8282
0.174,5.0E-5,2.5E-4,0.82555
0.1762,5.0E-5,3.0E-4,0.82335
0.1781,1.0E-4,3.5E-4,0.82135
0.1807,0.0,4.0E-4,0.81875
0.1826,0.0,4.0E-4,0.8169
0.1849,0.0,4.5E-4,0.8146
0.18675,1.0E-4,4.5E-4,0.8127
0.189,1.0E-4,5.0E-4,0.81035
0.19165,5.0E-5,5.0E-4,0.8077
0.1937,1.0E-4,4.5E-4,0.80565
0.196,0.0,4.5E-4,0.8034
0.1985,1.0E-4,4.5E-4,0.80085
0.20085,5.0E-5,5.0E-4,0.7985
0.20255,1.5E-4,4.0E-4,0.79675
0.20475,5.0E-5,5.0E-4,0.79455
0.20705,1.0E-4,4.5E-4,0.79225
0.2091,5.0E-5,4.5E-4,0.7902
0.2112,0.0,6.5E-4,0.7881
0.2138,1.0E-4,5.0E-4,0.78555
0.2165,1.5E-4,5.5E-4,0.78275
0.219,5.0E-5,5.5E-4,0.7803
0.221,5.0E-5,6.0E-4,0.7783
0.22305,5.0E-5,6.0E-4,0.7763
0.22525,5.0E-5,5.5E-4,0.77415
0.2273,1.0E-4,5.5E-4,0.77205
0.22925,1.5E-4,5.5E-4,0.76995
0.2317,1.0E-4,4.5E-4,0.76755
0.2333,5.0E-5,5.0E-4,0.7659
0.2353,5.0E-5,6.0E-4,0.7639
0.2367,3.0E-4,6.0E-4,0.76225
0.2386,1.0E-4,6.5E-4,0.76035
0.23995,1.5E-4,6.0E-4,0.75905
0.2416,3.0E-4,7.5E-4,0.7571
0.24465,1.5E-4,7.0E-4,0.75405
0.24705,2.5E-4,9.0E-4,0.7514
0.2484,2.5E-4,0.0012,0.74995
0.25015,5.0E-5,0.001,0.74855
0.2522,2.0E-4,9.5E-4,0.7464
0.2545,0.0,9.0E-4,0.7443
0.2565,1.0E-4,8.5E-4,0.7424
0.25825,2.0E-4,8.5E-4,0.7406
0.2603,3.0E-4,9.0E-4,0.7383
0.26235,1.5E-4,9.0E-4,0.73625
0.26395,2.0E-4,9.5E-4,0.73465
0.2662,1.5E-4,9.0E-4,0.7324
0.2676,2.0E-4,0.001,0.73085
0.27005,1.0E-4,0.00125,0.7284
0.2716,3.0E-4,0.00125,0.72665
0.27325,3.5E-4,0.0012,0.72485
0.275,5.0E-4,0.0017,0.72265
0.27675,4.5E-4,0.00155,0.72085
0.27845,1.5E-4,0.0017,0.7192
0.2805,3.0E-4,0.00165,0.71715
0.28215,4.5E-4,0.00175,0.7153
0.2839,4.0E-4,0.0016,0.7136
0.28525,6.5E-4,0.00145,0.7119
0.28635,4.5E-4,0.0017,0.7107
0.28805,4.0E-4,0.00175,0.70875
0.2892,6.5E-4,0.0017,0.7072
0.29105,6.5E-4,0.0023,0.7049
0.29285,5.0E-4,0.00245,0.703
0.2942,7.5E-4,0.00265,0.7013
0.2961,8.0E-4,0.00275,0.69895
0.29735,7.5E-4,0.00285,0.6974
0.29785,0.00115,0.00325,0.69645
0.2985,9.5E-4,0.0035,0.6953
0.29925,7.5E-4,0.00345,0.69425
0.30035,0.00135,0.00385,0.69225
0.301,0.00115,0.00455,0.69115
0.3014,0.0017,0.0051,0.6899
0.3021,0.00155,0.00575,0.6884
0.30235,0.0016,0.006,0.6877
0.30315,0.001,0.0062,0.68725
0.30395,0.0015,0.0066,0.6856
0.30465,0.00145,0.00745,0.68425
0.304,0.00225,0.00745,0.6841
0.3033,0.00215,0.00805,0.68355
0.30355,0.0018,0.00835,0.68285
0.3029,0.00265,0.0091,0.6821
0.3035,0.0023,0.00985,0.6806
0.3035,0.002,0.01065,0.68045
0.30295,0.0026,0.01055,0.6804
0.30265,0.0023,0.0107,0.68035
0.3017,0.003,0.01145,0.6797
0.30115,0.00235,0.01265,0.67945
0.3013,0.0022,0.01235,0.6793
0.30065,0.00255,0.0123,0.67945
0.29935,0.00295,0.01245,0.67995
0.2984,0.00265,0.0132,0.68045
0.29695,0.003,0.01395,0.6808
0.2955,0.0032,0.01485,0.6812
0.29415,0.00335,0.01565,0.68145
0.29225,0.00425,0.01655,0.68165
0.29015,0.0041,0.0167,0.68265
0.28735,0.00525,0.0182,0.6829
0.28565,0.00405,0.0198,0.68355
0.2836,0.00425,0.02105,0.6844
0.28175,0.0042,0.02225,0.68525
0.2789,0.00515,0.02275,0.68645
0.2761,0.0048,0.0233,0.68765
0.2739,0.0046,0.02425,0.68915
0.2708,0.00525,0.02465,0.69115
0.26805,0.0051,0.0257,0.69315
0.26475,0.0056,0.02725,0.69465
0.26095,0.0061,0.02665,0.69695
0.2577,0.0058,0.0273,0.6994
0.2546,0.0059,0.02875,0.7014
0.25165,0.00525,0.02925,0.70435
0.248,0.006,0.0294,0.7069
0.2445,0.00575,0.0303,0.7097
0.2414,0.00535,0.03165,0.71255
0.2375,0.0065,0.0319,0.7153
0.2333,0.00635,0.0327,0.71845
0.23045,0.006,0.034,0.7197
0.2261,0.00725,0.0344,0.7222
0.2233,0.00585,0.03515,0.7246
0.2202,0.006,0.03615,0.7265
0.2171,0.00585,0.0354,0.73045
0.21305,0.00655,0.036,0.7335
0.2108,0.0058,0.0366,0.73585
0.2071,0.0066,0.0373,0.73845
0.2048,0.0057,0.03765,0.7409
0.2018,0.00585,0.03665,0.7445
0.2001,0.0051,0.03705,0.7473
0.19715,0.0064,0.0355,0.7504
0.1953,0.00515,0.03535,0.75325
0.19365,0.0051,0.03495,0.7557
0.1914,0.0053,0.0345,0.7584
0.1908,0.00395,0.0343,0.7607
0.1886,0.00575,0.0341,0.762
0.1875,0.00425,0.0344,0.7641
0.1872,0.00485,0.03235,0.76575
0.1856,0.00545,0.0318,0.7673
0.18455,0.00465,0.03275,0.76865
0.1838,0.00395,0.0332,0.7703
0.18245,0.00455,0.03285,0.77165
0.1817,0.00425,0.03175,0.7736
0.1817,0.0034,0.03205,0.7744
0.1806,0.0039,0.0297,0.7772
0.1796,0.00455,0.02895,0.77885
0.1797,0.0039,0.02825,0.7797
0.17995,0.00425,0.0285,0.77955
0.18085,0.0038,0.0278,0.77975
0.18105,0.0038,0.0267,0.78075
0.18215,0.00335,0.0266,0.78085
0.18145,0.0037,0.0259,0.78195
0.1823,0.00315,0.02615,0.7817
0.1818,0.0043,0.0257,0.782
0.1815,0.00385,0.0254,0.7823
0.1819,0.0034,0.02625,0.782
0.18285,0.0033,0.02505,0.78225
0.18285,0.00385,0.0246,0.7827
0.1835,0.00335,0.0234,0.78345
0.18345,0.0032,0.023,0.78425
0.18455,0.00295,0.02205,0.78415
0.18555,0.00295,0.02125,0.78415
0.1873,0.0028,0.0224,0.78215
0.18955,0.00185,0.0203,0.7825
0.19065,0.00275,0.02005,0.78175
0.1912,0.00375,0.01995,0.7808
0.192,0.0031,0.01935,0.7808
0.19325,0.0027,0.0194,0.77955
0.194,0.00355,0.0192,0.77815
0.1949,0.00305,0.01865,0.77745
0.1958,0.00305,0.01835,0.777
0.1971,0.00215,0.01835,0.7764
0.19825,0.0026,0.01805,0.7758
0.19985,0.00225,0.01735,0.7754
0.2011,0.0032,0.0177,0.7735
0.20225,0.00295,0.0173,0.7725
0.20345,0.00295,0.01675,0.77205
0.2048,0.0025,0.01645,0.77095
0.20555,0.00245,0.01625,0.7708
0.20685,0.0022,0.0155,0.7704
0.20885,0.00255,0.0156,0.7681
0.21035,0.00245,0.0157,0.7668
0.21215,0.0028,0.0156,0.7649
0.2131,0.00285,0.0154,0.7639
0.215,0.00195,0.01555,0.76255
0.2175,0.00195,0.01585,0.76015
0.2193,0.00265,0.016,0.7581
0.22035,0.00245,0.01575,0.7571
0.22105,0.0034,0.01535,0.7554
0.22165,0.00285,0.0159,0.7544
0.22335,0.0023,0.0161,0.7528
0.22475,0.00265,0.0161,0.7515
0.226,0.0028,0.016,0.7502
0.22725,0.0027,0.016,0.7491
0.2285,0.0026,0.0167,0.74745
0.22965,0.00295,0.0163,0.74625
0.2317,0.00255,0.0168,0.74455
0.23345,0.0024,0.0164,0.74325
0.23565,0.00285,0.01645,0.7407
0.23615,0.00345,0.01665,0.73925
0.2381,0.00235,0.01705,0.7375
0.23875,0.0033,0.01635,0.73645
0.2386,0.00355,0.01675,0.73595
0.2385,0.00385,0.01725,0.73525
0.23835,0.0042,0.0188,0.73335
0.2389,0.0031,0.019,0.733
0.239,0.00365,0.0192,0.73255
0.23885,0.0036,0.0191,0.73215
0.23875,0.0037,0.01945,0.7316
0.23975,0.004,0.0196,0.7298
0.24095,0.00315,0.02035,0.72845
0.24135,0.00415,0.02085,0.7273
0.2421,0.00365,0.0213,0.72655
0.2421,0.0034,0.0208,0.7265
0.24235,0.00375,0.02015,0.72615
0.2427,0.00365,0.02115,0.7253
0.24245,0.00425,0.0221,0.72495
0.24195,0.00465,0.0215,0.725
0.24165,0.0047,0.02255,0.7237
0.24075,0.0048,0.02215,0.72415
0.24,0.00465,0.0236,0.7236
0.24075,0.00385,0.02395,0.72345
0.2402,0.00455,0.02355,0.7236
0.24055,0.00415,0.0242,0.7231
0.24085,0.00445,0.0246,0.72185
0.23965,0.00495,0.02625,0.72165
0.2386,0.00495,0.0265,0.7217
0.23795,0.0049,0.0271,0.7219
0.23645,0.0053,0.0273,0.7226
0.23445,0.00575,0.0287,0.7229
0.2333,0.0049,0.02885,0.7242
0.2325,0.0048,0.02885,0.7251
0.2315,0.00565,0.0287,0.7251
0.23075,0.0048,0.02895,0.7262
0.2293,0.0061,0.0298,0.72585
0.2286,0.0051,0.0302,0.7264
0.22825,0.00485,0.03045,0.72665
0.22575,0.0071,0.0317,0.7268
0.2254,0.00505,0.0315,0.7276
0.2236,0.00545,0.03085,0.72945
0.22145,0.00575,0.03125,0.73075
0.22065,0.006,0.0325,0.7302
0.2205,0.0054,0.03335,0.73005
0.21955,0.00605,0.0334,0.73055
0.21735,0.007,0.0337,0.7318
0.21605,0.0053,0.0348,0.7332
0.21415,0.00695,0.03415,0.7341
0.2139,0.0054,0.03425,0.735
0.2134,0.0055,0.0345,0.73595
0.21255,0.0056,0.03435,0.7365
0.2126,0.0042,0.0342,0.7381
0.21195,0.00605,0.0333,0.7391
0.21105,0.0052,0.03395,0.74025
0.21,0.0062,0.03345,0.7413
0.20775,0.00655,0.03415,0.74215
0.20605,0.0052,0.03415,0.7439
0.20355,0.00665,0.03555,0.74385
0.2023,0.0058,0.0369,0.74435
0.2011,0.00555,0.03695,0.74565
0.20045,0.00615,0.03645,0.74625
0.19875,0.0064,0.0363,0.7478
0.19835,0.00585,0.03645,0.74745
0.1968,0.006,0.03695,0.74865
0.19585,0.0056,0.0378,0.75065
0.19515,0.00535,0.0363,0.75285
0.1952,0.00485,0.0364,0.75315
0.1938,0.0058,0.0369,0.75395
0.19325,0.0049,0.0364,0.75565
0.19375,0.0051,0.0349,0.7565
0.19275,0.00595,0.03615,0.7557
0.19175,0.00545,0.03625,0.75675
0.19,0.00645,0.03575,0.75805
0.18965,0.005,0.03575,0.7602
0.18915,0.0052,0.0351,0.76155
0.1886,0.0057,0.0349,0.76215
0.18975,0.0046,0.03485,0.7621
0.18905,0.0052,0.03445,0.76295
0.1882,0.0052,0.0327,0.76425
0.18865,0.00445,0.0321,0.7649
0.1891,0.0047,0.03315,0.76465
0.18835,0.00535,0.03385,0.76415
0.1894,0.00425,0.03265,0.76485
0.18975,0.0052,0.032,0.7649
0.1908,0.00455,0.0318,0.764
0.18915,0.00625,0.0329,0.76305
0.1886,0.00505,0.03285,0.76405
0.18895,0.0046,0.03225,0.7643
0.1894,0.00475,0.03285,0.76355
0.18945,0.00455,0.0327,0.76465
0.18915,0.0048,0.03245,0.76525
0.1889,0.00505,0.03165,0.76555
0.1882,0.00505,0.03105,0.7664
0.1885,0.00435,0.0315,0.7665
0.1874,0.00535,0.032,0.76685
0.18835,0.00455,0.03055,0.76715
0.1887,0.0049,0.03075,0.76705
0.1887,0.00485,0.03135,0.7667
0.1896,0.00425,0.0307,0.7674
0.1891,0.0047,0.0295,0.7685
0.18995,0.0042,0.0294,0.7683
0.191,0.004,0.0292,0.76795
0.19175,0.00475,0.0283,0.7672
0.1925,0.00435,0.0293,0.7663
0.1929,0.00435,0.0292,0.76585
0.19235,0.00485,0.02955,0.76555
0.19165,0.00525,0.0302,0.76545
0.19155,0.004,0.03015,0.7661
0.19205,0.0037,0.02985,0.7664
0.19445,0.0035,0.0291,0.76545
0.19525,0.0041,0.02855,0.765
0.196,0.00375,0.02705,0.7657
0.19675,0.0041,0.02615,0.7656
0.1973,0.0036,0.0267,0.7652
0.1975,0.0048,0.02585,0.7652
0.198,0.00385,0.0257,0.76485
0.198,0.00505,0.02685,0.76325
0.19895,0.004,0.0272,0.76265
0.1992,0.00475,0.0268,0.7619
0.19935,0.00405,0.0276,0.7618
0.20005,0.00455,0.0265,0.76135
0.1998,0.00515,0.027,0.7602
0.2004,0.00405,0.0281,0.7596
0.2007,0.0045,0.0273,0.7594
0.2018,0.00445,0.0277,0.7585
0.2017,0.0047,0.0271,0.7591
0.2024,0.0041,0.026,0.7592
0.2019,0.00475,0.0272,0.7587
0.2029,0.004,0.02695,0.75825
0.2026,0.00455,0.02695,0.758
0.2022,0.00495,0.0276,0.7579
0.20275,0.00435,0.0283,0.7569
0.2026,0.00455,0.02835,0.7566
0.203,0.00405,0.02845,0.7567
0.2045,0.0035,0.02765,0.75625
0.20645,0.00335,0.0276,0.7557
0.20695,0.00455,0.02655,0.75515
0.2076,0.0043,0.02595,0.755
0.2083,0.00395,0.02485,0.7552
0.20855,0.00395,0.0242,0.75475
0.20875,0.00465,0.0245,0.75385
0.2095,0.00445,0.02575,0.7521
0.21085,0.0038,0.02635,0.75145
0.2112,0.00375,0.0254,0.7527
0.21205,0.00425,0.025,0.75175
0.2122,0.00455,0.0253,0.751
0.21265,0.00415,0.0253,0.75025
0.21265,0.0043,0.02535,0.7499
0.21325,0.0043,0.0259,0.74885
0.21285,0.0049,0.0253,0.74885
0.21255,0.00445,0.02655,0.7487
0.2127,0.00425,0.02645,0.74855
0.21285,0.00455,0.02545,0.7486
0.21135,0.00485,0.0257,0.75
0.2122,0.00385,0.02615,0.74995
0.2132,0.004,0.0258,0.7491
0.2134,0.0044,0.02645,0.7482
0.214,0.00425,0.0251,0.7486
0.21365,0.0047,0.02485,0.7487
0.21515,0.0039,0.0251,0.7472
0.215,0.00475,0.0247,0.747
0.21555,0.0045,0.026,0.7457
0.21515,0.00425,0.0261,0.7465
0.2154,0.0044,0.02565,0.74635
0.2147,0.00515,0.02645,0.74595
0.21345,0.00525,0.027,0.746
0.2131,0.00465,0.028,0.74595
0.2128,0.00515,0.02855,0.7447
0.21215,0.00475,0.0298,0.74435
0.2115,0.00545,0.02995,0.7438
0.21085,0.0046,0.03055,0.74475
0.21045,0.00515,0.0318,0.7449
0.2107,0.0038,0.0317,0.74565
0.21065,0.0047,0.0304,0.74625
0.211,0.00455,0.03,0.7464
0.21065,0.00465,0.03,0.7463
0.2091,0.0053,0.02945,0.74735
0.2081,0.0052,0.03,0.7475
0.20715,0.00545,0.0313,0.7478
0.20685,0.00485,0.03075,0.749
0.2068,0.0047,0.03025,0.74955
0.2065,0.0048,0.03045,0.74945
0.20555,0.00585,0.0306,0.7494
0.2056,0.00515,0.0292,0.7501
0.20555,0.00485,0.03035,0.74935
0.20555,0.00475,0.0303,0.7501
0.20435,0.00545,0.03035,0.75115
0.2043,0.0043,0.0306,0.7518
0.20435,0.00445,0.0306,0.75235
0.2035,0.00515,0.0289,0.7539
0.2029,0.0053,0.03045,0.75315
0.20355,0.00405,0.0296,0.75335
0.2023,0.00515,0.0287,0.75485
0.2018,0.00495,0.029,0.75515
0.2026,0.00405,0.029,0.7546
0.2016,0.00465,0.02845,0.75625
0.20235,0.0046,0.0275,0.75585
0.20265,0.0046,0.02835,0.75565
0.20255,0.0048,0.0279,0.7556
0.20275,0.0044,0.02835,0.7558
0.2021,0.0047,0.02925,0.756
0.2025,0.00475,0.0292,0.75555
0.2025,0.00505,0.02925,0.755
0.2021,0.005,0.0291,0.75605
0.20215,0.00525,0.0293,0.75565
0.20135,0.00545,0.0288,0.75595
0.20175,0.0045,0.0286,0.7563
0.2025,0.00415,0.0284,0.7561
0.20355,0.0039,0.02715,0.7568
0.20435,0.0038,0.0266,0.7572
0.20385,0.0046,0.0271,0.7574
0.20315,0.0043,0.027,0.75805
0.2032,0.0051,0.0271,0.7571
0.2034,0.00415,0.02655,0.7574
0.20405,0.00445,0.0266,0.7568
0.20375,0.0048,0.02695,0.75685
0.204,0.004,0.0272,0.75665
0.20445,0.0047,0.02755,0.75575
0.2057,0.0042,0.0276,0.75495
0.2069,0.00415,0.02745,0.7536
0.2072,0.0045,0.0268,0.7537
0.20695,0.00425,0.02715,0.75385
0.207,0.00485,0.02745,0.75285
0.2073,0.00375,0.02605,0.75475
0.20675,0.0047,0.02635,0.7546
0.20725,0.0035,0.0267,0.75465
0.20705,0.0048,0.0261,0.75445
0.2066,0.0049,0.0267,0.7542
0.2076,0.0034,0.0265,0.75425
0.208,0.0041,0.02645,0.75385
0.2081,0.00415,0.0263,0.75375
0.2085,0.00485,0.0256,0.7534
0.2092,0.00405,0.0251,0.7535
0.2091,0.00445,0.02635,0.7532
0.2101,0.00395,0.0262,0.7525
0.2112,0.00365,0.0263,0.7518
0.21095,0.00455,0.02645,0.7514
0.21225,0.0037,0.0255,0.7514
0.21245,0.00445,0.0245,0.7514
0.2132,0.004,0.0249,0.75065
0.2139,0.00385,0.0246,0.7502
0.21395,0.0036,0.0241,0.751
0.2141,0.0044,0.0238,0.75025
0.2144,0.004,0.0242,0.7498
0.21605,0.0033,0.02435,0.74925
0.2172,0.00395,0.02325,0.74875
0.2177,0.00425,0.02395,0.74715
0.21835,0.00445,0.0238,0.7459
0.21935,0.0034,0.0245,0.7454
0.2192,0.00455,0.0243,0.7448
0.2194,0.0048,0.02395,0.7434
0.21935,0.0044,0.02545,0.7428
0.2194,0.00455,0.0261,0.7421
0.2188,0.00515,0.0263,0.7419
0.2186,0.0053,0.02675,0.74135
0.21855,0.0049,0.0271,0.74065
0.21745,0.00485,0.02765,0.74145
0.21855,0.0038,0.0286,0.74045
0.219,0.0044,0.02865,0.7403
0.218,0.00495,0.0279,0.7413
0.2175,0.00535,0.02785,0.741
0.21625,0.00525,0.02825,0.74135
0.21545,0.0051,0.0283,0.742
0.21545,0.00545,0.02885,0.7411
0.2157,0.00425,0.0292,0.741
0.21555,0.00455,0.0306,0.7409
0.21565,0.005,0.0302,0.7407
0.2143,0.0057,0.02965,0.74155
0.214,0.00495,0.0308,0.7414
0.2139,0.00505,0.03035,0.7417
0.21365,0.0057,0.0308,0.7407
0.21395,0.0049,0.0306,0.74085
0.21225,0.0053,0.0313,0.74235
0.2121,0.00505,0.0308,0.7431
0.2114,0.0053,0.032,0.7434
0.21075,0.00585,0.03185,0.74275
0.2105,0.0048,0.03115,0.7439
0.2082,0.00655,0.0306,0.745
0.2087,0.00475,0.03035,0.7453
0.20805,0.0054,0.03025,0.74545
0.2068,0.00515,0.0313,0.7462
0.20555,0.0057,0.03165,0.74655
0.20475,0.0052,0.0316,0.74775
0.20445,0.00535,0.03135,0.74835
0.20355,0.0053,0.03245,0.74855
0.20365,0.00525,0.033,0.7488
0.2037,0.0051,0.033,0.7489
0.2026,0.00625,0.03325,0.74915
0.2012,0.0054,0.03365,0.74995
0.20155,0.005,0.0341,0.7496
0.20045,0.00625,0.0344,0.74935
0.20075,0.00495,0.03375,0.74995
0.20085,0.00545,0.0335,0.74965
0.20005,0.0055,0.0343,0.7497
0.1999,0.00485,0.03255,0.7518
0.19925,0.00495,0.0334,0.75245
0.19795,0.0057,0.033,0.75375
0.197,0.00565,0.0338,0.7542
0.19675,0.0054,0.034,0.75425
0.19675,0.00485,0.03305,0.7552
0.198,0.0039,0.0328,0.75535
0.1989,0.0045,0.0328,0.75495
0.19795,0.00565,0.03185,0.7558
0.1983,0.0045,0.0317,0.75695
0.1994,0.00455,0.0316,0.7563
0.2001,0.00525,0.0309,0.7552
0.19795,0.0059,0.0321,0.75625
0.19945,0.0045,0.0314,0.7559
0.2,0.00515,0.03235,0.75435
0.1996,0.0055,0.0316,0.75445
0.1996,0.00515,0.0314,0.75485
0.1993,0.0054,0.0315,0.75495
0.1999,0.00485,0.032,0.7541
0.19985,0.00515,0.0319,0.7546
0.19985,0.00505,0.0328,0.754
0.19915,0.0051,0.03305,0.7546
0.1985,0.0057,0.0332,0.75415
0.19765,0.0054,0.03225,0.75515
0.19725,0.005,0.0327,0.7548
0.19735,0.0048,0.033,0.7554
0.1987,0.00445,0.03345,0.7545
0.19835,0.0052,0.03315,0.7548
0.199,0.00445,0.03135,0.75645
0.19885,0.0049,0.03115,0.7566
0.2001,0.00455,0.0312,0.75575
0.2006,0.00475,0.03055,0.7554
0.20055,0.0049,0.0303,0.755
0.2005,0.00535,0.0306,0.75385
0.2011,0.0045,0.0315,0.75365
0.2018,0.0046,0.0313,0.7536
0.2012,0.0053,0.0317,0.7532
0.2011,0.0048,0.03095,0.75425
0.20075,0.0052,0.0316,0.75395
0.2003,0.00485,0.03195,0.7541
0.201,0.0053,0.03115,0.75375
0.20055,0.0051,0.03145,0.75355
0.2014,0.00555,0.03245,0.75165
0.2023,0.00445,0.03225,0.7519
0.20175,0.00525,0.032,0.7518
0.20125,0.0053,0.0327,0.75235
0.20085,0.00495,0.0321,0.75305
0.20165,0.0055,0.0328,0.7513
0.20055,0.0066,0.0336,0.75035
0.1999,0.00545,0.0331,0.7518
0.19935,0.0049,0.0338,0.7527
0.1993,0.00545,0.03295,0.7531
0.198,0.00575,0.0333,0.7542
0.1984,0.00425,0.0321,0.7559
0.19865,0.00465,0.0318,0.7562
0.19935,0.00445,0.033,0.75565
0.19915,0.00465,0.0314,0.75695
0.1994,0.00535,0.03115,0.75595
0.20095,0.00445,0.03065,0.75505
0.20125,0.00455,0.03055,0.7551
0.20275,0.0043,0.02965,0.7546
0.203,0.0044,0.02915,0.7548
0.20325,0.0045,0.0286,0.75505
0.2039,0.0041,0.02845,0.75555
0.20485,0.004,0.02785,0.7556
0.20495,0.00535,0.0272,0.7548
0.20555,0.00465,0.02715,0.7539
0.2062,0.00375,0.0275,0.75415
0.20675,0.0047,0.0271,0.75375
0.2073,0.00445,0.02805,0.7526
0.2074,0.004,0.02785,0.75285
0.2069,0.00495,0.0275,0.75335
0.2067,0.0049,0.02635,0.7537
0.20805,0.00455,0.02725,0.752
0.20765,0.00515,0.0268,0.7518
0.2084,0.00465,0.0268,0.75085
0.2084,0.004,0.02815,0.75045
0.2089,0.0044,0.0285,0.75015
0.2094,0.0047,0.0285,0.75005
0.20995,0.00475,0.02825,0.74975
0.2098,0.0052,0.02785,0.7493
0.20985,0.0046,0.0274,0.7496
0.2105,0.0039,0.02725,0.74965
0.21065,0.00425,0.02815,0.74905
0.21035,0.0051,0.02795,0.7489
0.2094,0.0056,0.02935,0.7481
0.2093,0.00465,0.0286,0.7491
0.2103,0.00455,0.02945,0.74755
0.21055,0.00455,0.02995,0.7477
0.2108,0.0048,0.02875,0.7475
0.2109,0.00405,0.02785,0.74865
0.2106,0.00475,0.0282,0.74835
0.2117,0.0044,0.0284,0.74745
0.2125,0.00475,0.02805,0.7471
0.2118,0.0057,0.0283,0.74655
0.2117,0.00505,0.029,0.7459
0.2116,0.0052,0.0298,0.74535
0.2099,0.0058,0.03015,0.74595
0.2097,0.00465,0.03005,0.74675
0.21085,0.0044,0.03,0.7464
0.21065,0.00455,0.0298,0.7471
0.2106,0.00455,0.02875,0.74805
0.21,0.00545,0.02975,0.7471
0.21,0.00545,0.0306,0.74635
0.20915,0.00525,0.0303,0.74715
0.2103,0.00445,0.0303,0.74705
0.2104,0.00555,0.03035,0.74605
0.2111,0.00415,0.02995,0.7462
0.21055,0.0048,0.0303,0.7464
0.20915,0.0061,0.0303,0.74635
0.20955,0.0048,0.0297,0.7464
0.2095,0.00485,0.03035,0.7457
0.20925,0.00485,0.03045,0.74585
0.2083,0.0057,0.03035,0.7462
0.2088,0.0045,0.0313,0.74545
0.20875,0.00505,0.0319,0.7454
0.2071,0.0054,0.0306,0.74735
0.2061,0.00535,0.0308,0.7474
0.20545,0.0053,0.03045,0.7484
0.2049,0.0057,0.0312,0.7479
0.20395,0.0055,0.03335,0.74775
0.2026,0.00555,0.03355,0.749
0.2022,0.00535,0.03325,0.74955
0.2015,0.00595,0.0343,0.74945
0.20015,0.00635,0.034,0.7505
0.1986,0.0056,0.0343,0.7523
0.1983,0.0054,0.03405,0.7529
0.1983,0.00515,0.03385,0.7535
0.1973,0.0047,0.0333,0.7549
0.19745,0.00525,0.03295,0.7551
0.19525,0.0062,0.03305,0.7566
0.1938,0.0055,0.0337,0.75765
0.19275,0.0057,0.03335,0.75855
0.192,0.00555,0.03325,0.75935
0.1929,0.00515,0.0326,0.75915
0.19265,0.00505,0.0331,0.7594
0.1937,0.005,0.0323,0.75865
0.1938,0.00485,0.03285,0.75845
0.1942,0.0042,0.03275,0.75925
0.1937,0.00545,0.0332,0.75865
0.19395,0.0049,0.03305,0.7592
0.19505,0.00425,0.03215,0.75975
