moyS, moyE, moyI, moyR
0.999,0.0,0.001,0.0
0.99845,5.5E-4,6.0E-4,4.0E-4
0.998,4.5E-4,5.5E-4,5.5E-4
0.99735,6.5E-4,7.0E-4,8.0E-4
0.9962,0.00115,0.0012,9.5E-4
0.9952,0.001,0.00135,0.0014
0.99365,0.00155,0.00165,0.00175
0.99185,0.00185,0.0025,0.002
0.9886,0.0033,0.0036,0.00245
0.9854,0.0032,0.0056,0.0028
0.98,0.0054,0.0071,0.0036
0.97295,0.00705,0.0098,0.00475
0.9623,0.01065,0.01285,0.00665
0.949,0.0133,0.01695,0.00955
0.93085,0.0182,0.02355,0.01235
0.9072,0.02365,0.03235,0.016
0.87715,0.03005,0.04495,0.0215
0.83715,0.0401,0.0602,0.0288
0.7849,0.05225,0.079,0.0384
0.7227,0.06225,0.10315,0.05205
0.65045,0.0724,0.13405,0.0697
0.57335,0.07725,0.1637,0.09365
0.4945,0.0791,0.19865,0.12145
0.41265,0.08215,0.23635,0.1554
0.33625,0.077,0.2715,0.19415
0.2646,0.07215,0.2972,0.23815
0.207,0.0586,0.3166,0.28645
0.16005,0.04765,0.33025,0.3351
0.12575,0.0357,0.33685,0.3881
0.09835,0.0286,0.3349,0.43905
0.07875,0.02125,0.32435,0.4901
0.0647,0.0159,0.3108,0.53715
0.0535,0.01325,0.2901,0.58365
0.04455,0.01105,0.2705,0.6247
0.038,0.0086,0.2488,0.66265
0.034,0.00635,0.2305,0.6954
0.03055,0.00565,0.21005,0.725
0.0282,0.00525,0.1938,0.75035
0.0269,0.00445,0.1736,0.77705
0.02655,0.0032,0.15685,0.79755
0.02735,0.0027,0.14005,0.8169
0.027,0.00305,0.12465,0.8343
0.02775,0.0022,0.1115,0.849
0.0287,0.00255,0.09965,0.8615
0.0298,0.00205,0.0894,0.87255
0.032,0.0019,0.0781,0.88295
0.0339,0.0018,0.06985,0.8899
0.0361,0.0018,0.06115,0.89725
0.03835,0.0014,0.05325,0.903
0.03955,0.0018,0.04715,0.908
0.0416,0.0014,0.04195,0.91205
0.0439,9.0E-4,0.03685,0.91545
0.04615,0.00145,0.0322,0.9178
0.0491,0.0013,0.0293,0.9179
0.05115,0.00115,0.02595,0.91935
0.0529,0.00115,0.0239,0.92015
0.055,0.00105,0.0221,0.9201
0.05775,0.00115,0.0202,0.919
0.0603,5.0E-4,0.0186,0.91875
0.06265,9.5E-4,0.01675,0.9179
0.0647,7.5E-4,0.01545,0.91755
0.06755,0.001,0.01365,0.9162
0.06975,8.0E-4,0.01175,0.91585
0.0725,8.0E-4,0.0103,0.91465
0.0761,5.0E-4,0.01005,0.91175
0.0783,6.0E-4,0.00895,0.91075
0.0808,6.0E-4,0.00865,0.9089
0.08425,4.5E-4,0.0082,0.9062
0.08695,5.0E-4,0.00775,0.90385
0.08955,5.0E-4,0.0076,0.9014
0.09245,3.5E-4,0.0067,0.89935
0.09505,3.0E-4,0.00635,0.8973
0.09795,5.0E-4,0.00555,0.89525
0.1002,5.5E-4,0.0051,0.8935
0.1022,5.0E-4,0.00475,0.8917
0.1046,3.5E-4,0.00395,0.8901
0.1074,2.0E-4,0.0038,0.8877
0.1105,2.0E-4,0.00365,0.88495
0.1132,3.5E-4,0.00335,0.8825
0.11565,3.0E-4,0.00315,0.8803
0.11825,4.0E-4,0.003,0.8778
0.1207,5.0E-5,0.00295,0.87575
0.12355,4.5E-4,0.0025,0.873
0.1257,3.0E-4,0.00255,0.87085
0.12855,5.0E-5,0.0024,0.8685
0.13105,2.0E-4,0.00205,0.8663
0.13345,2.5E-4,0.0016,0.86425
0.13655,1.0E-4,0.0018,0.8612
0.13915,2.0E-4,0.0017,0.85865
0.14085,3.0E-4,0.0016,0.857
0.1436,3.0E-4,0.00165,0.85415
0.14555,2.5E-4,0.00155,0.85235
0.1485,1.0E-4,0.00155,0.84945
0.1508,5.0E-5,0.0015,0.8472
0.15405,1.0E-4,0.0016,0.84395
0.15705,0.0,0.00165,0.84105
0.159,1.5E-4,0.0015,0.83915
0.16155,1.5E-4,0.00155,0.8366
0.1648,1.0E-4,0.00125,0.83365
0.16685,1.5E-4,0.00125,0.83155
0.16845,2.5E-4,0.001,0.83
0.1708,1.0E-4,9.5E-4,0.82775
0.1731,1.5E-4,9.5E-4,0.8255
0.17555,1.0E-4,9.5E-4,0.8232
0.17795,5.0E-5,9.0E-4,0.8209
0.1802,0.0,8.5E-4,0.8188
0.1832,1.0E-4,7.5E-4,0.8158
0.18555,5.0E-5,8.0E-4,0.8134
0.1881,1.5E-4,7.5E-4,0.8108
0.18985,3.0E-4,7.0E-4,0.8088
0.1918,4.5E-4,8.0E-4,0.8066
0.19405,1.5E-4,8.5E-4,0.8044
0.19635,1.0E-4,8.0E-4,0.8023
0.1982,3.0E-4,0.001,0.80025
0.2007,3.0E-4,8.0E-4,0.7977
0.20265,1.0E-4,9.5E-4,0.79575
0.2049,2.0E-4,0.00105,0.79335
0.2073,1.5E-4,0.00105,0.7909
0.2099,1.5E-4,0.0012,0.7884
0.2117,2.5E-4,0.0012,0.78655
0.2138,3.0E-4,0.00125,0.78425
0.21595,0.0,0.00105,0.7825
0.2183,1.0E-4,9.5E-4,0.7802
0.22,5.0E-5,0.001,0.7785
0.22265,5.0E-5,8.5E-4,0.77605
0.22465,1.0E-4,9.5E-4,0.7741
0.2265,2.0E-4,9.0E-4,0.77215
0.22935,5.0E-5,8.5E-4,0.7694
0.23155,2.0E-4,9.0E-4,0.7671
0.23315,1.0E-4,9.5E-4,0.7655
0.2347,2.0E-4,0.0011,0.7638
0.2359,3.0E-4,0.0011,0.7625
0.23795,3.0E-4,0.0012,0.76025
0.2396,2.5E-4,0.00115,0.75855
0.24165,5.0E-5,0.00135,0.75655
0.2436,3.5E-4,0.0012,0.75455
0.24515,3.5E-4,0.0013,0.75275
0.2473,3.0E-4,0.00135,0.7505
0.24965,1.0E-4,0.0015,0.74825
0.2514,4.0E-4,0.0014,0.7464
0.25415,3.5E-4,0.00125,0.74375
0.2565,1.5E-4,0.0013,0.74145
0.2582,2.5E-4,0.0012,0.7399
0.2599,1.0E-4,0.00135,0.7382
0.26155,5.0E-4,0.00135,0.73615
0.26335,1.5E-4,0.0018,0.73425
0.2655,3.0E-4,0.00155,0.7322
0.26805,3.0E-4,0.0017,0.72955
0.26955,2.5E-4,0.00185,0.72805
0.2709,6.0E-4,0.0019,0.72635
0.27275,7.5E-4,0.00205,0.72395
0.274,9.0E-4,0.0023,0.7222
0.27605,5.5E-4,0.0023,0.7202
0.27795,5.0E-4,0.00265,0.71805
0.27965,7.0E-4,0.00255,0.7161
0.2811,5.5E-4,0.00245,0.71465
0.2826,4.0E-4,0.00295,0.71295
0.2843,4.5E-4,0.00275,0.71155
0.286,5.5E-4,0.003,0.7097
0.2867,9.5E-4,0.0033,0.70845
0.2883,7.0E-4,0.00305,0.7068
0.2894,6.5E-4,0.0033,0.7056
0.29045,7.0E-4,0.0032,0.70455
0.29155,6.5E-4,0.0035,0.70335
0.2923,0.00105,0.0035,0.70215
0.29395,7.0E-4,0.0036,0.7002
0.29515,4.0E-4,0.00355,0.6991
0.2964,7.5E-4,0.0036,0.69775
0.29725,9.5E-4,0.004,0.69635
0.29835,0.0011,0.004,0.6949
0.29935,0.0012,0.00445,0.69315
0.30045,0.00135,0.00485,0.69135
0.3011,0.00155,0.00515,0.68995
0.3012,0.0014,0.00575,0.6891
0.3018,0.00155,0.0057,0.68805
0.30245,0.0016,0.0067,0.6866
0.30365,0.0011,0.00685,0.68565
0.30465,0.0014,0.00665,0.68455
0.3054,0.00125,0.0068,0.6837
0.30585,0.00125,0.0066,0.6831
0.3061,0.0017,0.00725,0.68205
0.30655,0.0018,0.00735,0.68105
0.30655,0.00195,0.00795,0.68005
0.3062,0.00215,0.0085,0.67925
0.30565,0.0019,0.00905,0.6791
0.3065,0.00165,0.01015,0.678
0.3062,0.00245,0.01005,0.67795
0.30555,0.003,0.01055,0.6775
0.3056,0.0025,0.0113,0.67675
0.30515,0.00295,0.01135,0.6767
0.3041,0.00295,0.01225,0.6764
0.30355,0.0029,0.01305,0.676
0.303,0.0028,0.0132,0.67615
0.3026,0.00275,0.0128,0.6769
0.3001,0.0044,0.01425,0.6768
0.2981,0.00415,0.01625,0.6769
0.2961,0.00415,0.01695,0.67745
0.2941,0.00465,0.01795,0.67735
0.2921,0.0045,0.01945,0.6776
0.29,0.00425,0.01905,0.67905
0.2873,0.0048,0.02035,0.6798
0.2846,0.00485,0.02145,0.6813
0.2817,0.00555,0.0228,0.68185
0.2783,0.0056,0.0237,0.6836
0.2749,0.0059,0.02475,0.68505
0.27225,0.00525,0.0264,0.6864
0.26815,0.00645,0.0269,0.6887
0.2656,0.00545,0.0276,0.6903
0.26115,0.00685,0.029,0.6921
0.258,0.00595,0.03015,0.6942
0.25345,0.0069,0.033,0.6959
0.2477,0.0082,0.034,0.6991
0.2432,0.00705,0.03535,0.70185
0.23955,0.0065,0.03675,0.70435
0.23545,0.00635,0.03905,0.7074
0.2314,0.0061,0.0384,0.71185
0.22665,0.00745,0.03935,0.71515
0.22355,0.0061,0.0396,0.7183
0.21925,0.0078,0.0395,0.7208
0.2142,0.0073,0.0399,0.7248
0.20985,0.0074,0.0414,0.7274
0.2056,0.00735,0.04225,0.73115
0.2016,0.007,0.0417,0.7362
0.19695,0.0075,0.04235,0.7398
0.1932,0.0068,0.0434,0.74275
0.1896,0.00705,0.0441,0.7462
0.1856,0.00645,0.04505,0.75045
0.18305,0.00565,0.04455,0.75435
0.18005,0.00685,0.0443,0.7575
0.17695,0.0067,0.04435,0.7601
0.1738,0.0063,0.04495,0.76285
0.1714,0.0058,0.04395,0.76655
0.17045,0.00555,0.04345,0.7692
0.1698,0.0043,0.04255,0.77235
0.16725,0.00605,0.04095,0.77565
0.16615,0.0046,0.03965,0.77845
0.16565,0.0045,0.0382,0.7809
0.1646,0.0047,0.0365,0.7838
0.163,0.005,0.03615,0.78595
0.1626,0.00425,0.0363,0.78765
0.1621,0.0039,0.0352,0.78955
0.1611,0.00465,0.0339,0.79245
0.1601,0.0045,0.0326,0.79475
0.1599,0.00405,0.0315,0.79635
0.15985,0.00445,0.0317,0.79665
0.1598,0.0039,0.0324,0.7968
0.16025,0.0037,0.03225,0.79735
0.1594,0.0041,0.0306,0.7995
0.1608,0.0031,0.0294,0.79995
0.16095,0.00385,0.02805,0.8014
0.1621,0.0035,0.0271,0.80165
0.16355,0.003,0.0252,0.80225
0.1637,0.00395,0.02475,0.8015
0.16415,0.00355,0.0247,0.8012
0.1646,0.00395,0.02485,0.8009
0.16415,0.00375,0.02465,0.80155
0.1663,0.0027,0.0234,0.8014
0.1661,0.00375,0.02265,0.8021
0.16785,0.0028,0.02325,0.8008
0.1692,0.00285,0.0226,0.8001
0.16995,0.0033,0.022,0.7999
0.17095,0.0027,0.02125,0.7997
0.1717,0.00295,0.0204,0.79915
0.1728,0.00255,0.0198,0.799
0.1751,0.0028,0.02005,0.79695
0.17605,0.00295,0.0202,0.79595
0.17755,0.0027,0.0202,0.7945
0.1799,0.00205,0.0197,0.79345
0.1821,0.00215,0.01885,0.79225
0.18335,0.00275,0.0182,0.79155
0.18505,0.0024,0.0179,0.79
0.1871,0.00185,0.01735,0.7891
0.18855,0.0029,0.01665,0.7875
0.1905,0.0025,0.01655,0.78555
0.19195,0.00275,0.0176,0.78355
0.1925,0.00335,0.0167,0.7829
0.19345,0.00385,0.01705,0.7806
0.1949,0.0028,0.0174,0.77925
0.197,0.00295,0.0185,0.77645
0.19905,0.00265,0.01825,0.77535
0.1996,0.00375,0.01805,0.7743
0.2006,0.00255,0.01795,0.77325
0.2016,0.00315,0.01825,0.7719
0.2026,0.0025,0.0188,0.7714
0.20455,0.00285,0.0179,0.7697
0.20615,0.00335,0.0179,0.76765
0.2078,0.00265,0.0181,0.766
0.20955,0.00325,0.0185,0.7637
0.2111,0.0034,0.01865,0.7616
0.21195,0.00365,0.0189,0.76005
0.2122,0.00405,0.01975,0.7583
0.2138,0.00325,0.01965,0.7566
0.214,0.00315,0.0203,0.75625
0.2144,0.00345,0.0211,0.75495
0.2139,0.00385,0.0218,0.7547
0.21545,0.0033,0.02235,0.75345
0.2161,0.00385,0.02165,0.7524
0.2156,0.0043,0.02205,0.75165
0.2162,0.00385,0.02285,0.75055
0.21735,0.00335,0.02205,0.75035
0.21755,0.00405,0.02325,0.7489
0.21715,0.0043,0.0225,0.74955
0.2184,0.0039,0.0235,0.7478
0.21835,0.00485,0.0236,0.7466
0.21855,0.00435,0.02285,0.74625
0.2192,0.0036,0.02455,0.7444
0.21955,0.0039,0.0241,0.74365
0.2197,0.00505,0.0247,0.74285
0.22055,0.0043,0.02525,0.7415
0.2197,0.00485,0.02585,0.74145
0.21955,0.0044,0.02675,0.7411
0.2198,0.0051,0.02745,0.73995
0.2181,0.00465,0.02695,0.74145
0.2175,0.00515,0.02765,0.7413
0.2175,0.00405,0.02875,0.74135
0.21615,0.0053,0.02875,0.74155
0.2161,0.00445,0.02815,0.7425
0.2151,0.0054,0.02795,0.7427
0.21545,0.00395,0.02915,0.7422
0.21545,0.0047,0.0291,0.74205
0.21405,0.0056,0.0303,0.7422
0.2125,0.0059,0.0307,0.7427
0.21105,0.00585,0.0304,0.7437
0.21,0.0047,0.0317,0.7437
0.2098,0.0048,0.0319,0.74375
0.20935,0.0054,0.0318,0.7438
0.20865,0.0054,0.0312,0.74445
0.20715,0.00565,0.0323,0.7449
0.2054,0.00635,0.0321,0.7452
0.20395,0.00615,0.03275,0.7457
0.20365,0.0054,0.03325,0.74605
0.20295,0.00565,0.0353,0.745
0.20145,0.00525,0.0355,0.7469
0.2009,0.00525,0.03605,0.74775
0.1985,0.00595,0.03635,0.74925
0.1971,0.0062,0.03625,0.74985
0.19545,0.00615,0.037,0.75125
0.1936,0.00605,0.0372,0.75295
0.1917,0.006,0.03725,0.755
0.1912,0.0054,0.0374,0.75625
0.19035,0.0049,0.03735,0.75785
0.1891,0.0056,0.037,0.7591
0.1894,0.00485,0.03525,0.761
0.1904,0.0044,0.03465,0.7611
0.1892,0.00595,0.0336,0.7621
0.18905,0.00495,0.0341,0.7623
0.1896,0.0048,0.03405,0.762
0.1886,0.00505,0.03455,0.76265
0.1881,0.00545,0.0333,0.7639
0.18835,0.0051,0.03265,0.76395
0.1888,0.00455,0.0325,0.7647
0.18945,0.00485,0.0328,0.7639
0.1892,0.0047,0.03375,0.76415
0.1893,0.00475,0.03165,0.7659
0.18925,0.00495,0.0314,0.7661
0.1896,0.0041,0.0304,0.7674
0.19095,0.0038,0.0294,0.76785
0.1917,0.00405,0.0282,0.7678
0.1928,0.0042,0.0288,0.76645
0.19365,0.004,0.028,0.7663
0.1933,0.0046,0.02815,0.7662
0.1943,0.0039,0.0276,0.7659
0.1952,0.00405,0.02735,0.7657
0.19585,0.00375,0.02715,0.7655
0.19585,0.00445,0.0271,0.7654
0.19695,0.0038,0.02765,0.765
0.1976,0.00395,0.0264,0.7646
0.19875,0.00395,0.0273,0.76275
0.1996,0.0041,0.0269,0.76235
0.20035,0.0047,0.02705,0.76035
0.20025,0.00435,0.0266,0.7608
0.2016,0.0043,0.0275,0.7588
0.20275,0.00415,0.02755,0.7576
0.2026,0.0043,0.028,0.75765
0.2022,0.0054,0.0279,0.7568
0.20235,0.0045,0.0289,0.75595
0.20245,0.005,0.0279,0.75585
0.20225,0.00455,0.02775,0.75645
0.2036,0.0038,0.02815,0.75585
0.20345,0.00435,0.0283,0.7557
0.2043,0.0037,0.0283,0.75575
0.2049,0.00465,0.02895,0.75515
0.2046,0.00535,0.02815,0.75445
0.2042,0.00505,0.02815,0.75455
0.20535,0.0041,0.02815,0.7539
0.20545,0.0042,0.02695,0.75485
0.20725,0.00395,0.0272,0.753
0.20705,0.00505,0.02795,0.7521
0.2067,0.00545,0.02805,0.7516
0.2065,0.0038,0.0281,0.75315
0.2056,0.00515,0.0283,0.75315
0.2051,0.00505,0.02795,0.7532
0.2048,0.0054,0.02815,0.75255
0.2052,0.00525,0.02915,0.7512
0.2055,0.00475,0.02915,0.75135
0.20615,0.0039,0.03,0.75105
0.2075,0.00455,0.02975,0.74985
0.2064,0.00555,0.02975,0.7503
0.20615,0.0057,0.031,0.74875
0.20685,0.004,0.03195,0.7485
0.20695,0.00485,0.03065,0.749
0.20755,0.00535,0.0304,0.7482
0.20815,0.0051,0.03095,0.74725
0.20885,0.0044,0.0302,0.74725
0.20865,0.00515,0.0299,0.7472
0.2077,0.0054,0.0313,0.74745
0.2081,0.0044,0.02955,0.7487
0.2082,0.00465,0.02985,0.7487
0.20825,0.00485,0.02945,0.74885
0.20705,0.00525,0.02905,0.7494
0.2086,0.0043,0.02885,0.74875
0.2087,0.00425,0.0306,0.748
0.20815,0.00505,0.03025,0.74835
0.2071,0.00545,0.0304,0.7492
0.2064,0.0053,0.03035,0.75035
0.207,0.004,0.02985,0.75095
0.20645,0.0053,0.0287,0.7508
0.2066,0.00485,0.02855,0.751
0.2063,0.0046,0.028,0.75155
0.2064,0.00445,0.02865,0.75155
0.20635,0.0049,0.0282,0.7516
0.20565,0.0052,0.03,0.7506
0.2054,0.00595,0.0306,0.7496
0.20475,0.00505,0.0311,0.7496
0.20355,0.00485,0.03065,0.75125
0.20275,0.0055,0.0307,0.7515
0.20285,0.00465,0.03205,0.75095
0.2025,0.0053,0.03335,0.75035
0.20215,0.00485,0.03235,0.7513
0.2028,0.0039,0.03215,0.7521
0.20105,0.0059,0.0323,0.7526
0.1994,0.0065,0.0334,0.75205
0.199,0.00535,0.0344,0.7517
0.19765,0.0059,0.0356,0.75205
0.19805,0.005,0.03545,0.7518
0.1957,0.00685,0.03555,0.75195
0.1944,0.00605,0.0367,0.75265
0.1938,0.0052,0.03615,0.7545
0.1933,0.00555,0.035,0.75605
0.19285,0.0061,0.0351,0.75595
0.1906,0.00695,0.03525,0.7573
0.1905,0.0051,0.03585,0.7577
0.1897,0.00555,0.0358,0.75865
0.1883,0.0058,0.03565,0.7602
0.1881,0.00515,0.0361,0.7608
0.1872,0.00595,0.0352,0.7613
0.18625,0.0056,0.0356,0.7621
0.18555,0.0054,0.0355,0.76305
0.1862,0.00465,0.0353,0.7636
0.1871,0.00395,0.0353,0.7649
0.18655,0.00465,0.03415,0.76625
0.18665,0.00475,0.03325,0.7673
0.18625,0.0049,0.03175,0.7686
0.1861,0.00455,0.0304,0.76995
0.18595,0.00455,0.0306,0.7699
0.1853,0.00505,0.03045,0.7702
0.18535,0.00475,0.03065,0.77
0.18595,0.00415,0.03045,0.77085
0.18725,0.0042,0.0291,0.77
0.18715,0.0045,0.03,0.76975
0.18765,0.00495,0.0299,0.76875
0.18765,0.0047,0.0293,0.76875
0.189,0.00415,0.029,0.7685
0.19035,0.0046,0.0299,0.7668
0.1908,0.00455,0.0304,0.76635
0.19115,0.0052,0.0302,0.76585
0.19185,0.0048,0.0307,0.76485
0.1923,0.0047,0.03075,0.76365
0.1923,0.0049,0.03085,0.7638
0.19295,0.004,0.03065,0.7639
0.1929,0.00515,0.0295,0.7642
0.19275,0.005,0.029,0.7651
0.193,0.0045,0.0281,0.76505
0.1929,0.00475,0.02875,0.76475
0.1931,0.0044,0.0291,0.7649
0.19355,0.0042,0.02825,0.76545
0.19445,0.0041,0.0286,0.76455
0.19555,0.0045,0.0283,0.76335
0.19665,0.0036,0.02835,0.76295
0.1971,0.00475,0.0285,0.7618
0.1977,0.00455,0.02915,0.76075
0.19665,0.00545,0.0295,0.76055
0.1976,0.00395,0.0299,0.7602
0.19695,0.0049,0.02895,0.76165
0.19665,0.0046,0.02865,0.7619
0.19715,0.00385,0.0288,0.7621
0.1978,0.00465,0.02895,0.76095
0.19825,0.00405,0.02945,0.76095
0.1981,0.0045,0.02875,0.76205
0.19845,0.004,0.0286,0.76225
0.19965,0.0042,0.0278,0.76125
0.19925,0.0052,0.02805,0.76025
0.19925,0.0044,0.02785,0.7601
0.19895,0.00425,0.0269,0.76145
0.1993,0.0046,0.0269,0.761
0.1999,0.00405,0.0275,0.7607
0.1996,0.0051,0.0276,0.7601
0.19965,0.00475,0.0283,0.7593
0.1993,0.0044,0.0286,0.75965
0.19955,0.0047,0.02735,0.7598
0.2013,0.00385,0.0285,0.75805
0.20145,0.0046,0.02865,0.75735
0.2009,0.0047,0.02805,0.7581
0.2015,0.00445,0.02835,0.75755
0.20155,0.00495,0.02785,0.7581
0.20185,0.00415,0.02845,0.75755
0.2021,0.0046,0.02835,0.7576
0.2015,0.00505,0.02855,0.7577
0.20165,0.0047,0.0284,0.7575
0.2026,0.0039,0.02885,0.7565
0.20405,0.0043,0.0285,0.75485
0.20505,0.0043,0.02875,0.7536
0.20515,0.00495,0.0281,0.7535
0.20475,0.00525,0.0286,0.7526
0.20405,0.00495,0.02935,0.7528
0.20385,0.00445,0.02975,0.75365
0.20485,0.00405,0.02925,0.75325
0.20385,0.005,0.02865,0.75455
0.2049,0.00385,0.0283,0.7548
0.20565,0.0043,0.02745,0.75455
0.2059,0.004,0.027,0.75485
0.2064,0.00375,0.02695,0.75525
0.2063,0.0047,0.0261,0.7555
0.20675,0.005,0.02615,0.75435
0.20655,0.00445,0.0274,0.754
0.2071,0.00435,0.0271,0.7533
0.20685,0.0053,0.027,0.75235
0.20765,0.00385,0.0279,0.75155
0.2072,0.00505,0.02715,0.75155
0.20765,0.0051,0.0283,0.75035
0.2076,0.0046,0.02815,0.7511
0.2061,0.00485,0.029,0.75155
0.20575,0.0049,0.03005,0.75095
0.20505,0.0046,0.03095,0.7515
0.20495,0.0055,0.03085,0.7508
0.20355,0.0052,0.03015,0.7525
0.2035,0.0047,0.03035,0.7523
0.20345,0.0055,0.03035,0.75205
0.2035,0.00455,0.0309,0.75165
0.2026,0.00555,0.03135,0.75195
0.20345,0.00435,0.03085,0.75205
0.2027,0.00545,0.0306,0.75285
0.20315,0.0047,0.0302,0.75365
0.20435,0.0045,0.0302,0.75225
0.20355,0.0053,0.03,0.75275
0.2043,0.005,0.031,0.75145
0.20425,0.0053,0.03135,0.7513
0.20415,0.00465,0.03065,0.75255
0.20415,0.0048,0.0298,0.75305
0.2036,0.00485,0.03045,0.75315
0.20195,0.0056,0.03,0.75385
0.2026,0.00435,0.0289,0.7548
0.2035,0.00405,0.0287,0.7545
0.2039,0.00405,0.0281,0.755
0.20385,0.00445,0.02835,0.7549
0.2035,0.0047,0.02845,0.7552
0.2039,0.00485,0.02905,0.75375
0.20435,0.00435,0.02915,0.7535
0.2042,0.0051,0.0291,0.7537
0.20565,0.00415,0.02945,0.7528
0.20485,0.0059,0.02945,0.7525
0.20495,0.0051,0.03005,0.75185
0.20425,0.00535,0.02955,0.75215
0.2054,0.0042,0.03,0.7508
0.20565,0.00535,0.0307,0.74955
0.20565,0.00425,0.0311,0.75
0.2056,0.00495,0.03035,0.7498
0.20575,0.0048,0.03125,0.74895
0.20595,0.005,0.0313,0.7486
0.2058,0.00495,0.0308,0.74895
0.2046,0.00495,0.03075,0.75035
0.2053,0.00395,0.02985,0.75115
0.2061,0.00395,0.0304,0.7507
0.2046,0.0052,0.0303,0.75105
0.2055,0.00505,0.03145,0.7492
0.2049,0.0052,0.0316,0.7501
0.2045,0.0047,0.03185,0.7504
0.2043,0.005,0.03115,0.75075
0.20435,0.00475,0.0315,0.7504
0.20405,0.0049,0.03215,0.75045
0.204,0.005,0.0313,0.75095
0.2029,0.00515,0.0323,0.75115
0.20245,0.0052,0.0317,0.75145
0.20155,0.0056,0.0318,0.75225
0.2007,0.0051,0.0317,0.75345
0.2,0.0053,0.0315,0.7543
0.1985,0.00585,0.0302,0.756
0.1988,0.00465,0.031,0.75575
0.1995,0.0047,0.031,0.7555
0.19965,0.0047,0.03115,0.75545
0.1998,0.00475,0.03125,0.75595
0.1996,0.00535,0.03095,0.7563
0.199,0.0053,0.03005,0.7568
0.1986,0.00515,0.0311,0.7563
0.19945,0.00485,0.0319,0.75475
0.19875,0.00565,0.03115,0.75515
0.1987,0.0053,0.032,0.7547
0.19885,0.0051,0.0322,0.7546
0.1994,0.0048,0.0314,0.75495
0.19995,0.00505,0.0308,0.7545
0.2018,0.0042,0.0306,0.7542
0.20225,0.0046,0.02995,0.7541
0.2027,0.00435,0.0296,0.7545
0.2025,0.00485,0.02895,0.7553
0.2035,0.0041,0.02795,0.7552
0.20435,0.0048,0.0286,0.7535
0.2046,0.00505,0.0281,0.7534
0.20495,0.00435,0.02895,0.75325
0.2055,0.00455,0.0289,0.7526
0.2049,0.0048,0.0277,0.7535
0.2044,0.0051,0.02835,0.7529
0.20345,0.0058,0.02905,0.7525
0.204,0.00485,0.02975,0.75195
0.20515,0.00405,0.0299,0.7515
0.2051,0.00485,0.02955,0.75175
0.20375,0.0056,0.0295,0.7523
0.20375,0.0044,0.0297,0.75295
0.20465,0.0047,0.0303,0.7521
0.2034,0.0057,0.03045,0.75235
0.2033,0.0053,0.0304,0.75195
0.2036,0.005,0.0311,0.75075
0.20435,0.0045,0.0316,0.74985
0.20245,0.0065,0.03235,0.74995
0.2015,0.00595,0.03245,0.74955
0.2018,0.00525,0.0323,0.74935
0.2018,0.0047,0.0327,0.74975
0.2017,0.00525,0.03305,0.74985
0.20265,0.00525,0.0335,0.74905
0.20185,0.0058,0.034,0.74855
0.20125,0.0053,0.0346,0.74885
0.19975,0.0063,0.03455,0.7495
0.19875,0.00585,0.03505,0.75005
0.1975,0.0064,0.0352,0.75085
0.19635,0.00575,0.0365,0.7513
0.196,0.00555,0.0374,0.7517
0.195,0.00575,0.0377,0.75165
0.1935,0.0057,0.0378,0.75305
0.19425,0.0045,0.0374,0.75365
0.1944,0.005,0.0361,0.7547
0.1946,0.00485,0.0361,0.75565
0.19325,0.0056,0.03605,0.75705
0.1918,0.00555,0.03605,0.7583
0.1902,0.006,0.0362,0.7593
0.18865,0.0061,0.03525,0.76055
0.1879,0.00665,0.0351,0.76015
0.18685,0.00605,0.036,0.7603
0.18635,0.00495,0.03555,0.76215
0.1867,0.00465,0.03565,0.7623
0.18795,0.00415,0.0347,0.7629
0.1862,0.00615,0.03405,0.76455
0.1864,0.00515,0.0335,0.76485
0.18715,0.00515,0.03395,0.76415
0.1871,0.0048,0.03375,0.76455
0.18645,0.0052,0.0337,0.7653
0.18575,0.006,0.03395,0.76445
0.186,0.0049,0.0324,0.7663
0.18505,0.0057,0.0329,0.7664
0.1834,0.0064,0.03435,0.7659
0.18415,0.005,0.0348,0.7656
0.1837,0.00525,0.03435,0.7671
0.18395,0.005,0.0344,0.7671
0.18305,0.00555,0.03375,0.7684
0.1823,0.0051,0.03295,0.7699
0.1835,0.0046,0.03305,0.76925
0.18445,0.0045,0.0331,0.769
0.1839,0.00555,0.033,0.7693
0.18365,0.0054,0.03155,0.7701
0.1844,0.00425,0.03335,0.7691
0.1843,0.00465,0.0324,0.77015
0.18445,0.0046,0.03205,0.7705
0.18675,0.0035,0.032,0.7694
0.1884,0.00425,0.03075,0.76895
0.18955,0.00465,0.02975,0.7679
0.19035,0.0041,0.0293,0.76795
0.19035,0.0044,0.0296,0.7678
0.19105,0.0042,0.0297,0.7673
0.1911,0.00495,0.029,0.76735
0.19175,0.00415,0.0286,0.76745
0.1924,0.0041,0.02865,0.76725
0.1928,0.0039,0.0275,0.7683
0.19375,0.004,0.02745,0.76765
0.1957,0.00405,0.02705,0.7662
0.1961,0.0042,0.027,0.76595
0.1969,0.0044,0.0268,0.76455
0.19725,0.0047,0.02695,0.7637
0.1986,0.00345,0.0271,0.7638
0.1982,0.00505,0.02645,0.76335
0.19925,0.0034,0.0264,0.763
0.2002,0.00385,0.0261,0.76245
0.20095,0.0042,0.02535,0.7623
0.2013,0.00415,0.02555,0.76165
0.2022,0.0039,0.025,0.7616
0.2029,0.00445,0.02495,0.76025
0.205,0.00345,0.026,0.75805
0.2062,0.00365,0.02565,0.7574
0.2074,0.00375,0.02445,0.75725
0.2093,0.00325,0.02335,0.75655
0.2091,0.0043,0.02375,0.75585
0.20955,0.00415,0.0239,0.75495
0.21085,0.00325,0.0244,0.75445
0.2115,0.00405,0.0248,0.75285
0.21205,0.0046,0.02575,0.7514
0.21335,0.00355,0.0261,0.75035
0.21265,0.0051,0.026,0.7503
0.2136,0.004,0.02605,0.7498
0.21315,0.00475,0.026,0.7495
0.21375,0.0044,0.02655,0.7484
0.2134,0.00495,0.02695,0.74815
0.21405,0.00385,0.02725,0.7474
0.2143,0.00415,0.0268,0.74725
0.21435,0.00405,0.0269,0.7473
0.21505,0.0052,0.0271,0.74535
0.2146,0.0045,0.0268,0.746
0.2145,0.0047,0.0265,0.7469
0.21385,0.00535,0.02715,0.74575
0.21335,0.0047,0.02815,0.7455
0.214,0.004,0.0285,0.74585
0.21385,0.00505,0.02775,0.746
0.21385,0.00455,0.02785,0.74585
0.21415,0.0042,0.02735,0.74565
0.21475,0.0041,0.02755,0.74525
0.2156,0.00395,0.0281,0.7446
0.2156,0.00525,0.027,0.74485
0.2173,0.00335,0.02725,0.7441
0.2169,0.00505,0.0273,0.74335
0.21775,0.00445,0.0268,0.74275
0.2178,0.0049,0.02725,0.7423
0.21815,0.00405,0.0278,0.7422
0.21725,0.005,0.0268,0.74285
0.21675,0.005,0.0265,0.74265
0.2167,0.00405,0.0265,0.7434
