moyS, moyE, moyI, moyR
0.999,0.0,0.001,0.0
0.99875,2.5E-4,8.5E-4,1.5E-4
0.998,7.5E-4,7.5E-4,3.0E-4
0.9972,8.5E-4,0.00115,4.0E-4
0.99595,0.00125,0.0016,5.0E-4
0.99425,0.0017,0.0021,6.0E-4
0.99125,0.003,0.0032,0.001
0.98745,0.0038,0.00465,0.0018
0.98285,0.00465,0.00685,0.0021
0.97535,0.0075,0.0094,0.0034
0.9646,0.01075,0.013,0.0053
0.9527,0.0119,0.0173,0.00755
0.93625,0.01645,0.02225,0.01085
0.91315,0.02315,0.0315,0.0146
0.8845,0.0287,0.04285,0.01995
0.84755,0.037,0.05565,0.0262
0.79835,0.04935,0.07695,0.03505
0.73705,0.0614,0.0984,0.0488
0.66945,0.0678,0.12485,0.0664
0.59005,0.07965,0.15645,0.0875
0.5068,0.0836,0.1939,0.11375
0.42305,0.08415,0.22775,0.1478
0.3456,0.07835,0.2636,0.1851
0.27595,0.0705,0.2953,0.2275
0.2166,0.06055,0.32015,0.2733
0.1673,0.05025,0.33805,0.32115
0.12675,0.04165,0.345,0.37235
0.09825,0.02955,0.3451,0.4227
0.0751,0.02435,0.34045,0.4709
0.05945,0.01785,0.32835,0.5194
0.04925,0.01225,0.3091,0.56665
0.0403,0.01145,0.29035,0.60715
0.0342,0.0083,0.2691,0.64655
0.03045,0.00625,0.2494,0.68115
0.0272,0.0057,0.22775,0.7131
0.02585,0.00425,0.2029,0.7452
0.0249,0.0038,0.18355,0.77005
0.02505,0.003,0.16365,0.79275
0.02555,0.0025,0.14615,0.81355
0.02565,0.00315,0.1302,0.831
0.02525,0.0031,0.11755,0.84615
0.02585,0.00225,0.10575,0.85915
0.0273,0.00255,0.0928,0.8714
0.0277,0.00235,0.0821,0.8826
0.0295,0.0018,0.0728,0.89125
0.0314,0.0018,0.0646,0.89815
0.03365,0.00125,0.057,0.90485
0.0359,0.0013,0.05005,0.9101
0.0376,0.00155,0.04485,0.91375
0.0402,0.00145,0.0407,0.9158
0.04225,0.00135,0.03595,0.91845
0.04515,0.00115,0.0313,0.92035
0.048,6.5E-4,0.0274,0.92215
0.0506,0.00115,0.0243,0.9224
0.05385,8.0E-4,0.0221,0.9219
0.0569,5.5E-4,0.02,0.9213
0.0595,8.0E-4,0.0175,0.92105
0.0626,4.0E-4,0.0154,0.9205
0.0647,6.5E-4,0.0137,0.9197
0.0679,5.5E-4,0.0122,0.9182
0.07065,6.0E-4,0.0109,0.91665
0.07355,5.0E-4,0.0095,0.9153
0.0762,5.5E-4,0.00865,0.9136
0.07985,3.5E-4,0.00735,0.91145
0.08275,3.5E-4,0.00675,0.90925
0.08525,6.5E-4,0.0056,0.90765
0.0884,3.0E-4,0.00575,0.9049
0.0909,5.5E-4,0.005,0.9028
0.0939,4.5E-4,0.00485,0.90015
0.0959,3.0E-4,0.00415,0.8989
0.0987,1.5E-4,0.0039,0.89675
0.10165,2.5E-4,0.0031,0.8945
0.1045,1.0E-4,0.00305,0.89205
0.1072,2.0E-4,0.00275,0.88965
0.10985,3.5E-4,0.0023,0.8872
0.11225,1.5E-4,0.00225,0.8849
0.1147,1.5E-4,0.0019,0.88285
0.11745,1.5E-4,0.0017,0.88035
0.12055,1.5E-4,0.0015,0.8774
0.12325,2.0E-4,0.00145,0.87475
0.1259,3.0E-4,0.00135,0.872
0.1279,1.0E-4,0.00135,0.8702
0.13055,1.5E-4,0.0012,0.86775
0.1332,5.0E-5,0.0012,0.86525
0.13615,1.5E-4,0.001,0.86245
0.1384,1.0E-4,0.0011,0.8602
0.1412,5.0E-5,0.00115,0.85735
0.144,1.0E-4,0.0012,0.85445
0.14625,1.5E-4,0.00125,0.8522
0.1485,2.0E-4,0.00125,0.84985
0.1505,2.5E-4,0.00135,0.84765
0.15245,2.5E-4,0.00115,0.84585
0.15515,1.5E-4,0.0011,0.8433
0.157,1.5E-4,0.0011,0.84145
0.1593,2.0E-4,0.0012,0.8391
0.16205,1.5E-4,0.0011,0.8364
0.1641,1.0E-4,0.0011,0.83445
0.16645,1.5E-4,0.001,0.8322
0.1684,1.0E-4,0.001,0.8303
0.1712,5.0E-5,9.5E-4,0.82755
0.17375,1.5E-4,9.0E-4,0.82505
0.17655,0.0,8.5E-4,0.8224
0.17825,2.0E-4,8.5E-4,0.82055
0.18035,2.0E-4,8.5E-4,0.8184
0.1825,2.5E-4,8.5E-4,0.81615
0.1844,1.5E-4,9.5E-4,0.81425
0.1867,3.0E-4,0.0011,0.8117
0.189,1.5E-4,0.00125,0.80935
0.19105,5.0E-5,0.0012,0.8075
0.1932,1.5E-4,9.5E-4,0.8055
0.1954,1.5E-4,0.0011,0.8032
0.19805,1.5E-4,0.00105,0.8006
0.2002,1.0E-4,9.5E-4,0.7985
0.2025,5.0E-5,9.0E-4,0.7963
0.2049,0.0,6.0E-4,0.7942
0.207,5.0E-5,7.0E-4,0.7921
0.2093,5.0E-5,7.5E-4,0.78975
0.2109,5.0E-5,7.0E-4,0.7882
0.2135,5.0E-5,6.0E-4,0.7857
0.21555,1.0E-4,7.0E-4,0.78355
0.2175,2.0E-4,7.5E-4,0.7815
0.2195,1.5E-4,9.5E-4,0.7794
0.22145,1.0E-4,8.0E-4,0.77755
0.2233,1.5E-4,7.0E-4,0.7758
0.22555,2.5E-4,8.5E-4,0.7733
0.22775,2.5E-4,9.0E-4,0.77095
0.2295,2.0E-4,9.5E-4,0.76915
0.23145,1.5E-4,0.0011,0.76715
0.23395,2.5E-4,0.00115,0.76445
0.23605,3.5E-4,0.00115,0.7622
0.2377,1.5E-4,0.00125,0.7606
0.24005,5.0E-5,0.001,0.7586
0.24205,1.5E-4,9.0E-4,0.75665
0.2442,4.0E-4,0.00105,0.7541
0.2461,1.5E-4,0.0013,0.75215
0.2483,2.5E-4,0.00125,0.7499
0.2502,1.0E-4,0.001,0.7483
0.252,5.0E-5,9.5E-4,0.74655
0.2534,1.0E-4,0.0012,0.7451
0.255,2.5E-4,0.00115,0.74355
0.25695,2.0E-4,8.5E-4,0.74185
0.2589,2.0E-4,8.5E-4,0.73975
0.26145,5.0E-5,0.00105,0.73715
0.26365,2.0E-4,9.0E-4,0.735
0.26585,1.0E-4,8.0E-4,0.7329
0.2679,1.5E-4,7.5E-4,0.73085
0.26985,0.0,8.0E-4,0.72895
0.27155,1.0E-4,8.0E-4,0.72725
0.2733,2.0E-4,8.5E-4,0.72535
0.2755,1.5E-4,7.5E-4,0.72315
0.27705,1.5E-4,9.5E-4,0.7215
0.2786,2.5E-4,9.5E-4,0.7199
0.2802,1.5E-4,8.5E-4,0.71845
0.28175,4.0E-4,8.5E-4,0.7167
0.2833,2.5E-4,9.0E-4,0.71515
0.2852,5.0E-5,8.5E-4,0.7134
0.2866,3.5E-4,9.0E-4,0.71175
0.2888,0.0,0.001,0.7097
0.2909,5.0E-5,0.001,0.70775
0.29245,3.5E-4,9.0E-4,0.7061
0.2944,5.0E-5,0.0011,0.70415
0.2961,1.0E-4,0.001,0.7025
0.29805,2.5E-4,8.5E-4,0.70055
0.3001,3.0E-4,6.0E-4,0.69855
0.3017,2.5E-4,0.00105,0.69675
0.30335,2.5E-4,0.0011,0.695
0.3048,3.0E-4,0.0012,0.6933
0.30715,2.0E-4,0.0012,0.69085
0.3086,5.0E-4,0.0015,0.68915
0.31095,3.5E-4,0.0017,0.68665
0.3123,6.0E-4,0.00145,0.6851
0.3136,4.5E-4,0.0014,0.68355
0.3152,4.5E-4,0.0019,0.68165
0.3168,5.5E-4,0.0019,0.6798
0.31855,3.5E-4,0.00195,0.67815
0.3198,3.0E-4,0.00205,0.6769
0.3209,7.0E-4,0.00225,0.67525
0.3227,5.5E-4,0.00225,0.6733
0.32375,8.0E-4,0.0025,0.6718
0.3251,7.0E-4,0.0026,0.67025
0.32685,5.0E-4,0.0029,0.66845
0.3279,7.0E-4,0.00315,0.6671
0.32945,9.0E-4,0.0035,0.66505
0.33,9.0E-4,0.00365,0.66405
0.3309,0.0011,0.0043,0.6624
0.3317,9.5E-4,0.00465,0.6612
0.33315,9.5E-4,0.00475,0.65955
0.33315,0.00115,0.00465,0.65925
0.334,0.00115,0.005,0.6579
0.3348,0.0014,0.00545,0.65635
0.3345,0.0017,0.0059,0.6557
0.33515,0.00145,0.0061,0.65475
0.3362,0.0015,0.00615,0.6534
0.33625,0.0018,0.0067,0.6523
0.3368,0.0016,0.00735,0.65115
0.33735,0.0018,0.0077,0.65015
0.33715,0.00195,0.0084,0.6497
0.3369,0.0021,0.00865,0.64915
0.33625,0.0022,0.00875,0.64915
0.3347,0.00295,0.00945,0.6491
0.33445,0.0023,0.0102,0.64895
0.3333,0.0029,0.01135,0.64885
0.33285,0.003,0.0124,0.6477
0.33125,0.00395,0.0131,0.6474
0.32935,0.0044,0.01425,0.64695
0.3275,0.00395,0.0153,0.64715
0.3254,0.00435,0.01635,0.64765
0.32225,0.005,0.01825,0.6482
0.31925,0.0053,0.0196,0.64905
0.31585,0.00535,0.0214,0.6503
0.31215,0.0059,0.022,0.6516
0.30875,0.0058,0.0241,0.6525
0.3048,0.006,0.02565,0.654
0.30065,0.00615,0.027,0.65645
0.2972,0.00575,0.02905,0.65765
0.29155,0.0079,0.0307,0.65985
0.2864,0.0072,0.0318,0.663
0.2818,0.0073,0.0334,0.66525
0.2755,0.00855,0.0339,0.6692
0.27025,0.0078,0.03655,0.67195
0.26435,0.00805,0.0381,0.6762
0.2581,0.00865,0.03965,0.6795
0.25205,0.00885,0.0415,0.6832
0.24555,0.0084,0.0431,0.68785
0.24025,0.0081,0.0448,0.6923
0.23515,0.0077,0.0453,0.6971
0.22955,0.0083,0.04585,0.70145
0.22325,0.0085,0.0459,0.70705
0.2175,0.00845,0.04785,0.7116
0.2124,0.0076,0.04825,0.71735
0.20815,0.00745,0.0492,0.72115
0.20385,0.00755,0.0486,0.7261
0.1966,0.01025,0.04955,0.73075
0.1916,0.00755,0.0507,0.73615
0.18595,0.0082,0.0503,0.74155
0.1812,0.00705,0.05075,0.7469
0.1781,0.00665,0.0504,0.7512
0.17365,0.0078,0.0492,0.756
0.1699,0.0071,0.05005,0.7598
0.16665,0.0064,0.0517,0.7632
0.1641,0.00575,0.05055,0.7672
0.1604,0.00655,0.04925,0.77155
0.15765,0.00655,0.0469,0.77645
0.1553,0.0057,0.0462,0.781
0.15375,0.00495,0.04415,0.7856
0.153,0.00435,0.04325,0.78905
0.1518,0.0046,0.0418,0.7922
0.15065,0.0046,0.03945,0.79585
0.15005,0.0043,0.03805,0.79875
0.1492,0.00475,0.03655,0.80065
0.14945,0.0037,0.0357,0.80225
0.14985,0.00405,0.0341,0.8036
0.14985,0.00405,0.0332,0.8051
0.1494,0.00395,0.0332,0.8067
0.1492,0.0043,0.03145,0.80795
0.14905,0.00345,0.03085,0.8097
0.14965,0.0031,0.0295,0.81095
0.1507,0.0038,0.02895,0.81035
0.15045,0.0034,0.02795,0.8121
0.15255,0.0026,0.0277,0.81115
0.1541,0.00235,0.02585,0.81185
0.15515,0.00305,0.0249,0.811
0.156,0.00305,0.0236,0.8113
0.1568,0.00265,0.02275,0.81175
0.1579,0.003,0.02185,0.8115
0.1588,0.00255,0.02205,0.81115
0.16085,0.0024,0.0204,0.8109
0.1622,0.00275,0.0191,0.8104
0.16415,0.00205,0.01945,0.80905
0.1664,0.0018,0.0187,0.80825
0.16815,0.00265,0.0183,0.80665
0.169,0.0029,0.0178,0.8058
0.1709,0.0025,0.01765,0.8042
0.17265,0.00205,0.01725,0.80335
0.17415,0.00295,0.01665,0.80185
0.17565,0.0027,0.01695,0.80015
0.1775,0.00225,0.01615,0.79895
0.1788,0.0027,0.01685,0.79755
0.18055,0.0025,0.0165,0.79595
0.18385,0.0017,0.0164,0.79355
0.18585,0.0024,0.0162,0.7916
0.18715,0.0028,0.0161,0.79005
0.18835,0.0025,0.0151,0.78965
0.19115,0.00205,0.01565,0.7871
0.19185,0.00245,0.0149,0.7865
0.19345,0.0026,0.0147,0.785
0.19595,0.00165,0.01525,0.78305
0.19905,0.00175,0.0152,0.7805
0.2009,0.0023,0.01455,0.7788
0.2022,0.0027,0.01415,0.77725
0.2039,0.00215,0.01455,0.77545
0.2064,0.00195,0.0142,0.77325
0.20805,0.0023,0.0141,0.7718
0.20915,0.00305,0.01365,0.7702
0.2113,0.0021,0.01365,0.76845
0.21335,0.00225,0.0143,0.76625
0.2152,0.0026,0.01445,0.7638
0.2164,0.00285,0.0147,0.7624
0.21955,0.0021,0.0149,0.7591
0.2211,0.0025,0.01535,0.75715
0.22075,0.00305,0.01585,0.7566
0.2223,0.00245,0.0158,0.75515
0.22425,0.00245,0.0156,0.75335
0.22495,0.00325,0.01595,0.7523
0.2277,0.0024,0.01595,0.74985
0.2293,0.003,0.0161,0.7475
0.23065,0.00315,0.01605,0.74585
0.23155,0.0032,0.0166,0.74395
0.23245,0.0028,0.0165,0.74285
0.23335,0.0031,0.0168,0.7417
0.23415,0.00355,0.01735,0.7401
0.23495,0.00325,0.01755,0.73875
0.2362,0.00295,0.0175,0.7378
0.2372,0.00325,0.017,0.7371
0.2389,0.00285,0.0167,0.73555
0.23965,0.0031,0.0167,0.7342
0.2405,0.00335,0.0175,0.73295
0.24205,0.0025,0.0173,0.7324
0.2421,0.0039,0.01785,0.73105
0.24305,0.0036,0.01875,0.72935
0.2437,0.0035,0.0189,0.7284
0.2436,0.0038,0.01855,0.72795
0.24355,0.00365,0.01885,0.72735
0.24375,0.00445,0.0199,0.7253
0.2438,0.00335,0.02035,0.7249
0.24395,0.00325,0.02125,0.72435
0.2441,0.0041,0.02165,0.72325
0.24485,0.0032,0.0224,0.7228
0.24345,0.005,0.02185,0.72315
0.24275,0.0047,0.0237,0.72245
0.24175,0.0055,0.02415,0.7216
0.2419,0.004,0.023,0.722
0.24165,0.00365,0.024,0.72225
0.2408,0.0042,0.0241,0.723
0.2399,0.0051,0.02485,0.72185
0.23995,0.0043,0.02595,0.7211
0.239,0.0056,0.0263,0.72065
0.23795,0.0054,0.02805,0.71985
0.2368,0.00515,0.0288,0.72035
0.23585,0.0059,0.02975,0.7194
0.23415,0.0059,0.0307,0.71995
0.2329,0.0058,0.0309,0.72115
0.23055,0.0061,0.0317,0.72235
0.2291,0.00565,0.0328,0.72275
0.2278,0.00525,0.03305,0.72445
0.22545,0.00665,0.03325,0.72485
0.224,0.00685,0.03405,0.72485
0.2227,0.00635,0.03575,0.7244
0.2203,0.00615,0.03665,0.7258
0.21805,0.00615,0.03625,0.72845
0.2163,0.0061,0.03635,0.72965
0.2143,0.0069,0.03795,0.73025
0.2121,0.0064,0.03855,0.73175
0.2119,0.00555,0.03995,0.7313
0.2094,0.00705,0.0386,0.7342
0.20845,0.00615,0.039,0.7347
0.20625,0.00625,0.04015,0.73635
0.2046,0.0058,0.03995,0.7394
0.2022,0.00645,0.0388,0.74215
0.19925,0.0072,0.03925,0.7426
0.1963,0.00655,0.04165,0.7441
0.1949,0.00605,0.04275,0.74585
0.19235,0.00685,0.04355,0.74735
0.1906,0.0065,0.0418,0.7498
0.1881,0.00735,0.0415,0.75185
0.18745,0.00565,0.04185,0.75345
0.1862,0.006,0.0421,0.755
0.18435,0.0067,0.04205,0.75695
0.1828,0.0069,0.0409,0.7587
0.1826,0.00575,0.04035,0.7605
0.18155,0.0059,0.0399,0.76225
0.18135,0.0053,0.0397,0.76325
0.181,0.0057,0.03955,0.7645
0.17975,0.00545,0.03995,0.7657
0.1796,0.0057,0.03905,0.76665
0.1799,0.005,0.0371,0.7688
0.1785,0.0062,0.03755,0.76925
0.1783,0.0055,0.036,0.7707
0.17875,0.00465,0.03535,0.7712
0.17955,0.00445,0.03465,0.77135
0.18055,0.0041,0.0339,0.7722
0.1814,0.0051,0.0325,0.77195
0.1801,0.006,0.03265,0.7719
0.18075,0.0046,0.03195,0.7727
0.1809,0.0048,0.03175,0.7732
0.18105,0.00475,0.03195,0.7728
0.1817,0.00435,0.03315,0.77255
0.1824,0.005,0.0318,0.77225
0.184,0.00395,0.03215,0.77155
0.18515,0.00365,0.03165,0.7712
0.18445,0.00595,0.0312,0.77045
0.18395,0.0052,0.03155,0.77045
0.18415,0.0049,0.0325,0.7698
0.1848,0.0046,0.0319,0.77045
0.18445,0.0046,0.03165,0.77165
0.1851,0.0042,0.0306,0.7722
0.1861,0.004,0.0299,0.77235
0.18745,0.00415,0.02895,0.77215
0.18885,0.00405,0.028,0.7715
0.19,0.0036,0.0279,0.77135
0.19045,0.0044,0.0273,0.77105
0.1921,0.0045,0.0272,0.7694
0.19165,0.00495,0.02755,0.7685
0.19245,0.00455,0.0287,0.76675
0.1936,0.00425,0.02865,0.7658
0.1941,0.0037,0.02805,0.76665
0.1941,0.0052,0.0269,0.7663
0.1943,0.00435,0.0276,0.7661
0.19435,0.00535,0.02865,0.76415
0.19635,0.004,0.0282,0.7632
0.19655,0.0049,0.02825,0.7624
0.19745,0.0043,0.02875,0.76165
0.19835,0.00495,0.0286,0.7601
0.19885,0.00465,0.02825,0.76
0.1983,0.0049,0.02745,0.7609
0.19985,0.0042,0.02815,0.75925
0.20125,0.00415,0.02875,0.7575
0.20195,0.0048,0.02895,0.75575
0.20185,0.00475,0.0285,0.75635
0.2026,0.00415,0.0285,0.75655
0.2031,0.00465,0.0279,0.75585
0.205,0.0045,0.0274,0.7541
0.2047,0.00545,0.02825,0.7534
0.2046,0.00445,0.0283,0.7538
0.2037,0.0056,0.02855,0.7538
0.20385,0.0054,0.0292,0.753
0.20455,0.00405,0.02995,0.7527
0.2037,0.00515,0.02995,0.7527
0.20415,0.00475,0.03085,0.7522
0.2036,0.00555,0.03055,0.7528
0.20365,0.005,0.02975,0.7531
0.20355,0.00455,0.03025,0.753
0.2024,0.0053,0.02925,0.7546
0.20265,0.0053,0.0292,0.7544
0.2028,0.00465,0.03035,0.75375
0.2021,0.0052,0.03015,0.7545
0.20275,0.00445,0.03055,0.75395
0.20305,0.00515,0.03065,0.7533
0.2031,0.00485,0.0307,0.75325
0.20185,0.0056,0.03115,0.75345
0.20205,0.00455,0.03175,0.7534
0.2015,0.00505,0.02995,0.7548
0.20245,0.00445,0.02945,0.7544
0.2024,0.00505,0.0306,0.7537
0.2021,0.00445,0.03135,0.75395
0.203,0.00435,0.02935,0.7543
0.2031,0.0046,0.0301,0.75365
0.2025,0.00495,0.02925,0.75475
0.203,0.00475,0.0304,0.75345
0.20455,0.0042,0.0301,0.75265
0.2042,0.0052,0.03045,0.7521
0.20385,0.00475,0.03025,0.75235
0.20345,0.0045,0.0307,0.7536
0.20385,0.0048,0.02955,0.75365
0.2034,0.00495,0.03035,0.75345
0.2033,0.0044,0.0297,0.75405
0.20375,0.00455,0.029,0.7541
0.2039,0.00455,0.0296,0.7537
0.20385,0.0046,0.02915,0.7537
0.20485,0.00435,0.0296,0.75265
0.20525,0.00425,0.0299,0.7526
0.20565,0.00435,0.0297,0.75245
0.20515,0.00465,0.0291,0.75295
0.20535,0.00465,0.0292,0.7522
0.2049,0.0047,0.02875,0.7529
0.2053,0.00475,0.0297,0.7521
0.2054,0.00445,0.0296,0.75195
0.20615,0.00465,0.0299,0.7509
0.2071,0.0043,0.0293,0.75065
0.207,0.0045,0.02955,0.7511
0.2073,0.0037,0.0282,0.7524
0.20695,0.00415,0.0268,0.754
0.2064,0.0048,0.02705,0.7536
0.2069,0.0041,0.027,0.7539
0.2067,0.00495,0.02745,0.75275
0.20635,0.00475,0.0274,0.7528
0.20665,0.00475,0.02845,0.75205
0.20585,0.0047,0.02775,0.75325
0.206,0.0049,0.0281,0.7525
0.20525,0.00525,0.02795,0.7532
0.20535,0.005,0.02855,0.7521
0.2059,0.00425,0.02925,0.7521
0.2065,0.0044,0.0299,0.75195
0.20575,0.005,0.02985,0.75205
0.20485,0.00525,0.0306,0.75165
0.2033,0.00545,0.03055,0.75225
0.20295,0.0052,0.0303,0.7528
0.2027,0.0055,0.03125,0.75155
0.2021,0.00535,0.03095,0.7524
0.20045,0.00595,0.032,0.7524
0.1999,0.005,0.03235,0.754
0.20015,0.00475,0.03335,0.7538
0.19985,0.0052,0.03195,0.75435
0.1998,0.00415,0.0319,0.75515
0.1993,0.00465,0.03155,0.75615
0.19905,0.00475,0.03075,0.75685
0.1989,0.00445,0.03055,0.7573
0.1985,0.0047,0.03015,0.75775
0.19935,0.00405,0.02995,0.7577
0.19885,0.0055,0.02935,0.75815
0.1986,0.0051,0.0301,0.75785
0.19725,0.00585,0.0301,0.758
0.197,0.00455,0.0313,0.7581
0.19565,0.0055,0.0303,0.75945
0.19565,0.00455,0.03075,0.75975
0.19435,0.00565,0.0313,0.76
0.1942,0.00485,0.03085,0.7607
0.1936,0.005,0.0315,0.7609
0.1941,0.00465,0.03255,0.76055
0.1936,0.00475,0.0335,0.7604
0.19265,0.005,0.0325,0.76155
0.1932,0.0045,0.03125,0.76185
0.194,0.0044,0.03095,0.7622
0.19365,0.00435,0.03075,0.76305
0.1939,0.0044,0.03045,0.7629
0.1943,0.0041,0.03115,0.7622
0.19485,0.00385,0.03165,0.76215
0.19545,0.0044,0.03085,0.7623
0.19545,0.00425,0.0302,0.7629
0.195,0.0045,0.0296,0.7637
0.1944,0.0051,0.0304,0.763
0.19385,0.00455,0.02955,0.7643
0.1923,0.00585,0.0299,0.7644
0.1921,0.0049,0.03065,0.76495
0.19345,0.00365,0.0291,0.765
0.1939,0.0034,0.02925,0.7658
0.1944,0.0036,0.02695,0.767
0.19555,0.00375,0.02665,0.7663
0.19535,0.00435,0.026,0.7671
0.19585,0.00395,0.0258,0.76705
0.19635,0.0043,0.025,0.7667
0.1977,0.0038,0.02605,0.76495
0.19895,0.00395,0.02495,0.76425
0.1985,0.0039,0.02565,0.7643
0.19875,0.00395,0.0258,0.76435
0.2003,0.00385,0.02605,0.76255
0.19945,0.0053,0.02525,0.76275
0.19965,0.0045,0.02525,0.7627
0.20075,0.00345,0.02495,0.76255
0.2022,0.0037,0.0263,0.76115
0.2025,0.00495,0.02695,0.7596
0.20365,0.0037,0.02655,0.759
0.20405,0.0045,0.0262,0.7579
0.2042,0.00475,0.0264,0.75705
0.2045,0.0043,0.02595,0.7568
0.20515,0.0047,0.0269,0.75505
0.20515,0.00425,0.02845,0.7546
0.20535,0.0045,0.0279,0.75415
0.2048,0.00455,0.02875,0.75425
0.2058,0.0038,0.02855,0.75425
0.2069,0.00425,0.0282,0.75375
0.20705,0.0041,0.0281,0.7537
0.2064,0.00505,0.02735,0.7541
0.2061,0.00465,0.02805,0.75375
0.2061,0.0047,0.02795,0.75315
0.20535,0.00505,0.02845,0.75285
0.2053,0.00485,0.0279,0.753
0.20495,0.00405,0.02865,0.75425
0.20475,0.00455,0.0278,0.7549
0.20445,0.00495,0.0285,0.75405
0.2051,0.004,0.02855,0.7543
0.2061,0.00365,0.0277,0.75485
0.20655,0.0044,0.0274,0.7543
0.2063,0.005,0.027,0.75415
0.2053,0.00485,0.02735,0.7543
0.20565,0.0044,0.02845,0.75355
0.20575,0.00435,0.0276,0.75405
0.205,0.005,0.02725,0.75415
0.20445,0.0047,0.0279,0.7547
0.20485,0.00435,0.02835,0.7539
0.20365,0.00525,0.0296,0.75355
0.20345,0.00545,0.03105,0.7523
0.20355,0.00495,0.0311,0.7523
0.20225,0.00585,0.0316,0.7522
0.2031,0.00455,0.0314,0.75225
0.203,0.00535,0.0311,0.75195
0.2033,0.00495,0.03165,0.7516
0.20295,0.0053,0.0319,0.7514
0.2035,0.0045,0.03295,0.75115
0.2026,0.0053,0.03235,0.75205
0.20265,0.00485,0.03225,0.7521
0.20215,0.0055,0.03245,0.75195
0.20165,0.0051,0.03145,0.7533
0.202,0.00435,0.03135,0.75375
0.2021,0.00465,0.0314,0.7539
0.20255,0.0047,0.03095,0.75395
0.2028,0.00575,0.03105,0.75245
0.20235,0.0051,0.03195,0.75235
0.2026,0.0049,0.0313,0.75275
0.20125,0.0059,0.0307,0.75305
0.2019,0.0043,0.0311,0.75275
0.2013,0.0056,0.0316,0.75265
0.20025,0.0059,0.0328,0.7523
0.20025,0.0049,0.033,0.75275
0.20065,0.00505,0.032,0.7532
0.2016,0.00485,0.03255,0.75255
0.1995,0.00625,0.03225,0.7534
0.19925,0.0049,0.03225,0.7541
0.1987,0.00565,0.03245,0.7535
0.1997,0.00505,0.0329,0.7526
0.19835,0.005,0.03345,0.7542
0.19895,0.00515,0.0334,0.7537
0.19845,0.00555,0.0338,0.7533
0.1975,0.00595,0.0334,0.75335
0.1969,0.0048,0.0338,0.75405
0.19645,0.0052,0.0336,0.75525
0.1958,0.0055,0.03335,0.75575
0.19575,0.0058,0.03375,0.75495
0.1951,0.00615,0.034,0.7546
0.19545,0.0047,0.0352,0.7542
0.19505,0.00555,0.0342,0.75515
0.19475,0.0051,0.03335,0.75705
0.19395,0.0057,0.0323,0.7584
0.19405,0.0054,0.03285,0.7579
0.1943,0.0046,0.0333,0.75815
0.19335,0.0058,0.0322,0.75905
0.1928,0.00615,0.03285,0.75865
0.1933,0.00535,0.03265,0.7589
0.193,0.0051,0.03405,0.75895
0.19205,0.00585,0.03325,0.75995
0.1908,0.0058,0.0333,0.76065
0.1914,0.00485,0.0337,0.7603
0.19165,0.0053,0.03435,0.75925
0.19195,0.00515,0.0338,0.75925
0.19205,0.00495,0.0335,0.7595
0.192,0.0048,0.0338,0.76005
0.191,0.00595,0.03365,0.76035
0.1917,0.0049,0.0343,0.7598
0.1911,0.0058,0.0341,0.7603
0.19105,0.00555,0.03445,0.75955
0.19125,0.0047,0.03325,0.7612
0.1923,0.0048,0.0334,0.7603
0.19325,0.00435,0.0334,0.7598
0.1933,0.0047,0.03255,0.76055
0.1935,0.0045,0.03195,0.761
0.1941,0.00405,0.032,0.7615
0.19445,0.0046,0.0318,0.7609
0.19475,0.00415,0.0313,0.7615
0.1962,0.004,0.03055,0.7607
0.1969,0.00495,0.0297,0.76055
0.19695,0.00475,0.0304,0.76005
0.19665,0.00535,0.0297,0.75945
0.1968,0.00505,0.0301,0.7587
0.19735,0.0046,0.0301,0.75835
0.19655,0.00575,0.03035,0.7584
0.1957,0.00585,0.03055,0.7585
0.1959,0.00495,0.0314,0.7582
0.19645,0.0049,0.03185,0.7574
0.19615,0.0056,0.03225,0.7566
0.19555,0.00515,0.03235,0.75755
0.1957,0.00595,0.0318,0.75695
0.1971,0.004,0.03215,0.7569
0.1972,0.0043,0.03125,0.7577
0.19825,0.0047,0.03125,0.7569
0.1989,0.0047,0.0317,0.7561
0.19985,0.00465,0.0319,0.75555
0.19895,0.006,0.03255,0.75465
0.1997,0.0043,0.0317,0.7557
0.199,0.0051,0.0314,0.7561
0.1995,0.00415,0.03125,0.75675
0.2001,0.0048,0.0315,0.7562
0.20205,0.00405,0.03175,0.75465
0.2022,0.005,0.032,0.75375
0.2028,0.005,0.03125,0.75345
0.2031,0.0055,0.03105,0.75225
0.20335,0.0052,0.03115,0.7518
0.2031,0.00525,0.03065,0.75225
0.20185,0.00625,0.0312,0.7516
0.20075,0.0057,0.03195,0.75145
0.20115,0.00525,0.03285,0.75045
0.19965,0.00565,0.03365,0.7511
0.19985,0.0045,0.03355,0.752
0.1998,0.0048,0.03325,0.75315
0.20025,0.0043,0.0324,0.75395
0.2,0.0051,0.03235,0.75415
0.19865,0.00525,0.031,0.7564
0.1998,0.0049,0.0313,0.75505
0.1989,0.0054,0.0315,0.7558
0.19835,0.005,0.03125,0.75655
0.19795,0.00505,0.0315,0.75645
0.19795,0.0049,0.03155,0.75705
0.1982,0.0048,0.03135,0.7568
0.1982,0.00495,0.03215,0.75585
0.19755,0.00515,0.0315,0.757
0.1989,0.0046,0.03075,0.7566
0.1997,0.005,0.03165,0.75535
0.1989,0.0055,0.03135,0.7556
0.19845,0.0051,0.0328,0.7553
0.19775,0.0056,0.0318,0.75565
0.19885,0.0046,0.03255,0.75525
0.19835,0.00555,0.03215,0.75545
0.1976,0.00545,0.03315,0.7553
0.19565,0.00625,0.03325,0.75605
0.196,0.0043,0.03295,0.7572
0.1954,0.0052,0.03265,0.75755
0.1966,0.00455,0.0321,0.75655
0.197,0.00495,0.03165,0.7564
0.1974,0.00455,0.03195,0.7564
0.19755,0.0055,0.0318,0.7559
0.1966,0.0064,0.0326,0.7552
0.19685,0.00455,0.03245,0.75615
0.1969,0.00455,0.02995,0.75855
0.1978,0.0043,0.03035,0.7577
0.1977,0.00475,0.03075,0.75785
0.1984,0.0053,0.031,0.7565
0.1996,0.00485,0.0309,0.75525
0.2003,0.0042,0.03135,0.75485
0.19975,0.00525,0.03025,0.7555
0.2015,0.00445,0.0302,0.75455
0.20135,0.00555,0.03085,0.7538
0.20005,0.00585,0.03175,0.75395
0.20035,0.0048,0.0325,0.7532
0.20205,0.00375,0.03225,0.7529
0.20275,0.00355,0.031,0.7539
0.2029,0.0047,0.0309,0.75375
0.20225,0.0052,0.03065,0.75425
0.20145,0.00485,0.0307,0.7556
0.2016,0.00525,0.03,0.7553
0.201,0.0054,0.02915,0.7559
0.2002,0.00545,0.029,0.75585
0.19995,0.0045,0.0305,0.75635
0.1986,0.006,0.03115,0.75625
0.19825,0.0052,0.03095,0.75695
0.1973,0.0051,0.03165,0.7573
0.1987,0.0039,0.03185,0.75655
0.19895,0.00505,0.0301,0.7575
0.20015,0.00465,0.03045,0.7561
0.2002,0.0045,0.02985,0.75685
0.20075,0.00395,0.0294,0.7574
0.2011,0.00395,0.02945,0.7577
0.20245,0.00435,0.03005,0.75635
