moyS, moyE, moyI, moyR
0.999,0.0,0.001,0.0
0.99855,4.5E-4,6.5E-4,3.5E-4
0.9981,5.0E-4,7.5E-4,4.5E-4
0.9976,5.0E-4,7.0E-4,7.0E-4
0.997,6.0E-4,9.5E-4,8.5E-4
0.99615,8.5E-4,0.0011,0.0011
0.9952,9.5E-4,0.0015,0.0013
0.9942,0.001,0.0021,0.00155
0.99205,0.00215,0.0027,0.00185
0.98935,0.0027,0.00365,0.00235
0.98525,0.0041,0.0047,0.0031
0.97975,0.0055,0.00675,0.004
0.9736,0.0062,0.00935,0.00545
0.9623,0.01135,0.0121,0.007
0.94935,0.01295,0.0177,0.00915
0.93195,0.0174,0.0239,0.01275
0.91055,0.0215,0.0318,0.01675
0.88315,0.02745,0.0425,0.0219
0.8475,0.03565,0.0541,0.0304
0.8027,0.04525,0.0719,0.0395
0.74595,0.0568,0.09165,0.0533
0.6815,0.06465,0.1166,0.06985
0.6042,0.07735,0.148,0.09
0.52155,0.08285,0.18275,0.1157
0.4381,0.08385,0.2199,0.146
0.35815,0.08065,0.25615,0.18225
0.28915,0.0698,0.28695,0.22445
0.2259,0.06425,0.31365,0.2699
0.17345,0.0533,0.3298,0.3206
0.1329,0.04175,0.3397,0.37065
0.1031,0.0311,0.34595,0.4193
0.0814,0.02325,0.33455,0.47205
0.06625,0.0167,0.32095,0.5223
0.0534,0.01495,0.30315,0.56775
0.04445,0.0107,0.28505,0.60925
0.0373,0.00895,0.2647,0.64845
0.03175,0.0083,0.24275,0.6844
0.0285,0.00585,0.22245,0.71665
0.02705,0.00365,0.2009,0.74695
0.0255,0.0041,0.18025,0.77315
0.0251,0.00285,0.1624,0.79605
0.0252,0.00235,0.1459,0.8153
0.0248,0.00385,0.13125,0.83125
0.02555,0.0024,0.11755,0.8471
0.0275,0.002,0.10285,0.86095
0.02815,0.0024,0.0932,0.8708
0.02915,0.00175,0.08355,0.88105
0.0307,0.0022,0.0739,0.8895
0.0324,0.0017,0.0662,0.89605
0.0344,0.00155,0.05865,0.902
0.03665,0.00155,0.0526,0.9063
0.0394,0.0013,0.04605,0.91045
0.0408,0.00185,0.04115,0.91385
0.04205,0.00155,0.036,0.9182
0.04455,0.00105,0.03265,0.9197
0.0466,0.00135,0.0289,0.9216
0.0481,0.0011,0.02535,0.92365
0.0507,8.5E-4,0.0227,0.924
0.05325,0.001,0.0207,0.92355
0.05535,8.0E-4,0.0184,0.9238
0.0578,7.0E-4,0.0173,0.923
0.0595,8.5E-4,0.0154,0.92315
0.0619,6.5E-4,0.01365,0.9227
0.06465,9.5E-4,0.01235,0.9212
0.06775,8.0E-4,0.01105,0.91925
0.0708,9.0E-4,0.0102,0.91685
0.07375,7.5E-4,0.00975,0.91445
0.0769,3.5E-4,0.0088,0.91275
0.07985,4.5E-4,0.00815,0.9107
0.0828,6.5E-4,0.00745,0.9081
0.08535,4.5E-4,0.0071,0.9062
0.08735,6.0E-4,0.0064,0.90485
0.09035,5.0E-4,0.00585,0.9026
0.0928,3.5E-4,0.0052,0.90095
0.0964,4.5E-4,0.0048,0.89765
0.09915,5.0E-4,0.0045,0.8952
0.10205,2.5E-4,0.00415,0.8928
0.1045,2.0E-4,0.00355,0.8911
0.1075,2.5E-4,0.00345,0.8884
0.1108,2.5E-4,0.0031,0.8855
0.1141,2.0E-4,0.0027,0.8826
0.1164,2.0E-4,0.00255,0.88035
0.119,4.0E-4,0.0022,0.878
0.1214,2.5E-4,0.0022,0.8757
0.12415,2.0E-4,0.0021,0.8732
0.12655,1.5E-4,0.00215,0.8708
0.1292,2.5E-4,0.0017,0.86835
0.1321,2.0E-4,0.00165,0.8656
0.13475,2.0E-4,0.0017,0.8629
0.1369,2.0E-4,0.00175,0.8608
0.13895,2.5E-4,0.00155,0.859
0.14185,2.0E-4,0.0016,0.85605
0.14455,3.5E-4,0.00135,0.85335
0.14705,2.0E-4,0.0012,0.85105
0.1498,1.5E-4,0.0013,0.84825
0.1522,2.5E-4,0.0013,0.8458
0.15405,1.5E-4,0.0012,0.84395
0.15675,1.0E-4,0.00135,0.8412
0.1589,2.0E-4,9.0E-4,0.8394
0.16185,1.0E-4,0.0011,0.83645
0.1646,1.0E-4,0.00115,0.83385
0.1673,0.0,0.001,0.83145
0.1704,1.5E-4,8.5E-4,0.8284
0.17235,2.0E-4,8.0E-4,0.82635
0.17515,1.0E-4,8.5E-4,0.8235
0.17735,1.5E-4,0.001,0.82125
0.17965,1.0E-4,0.001,0.819
0.18165,2.5E-4,8.0E-4,0.81695
0.18395,2.0E-4,8.0E-4,0.8146
0.18625,2.5E-4,7.5E-4,0.81215
0.1882,1.5E-4,0.00105,0.8101
0.1905,1.5E-4,0.0012,0.80765
0.19255,1.5E-4,0.00125,0.8057
0.19505,1.0E-4,0.0013,0.80325
0.19695,1.0E-4,0.0012,0.8014
0.1991,3.0E-4,0.00125,0.79915
0.2018,1.5E-4,0.00145,0.79645
0.20365,3.5E-4,0.0014,0.7944
0.2058,2.0E-4,0.00135,0.7923
0.20775,2.0E-4,0.0015,0.7903
0.2102,1.5E-4,0.00135,0.78805
0.2121,4.0E-4,0.0013,0.786
0.2135,4.0E-4,0.0012,0.7845
0.2151,4.0E-4,0.0014,0.78265
0.2168,3.5E-4,0.0016,0.78085
0.2193,3.0E-4,0.0016,0.77825
0.22165,2.0E-4,0.00175,0.77585
0.2235,3.5E-4,0.0019,0.77385
0.2258,3.0E-4,0.0019,0.77155
0.2278,1.5E-4,0.0019,0.7697
0.22995,3.5E-4,0.00165,0.7676
0.2316,5.5E-4,0.00165,0.76575
0.23305,3.0E-4,0.00165,0.7643
0.2347,2.5E-4,0.0017,0.76275
0.23645,5.0E-5,0.0017,0.7613
0.2387,3.0E-4,0.0018,0.75885
0.2405,3.5E-4,0.0017,0.75695
0.2425,5.5E-4,0.00195,0.7545
0.24375,2.5E-4,0.00215,0.7533
0.2452,4.0E-4,0.00215,0.7518
0.24735,2.0E-4,0.00195,0.74995
0.2496,3.0E-4,0.0022,0.7476
0.25125,2.5E-4,0.00205,0.74615
0.2532,3.5E-4,0.00175,0.7442
0.2547,2.5E-4,0.00175,0.7428
0.25665,1.5E-4,0.00145,0.7411
0.25835,2.5E-4,0.00135,0.7393
0.26025,3.0E-4,0.0014,0.73745
0.262,5.0E-4,0.0014,0.73545
0.26435,2.5E-4,0.00155,0.7331
0.2663,2.0E-4,0.00175,0.73115
0.26855,2.5E-4,0.00185,0.72875
0.26955,8.5E-4,0.00185,0.72725
0.27115,5.0E-4,0.00195,0.7254
0.27295,5.0E-4,0.0022,0.7235
0.27375,8.0E-4,0.00235,0.7224
0.27555,6.5E-4,0.0027,0.7203
0.2774,2.5E-4,0.00285,0.71855
0.2785,7.0E-4,0.003,0.7172
0.27995,6.0E-4,0.003,0.7156
0.28095,9.0E-4,0.0029,0.7143
0.2824,6.5E-4,0.0028,0.71295
0.2839,7.5E-4,0.0033,0.71095
0.2849,0.001,0.00375,0.7093
0.2861,0.001,0.00385,0.70775
0.2866,0.0011,0.0041,0.7068
0.2879,6.0E-4,0.0044,0.7055
0.2893,0.001,0.00395,0.70425
0.29045,0.00115,0.00435,0.70265
0.29145,9.0E-4,0.00455,0.7017
0.2933,9.0E-4,0.0045,0.6997
0.29475,0.0011,0.0048,0.69785
0.2956,0.00105,0.00445,0.69695
0.29705,0.0012,0.00495,0.6951
0.29715,0.0015,0.00535,0.69415
0.2984,0.0012,0.006,0.69235
0.29935,0.001,0.00625,0.69135
0.30005,0.0017,0.0065,0.6897
0.30035,0.0016,0.00665,0.68915
0.3009,0.0018,0.00705,0.6878
0.3022,0.00135,0.00775,0.68625
0.303,0.00155,0.0078,0.68525
0.3033,0.00205,0.00805,0.6844
0.3033,0.002,0.0082,0.68385
0.3028,0.0021,0.0088,0.68345
0.3037,0.00215,0.0093,0.68185
0.3041,0.00155,0.0094,0.68135
0.30415,0.00185,0.0096,0.68115
0.3043,0.00255,0.01005,0.67985
0.30325,0.0031,0.0107,0.67965
0.3021,0.0029,0.01105,0.67985
0.30155,0.00285,0.0123,0.6791
0.3012,0.00285,0.012,0.6792
0.30015,0.0034,0.01285,0.67895
0.2992,0.0029,0.014,0.67905
0.2985,0.0028,0.0143,0.67955
0.29725,0.003,0.01485,0.68035
0.29575,0.00425,0.01505,0.67965
0.29445,0.00385,0.01685,0.67945
0.29275,0.0041,0.0176,0.67945
0.29045,0.00495,0.0192,0.67935
0.28775,0.00475,0.02065,0.68005
0.2849,0.005,0.02165,0.6809
0.2815,0.00555,0.0225,0.68245
0.2789,0.00545,0.02415,0.68345
0.276,0.0054,0.0256,0.6846
0.2711,0.00725,0.0267,0.68605
0.2676,0.00565,0.02805,0.6883
0.2645,0.00555,0.02955,0.6897
0.26,0.00695,0.03045,0.6922
0.25565,0.00695,0.0324,0.69445
0.2509,0.0073,0.0334,0.69685
0.24635,0.00735,0.03525,0.69945
0.24125,0.00765,0.0363,0.7029
0.23535,0.00815,0.03805,0.7062
0.23035,0.00805,0.03895,0.70985
0.2263,0.00675,0.03835,0.7144
0.2226,0.00665,0.04,0.71705
0.21825,0.0071,0.0412,0.7207
0.2142,0.0066,0.04185,0.7248
0.2101,0.00685,0.04105,0.72885
0.20605,0.0064,0.0416,0.7329
0.20215,0.00725,0.0424,0.7357
0.19875,0.0063,0.0426,0.73975
0.1956,0.0066,0.0424,0.74325
0.1922,0.0065,0.0412,0.7478
0.18865,0.0067,0.04185,0.751
0.1867,0.00545,0.04125,0.7548
0.18425,0.00625,0.04015,0.7579
0.18225,0.0058,0.03985,0.76055
0.1799,0.00575,0.03995,0.763
0.17735,0.0061,0.0382,0.7667
0.17445,0.006,0.03935,0.769
0.17235,0.0055,0.04035,0.7707
0.1695,0.00615,0.03985,0.77375
0.1681,0.00505,0.0397,0.77655
0.16575,0.0062,0.0391,0.77945
0.16435,0.005,0.03755,0.78245
0.16215,0.00535,0.0367,0.7851
0.16025,0.0049,0.0379,0.78745
0.16035,0.0043,0.03735,0.7891
0.15895,0.0042,0.0358,0.79255
0.15815,0.0049,0.03395,0.79475
0.1577,0.0047,0.0331,0.79595
0.15825,0.00435,0.03275,0.79625
0.15765,0.00435,0.03165,0.7978
0.1578,0.00355,0.0311,0.79895
0.1588,0.0034,0.02985,0.80055
0.15885,0.00355,0.0299,0.8015
0.159,0.00285,0.02855,0.8034
0.15875,0.00395,0.0278,0.80365
0.16005,0.00305,0.028,0.8034
0.16105,0.0033,0.02775,0.80285
0.16205,0.003,0.0259,0.8035
0.16295,0.00275,0.02495,0.8038
0.16465,0.00265,0.02395,0.8032
0.16575,0.00265,0.02265,0.8034
0.1665,0.0031,0.0222,0.80305
0.16775,0.0031,0.02215,0.80225
0.16785,0.00335,0.0225,0.80215
0.1693,0.003,0.0225,0.80085
0.1703,0.00355,0.02195,0.7997
0.1713,0.0028,0.02275,0.79815
0.1714,0.0036,0.0216,0.79855
0.1725,0.00275,0.02155,0.79795
0.17285,0.00325,0.0213,0.79715
0.1747,0.00255,0.0213,0.79575
0.17615,0.0025,0.0213,0.79535
0.1771,0.003,0.02025,0.79565
0.1781,0.00355,0.01965,0.7945
0.18025,0.00235,0.0194,0.79335
0.18095,0.0026,0.01915,0.79305
0.1814,0.00305,0.01865,0.79245
0.1836,0.0024,0.0186,0.7907
0.1855,0.0022,0.0179,0.78955
0.1861,0.00285,0.01785,0.7889
0.1886,0.00255,0.01745,0.7868
0.1897,0.0029,0.0179,0.78555
0.19165,0.00285,0.0185,0.783
0.1934,0.00295,0.01865,0.7809
0.1952,0.0023,0.0183,0.78005
0.19635,0.0031,0.01745,0.77895
0.19705,0.0036,0.01735,0.7775
0.1977,0.00305,0.01645,0.77715
0.1992,0.00275,0.0166,0.7754
0.1996,0.0035,0.01735,0.7743
0.2021,0.00265,0.0182,0.77185
0.2038,0.00265,0.01815,0.77055
0.20515,0.00265,0.0186,0.76875
0.2063,0.0031,0.018,0.7674
0.2082,0.00245,0.0186,0.7656
0.2096,0.003,0.01825,0.76415
0.21055,0.00345,0.0187,0.76245
0.2125,0.0024,0.0194,0.7606
0.2134,0.0031,0.019,0.7597
0.21485,0.00305,0.018,0.75865
0.2158,0.0036,0.0187,0.7568
0.21705,0.00305,0.01895,0.75565
0.2183,0.00355,0.01865,0.75405
0.21885,0.003,0.01865,0.75375
0.2195,0.00335,0.01945,0.7525
0.2209,0.00235,0.01955,0.7515
0.22155,0.00335,0.01955,0.75065
0.2223,0.0039,0.01965,0.74885
0.2213,0.00475,0.0206,0.7474
0.2213,0.00415,0.0219,0.74625
0.2205,0.00425,0.02345,0.7458
0.2202,0.00445,0.02315,0.74575
0.22015,0.00395,0.0233,0.7456
0.2202,0.0036,0.02415,0.745
0.22025,0.00425,0.0236,0.74525
0.22105,0.00415,0.02375,0.74405
0.22075,0.004,0.024,0.744
0.22115,0.00425,0.024,0.74345
0.22115,0.0044,0.0244,0.7431
0.22015,0.0049,0.02505,0.74275
0.2203,0.0047,0.02625,0.7416
0.2198,0.0047,0.0267,0.7417
0.2204,0.00415,0.02655,0.7411
0.2204,0.0043,0.0265,0.74145
0.2197,0.0045,0.02655,0.7421
0.21895,0.0048,0.0264,0.7423
0.21935,0.00475,0.0267,0.7412
0.2183,0.0054,0.0271,0.74055
0.21755,0.00455,0.0282,0.74095
0.21725,0.00455,0.02875,0.7419
0.2167,0.005,0.02905,0.7417
0.21555,0.0056,0.0293,0.7416
0.21495,0.0051,0.0295,0.74185
0.2142,0.00545,0.03,0.74215
0.2132,0.0049,0.0294,0.7436
0.21225,0.0049,0.02965,0.74425
0.2129,0.0044,0.02985,0.7436
0.213,0.00515,0.03045,0.74305
0.2126,0.0046,0.03065,0.7435
0.21175,0.00495,0.02985,0.7444
0.211,0.0049,0.03015,0.74475
0.2115,0.0043,0.02985,0.74575
0.21025,0.00555,0.0297,0.7464
0.2095,0.00525,0.03055,0.74645
0.2087,0.0056,0.03095,0.74655
0.2087,0.0045,0.03105,0.7474
0.2071,0.0059,0.0313,0.74735
0.2064,0.0055,0.0316,0.7479
0.20615,0.00485,0.03055,0.74885
0.20565,0.0055,0.03075,0.74915
0.2045,0.0048,0.03155,0.7505
0.2035,0.00485,0.0315,0.75215
0.20355,0.0046,0.03095,0.7532
0.20325,0.00405,0.03105,0.75405
0.20315,0.00585,0.02965,0.7539
0.20325,0.0046,0.03065,0.75405
0.20165,0.00575,0.03075,0.75435
0.20215,0.0048,0.03015,0.75435
0.2022,0.00465,0.02965,0.75455
0.20195,0.00555,0.03075,0.75355
0.2019,0.00455,0.03075,0.754
0.20215,0.00515,0.0306,0.7534
0.20185,0.00455,0.0312,0.7534
0.20125,0.0053,0.03145,0.75365
0.2015,0.00515,0.03105,0.7533
0.20065,0.00545,0.03165,0.75285
0.2009,0.00545,0.0309,0.7525
0.2008,0.0051,0.03235,0.7521
0.20005,0.005,0.03285,0.7533
0.20065,0.00485,0.03195,0.75415
0.1996,0.00545,0.03155,0.75495
0.1983,0.0056,0.03285,0.75515
0.1987,0.0052,0.0334,0.7543
0.1998,0.00385,0.0333,0.75485
0.1989,0.0052,0.03235,0.7557
0.19905,0.0046,0.03215,0.7558
0.1995,0.00475,0.0315,0.7556
0.19855,0.0057,0.0321,0.75575
0.19875,0.0053,0.03165,0.75525
0.2003,0.0041,0.03205,0.75415
0.199,0.006,0.03225,0.7543
0.19825,0.0048,0.0334,0.75465
0.198,0.00505,0.03295,0.75525
0.1983,0.0044,0.0323,0.7561
0.1979,0.0056,0.033,0.7551
0.19665,0.0056,0.0336,0.75585
0.1976,0.0049,0.0343,0.7548
0.1978,0.00515,0.03395,0.75495
0.19735,0.0052,0.0335,0.7563
0.1983,0.00485,0.03225,0.7566
0.19915,0.0049,0.0317,0.75555
0.19815,0.0056,0.0312,0.7563
0.1984,0.00485,0.031,0.7564
0.1989,0.0049,0.03105,0.75575
0.19895,0.0054,0.0313,0.75525
0.1982,0.00545,0.03205,0.75535
0.1978,0.0052,0.03135,0.7557
0.19735,0.0049,0.03155,0.75605
0.1967,0.00545,0.0307,0.75715
0.1958,0.00505,0.03085,0.7582
0.19545,0.005,0.0319,0.7583
0.19555,0.00485,0.03245,0.75835
0.1963,0.00485,0.0315,0.75855
0.19645,0.00465,0.03165,0.7584
0.19585,0.0052,0.0313,0.7591
0.1955,0.0047,0.0313,0.75985
0.1965,0.0044,0.0326,0.7588
0.1961,0.0057,0.0331,0.7574
0.1962,0.0056,0.03295,0.75665
0.1957,0.00535,0.03305,0.75705
0.19585,0.00505,0.033,0.75705
0.1963,0.0047,0.0327,0.75755
0.1959,0.00565,0.03245,0.75795
0.19825,0.004,0.03145,0.7574
0.1988,0.00395,0.03055,0.75805
0.1996,0.0045,0.03075,0.7573
0.19885,0.0049,0.0303,0.75815
0.19795,0.00515,0.0301,0.7585
0.19895,0.0048,0.02905,0.75805
0.19955,0.0047,0.0301,0.75725
0.19995,0.00525,0.02985,0.7567
0.1989,0.0054,0.0301,0.75775
0.1986,0.0048,0.0301,0.7576
0.19785,0.0047,0.03075,0.7587
0.1971,0.00545,0.03015,0.759
0.1946,0.00595,0.0305,0.76025
0.19535,0.0043,0.031,0.76015
0.1942,0.00525,0.0319,0.76045
0.19455,0.00475,0.0313,0.761
0.19345,0.0059,0.0321,0.7608
0.1937,0.0048,0.0309,0.76175
0.1928,0.0053,0.03135,0.7623
0.19395,0.00425,0.0307,0.76235
0.19435,0.0047,0.03075,0.7621
0.19375,0.0051,0.03105,0.7626
0.1937,0.00475,0.0309,0.76215
0.1947,0.00425,0.0304,0.76195
0.1952,0.00445,0.0306,0.76165
0.1955,0.00515,0.0296,0.76175
0.1962,0.0042,0.0299,0.7621
0.1961,0.00485,0.0295,0.76255
0.1973,0.00365,0.02795,0.76305
0.1987,0.00375,0.0278,0.7622
0.1984,0.00395,0.0279,0.7624
0.19905,0.0043,0.0272,0.7623
0.1991,0.00375,0.0273,0.76285
0.19925,0.0043,0.02705,0.76245
0.1993,0.0042,0.0265,0.76235
0.19945,0.0048,0.02675,0.7614
0.20015,0.0049,0.02705,0.7599
0.20095,0.0036,0.0278,0.7594
0.20085,0.0046,0.0275,0.7597
0.2019,0.00375,0.02755,0.75985
0.202,0.00425,0.02785,0.75925
0.20135,0.0052,0.02845,0.7586
0.20065,0.0049,0.02835,0.7583
0.20085,0.00435,0.02815,0.7587
0.2009,0.00485,0.02825,0.7583
0.20175,0.00435,0.02895,0.7577
0.2037,0.00335,0.0284,0.7581
0.203,0.00445,0.02755,0.7581
0.2037,0.0045,0.02765,0.757
0.2041,0.00445,0.02785,0.75605
0.2049,0.0037,0.0272,0.75605
0.20405,0.00505,0.02735,0.75605
0.20455,0.00375,0.0286,0.756
0.20415,0.0044,0.0284,0.7564
0.2043,0.0045,0.02695,0.75695
0.20415,0.00455,0.02715,0.7564
0.20455,0.0044,0.0274,0.75615
0.2042,0.0049,0.02755,0.75605
0.2044,0.0042,0.02745,0.7561
0.2032,0.005,0.02675,0.7573
0.205,0.0031,0.02755,0.7564
0.2062,0.0035,0.0272,0.7556
0.20675,0.00375,0.02685,0.75595
0.20675,0.0045,0.02545,0.75665
0.2063,0.0041,0.02575,0.7569
0.207,0.00385,0.0257,0.7561
0.20675,0.0051,0.0257,0.7552
0.20855,0.0037,0.02595,0.7536
0.20855,0.0047,0.02635,0.75255
0.2092,0.0038,0.02595,0.75285
0.21005,0.00395,0.02655,0.75245
0.2103,0.004,0.02585,0.75245
0.21045,0.00455,0.0257,0.75225
0.2093,0.0048,0.0266,0.7526
0.20765,0.00595,0.02775,0.75185
0.20865,0.0038,0.02795,0.7517
0.20865,0.00495,0.028,0.7507
0.2095,0.0041,0.0283,0.75035
0.2096,0.00445,0.02795,0.75035
0.2094,0.0047,0.0278,0.7501
0.2094,0.0046,0.0288,0.7495
0.20875,0.00545,0.0282,0.74965
0.20915,0.0048,0.0283,0.7495
0.2081,0.0051,0.02945,0.7496
0.2083,0.0046,0.0291,0.74935
0.20825,0.00515,0.0294,0.74895
0.20805,0.0051,0.02975,0.7484
0.2063,0.0055,0.0286,0.75025
0.2053,0.00505,0.02995,0.7507
0.2052,0.00485,0.0301,0.7511
0.2044,0.0053,0.0296,0.7524
0.2036,0.0043,0.02925,0.75435
0.20285,0.0045,0.03005,0.7552
0.2033,0.0047,0.0306,0.75425
0.20245,0.005,0.03,0.75515
0.2018,0.0049,0.02995,0.75565
0.201,0.00505,0.02975,0.75635
0.20155,0.004,0.02915,0.7568
0.20185,0.00425,0.0288,0.7574
0.2029,0.0041,0.02775,0.75785
0.20345,0.0049,0.0285,0.75595
0.2026,0.00485,0.02895,0.7565
0.20205,0.00455,0.0289,0.75715
0.2022,0.0038,0.02885,0.7579
0.20225,0.004,0.0275,0.7589
0.20315,0.00385,0.0278,0.75865
0.20405,0.0039,0.02745,0.758
0.20455,0.00405,0.0262,0.75815
0.20475,0.0042,0.0264,0.7577
0.20635,0.0038,0.02625,0.7567
0.20625,0.0045,0.02535,0.75705
0.20695,0.0037,0.0259,0.75625
0.2069,0.004,0.02565,0.75655
0.2063,0.005,0.02525,0.75705
0.2061,0.00485,0.0259,0.7563
0.2069,0.004,0.0257,0.756
0.20675,0.00455,0.02545,0.75595
0.20585,0.00525,0.02545,0.75535
0.207,0.0041,0.02555,0.7547
0.2074,0.0052,0.0264,0.753
0.20825,0.0042,0.0274,0.75135
0.2085,0.00445,0.0263,0.75185
0.2078,0.00485,0.02695,0.75205
0.20775,0.0046,0.02615,0.75255
0.2082,0.0044,0.02735,0.75155
0.20915,0.004,0.02845,0.7503
0.20905,0.0041,0.0289,0.7501
0.2093,0.0049,0.02865,0.7496
0.20865,0.00475,0.0287,0.74985
0.20935,0.0045,0.02915,0.74885
0.2081,0.0054,0.029,0.7496
0.2081,0.00525,0.029,0.7493
0.2073,0.00495,0.0303,0.74895
0.20675,0.00585,0.03085,0.7482
0.20525,0.00595,0.03145,0.74855
0.20525,0.00475,0.03095,0.7496
0.2047,0.005,0.0313,0.7495
0.2031,0.0056,0.0324,0.7505
0.2038,0.00485,0.0336,0.75015
0.2026,0.0058,0.0322,0.75185
0.202,0.0059,0.0324,0.7514
0.2014,0.0046,0.03145,0.7529
0.2013,0.00505,0.0318,0.75255
0.20105,0.00505,0.032,0.7529
0.20225,0.00365,0.03245,0.75265
0.20175,0.0047,0.03185,0.7533
0.2021,0.00395,0.0311,0.7546
0.20245,0.0044,0.0308,0.7548
0.2021,0.00505,0.031,0.75455
0.2015,0.0048,0.03155,0.7552
0.2008,0.0052,0.0313,0.75565
0.20085,0.00495,0.0306,0.7561
0.2009,0.00445,0.03015,0.75635
0.20035,0.0051,0.0301,0.7562
0.1997,0.00535,0.0304,0.75585
0.19965,0.0043,0.0307,0.75635
0.19965,0.0044,0.0312,0.7559
0.19995,0.0042,0.03095,0.75625
0.20095,0.0046,0.0313,0.75525
0.2007,0.0051,0.03155,0.7551
0.19975,0.00545,0.0308,0.75625
0.20055,0.00485,0.03075,0.7558
0.2022,0.0042,0.0299,0.755
0.20245,0.00475,0.03095,0.75355
0.20165,0.00515,0.0312,0.7539
0.20255,0.00455,0.0306,0.7533
0.2033,0.00525,0.0302,0.7523
0.20215,0.0056,0.03065,0.75265
0.20175,0.00505,0.03125,0.75275
0.20235,0.0048,0.0315,0.75225
0.2002,0.00595,0.03235,0.75285
0.1996,0.0054,0.032,0.75375
0.1995,0.00575,0.03245,0.7532
0.19925,0.0055,0.03275,0.7526
0.19855,0.0052,0.0333,0.7535
0.19865,0.0056,0.0323,0.75355
0.1975,0.0054,0.0333,0.75395
0.19855,0.00425,0.03305,0.75395
0.198,0.00595,0.03235,0.7542
0.198,0.00465,0.03295,0.75485
0.1974,0.0057,0.0328,0.75485
0.19815,0.0041,0.03395,0.755
0.1991,0.004,0.0328,0.75545
0.19885,0.00465,0.0325,0.75605
0.1996,0.00455,0.03285,0.7553
0.1984,0.00535,0.0331,0.75595
0.1992,0.0049,0.03325,0.7552
0.1983,0.00545,0.03215,0.75615
0.19835,0.0052,0.03245,0.7555
0.19855,0.00435,0.03285,0.7557
0.19795,0.0054,0.03195,0.7565
0.199,0.00395,0.03245,0.75725
0.19855,0.00485,0.03045,0.75875
0.1987,0.00545,0.03015,0.75785
0.1993,0.0047,0.0296,0.75795
0.19935,0.005,0.0297,0.7577
0.1988,0.00545,0.02895,0.75805
0.19885,0.00465,0.03005,0.7572
0.19815,0.00545,0.0297,0.7576
0.19865,0.00465,0.0305,0.7575
0.19785,0.0049,0.03105,0.7582
0.19765,0.0048,0.031,0.75825
0.1978,0.00535,0.0318,0.7572
0.1972,0.0052,0.0319,0.75755
0.1973,0.00555,0.0324,0.75705
0.19785,0.00435,0.03235,0.75715
0.19725,0.0053,0.03195,0.75765
0.1981,0.00465,0.03215,0.75715
0.19775,0.00555,0.0318,0.75695
0.19885,0.0048,0.03095,0.7565
0.1992,0.0046,0.03145,0.75685
0.19995,0.0036,0.03105,0.7575
0.20045,0.0049,0.03075,0.7567
0.19945,0.0053,0.0308,0.75725
0.19925,0.00495,0.0305,0.75705
0.19955,0.005,0.0311,0.7562
0.19945,0.00445,0.0314,0.75675
0.2004,0.00475,0.0312,0.7555
0.20075,0.00435,0.0307,0.7554
0.2019,0.0045,0.0303,0.7553
0.2027,0.00455,0.02965,0.75435
0.2021,0.005,0.0296,0.75435
0.20275,0.004,0.02985,0.7545
0.2036,0.0045,0.02905,0.7543
0.2036,0.0047,0.02945,0.754
0.2043,0.0041,0.02855,0.7543
0.20455,0.0041,0.02895,0.75405
0.20585,0.00405,0.02805,0.7537
0.2065,0.00465,0.02845,0.75265
0.20695,0.0051,0.02825,0.75145
0.2086,0.0035,0.0286,0.75095
0.20915,0.00505,0.02795,0.75055
0.2104,0.00405,0.0281,0.74955
0.21025,0.0044,0.02725,0.7505
0.21,0.00525,0.0268,0.7498
0.2095,0.00555,0.0276,0.7493
0.21035,0.00395,0.02845,0.74835
0.2106,0.00515,0.02805,0.7474
0.21075,0.00485,0.0291,0.74705
0.2118,0.00465,0.03065,0.74525
0.2112,0.005,0.02955,0.7464
0.21035,0.00555,0.03005,0.74595
0.21025,0.005,0.02995,0.7466
0.20995,0.0053,0.0298,0.74635
0.209,0.0052,0.02995,0.74695
0.2089,0.005,0.0306,0.74705
0.20945,0.0044,0.03045,0.74695
0.209,0.0056,0.03085,0.7461
0.20845,0.00565,0.03225,0.74555
0.2081,0.0046,0.03245,0.74685
0.2078,0.00575,0.03,0.7479
0.20765,0.005,0.0312,0.7473
0.2084,0.0044,0.0302,0.74775
0.2085,0.0048,0.0305,0.74745
0.2079,0.0053,0.03025,0.74815
0.20775,0.00535,0.0305,0.74785
0.2075,0.0048,0.0303,0.7487
0.2082,0.00465,0.0312,0.7477
0.20745,0.005,0.03135,0.7487
0.20735,0.0051,0.03165,0.74825
0.2086,0.00435,0.0309,0.74795
0.20885,0.0049,0.03005,0.7476
0.20825,0.0051,0.0301,0.74805
0.20865,0.00505,0.0301,0.74735
0.2089,0.0053,0.0311,0.74625
0.2078,0.00585,0.0314,0.74625
0.2082,0.00465,0.032,0.74565
0.2073,0.00535,0.0326,0.74595
0.2074,0.0053,0.03185,0.74625
0.2069,0.0059,0.0323,0.74625
0.20655,0.00495,0.0324,0.7468
0.20695,0.00525,0.03255,0.7465
0.2065,0.00485,0.0322,0.74795
0.20515,0.0063,0.0327,0.74785
0.2048,0.0053,0.0334,0.74835
0.20465,0.0054,0.0328,0.74865
0.2046,0.0044,0.03225,0.75005
0.2038,0.00525,0.0314,0.7514
0.20375,0.005,0.03215,0.7512
0.2038,0.00485,0.03165,0.7513
0.20355,0.00445,0.03215,0.75215
0.2016,0.0063,0.03045,0.75345
0.20145,0.0042,0.031,0.7544
0.20225,0.00435,0.0302,0.75465
0.20195,0.00475,0.0312,0.75425
0.2007,0.00575,0.0308,0.75505
0.20045,0.0049,0.03105,0.75515
0.20095,0.00495,0.03205,0.7538
0.20105,0.00485,0.03145,0.75425
0.20225,0.0049,0.03075,0.75375
0.20245,0.00485,0.0314,0.753
0.20225,0.00465,0.03095,0.75305
0.20275,0.00435,0.03055,0.75325
0.2026,0.0047,0.03105,0.7534
0.2026,0.0048,0.0302,0.75395
0.20205,0.00485,0.03055,0.75415
0.20225,0.00515,0.0303,0.7539
0.2029,0.00495,0.03085,0.75265
0.2018,0.00505,0.03095,0.7537
0.2011,0.0047,0.0314,0.754
0.2014,0.00465,0.03175,0.75365
0.20145,0.00505,0.0303,0.754
0.20195,0.00425,0.0308,0.7539
0.20235,0.00475,0.02965,0.7542
0.20325,0.00435,0.0305,0.75365
0.203,0.0045,0.02985,0.7549
0.2017,0.00555,0.0288,0.7552
0.20195,0.0049,0.0297,0.755
0.20015,0.00535,0.0299,0.756
0.19945,0.00515,0.0301,0.75635
0.1997,0.00475,0.03085,0.7557
0.19955,0.00485,0.0305,0.75615
0.1983,0.0056,0.03145,0.7563
0.1984,0.0047,0.03155,0.75705
0.19875,0.00505,0.03175,0.7563
0.19885,0.00485,0.03175,0.7564
0.1982,0.0057,0.0324,0.75645
0.19885,0.00465,0.0326,0.7558
0.199,0.00515,0.0319,0.7562
0.19805,0.005,0.0313,0.75755
0.19765,0.00475,0.03175,0.75765
0.19705,0.00455,0.03205,0.7585
