moyS, moyE, moyI, moyR
0.999,0.0,0.001,0.0
0.9986,4.0E-4,9.0E-4,1.0E-4
0.998,6.0E-4,9.0E-4,3.0E-4
0.99695,0.00105,0.0011,4.0E-4
0.99545,0.0015,0.00155,6.0E-4
0.99365,0.0018,0.0024,8.5E-4
0.9907,0.00295,0.00315,0.0013
0.9871,0.0036,0.00475,0.00205
0.98175,0.00535,0.0063,0.00305
0.9753,0.00645,0.00945,0.00415
0.9647,0.0106,0.01225,0.006
0.9508,0.0139,0.01685,0.00825
0.9323,0.0186,0.02375,0.0113
0.90825,0.02405,0.03225,0.01575
0.8761,0.0323,0.0437,0.021
0.83505,0.04105,0.06135,0.02755
0.7844,0.05065,0.0806,0.0377
0.71945,0.0651,0.10555,0.05095
0.6493,0.07025,0.132,0.0705
0.5718,0.07765,0.1641,0.0939
0.4904,0.08155,0.19765,0.12355
0.40655,0.0842,0.2356,0.1543
0.3287,0.0785,0.27085,0.19465
0.259,0.07015,0.30115,0.23715
0.20065,0.0589,0.32475,0.2859
0.1561,0.0456,0.33825,0.338
0.11745,0.03985,0.3424,0.3893
0.0915,0.0273,0.33995,0.4417
0.07095,0.022,0.3286,0.4926
0.0564,0.0162,0.31735,0.5372
0.0457,0.0128,0.29805,0.58305
0.0392,0.00885,0.27595,0.6266
0.03385,0.00795,0.2559,0.66425
0.0295,0.0067,0.23685,0.69665
0.02665,0.00515,0.2173,0.7268
0.02505,0.00395,0.19525,0.7563
0.0242,0.00385,0.17655,0.77915
0.02395,0.0028,0.15995,0.80085
0.02535,0.0023,0.14125,0.82045
0.0259,0.00295,0.1262,0.83665
0.0274,0.0021,0.11295,0.8501
0.0286,0.00235,0.1008,0.86225
0.03085,0.0017,0.0893,0.87325
0.03205,0.002,0.0794,0.8821
0.033,0.00195,0.07105,0.89015
0.035,0.0019,0.06295,0.89615
0.0371,0.0013,0.0562,0.9019
0.0383,0.0017,0.0501,0.90655
0.04135,0.0011,0.0444,0.9102
0.0429,0.0013,0.0386,0.91425
0.04535,9.5E-4,0.03455,0.91665
0.0474,8.5E-4,0.0298,0.9194
0.0499,0.0011,0.02735,0.91975
0.05235,0.00145,0.0249,0.9195
0.0546,0.0013,0.0217,0.92045
0.0566,0.0013,0.02025,0.92005
0.05895,9.0E-4,0.0182,0.9202
0.06105,0.0011,0.01645,0.91975
0.06355,7.0E-4,0.0155,0.9188
0.06625,5.5E-4,0.0138,0.91805
0.06835,7.0E-4,0.0127,0.91745
0.07095,8.0E-4,0.01125,0.91605
0.0735,6.5E-4,0.01055,0.91415
0.0757,9.0E-4,0.00935,0.91285
0.07905,7.0E-4,0.00855,0.9103
0.08165,7.0E-4,0.00835,0.90805
0.0847,5.0E-4,0.00725,0.9063
0.08765,5.5E-4,0.0074,0.9035
0.0903,6.0E-4,0.0068,0.90155
0.09305,4.0E-4,0.0055,0.90005
0.0961,3.0E-4,0.0051,0.89765
0.0985,4.0E-4,0.00505,0.89535
0.10105,4.0E-4,0.0048,0.8932
0.1038,3.5E-4,0.00455,0.89065
0.1063,2.0E-4,0.00405,0.88875
0.1087,4.5E-4,0.0037,0.88655
0.11155,3.5E-4,0.00335,0.8841
0.11385,1.5E-4,0.00295,0.88255
0.1165,2.5E-4,0.0027,0.8801
0.11885,3.5E-4,0.00275,0.87765
0.12165,2.5E-4,0.00235,0.8752
0.1243,2.5E-4,0.00195,0.87295
0.12735,4.0E-4,0.00205,0.86975
0.1299,2.5E-4,0.002,0.8674
0.13275,2.0E-4,0.0019,0.86475
0.13495,3.0E-4,0.0017,0.86255
0.13775,1.0E-4,0.0018,0.8598
0.1406,2.5E-4,0.0018,0.857
0.1427,2.0E-4,0.00175,0.85495
0.14445,3.5E-4,0.0017,0.85305
0.1477,1.5E-4,0.0016,0.85
0.1501,1.0E-4,0.0013,0.84785
0.1523,2.5E-4,0.00135,0.8456
0.15455,2.5E-4,0.0015,0.8432
0.1572,2.0E-4,0.00155,0.84045
0.1595,1.5E-4,0.0013,0.83845
0.1618,4.0E-4,0.0013,0.83595
0.1637,2.5E-4,0.0014,0.8341
0.1661,2.0E-4,0.0015,0.8318
0.16825,4.0E-4,0.0016,0.8294
0.1705,3.0E-4,0.00185,0.82705
0.1721,4.5E-4,0.002,0.82515
0.1743,5.0E-5,0.0019,0.82335
0.17755,1.0E-4,0.0016,0.82035
0.1795,4.5E-4,0.00165,0.8182
0.1815,2.5E-4,0.00165,0.8161
0.1841,1.5E-4,0.0013,0.8139
0.18635,3.5E-4,0.0013,0.81135
0.18845,3.5E-4,0.0014,0.80905
0.19095,3.0E-4,0.00175,0.80635
0.19395,3.0E-4,0.0017,0.80345
0.19675,3.0E-4,0.0019,0.80075
0.1982,3.5E-4,0.0017,0.79935
0.1997,4.0E-4,0.0018,0.79765
0.20145,3.5E-4,0.00185,0.7958
0.20375,2.5E-4,0.00185,0.79355
0.2057,1.5E-4,0.002,0.79165
0.20775,4.0E-4,0.002,0.7895
0.2096,4.0E-4,0.0021,0.7875
0.2113,4.5E-4,0.00215,0.7856
0.2132,2.5E-4,0.0021,0.78395
0.21495,3.0E-4,0.0019,0.78235
0.21655,4.5E-4,0.00185,0.7807
0.21825,2.5E-4,0.00185,0.77905
0.21975,4.0E-4,0.0018,0.77735
0.22215,1.5E-4,0.00195,0.77505
0.22425,1.5E-4,0.00185,0.7732
0.2264,2.0E-4,0.0018,0.7712
0.2286,2.5E-4,0.00175,0.76915
0.23095,3.5E-4,0.0016,0.7668
0.2331,2.5E-4,0.0014,0.7648
0.2351,3.5E-4,0.0015,0.7626
0.23695,4.0E-4,0.0017,0.76055
0.23895,3.5E-4,0.0019,0.7583
0.2403,6.5E-4,0.0019,0.75655
0.2424,3.5E-4,0.0019,0.7546
0.2439,3.0E-4,0.0017,0.75335
0.2463,2.5E-4,0.0016,0.7511
0.24895,2.0E-4,0.00175,0.74845
0.2507,4.5E-4,0.00175,0.74645
0.25265,2.0E-4,0.002,0.74445
0.2546,4.0E-4,0.0019,0.74235
0.2566,2.5E-4,0.0023,0.74035
0.2584,2.0E-4,0.0023,0.7387
0.26,3.0E-4,0.00225,0.73705
0.2617,4.5E-4,0.0023,0.7352
0.2641,5.5E-4,0.00235,0.7326
0.2658,4.0E-4,0.0026,0.73075
0.2676,4.5E-4,0.0027,0.7289
0.26965,4.0E-4,0.0024,0.72695
0.2713,6.0E-4,0.00255,0.7249
0.27165,0.00115,0.00265,0.7238
0.2735,7.0E-4,0.003,0.7217
0.2751,4.5E-4,0.0033,0.72005
0.277,7.0E-4,0.0032,0.718
0.2783,5.5E-4,0.0029,0.7169
0.28,8.0E-4,0.0032,0.715
0.28165,5.5E-4,0.00305,0.7135
0.2832,0.001,0.00345,0.71135
0.28445,6.5E-4,0.00345,0.7101
0.28595,6.5E-4,0.00375,0.70845
0.2876,7.0E-4,0.0038,0.7069
0.2884,0.0011,0.00395,0.70565
0.2892,9.0E-4,0.00395,0.70475
0.2916,5.5E-4,0.0038,0.7027
0.2931,6.5E-4,0.00385,0.7014
0.29475,0.0012,0.0038,0.6991
0.29605,7.5E-4,0.004,0.6976
0.2973,8.5E-4,0.0044,0.6959
0.29845,7.5E-4,0.00425,0.6951
0.2995,8.5E-4,0.00425,0.694
0.30055,0.001,0.0045,0.69255
0.30135,9.5E-4,0.00475,0.6915
0.3021,0.0011,0.0047,0.69055
0.3024,0.00145,0.0053,0.68955
0.30325,0.00135,0.00515,0.6885
0.3044,0.00135,0.0053,0.687
0.30445,0.00165,0.006,0.68575
0.3053,0.0013,0.0065,0.68425
0.3055,0.00135,0.0069,0.68365
0.30605,0.00185,0.0077,0.6821
0.3064,0.00195,0.0081,0.6809
0.3059,0.0026,0.0086,0.6802
0.30505,0.00245,0.00945,0.68005
0.30485,0.0024,0.0098,0.67925
0.3046,0.0024,0.01005,0.6788
0.30435,0.00235,0.01085,0.6783
0.30455,0.0026,0.0122,0.67685
0.304,0.00265,0.01325,0.67595
0.30285,0.00325,0.0132,0.67635
0.30195,0.00315,0.01395,0.67605
0.3004,0.00355,0.01495,0.67585
0.29785,0.00445,0.0152,0.6769
0.29585,0.00425,0.0168,0.67715
0.2941,0.00435,0.0175,0.67775
0.29235,0.004,0.01825,0.67845
0.29015,0.0043,0.0188,0.67935
0.2869,0.005,0.0192,0.68145
0.28515,0.00405,0.0211,0.68205
0.2829,0.0046,0.02175,0.6832
0.28025,0.0053,0.0226,0.6839
0.27805,0.0045,0.0243,0.6851
0.27555,0.00505,0.0256,0.686
0.27145,0.0059,0.02595,0.68835
0.26725,0.00645,0.0269,0.69005
0.26475,0.00525,0.02895,0.69125
0.2613,0.00615,0.0297,0.6933
0.2573,0.0065,0.03105,0.69485
0.2543,0.00615,0.0327,0.69625
0.2498,0.0071,0.0334,0.6991
0.2451,0.00665,0.03525,0.70145
0.24115,0.0069,0.03585,0.7041
0.23545,0.008,0.0366,0.7071
0.2314,0.0072,0.0393,0.7094
0.22665,0.00745,0.04035,0.71325
0.22165,0.00725,0.04145,0.71745
0.21745,0.007,0.04175,0.7216
0.21255,0.00815,0.04105,0.7261
0.20905,0.0064,0.043,0.7291
0.206,0.00665,0.0431,0.73255
0.2018,0.00715,0.042,0.7374
0.19835,0.00615,0.04085,0.7425
0.19435,0.0067,0.0408,0.7466
0.1904,0.00675,0.0411,0.7502
0.18655,0.0069,0.0423,0.75285
0.18415,0.00575,0.04235,0.7563
0.1818,0.0058,0.0426,0.7591
0.1793,0.0063,0.04255,0.76185
0.17765,0.00575,0.04215,0.7642
0.17465,0.00665,0.04145,0.76695
0.17235,0.00575,0.04225,0.76935
0.16975,0.0061,0.04225,0.77165
0.16655,0.0065,0.04235,0.775
0.164,0.00535,0.04175,0.77905
0.1618,0.00615,0.0412,0.7811
0.16065,0.00465,0.04005,0.78395
0.15915,0.00485,0.03935,0.7867
0.15825,0.0046,0.03855,0.78895
0.1573,0.0048,0.0382,0.79065
0.1569,0.0049,0.0376,0.79225
0.1565,0.00485,0.036,0.79395
0.15575,0.0041,0.0351,0.7967
0.1566,0.0033,0.0329,0.7981
0.15695,0.0039,0.0334,0.7983
0.15735,0.0044,0.03255,0.7988
0.15725,0.0041,0.03165,0.8003
0.15805,0.00335,0.02995,0.8021
0.1593,0.0034,0.02895,0.8019
0.15975,0.00335,0.0277,0.80245
0.16055,0.00325,0.02665,0.80315
0.16115,0.0042,0.0263,0.80265
0.1628,0.00275,0.0259,0.80225
0.1639,0.00325,0.02525,0.80165
0.16545,0.0029,0.02535,0.80075
0.1665,0.0031,0.0245,0.8004
0.16705,0.0035,0.0239,0.80015
0.1691,0.0028,0.0235,0.799
0.1698,0.00305,0.02285,0.79875
0.1722,0.0027,0.0231,0.7969
0.17345,0.00305,0.0224,0.79625
0.1743,0.00365,0.0218,0.79515
0.1753,0.0029,0.0211,0.795
0.17685,0.00305,0.02115,0.79335
0.1781,0.00365,0.0209,0.792
0.17925,0.00275,0.021,0.79145
0.1797,0.0031,0.02025,0.7918
0.1813,0.0022,0.02035,0.791
0.1831,0.00235,0.02015,0.7899
0.1837,0.0032,0.01955,0.78885
0.1846,0.00285,0.0189,0.78885
0.1847,0.003,0.01875,0.78865
0.1865,0.0027,0.01895,0.78725
0.18775,0.0027,0.01885,0.78635
0.18885,0.0031,0.01735,0.786
0.1899,0.00335,0.0184,0.78395
0.19015,0.00275,0.0187,0.7837
0.19145,0.0027,0.0188,0.7822
0.1941,0.0021,0.01875,0.7805
0.19525,0.0025,0.0184,0.78
0.1957,0.00335,0.01765,0.7794
0.1977,0.0028,0.018,0.77725
0.19955,0.0026,0.0179,0.7753
0.20135,0.0026,0.01775,0.77345
0.20135,0.00365,0.018,0.7721
0.20285,0.00265,0.0191,0.77035
0.20465,0.003,0.01885,0.7684
0.20605,0.00305,0.01985,0.7666
0.20765,0.00265,0.01915,0.7659
0.2086,0.0033,0.01855,0.7646
0.2103,0.00265,0.0193,0.76335
0.21175,0.0028,0.0186,0.7621
0.213,0.00295,0.0181,0.76105
0.2137,0.0037,0.0187,0.7593
0.2138,0.00385,0.01995,0.75795
0.2138,0.0038,0.01975,0.7571
0.21505,0.00325,0.02035,0.75515
0.2163,0.00345,0.02,0.75435
0.218,0.0032,0.0199,0.7529
0.2185,0.0034,0.0198,0.7521
0.219,0.0036,0.0198,0.75155
0.21895,0.0037,0.0204,0.75115
0.22025,0.0033,0.02045,0.7499
0.22155,0.0034,0.02035,0.7487
0.2225,0.00285,0.02055,0.74795
0.2235,0.00325,0.0205,0.74715
0.2233,0.0043,0.02,0.74675
0.2234,0.0039,0.02085,0.74605
0.2242,0.00345,0.02015,0.7457
0.22405,0.00335,0.02085,0.7452
0.2246,0.00335,0.0205,0.74495
0.2239,0.00465,0.02095,0.74415
0.22425,0.0037,0.02155,0.74345
0.2253,0.00365,0.02265,0.7419
0.22575,0.00415,0.0229,0.74075
0.2252,0.00455,0.0233,0.74035
0.22645,0.0037,0.02405,0.73875
0.2265,0.0043,0.0239,0.73825
0.22515,0.0051,0.02465,0.7377
0.22525,0.0045,0.02625,0.73685
0.2248,0.00395,0.0255,0.73775
0.22535,0.0041,0.0261,0.73665
0.2247,0.0049,0.0267,0.73625
0.22275,0.0061,0.0274,0.7361
0.2214,0.0052,0.02755,0.73695
0.2216,0.00445,0.02845,0.7374
0.21865,0.00645,0.0291,0.73805
0.21745,0.0057,0.02985,0.7382
0.21645,0.00575,0.03125,0.7373
0.2174,0.00485,0.03235,0.73615
0.21675,0.00505,0.0325,0.737
0.21505,0.0057,0.033,0.73765
0.2149,0.00455,0.03365,0.7386
0.2143,0.0055,0.0338,0.7389
0.21355,0.00525,0.0341,0.73885
0.21175,0.00575,0.03295,0.7406
0.21125,0.0048,0.03295,0.74205
0.21,0.0053,0.0322,0.7435
0.21,0.00535,0.03275,0.74325
0.2092,0.00525,0.03255,0.74435
0.2089,0.0054,0.03215,0.74465
0.20785,0.0051,0.0325,0.74595
0.2077,0.00515,0.0334,0.7453
0.20595,0.00585,0.03255,0.74625
0.20465,0.0054,0.03215,0.74775
0.2047,0.0057,0.03265,0.74705
0.20335,0.0057,0.0333,0.7475
0.2018,0.00615,0.0342,0.7484
0.20225,0.00435,0.0332,0.74975
0.2023,0.00565,0.03375,0.7488
0.2012,0.0056,0.0332,0.75
0.20035,0.0056,0.03385,0.75025
0.19885,0.0058,0.0349,0.75115
0.1979,0.0056,0.0352,0.7518
0.19555,0.00645,0.03525,0.753
0.1948,0.00555,0.0356,0.75335
0.195,0.00485,0.03485,0.75475
0.1949,0.00465,0.03395,0.7554
0.1944,0.0055,0.0343,0.756
0.19355,0.0051,0.03495,0.75675
0.1927,0.00485,0.03375,0.7586
0.1929,0.0045,0.03255,0.7597
0.1927,0.0049,0.0324,0.7605
0.1934,0.0044,0.0321,0.76055
0.19295,0.00555,0.03255,0.75995
0.19295,0.0053,0.03215,0.7604
0.19265,0.0045,0.0316,0.76155
0.1934,0.00495,0.0309,0.76155
0.19285,0.0055,0.03115,0.76155
0.19235,0.0054,0.0321,0.7612
0.19205,0.0054,0.03195,0.76135
0.19115,0.00535,0.03265,0.7617
0.1915,0.00435,0.03345,0.76225
0.1905,0.0057,0.0326,0.7631
0.1904,0.00455,0.0329,0.76345
0.19015,0.00485,0.03165,0.76415
0.19,0.0051,0.03265,0.76335
0.18895,0.00555,0.0329,0.76375
0.1881,0.00555,0.0333,0.76415
0.18815,0.00465,0.03275,0.76515
0.18855,0.0047,0.0325,0.76505
0.189,0.005,0.0338,0.76435
0.18805,0.0051,0.03205,0.7659
0.1878,0.00455,0.0332,0.76575
0.1886,0.0049,0.03295,0.76505
0.1889,0.0047,0.03345,0.76465
0.19005,0.0041,0.03305,0.76455
0.19045,0.005,0.032,0.7647
0.1907,0.0046,0.03195,0.7644
0.191,0.00425,0.0316,0.7648
0.19055,0.005,0.0318,0.76515
0.1912,0.00425,0.0323,0.7653
0.19195,0.00485,0.03085,0.7651
0.19255,0.0053,0.03135,0.7639
0.1934,0.00525,0.03265,0.7615
0.19325,0.0056,0.0324,0.7618
0.1927,0.00515,0.03235,0.76225
0.1927,0.0052,0.0333,0.76135
0.1934,0.0048,0.0337,0.76085
0.1933,0.00455,0.03245,0.76175
0.1927,0.0052,0.03205,0.76225
0.1922,0.0052,0.03255,0.76185
0.19315,0.0048,0.03215,0.7612
0.19215,0.0056,0.032,0.7616
0.19185,0.00485,0.0313,0.76275
0.19305,0.00475,0.0319,0.7617
0.1931,0.00465,0.0319,0.76155
0.19345,0.0044,0.03185,0.7616
0.19405,0.0049,0.0318,0.7607
0.19395,0.00515,0.0326,0.7598
0.1946,0.00525,0.03245,0.7591
0.1938,0.0055,0.03195,0.7602
0.1943,0.00455,0.03205,0.76
0.19545,0.00455,0.03285,0.75895
0.19605,0.00495,0.0322,0.7589
0.1948,0.0048,0.032,0.7606
0.19695,0.00435,0.03095,0.7599
0.1968,0.00405,0.03035,0.7617
0.1973,0.0039,0.02985,0.7621
0.199,0.00355,0.02855,0.7614
0.1999,0.0042,0.02865,0.7608
0.19935,0.00505,0.0284,0.76015
0.20005,0.00475,0.0285,0.75955
0.2,0.00505,0.028,0.75985
0.2015,0.0043,0.0288,0.7582
0.2017,0.0043,0.0271,0.7591
0.20205,0.00425,0.02655,0.7594
0.2029,0.004,0.02685,0.75895
0.20305,0.00475,0.02605,0.75885
0.2034,0.00465,0.0271,0.7577
0.20255,0.0048,0.02685,0.7581
0.20305,0.00395,0.0266,0.7584
0.2031,0.00475,0.02565,0.75815
0.20365,0.0039,0.0262,0.75835
0.2049,0.0035,0.0265,0.758
0.20605,0.00415,0.02605,0.75665
0.20805,0.00335,0.026,0.7557
0.2081,0.0043,0.02645,0.75495
0.20785,0.00375,0.02535,0.75605
0.20715,0.00435,0.0254,0.7558
0.20635,0.00525,0.02665,0.75465
0.2071,0.004,0.02695,0.75405
0.20755,0.0047,0.0273,0.753
0.2074,0.00515,0.02745,0.7521
0.2069,0.0041,0.02785,0.75325
0.2074,0.00495,0.02665,0.75255
0.2068,0.0054,0.0275,0.7519
0.20665,0.005,0.0276,0.7516
0.2067,0.00545,0.0286,0.75055
0.20565,0.0044,0.02885,0.75215
0.20595,0.0047,0.0291,0.7521
0.2046,0.00615,0.02935,0.75175
0.20285,0.006,0.03075,0.7521
0.20185,0.00575,0.03075,0.7525
0.20175,0.0053,0.03205,0.7517
0.2008,0.0053,0.03285,0.7526
0.19865,0.00555,0.0332,0.75425
0.198,0.00515,0.0324,0.7555
0.1977,0.00495,0.03365,0.756
0.19695,0.00485,0.03265,0.7575
0.19775,0.0042,0.0318,0.758
0.1974,0.0053,0.03115,0.75785
0.19715,0.0045,0.0314,0.7587
0.19755,0.00435,0.03205,0.758
0.19715,0.00455,0.0322,0.7586
0.19705,0.0049,0.03255,0.75785
0.19765,0.0049,0.0322,0.7575
0.19865,0.00395,0.0309,0.75825
0.1982,0.00495,0.03115,0.75785
0.1977,0.00475,0.0309,0.7586
0.19685,0.00505,0.03115,0.7588
0.19645,0.00515,0.0311,0.7586
0.19685,0.00445,0.03145,0.7584
0.19655,0.0051,0.03165,0.75845
0.1963,0.0046,0.0326,0.7587
0.1973,0.0045,0.0319,0.758
0.19695,0.0047,0.0316,0.75875
0.19645,0.00465,0.03035,0.7596
0.19685,0.00365,0.0296,0.7604
0.1976,0.0041,0.02975,0.75955
0.19785,0.00445,0.02975,0.75965
0.19745,0.005,0.03025,0.75945
0.1959,0.00575,0.03075,0.7598
0.19495,0.0059,0.0318,0.75905
0.1945,0.00515,0.03145,0.7597
0.1937,0.00475,0.03055,0.76125
0.19365,0.006,0.0318,0.7601
0.19295,0.00475,0.0323,0.7611
0.1928,0.00445,0.0326,0.76185
0.19225,0.0045,0.03265,0.7627
0.19165,0.0052,0.0319,0.76355
0.19085,0.00555,0.0313,0.7642
0.19165,0.00425,0.0316,0.7643
0.19125,0.00525,0.0311,0.76415
0.1902,0.0053,0.0321,0.7644
0.19075,0.00465,0.03135,0.76485
0.191,0.0044,0.0319,0.76465
0.1917,0.00465,0.0306,0.7653
0.1918,0.0047,0.03005,0.7657
0.19295,0.004,0.0292,0.7649
0.1933,0.00455,0.03015,0.764
0.1942,0.0039,0.0307,0.76355
0.19585,0.00375,0.02925,0.7632
0.19545,0.00485,0.0288,0.76335
0.1954,0.0053,0.0286,0.763
0.19495,0.00485,0.0285,0.76365
0.19625,0.0043,0.0292,0.7618
0.19745,0.0037,0.0294,0.76125
0.1976,0.0044,0.0286,0.7617
0.1966,0.00505,0.028,0.7626
0.1977,0.0035,0.02855,0.76205
0.19745,0.00525,0.02845,0.7616
0.19675,0.005,0.02855,0.76185
0.19605,0.00465,0.02895,0.7626
0.19745,0.0032,0.02845,0.7633
0.1982,0.0043,0.0272,0.763
0.1975,0.00505,0.02715,0.76275
0.1992,0.0038,0.0263,0.7618
0.1998,0.0045,0.02725,0.76025
0.1986,0.0051,0.0282,0.7603
0.19845,0.0049,0.0282,0.76015
0.1995,0.00465,0.02825,0.7592
0.19825,0.0049,0.0296,0.7599
0.1988,0.00455,0.03015,0.75945
0.1993,0.0041,0.0292,0.76025
0.1998,0.00445,0.0289,0.75965
0.20015,0.00425,0.0285,0.75945
0.1995,0.0047,0.0285,0.7598
0.20015,0.004,0.0286,0.75965
0.2004,0.00485,0.0281,0.759
0.20085,0.0047,0.02775,0.75895
0.2008,0.00445,0.02735,0.75945
0.2001,0.0047,0.02675,0.76015
0.1994,0.005,0.0275,0.75955
0.2002,0.0045,0.0286,0.758
0.20055,0.00505,0.02935,0.75705
0.2019,0.00435,0.02975,0.7558
0.2009,0.00505,0.03005,0.75645
0.2009,0.00435,0.0302,0.7568
0.201,0.0049,0.0301,0.75645
0.20145,0.00445,0.03095,0.75575
0.19925,0.0059,0.03055,0.75695
0.19805,0.00485,0.03025,0.7587
0.19745,0.0049,0.0302,0.7594
0.19795,0.00465,0.03085,0.7586
0.1986,0.00435,0.03075,0.75795
0.1986,0.0048,0.031,0.7576
0.19785,0.00545,0.03155,0.75725
0.19895,0.00445,0.0322,0.7562
0.1987,0.0049,0.032,0.756
0.19745,0.0053,0.03245,0.7568
0.19785,0.005,0.0326,0.75655
0.1971,0.00545,0.0326,0.756
0.19815,0.0041,0.0329,0.7555
0.1979,0.00495,0.03265,0.7562
0.1966,0.0056,0.0331,0.75655
0.1957,0.00535,0.03415,0.75625
0.19495,0.00565,0.03345,0.7571
0.19435,0.00505,0.03295,0.75845
0.1942,0.0054,0.03335,0.75815
0.1926,0.00625,0.0341,0.75845
0.19205,0.00465,0.0348,0.75915
0.19305,0.0045,0.03315,0.76
0.19355,0.0056,0.03425,0.75815
0.19345,0.0053,0.03335,0.75895
0.19435,0.00435,0.0329,0.7598
0.1941,0.00525,0.03275,0.7596
0.1944,0.00415,0.0322,0.76095
0.1936,0.0052,0.0324,0.7612
0.19325,0.00465,0.0322,0.76215
0.19325,0.00445,0.03035,0.7635
0.19275,0.00475,0.03,0.76395
0.1924,0.00515,0.0306,0.76375
0.1934,0.0052,0.0312,0.7616
0.1938,0.005,0.0322,0.76055
0.19405,0.00485,0.0318,0.7606
0.1932,0.00595,0.0327,0.7601
0.19225,0.0058,0.03465,0.75935
0.19125,0.00525,0.0335,0.7607
0.1915,0.00445,0.0337,0.76165
0.19135,0.00505,0.03335,0.7618
0.19125,0.00545,0.0322,0.7619
0.19035,0.00575,0.0326,0.76145
0.1911,0.00425,0.0321,0.76225
0.1912,0.0053,0.0323,0.76195
0.1911,0.005,0.03295,0.76195
0.19045,0.00525,0.03345,0.7618
0.1905,0.00485,0.03465,0.7617
0.19055,0.0046,0.034,0.76295
0.1907,0.00465,0.0324,0.76355
0.18965,0.006,0.03265,0.7633
0.1891,0.0052,0.03395,0.7628
0.18885,0.0049,0.0348,0.76295
0.18715,0.00585,0.0347,0.76425
0.1883,0.0046,0.03385,0.7646
0.1878,0.0054,0.0333,0.76515
0.1881,0.00535,0.03245,0.76495
0.18855,0.0046,0.03245,0.765
0.1885,0.0045,0.03215,0.7659
0.18955,0.0046,0.032,0.76505
0.19005,0.0045,0.0311,0.76525
0.19105,0.0047,0.0307,0.76435
0.1927,0.0037,0.0309,0.76375
0.19285,0.0041,0.0305,0.76445
0.19175,0.0051,0.0313,0.76535
0.1931,0.00425,0.03105,0.7642
0.19395,0.00485,0.0302,0.7634
0.19495,0.004,0.0297,0.76365
0.19435,0.0049,0.03055,0.76345
0.19385,0.0051,0.0305,0.76335
0.1947,0.00455,0.0307,0.7621
0.19525,0.00455,0.0303,0.76205
0.19585,0.00485,0.03065,0.76085
0.19655,0.00425,0.0311,0.7604
0.19705,0.0048,0.031,0.75965
0.1977,0.00475,0.03195,0.75845
0.1974,0.0054,0.0318,0.7583
0.19865,0.00465,0.03135,0.75755
0.1996,0.00455,0.0307,0.757
0.20035,0.00405,0.0299,0.75705
0.19995,0.00505,0.03035,0.75665
0.1998,0.00515,0.03105,0.7555
0.2009,0.0043,0.03075,0.7551
0.2013,0.00415,0.03035,0.75565
0.2014,0.0052,0.03025,0.75475
0.20175,0.00505,0.0306,0.75435
0.2027,0.0051,0.0301,0.7529
0.20225,0.0052,0.02995,0.75275
0.2028,0.0052,0.03105,0.7516
0.20315,0.0045,0.03155,0.75175
0.2025,0.006,0.0312,0.7518
0.20255,0.0054,0.03065,0.75175
0.2024,0.00545,0.0314,0.7512
0.20135,0.0055,0.0316,0.75215
0.2007,0.00575,0.0318,0.7524
0.20025,0.0058,0.03275,0.75225
0.1992,0.00555,0.0338,0.75285
0.1995,0.00505,0.0321,0.75445
0.1995,0.00535,0.0314,0.75475
0.20015,0.0038,0.0313,0.75505
0.20055,0.005,0.0302,0.7552
0.1998,0.0049,0.02965,0.7562
0.2005,0.0044,0.02965,0.7567
0.20115,0.00505,0.0296,0.7557
0.2011,0.00425,0.0295,0.75645
0.20115,0.0053,0.0293,0.75595
0.20145,0.00475,0.0299,0.7556
0.20315,0.00405,0.03015,0.7541
0.2031,0.0043,0.0301,0.75465
0.20385,0.00455,0.0302,0.7535
0.20415,0.00465,0.02935,0.75375
0.20455,0.00495,0.0303,0.75245
0.20375,0.0047,0.0294,0.75365
0.20395,0.00475,0.02905,0.754
0.20325,0.005,0.03005,0.7539
0.2038,0.00435,0.0302,0.7535
0.2041,0.00465,0.03005,0.75365
0.20355,0.00525,0.0296,0.754
0.20335,0.00525,0.029,0.7541
0.2032,0.00575,0.0303,0.7517
0.20215,0.00575,0.0317,0.7513
0.2026,0.00475,0.0317,0.75115
0.2009,0.00595,0.03205,0.7521
0.20015,0.0053,0.03175,0.753
0.1992,0.00525,0.0321,0.7537
0.19935,0.0051,0.0332,0.7532
0.19905,0.0055,0.0337,0.7534
0.19765,0.00555,0.0339,0.75465
0.19765,0.0052,0.03325,0.75515
0.19695,0.0053,0.0327,0.75635
0.19675,0.00525,0.0325,0.75615
0.197,0.00515,0.03245,0.7564
0.1981,0.0047,0.0322,0.75585
0.199,0.00415,0.0314,0.75615
0.19945,0.00495,0.03065,0.75555
0.19945,0.0045,0.0305,0.75615
0.1992,0.0052,0.0301,0.75625
0.19805,0.00615,0.0303,0.7558
0.19705,0.0062,0.03235,0.75505
0.19755,0.00505,0.03315,0.7541
0.1978,0.0049,0.03355,0.75335
0.1977,0.00475,0.03405,0.7533
0.1984,0.00505,0.03445,0.7527
0.19845,0.00455,0.0344,0.75375
0.1978,0.0052,0.0338,0.75465
0.19785,0.0054,0.03375,0.75475
0.1975,0.0052,0.03355,0.7556
0.1966,0.0047,0.0326,0.75765
0.1959,0.0057,0.0327,0.7574
0.196,0.0046,0.0339,0.75765
0.19475,0.0053,0.03455,0.7584
0.19355,0.00565,0.0357,0.7583
0.1921,0.0057,0.03535,0.7594
0.19155,0.00535,0.0355,0.75965
0.1898,0.0062,0.03505,0.7604
0.1885,0.00595,0.0351,0.7616
0.1872,0.0056,0.03555,0.762
0.1867,0.00495,0.03525,0.76335
0.18595,0.00515,0.03515,0.7646
0.186,0.0049,0.0348,0.7656
0.18645,0.0044,0.0339,0.76655
0.18655,0.00515,0.03325,0.7664
0.1872,0.00535,0.03405,0.7651
0.1878,0.0043,0.03325,0.7659
0.1882,0.00515,0.0324,0.7656
0.18875,0.00505,0.0314,0.7653
0.18865,0.0044,0.03135,0.7657
0.18895,0.00455,0.031,0.766
0.1893,0.00515,0.03155,0.76505
0.1896,0.0049,0.0307,0.7657
0.18905,0.00545,0.0316,0.76535
0.1884,0.005,0.03325,0.7646
0.1884,0.0049,0.0319,0.76525
0.18795,0.00515,0.0328,0.765
0.1887,0.00355,0.0331,0.76515
0.18925,0.00515,0.0329,0.76455
0.18865,0.005,0.03225,0.76575
0.18815,0.00565,0.03205,0.76625
0.1881,0.0049,0.03195,0.76665
0.18915,0.0048,0.03135,0.76635
0.18945,0.00455,0.0311,0.76635
0.19075,0.00375,0.0308,0.76635
0.18985,0.00505,0.03095,0.76615
0.19055,0.0045,0.0311,0.7654
0.18965,0.0045,0.03125,0.76715
0.19085,0.00465,0.0301,0.76655
0.1921,0.00425,0.03095,0.76535
0.19345,0.00385,0.03,0.76525
0.1951,0.0042,0.02965,0.764
0.19515,0.0046,0.02895,0.76355
0.19405,0.0055,0.02975,0.7636
0.1942,0.00465,0.0305,0.76365
