moyS, moyE, moyI, moyR
0.999,0.0,0.001,0.0
0.9986,4.0E-4,8.5E-4,1.5E-4
0.99775,8.5E-4,8.0E-4,3.0E-4
0.9969,8.5E-4,0.00115,4.0E-4
0.99585,0.00105,0.0014,7.5E-4
0.9944,0.00145,0.00205,0.0011
0.99295,0.00145,0.0024,0.0018
0.9908,0.00215,0.00305,0.0021
0.98735,0.00345,0.0044,0.00245
0.9825,0.0049,0.0061,0.00315
0.976,0.0065,0.0084,0.0044
0.9667,0.0093,0.01215,0.0055
0.95385,0.01285,0.01595,0.0079
0.93745,0.0164,0.0233,0.01035
0.91625,0.0212,0.0308,0.0144
0.8879,0.02845,0.04185,0.01935
0.85265,0.0353,0.05355,0.02735
0.80595,0.04675,0.0696,0.03705
0.74915,0.05695,0.0935,0.0485
0.68105,0.0684,0.11785,0.0647
0.60705,0.0743,0.15135,0.08285
0.5248,0.0826,0.1864,0.1086
0.4418,0.08345,0.2233,0.13965
0.36075,0.08175,0.2589,0.1775
0.2888,0.0725,0.2906,0.21895
0.22575,0.0634,0.313,0.2667
0.17405,0.05275,0.33075,0.31645
0.1348,0.04075,0.34085,0.3674
0.1013,0.03485,0.3404,0.41905
0.0806,0.02225,0.339,0.4666
0.06425,0.0184,0.321,0.51695
0.0514,0.01485,0.3087,0.56035
0.0416,0.0122,0.2892,0.60375
0.03575,0.0085,0.2688,0.64375
0.03195,0.0066,0.2487,0.67855
0.0293,0.0051,0.22655,0.7103
0.0267,0.0052,0.20565,0.73945
0.0249,0.0048,0.1862,0.7652
0.0249,0.003,0.1701,0.78695
0.0243,0.0035,0.1511,0.80865
0.02465,0.0026,0.13485,0.82735
0.02585,0.0021,0.11985,0.84385
0.0262,0.0024,0.1069,0.8582
0.02795,0.00225,0.0926,0.87105
0.0298,0.0023,0.0824,0.87995
0.0316,0.0019,0.0728,0.8884
0.03365,0.00165,0.065,0.89515
0.03555,0.00165,0.05855,0.90005
0.0386,0.00115,0.05155,0.90495
0.03985,0.0019,0.0447,0.91015
0.0421,0.0012,0.03855,0.91505
0.04315,0.0018,0.03385,0.9183
0.04525,0.00145,0.03085,0.9196
0.04735,0.0011,0.02805,0.92065
0.04975,9.5E-4,0.0248,0.9221
0.0525,5.0E-4,0.0214,0.92335
0.05515,9.0E-4,0.01895,0.9232
0.05775,0.0011,0.01615,0.92305
0.06055,5.5E-4,0.01465,0.9223
0.064,5.5E-4,0.014,0.9202
0.06715,6.5E-4,0.0124,0.9187
0.07095,4.0E-4,0.0111,0.91625
0.07325,6.5E-4,0.01035,0.91495
0.076,4.0E-4,0.00895,0.9138
0.0791,4.5E-4,0.00815,0.91145
0.0817,4.0E-4,0.00705,0.91015
0.08455,3.5E-4,0.00635,0.908
0.08725,5.0E-4,0.00615,0.9056
0.08995,3.0E-4,0.0058,0.90325
0.09355,2.5E-4,0.0052,0.90015
0.0959,4.0E-4,0.0051,0.89815
0.0985,2.5E-4,0.00475,0.896
0.10145,3.0E-4,0.00425,0.8936
0.10425,3.5E-4,0.00385,0.891
0.1069,3.0E-4,0.00355,0.88875
0.10865,1.0E-4,0.0034,0.88745
0.11115,5.0E-5,0.00325,0.88535
0.1145,2.0E-4,0.00275,0.8823
0.11635,3.0E-4,0.00235,0.8806
0.11835,2.5E-4,0.0022,0.87875
0.1212,2.5E-4,0.00225,0.8759
0.1237,1.0E-4,0.0023,0.8736
0.12625,3.5E-4,0.00205,0.871
0.12875,3.0E-4,0.0022,0.8685
0.1316,3.5E-4,0.002,0.86575
0.13455,5.0E-5,0.00185,0.86325
0.13755,1.0E-4,0.00175,0.8604
0.13965,2.0E-4,0.00165,0.85825
0.1418,1.0E-4,0.00125,0.85655
0.1447,2.0E-4,0.00115,0.8537
0.1475,1.5E-4,0.0012,0.85095
0.1506,1.0E-4,0.0012,0.8478
0.15335,1.0E-4,0.00115,0.845
0.1549,3.0E-4,9.5E-4,0.8434
0.1578,5.0E-5,8.0E-4,0.84075
0.16,1.0E-4,8.5E-4,0.8387
0.1628,1.0E-4,8.0E-4,0.836
0.16545,5.0E-5,8.0E-4,0.83345
0.16755,1.5E-4,7.0E-4,0.83135
0.16975,1.5E-4,6.5E-4,0.8292
0.1719,1.0E-4,6.0E-4,0.8271
0.174,2.0E-4,7.5E-4,0.8248
0.1762,1.5E-4,7.0E-4,0.8226
0.17895,5.0E-5,8.5E-4,0.81985
0.18115,5.0E-5,8.0E-4,0.8178
0.1832,0.0,8.0E-4,0.8158
0.18525,0.0,5.0E-4,0.81405
0.18795,5.0E-5,5.0E-4,0.8114
0.19095,5.0E-5,4.0E-4,0.8085
0.19295,0.0,4.5E-4,0.80655
0.1956,1.0E-4,4.0E-4,0.8039
0.19785,5.0E-5,3.5E-4,0.80175
0.2003,0.0,3.0E-4,0.79935
0.2019,5.0E-5,3.0E-4,0.79775
0.20395,0.0,3.0E-4,0.7957
0.20645,5.0E-5,3.0E-4,0.79315
0.20885,1.0E-4,3.5E-4,0.79065
0.21115,5.0E-5,3.5E-4,0.78835
0.21335,5.0E-5,4.5E-4,0.7861
0.21575,1.0E-4,4.0E-4,0.7837
0.21835,0.0,4.0E-4,0.78115
0.22095,5.0E-5,4.5E-4,0.7785
0.22315,1.5E-4,3.5E-4,0.77625
0.22555,5.0E-5,5.0E-4,0.7738
0.22725,0.0,3.5E-4,0.77225
0.2299,0.0,2.5E-4,0.7697
0.2324,0.0,2.0E-4,0.76725
0.23465,0.0,2.0E-4,0.765
0.23655,1.0E-4,2.5E-4,0.763
0.2386,5.0E-5,2.0E-4,0.76095
0.2407,0.0,2.5E-4,0.75885
0.2429,5.0E-5,2.5E-4,0.75665
0.24445,5.0E-5,2.5E-4,0.75515
0.2471,0.0,2.5E-4,0.75255
0.2495,5.0E-5,3.0E-4,0.75015
0.252,0.0,3.0E-4,0.7477
0.25365,1.0E-4,2.0E-4,0.74605
0.2561,0.0,1.5E-4,0.74365
0.25825,1.0E-4,1.5E-4,0.7414
0.2599,1.0E-4,2.0E-4,0.73965
0.26185,0.0,2.5E-4,0.73775
0.2637,0.0,2.5E-4,0.7359
0.2663,5.0E-5,2.5E-4,0.73335
0.26905,5.0E-5,3.5E-4,0.73055
0.2704,2.0E-4,3.5E-4,0.72905
0.2722,1.5E-4,4.0E-4,0.72715
0.27455,1.0E-4,5.5E-4,0.7247
0.27635,1.5E-4,6.0E-4,0.7228
0.2786,1.0E-4,7.0E-4,0.7205
0.28045,1.5E-4,7.5E-4,0.71855
0.2827,1.5E-4,8.0E-4,0.71625
0.2842,2.0E-4,7.0E-4,0.7148
0.28575,1.5E-4,9.0E-4,0.7131
0.2872,1.0E-4,9.0E-4,0.71165
0.2894,2.0E-4,8.0E-4,0.7094
0.2918,5.0E-5,7.0E-4,0.70725
0.29385,1.0E-4,6.5E-4,0.7053
0.2956,5.0E-5,6.0E-4,0.70365
0.2974,1.0E-4,5.0E-4,0.70185
0.29905,5.0E-5,4.5E-4,0.7003
0.3016,5.0E-5,3.5E-4,0.6978
0.30315,2.0E-4,3.5E-4,0.69615
0.305,1.5E-4,6.0E-4,0.69415
0.30695,2.0E-4,5.5E-4,0.69215
0.30915,5.0E-5,5.5E-4,0.69
0.311,2.0E-4,5.5E-4,0.68805
0.31335,0.0,5.5E-4,0.68575
0.3152,1.0E-4,4.5E-4,0.68395
0.31755,1.5E-4,5.5E-4,0.6815
0.3192,3.0E-4,7.0E-4,0.6796
0.3205,2.5E-4,8.5E-4,0.6781
0.32245,1.5E-4,7.5E-4,0.6762
0.32435,1.0E-4,6.5E-4,0.67455
0.32585,2.0E-4,6.5E-4,0.67295
0.3279,5.0E-5,7.0E-4,0.67095
0.3293,1.5E-4,7.0E-4,0.66955
0.3309,3.5E-4,8.0E-4,0.66765
0.33265,1.5E-4,0.00125,0.6658
0.3339,3.0E-4,0.0011,0.66455
0.3354,1.5E-4,0.00115,0.6629
0.33675,3.5E-4,0.0013,0.66125
0.3377,6.5E-4,0.00155,0.6597
0.3397,5.5E-4,0.0019,0.65725
0.3409,6.0E-4,0.0021,0.6558
0.342,8.0E-4,0.0024,0.65425
0.3429,7.5E-4,0.00255,0.65305
0.344,7.5E-4,0.00265,0.65155
0.34545,8.0E-4,0.0027,0.6498
0.347,6.0E-4,0.003,0.6481
0.34835,8.5E-4,0.0033,0.6463
0.34955,9.0E-4,0.00385,0.6446
0.35045,0.0011,0.00405,0.6433
0.35045,0.0011,0.00435,0.6429
0.351,0.0012,0.00475,0.6416
0.35255,0.0011,0.005,0.6397
0.35245,0.00135,0.00525,0.6393
0.35245,0.0016,0.00535,0.63875
0.3518,0.00195,0.00635,0.6383
0.3521,0.0019,0.0066,0.63745
0.3523,0.00225,0.0069,0.63605
0.35165,0.00255,0.0079,0.6349
0.3507,0.0027,0.0093,0.63435
0.3497,0.0026,0.01085,0.6341
0.34855,0.00295,0.0112,0.6344
0.3471,0.00335,0.01165,0.6343
0.34625,0.0031,0.0124,0.6337
0.3449,0.0034,0.01365,0.6335
0.3435,0.0037,0.014,0.63365
0.34135,0.00425,0.0154,0.63365
0.3388,0.00445,0.0167,0.63395
0.33765,0.00325,0.0177,0.63475
0.3347,0.00485,0.0181,0.63575
0.33125,0.005,0.01915,0.6371
0.32835,0.00455,0.01995,0.63865
0.324,0.00625,0.0215,0.64
0.32045,0.0052,0.0223,0.64215
0.3167,0.00615,0.0235,0.6433
0.31145,0.0071,0.02605,0.645
0.30655,0.00655,0.02835,0.6473
0.30085,0.00735,0.0306,0.6505
0.2955,0.00745,0.032,0.6539
0.29055,0.00745,0.0329,0.657
0.28505,0.00755,0.0353,0.65985
0.2798,0.0077,0.03625,0.66345
0.27435,0.00735,0.03715,0.6679
0.26865,0.008,0.038,0.6721
0.2613,0.00965,0.04165,0.67465
0.2525,0.0106,0.04355,0.6791
0.24565,0.0093,0.04615,0.6831
0.2406,0.0082,0.04755,0.6877
0.2337,0.009,0.04775,0.6938
0.2274,0.0089,0.04975,0.69875
0.22145,0.0086,0.0499,0.7046
0.21565,0.00885,0.05065,0.70985
0.21055,0.0087,0.0518,0.71385
0.20465,0.0091,0.0522,0.71875
0.198,0.0095,0.0535,0.7243
0.19235,0.0091,0.05435,0.72965
0.186,0.00915,0.05445,0.7347
0.1811,0.0083,0.0542,0.74065
0.1775,0.0067,0.05345,0.74565
0.17295,0.00745,0.0528,0.75135
0.16975,0.00635,0.0513,0.75675
0.1671,0.00615,0.0491,0.7621
0.1642,0.0059,0.04885,0.7668
0.16175,0.0059,0.0491,0.77055
0.1584,0.0068,0.0474,0.77535
0.15595,0.00585,0.04855,0.77735
0.15375,0.0056,0.0468,0.782
0.15185,0.005,0.0452,0.7864
0.1513,0.0051,0.04415,0.78875
0.1494,0.00645,0.0433,0.79035
0.1489,0.0041,0.0432,0.79295
0.1474,0.00515,0.0417,0.7962
0.146,0.0052,0.04065,0.79895
0.14635,0.0041,0.0401,0.80075
0.14575,0.0046,0.03865,0.8032
0.145,0.0048,0.0369,0.80555
0.1442,0.0042,0.03605,0.8079
0.14295,0.00485,0.03505,0.81005
0.14275,0.0038,0.03355,0.81245
0.14235,0.00395,0.0332,0.814
0.14255,0.0038,0.0316,0.81535
0.14265,0.0042,0.03095,0.8159
0.1429,0.00355,0.03005,0.81705
0.1443,0.003,0.02815,0.8178
0.14565,0.00265,0.02725,0.81805
0.14675,0.00345,0.0255,0.8183
0.14775,0.00295,0.02505,0.81765
0.14855,0.00305,0.0242,0.81795
0.1503,0.0024,0.02335,0.81815
0.15175,0.00245,0.02245,0.81775
0.15365,0.0024,0.0216,0.81685
0.15485,0.0027,0.021,0.81685
0.15675,0.00225,0.02005,0.81635
0.1581,0.00265,0.0194,0.81575
0.16005,0.00195,0.01895,0.81495
0.16175,0.0026,0.0178,0.8135
0.164,0.0026,0.0168,0.8118
0.1657,0.0022,0.0179,0.8097
0.16825,0.00245,0.0172,0.8078
0.1699,0.0023,0.01685,0.8067
0.17215,0.00195,0.01695,0.8048
0.17325,0.0027,0.0165,0.80355
0.1751,0.00255,0.0168,0.80135
0.17695,0.00215,0.01685,0.7999
0.1787,0.00235,0.01675,0.7987
0.181,0.00225,0.0163,0.79685
0.18165,0.00255,0.016,0.79635
0.18395,0.0025,0.0162,0.794
0.18585,0.00265,0.0164,0.7919
0.1868,0.003,0.0154,0.79095
0.189,0.0026,0.0162,0.7882
0.19005,0.0024,0.01625,0.78695
0.1918,0.00285,0.0162,0.7851
0.19375,0.0023,0.016,0.78335
0.19505,0.00275,0.0158,0.78175
0.19775,0.00205,0.016,0.7793
0.1998,0.00195,0.01595,0.7778
0.20135,0.00255,0.01585,0.77625
0.20285,0.0032,0.01535,0.77465
0.20405,0.0029,0.0155,0.77275
0.20455,0.0033,0.01625,0.7712
0.2052,0.00315,0.01625,0.7704
0.2061,0.00305,0.0165,0.769
0.2082,0.00225,0.01625,0.76785
0.2089,0.0034,0.01645,0.76655
0.21085,0.0031,0.0167,0.76395
0.2122,0.0024,0.01665,0.76305
0.213,0.0031,0.01685,0.7618
0.2145,0.00305,0.01715,0.7597
0.2166,0.00235,0.0174,0.75765
0.2177,0.003,0.01785,0.7563
0.2179,0.00355,0.0187,0.7551
0.2197,0.00315,0.01915,0.75315
0.21995,0.00395,0.01825,0.75245
0.21995,0.0038,0.0191,0.75165
0.2201,0.0037,0.0193,0.75095
0.2199,0.00385,0.02035,0.7498
0.2206,0.00345,0.0201,0.7489
0.22135,0.00375,0.0211,0.74735
0.22125,0.0048,0.02195,0.7458
0.2203,0.0044,0.02215,0.7463
0.22055,0.00415,0.02285,0.7456
0.22205,0.0035,0.02295,0.74475
0.223,0.0038,0.02295,0.7438
0.22335,0.00425,0.02225,0.74285
0.2237,0.00365,0.02315,0.7419
0.2238,0.00465,0.0242,0.7403
0.2243,0.0035,0.02425,0.74
0.22415,0.00395,0.0245,0.7396
0.22395,0.00395,0.02415,0.74
0.2243,0.00395,0.0243,0.7402
0.22515,0.0039,0.0245,0.7396
0.2248,0.00425,0.0245,0.7396
0.22485,0.00405,0.0232,0.73995
0.22465,0.0047,0.02345,0.7395
0.22475,0.00345,0.02395,0.7399
0.22375,0.0052,0.02465,0.73915
0.2234,0.0047,0.0255,0.73845
0.2231,0.0046,0.02615,0.73835
0.2222,0.005,0.02755,0.73715
0.2214,0.00475,0.0273,0.73815
0.2211,0.00425,0.02695,0.7387
0.2218,0.00445,0.0279,0.738
0.222,0.00505,0.02725,0.73745
0.2216,0.0052,0.02705,0.7376
0.22115,0.0055,0.02735,0.7365
0.2204,0.00495,0.02845,0.7366
0.2211,0.0045,0.02945,0.736
0.21985,0.00595,0.03015,0.7355
0.2181,0.00605,0.0301,0.73575
0.2184,0.00485,0.03065,0.7359
0.21675,0.006,0.03215,0.7363
0.21605,0.0056,0.03385,0.73575
0.21685,0.00445,0.03295,0.73625
0.21645,0.00555,0.03265,0.73625
0.215,0.0058,0.0323,0.73685
0.21325,0.0061,0.0327,0.7374
0.2127,0.00455,0.03335,0.73885
0.21165,0.0053,0.0336,0.7392
0.2117,0.00545,0.03325,0.73965
0.2105,0.0059,0.03425,0.73965
0.20845,0.00635,0.03525,0.74015
0.20825,0.0057,0.03605,0.7403
0.20675,0.006,0.03395,0.74245
0.20655,0.0056,0.03435,0.7423
0.2052,0.00595,0.03645,0.74235
0.20275,0.0067,0.03665,0.74335
0.20275,0.0059,0.03705,0.74355
0.2026,0.0054,0.0376,0.744
0.2011,0.00605,0.038,0.7446
0.20045,0.00525,0.03905,0.7452
0.1996,0.0054,0.0377,0.74765
0.19795,0.0071,0.03695,0.74865
0.197,0.0057,0.0371,0.74985
0.1965,0.00515,0.0365,0.7513
0.1955,0.00625,0.03625,0.7518
0.19545,0.00625,0.0359,0.7516
0.1949,0.00595,0.03735,0.75185
0.19425,0.0064,0.0373,0.7515
0.1934,0.0064,0.0377,0.7513
0.19225,0.00565,0.03845,0.75235
0.18995,0.007,0.03905,0.75375
0.18885,0.0058,0.0399,0.75465
0.18835,0.0055,0.0406,0.7554
0.1873,0.00635,0.03995,0.75605
0.18835,0.0042,0.03955,0.7575
0.18875,0.00545,0.03875,0.75775
0.1886,0.00575,0.0388,0.7583
0.1866,0.00705,0.0393,0.7582
0.1868,0.00515,0.03895,0.75915
0.1862,0.00615,0.03695,0.76
0.18645,0.0052,0.0369,0.7602
0.18725,0.00505,0.03635,0.7609
0.18645,0.0062,0.0361,0.7618
0.1869,0.00505,0.0361,0.76185
0.1865,0.0056,0.03555,0.7624
0.1868,0.00535,0.03515,0.76205
0.1878,0.00465,0.0357,0.7614
0.1863,0.00635,0.0344,0.7632
0.1858,0.0049,0.0353,0.76385
0.18625,0.0055,0.03525,0.76395
0.1853,0.0051,0.0342,0.7659
0.18555,0.00565,0.0351,0.7647
0.185,0.00605,0.0352,0.76465
0.1852,0.00545,0.035,0.76495
0.18595,0.00475,0.03475,0.7655
0.1843,0.00515,0.03335,0.76805
0.1847,0.0041,0.0323,0.76925
0.1845,0.0055,0.0323,0.76835
0.18405,0.0051,0.03245,0.76855
0.18445,0.0052,0.0339,0.7675
0.184,0.0053,0.0325,0.76935
0.18385,0.00455,0.0321,0.77
0.18515,0.00465,0.0321,0.7687
0.18525,0.0047,0.0318,0.7695
0.18605,0.0041,0.03145,0.76965
0.1878,0.0043,0.0301,0.76875
0.18825,0.00485,0.03055,0.7681
0.1889,0.0048,0.0304,0.76725
0.19005,0.0039,0.0305,0.7669
0.191,0.00425,0.0299,0.7672
0.1914,0.00435,0.0295,0.7673
0.19205,0.0044,0.02875,0.7677
0.19285,0.00465,0.0282,0.7668
0.1942,0.00435,0.02945,0.76495
0.19495,0.00505,0.028,0.7644
0.19515,0.0047,0.02785,0.76375
0.1953,0.00475,0.02785,0.7636
0.19615,0.0039,0.02855,0.7636
0.1971,0.00445,0.0276,0.7635
0.19725,0.00445,0.02645,0.76415
0.1968,0.0044,0.0264,0.7648
0.19705,0.00445,0.0275,0.7642
0.1973,0.00475,0.02765,0.7635
0.1981,0.004,0.027,0.7635
0.1985,0.00445,0.0258,0.76375
0.19925,0.00335,0.02645,0.76325
0.20045,0.00365,0.02635,0.76245
0.20005,0.00545,0.0261,0.76175
0.1993,0.00415,0.02725,0.76195
0.19955,0.00465,0.02785,0.7605
0.19975,0.005,0.02935,0.75885
0.20035,0.00445,0.0296,0.75835
0.20115,0.00445,0.028,0.75835
0.2016,0.0043,0.02845,0.75745
0.20185,0.0047,0.02765,0.75785
0.202,0.0041,0.02775,0.7581
0.2016,0.00485,0.02805,0.75805
0.20255,0.0045,0.0279,0.75745
0.20275,0.0041,0.02735,0.7575
0.20355,0.00405,0.02685,0.7573
0.20335,0.00485,0.0267,0.7572
0.2034,0.00405,0.02715,0.75775
0.2032,0.00435,0.02675,0.7582
0.2041,0.004,0.0274,0.7571
0.20385,0.00415,0.02725,0.7575
0.20405,0.0044,0.02645,0.7577
0.20355,0.00505,0.0265,0.7569
0.20315,0.0047,0.0269,0.7562
0.20355,0.00455,0.0278,0.75495
0.2034,0.00415,0.0278,0.75535
0.2046,0.00485,0.02775,0.7538
0.20525,0.00445,0.0282,0.7533
0.20505,0.00465,0.0284,0.7531
0.20485,0.0042,0.02835,0.7538
0.2048,0.00495,0.0284,0.75345
0.2056,0.0047,0.02825,0.75305
0.2063,0.005,0.0277,0.7525
0.2059,0.00425,0.0275,0.75315
0.207,0.00455,0.0272,0.7523
0.2081,0.00475,0.0278,0.7504
0.20915,0.0045,0.0288,0.7488
0.2089,0.00455,0.0282,0.7494
0.20895,0.0049,0.029,0.74915
0.20975,0.0044,0.0292,0.74815
0.20875,0.0057,0.0287,0.74835
0.2082,0.0061,0.0297,0.7469
0.2072,0.00565,0.0311,0.7469
0.2073,0.00565,0.03175,0.74575
0.20495,0.0066,0.0317,0.74665
0.20375,0.006,0.03355,0.74665
0.2031,0.0053,0.03415,0.74785
0.20305,0.00485,0.0345,0.74845
0.20285,0.00465,0.03375,0.7499
0.2019,0.00585,0.03275,0.7511
0.2005,0.0057,0.0323,0.75235
0.1997,0.00515,0.03335,0.75275
0.1981,0.00555,0.03225,0.7545
0.1984,0.0053,0.03265,0.75385
0.198,0.00485,0.03365,0.754
0.1979,0.0047,0.0344,0.7539
0.19655,0.006,0.03445,0.75485
0.19615,0.00515,0.0338,0.7566
0.1957,0.00465,0.0333,0.7578
0.19635,0.0046,0.03305,0.75755
0.1953,0.00575,0.0331,0.7575
0.1946,0.0053,0.0323,0.75865
0.1949,0.00465,0.0316,0.7592
0.19395,0.00535,0.03205,0.7594
0.19435,0.0039,0.0319,0.76055
0.19405,0.00505,0.03055,0.7615
0.19405,0.0051,0.03175,0.76015
0.19395,0.0046,0.0315,0.7609
0.19375,0.0046,0.0318,0.76105
0.1932,0.00535,0.0319,0.76075
0.1933,0.0047,0.03205,0.7612
0.19285,0.0045,0.03115,0.7622
0.19225,0.0051,0.03045,0.76275
0.19155,0.0047,0.03115,0.76365
0.1915,0.0047,0.03115,0.7638
0.1907,0.0053,0.0313,0.76455
0.19025,0.0045,0.0302,0.7661
0.18935,0.0046,0.03085,0.76675
0.19045,0.00375,0.03035,0.76675
0.1895,0.0055,0.03085,0.7666
0.18985,0.00455,0.0305,0.76675
0.19005,0.0039,0.02975,0.76755
0.1897,0.0046,0.0296,0.768
0.1909,0.00455,0.0301,0.7666
0.1909,0.00465,0.02905,0.76725
0.19235,0.00425,0.02895,0.767
0.1922,0.0051,0.0277,0.76705
0.1921,0.0047,0.028,0.76695
0.19135,0.0049,0.0286,0.76735
0.19155,0.00455,0.02915,0.76735
0.192,0.00465,0.0287,0.76725
0.1918,0.00435,0.0297,0.7671
0.19175,0.0047,0.0294,0.7669
0.19295,0.00375,0.02915,0.76685
0.19365,0.0039,0.02925,0.76605
0.1931,0.00535,0.02905,0.76565
0.1931,0.0042,0.0296,0.76555
0.1923,0.00505,0.02955,0.76615
0.1924,0.00415,0.02925,0.7663
0.1915,0.00525,0.0293,0.76605
0.19215,0.0041,0.0292,0.7664
0.19175,0.0045,0.0289,0.7676
0.19355,0.0038,0.02895,0.7668
0.194,0.00415,0.02935,0.76625
0.19495,0.0039,0.0288,0.7658
0.19395,0.0051,0.02815,0.7656
0.19485,0.0043,0.02825,0.76405
0.1943,0.00465,0.0285,0.76405
0.1957,0.00375,0.02905,0.76355
0.196,0.0042,0.02855,0.7638
0.197,0.0036,0.02835,0.76385
0.19795,0.00385,0.0277,0.7635
0.1985,0.00445,0.0273,0.763
0.19875,0.00425,0.02715,0.7629
0.19995,0.004,0.02715,0.76205
0.1996,0.00455,0.0252,0.7633
0.20085,0.00485,0.02565,0.7614
0.2017,0.00375,0.0267,0.76045
0.2013,0.00455,0.0263,0.76065
0.202,0.00425,0.02645,0.7606
0.2021,0.00475,0.02685,0.75975
0.20295,0.0037,0.027,0.75925
0.20335,0.0047,0.0267,0.75805
0.2041,0.00435,0.02735,0.75765
0.2051,0.00435,0.02705,0.7566
0.2054,0.00515,0.02705,0.75505
0.20605,0.00435,0.0265,0.75505
0.20665,0.0044,0.0269,0.75425
0.2069,0.0048,0.0268,0.7541
0.20715,0.00515,0.02615,0.75315
0.2083,0.004,0.0268,0.75185
0.20805,0.00535,0.02655,0.7512
0.20835,0.00465,0.02775,0.7496
0.20945,0.0041,0.02895,0.7488
0.20885,0.0052,0.02945,0.7478
0.2087,0.0042,0.03,0.7481
0.20995,0.00455,0.0297,0.7475
0.21085,0.00445,0.02995,0.74645
0.2107,0.00515,0.02955,0.7462
0.2103,0.0049,0.029,0.74715
0.20995,0.005,0.03025,0.74685
0.20875,0.0061,0.0313,0.7462
0.20865,0.0051,0.03185,0.7461
0.20875,0.00475,0.03105,0.74675
0.2074,0.00635,0.03215,0.74605
0.2072,0.00505,0.033,0.7458
0.20595,0.00575,0.03295,0.74595
0.20495,0.0053,0.03395,0.7464
0.20455,0.0058,0.03335,0.74615
0.20415,0.0049,0.03385,0.74665
0.2039,0.0048,0.03355,0.7476
0.20185,0.0063,0.0325,0.7494
0.20055,0.00575,0.0336,0.75015
0.1997,0.0054,0.0341,0.75115
0.19985,0.0054,0.0352,0.75045
0.1989,0.0056,0.0341,0.7522
0.1977,0.00535,0.03355,0.7543
0.19795,0.00535,0.033,0.75455
0.1988,0.0047,0.0331,0.7547
0.1986,0.00475,0.0326,0.75545
0.19815,0.00475,0.033,0.756
0.1987,0.00515,0.03245,0.75575
0.19895,0.005,0.03225,0.7552
0.19905,0.0051,0.032,0.75525
0.1992,0.0049,0.0323,0.7551
0.1993,0.00425,0.0322,0.7559
0.2004,0.00465,0.03175,0.7552
0.20035,0.00525,0.031,0.75545
0.2006,0.0049,0.03155,0.75465
0.2,0.0054,0.0305,0.75525
0.2,0.0049,0.03005,0.75605
0.20055,0.00495,0.0312,0.7548
0.2007,0.0047,0.03125,0.75495
0.20035,0.0057,0.0311,0.75475
0.201,0.0045,0.0318,0.75395
0.20085,0.0054,0.031,0.754
0.2009,0.0048,0.03175,0.75395
0.2011,0.0043,0.0319,0.7541
0.20065,0.0054,0.03195,0.75405
0.2007,0.0045,0.0311,0.75495
0.20035,0.00535,0.0314,0.75505
0.19985,0.0049,0.0319,0.7557
0.20055,0.00445,0.03105,0.7551
0.20085,0.0056,0.0307,0.7547
0.20115,0.0042,0.031,0.75495
0.2027,0.00465,0.0312,0.7528
0.2036,0.0043,0.0317,0.752
0.20415,0.0053,0.0307,0.75135
0.20455,0.00465,0.0312,0.75095
0.2048,0.00485,0.03025,0.75115
0.20455,0.0049,0.02915,0.7517
0.20565,0.00475,0.02965,0.75025
0.20515,0.00475,0.02995,0.75065
0.20515,0.00505,0.03125,0.75015
0.2062,0.00425,0.0311,0.74975
0.20675,0.00505,0.03145,0.7483
0.20655,0.0057,0.0322,0.7468
0.2076,0.0043,0.0313,0.74635
0.20805,0.0047,0.03105,0.74635
0.20695,0.00565,0.0314,0.7465
0.20785,0.0047,0.0315,0.74585
0.20675,0.00565,0.0311,0.7467
0.20745,0.0044,0.0317,0.74655
0.2075,0.0057,0.03085,0.7463
0.208,0.0048,0.0312,0.74615
0.20685,0.0062,0.03105,0.746
0.20665,0.00485,0.0322,0.74645
0.2056,0.0057,0.03175,0.7471
0.2052,0.00485,0.0317,0.7476
0.2057,0.00505,0.03355,0.74615
0.2049,0.0052,0.03305,0.74725
0.2045,0.00565,0.0317,0.74835
0.20455,0.00485,0.03265,0.7486
0.20425,0.00495,0.03235,0.7486
0.20475,0.0049,0.0317,0.7486
0.2047,0.005,0.03165,0.74895
0.20425,0.00575,0.0331,0.7479
0.2034,0.00495,0.03285,0.74935
0.2044,0.00425,0.032,0.74935
0.2036,0.00615,0.0329,0.74815
0.20315,0.0054,0.0334,0.74805
0.2036,0.0048,0.0332,0.74815
0.20415,0.0043,0.0331,0.7488
0.2053,0.0048,0.0322,0.7486
0.20385,0.006,0.0335,0.74855
0.2045,0.00445,0.0344,0.7486
0.20385,0.00535,0.03325,0.74895
0.2022,0.0061,0.03365,0.7496
0.2027,0.0054,0.034,0.74905
0.2021,0.0059,0.0348,0.74835
0.20185,0.0053,0.03475,0.7489
0.2015,0.00555,0.03445,0.7494
0.19995,0.0063,0.0354,0.7491
0.1988,0.00615,0.0353,0.7498
0.19765,0.00615,0.03575,0.75045
0.19655,0.0062,0.03605,0.75165
0.1963,0.0054,0.03635,0.75145
0.19465,0.00725,0.03685,0.75155
0.1945,0.00535,0.0369,0.7527
0.19415,0.00525,0.03675,0.7539
0.19455,0.005,0.03585,0.75485
0.1949,0.0047,0.0356,0.7555
0.1942,0.00535,0.0346,0.7571
0.19535,0.00445,0.0324,0.7582
0.1946,0.00585,0.0318,0.75835
0.1955,0.00455,0.03225,0.7578
0.1961,0.0051,0.033,0.7568
0.19565,0.00515,0.03215,0.7582
0.19655,0.0049,0.03305,0.75725
0.19585,0.0057,0.03305,0.7568
0.1956,0.0057,0.03365,0.75595
0.1959,0.005,0.0336,0.7555
0.19565,0.0054,0.0347,0.75475
0.19535,0.00555,0.0357,0.75475
0.1957,0.00525,0.03535,0.75475
0.1953,0.0052,0.0348,0.75535
0.1964,0.0051,0.03365,0.75515
0.19685,0.00475,0.0331,0.7552
0.19715,0.00495,0.03335,0.75535
0.19695,0.0056,0.03455,0.75415
0.19655,0.00555,0.0336,0.7548
0.19475,0.00595,0.0338,0.75525
0.19615,0.00425,0.0351,0.7545
0.19615,0.0054,0.03475,0.7549
0.1949,0.0055,0.034,0.75645
0.1948,0.0054,0.03595,0.75595
0.19505,0.00535,0.03515,0.75645
0.1954,0.00555,0.03465,0.7562
0.19545,0.00465,0.0354,0.7569
0.19535,0.0054,0.0348,0.75715
0.19535,0.00525,0.03365,0.7575
0.1963,0.00425,0.03325,0.75735
0.1955,0.00475,0.0337,0.75795
0.19545,0.0052,0.0329,0.7585
0.1946,0.00545,0.03185,0.75965
0.1951,0.00455,0.03225,0.7591
0.19605,0.004,0.03235,0.7585
0.19645,0.00485,0.0305,0.7595
0.1971,0.0051,0.0319,0.75795
0.1978,0.0049,0.0324,0.75695
0.1981,0.00485,0.03245,0.75655
0.19695,0.0058,0.03175,0.7568
0.1962,0.0061,0.0321,0.75695
0.1973,0.0042,0.03235,0.75685
0.19795,0.0047,0.0314,0.7574
0.19785,0.0052,0.03155,0.7568
0.19635,0.00535,0.0311,0.75805
0.19675,0.0056,0.0318,0.75675
0.19695,0.0044,0.03125,0.75775
0.1969,0.00565,0.03175,0.75685
0.1967,0.0056,0.0323,0.75625
0.1971,0.004,0.0323,0.75715
0.19725,0.00455,0.032,0.75745
0.1969,0.00435,0.0309,0.75925
